GLOBAL_SIZE_0;GLOBAL_SIZE_1;LOCAL_SIZE_0;LOCAL_SIZE_1;v_TP_100;v_TP_101;cost
2048;32;8;8;2;2;40661926
128;4;2;2;89;1;161048148
1;32;1;32;2047;2047;18446744073709551615
2048;512;1;8;4094;178;18446744073709551615
2048;64;8;4;2;2;33473037
2048;32;8;4;2;2;34476000
512;32;4;8;2;2;40841481
2048;256;8;1;46;2;63466815
2048;64;8;4;2;23;6669482
2048;32;4;8;2;2;34646667
2048;128;8;2;2;2;41637037
2048;32;8;4;2;1;66918518
2048;64;4;4;2;2;33095852
2048;64;8;4;2;46;6091259
2048;64;16;4;2;23;5941778
2048;128;16;2;1;23;11354667
1024;32;16;4;23;23;3208000
2048;16;8;16;2;23;13467555
2048;64;16;4;23;23;3143704
1;64;1;4;23;23;347362963
2048;64;4;4;23;23;5361629
2048;32;16;4;23;23;3476000
2048;16;32;8;2;23;9498371
2048;64;8;4;23;23;3394963
2048;64;16;2;2;23;6322815
4096;32;16;8;23;2;22382815
1024;64;16;4;23;23;3236000
2048;64;16;4;89;23;3802815
2048;64;16;4;2;46;3830963
1024;128;32;2;23;23;4023704
2048;32;16;8;23;2;22683407
2048;64;32;4;23;23;4687704
4096;64;32;4;23;23;4542666
2048;128;16;2;23;23;4990963
4096;64;16;4;23;2;18673926
2048;64;16;4;23;89;2701333
1;32;1;1;23;89;620919259
2048;64;4;32;178;89;18446744073709551615
32;1;32;1;2;23;2274269630
2048;64;16;32;2;89;18446744073709551615
8;2048;1;1;23;89;102288000
2048;64;16;4;4094;89;18446744073709551615
2048;64;4;4;23;89;8092297
2048;4;16;1;23;89;10984593
2048;4096;16;1;1;89;5921926
2048;2;16;2;23;1;146550666
2048;4096;16;1;23;89;9203703
2048;64;16;4;23;178;4638667
1024;64;16;4;23;89;2669037
1;64;1;1;2;89;332687259
2048;32;16;8;23;89;2424296
2048;32;8;4;23;89;4974370
2048;32;8;8;23;89;2748444
512;128;16;2;23;89;4696297
2048;16;16;16;2;89;19018222
256;16;16;16;23;89;9631852
1024;32;64;8;23;89;18446744073709551615
1024;8;4;2;23;89;17819852
2048;128;16;2;46;89;8892889
4096;32;16;8;23;89;2375260
2048;32;16;4;46;89;4657334
1;32;1;8;23;89;643780889
1024;32;16;4;23;89;2907111
4096;16;16;16;23;89;3908592
4096;64;16;4;23;89;2693926
4096;256;32;1;2;89;3450074
1;32;1;8;23;46;656188889
1;32;1;8;23;89;643498223
4096;32;32;8;2;89;6172296
4096;16;8;16;23;178;10176741
4096;32;8;4;23;46;3780592
2048;32;16;4;23;89;2896889
4096;32;8;8;46;89;4148740
4096;32;16;8;46;89;2906963
1;2;1;1;2;4094;18446744073709551615
32;1;1;1;1;2047;12740507111
4096;8;32;4;89;2047;18446744073709551615
128;512;128;1;2047;89;18446744073709551615
4096;32;16;4;2;89;7444296
1;8;1;2;23;178;2416595556
4096;32;32;8;23;2047;18446744073709551615
2048;32;16;8;23;178;2865185
4096;32;32;8;46;178;18446744073709551615
4096;8;4;1;23;89;32752297
8;4;1;2;46;23;627245334
512;128;4;1;4094;2;18446744073709551615
512;8;16;2;46;46;7725333
512;4;1;1;1;2047;3209096148
4096;32;16;4;23;178;4618815
1;32;1;8;46;89;616168445
4096;128;16;2;23;89;4552741
4096;32;16;8;23;89;2439111
4096;1024;16;1;23;89;8607407
4096;128;16;2;23;1;64117481
4096;64;16;1;23;89;8589630
4096;32;16;8;2;89;11845333
4096;32;16;8;23;178;2935259
4096;64;16;2;23;89;4726370
1;32;1;8;23;89;643784296
4096;32;8;8;23;46;2306519
4096;32;16;2;23;89;5120741
4096;128;8;2;23;23;6139852
4096;32;4;8;23;46;3935555
4096;64;8;4;23;46;3429926
4096;32;2;8;23;46;6989334
4096;32;4;4;89;46;14925925
4096;32;16;8;23;46;2331704
256;8;16;2;23;46;15985185
1;32;1;8;23;46;655736445
4096;32;16;4;2;46;5647259
2048;32;8;8;23;46;2309630
1024;32;8;8;23;23;2913185
4096;32;8;8;46;46;2690223
512;64;8;4;23;46;3988888
4096;32;8;8;23;23;2337333
4096;32;8;8;2;89;14680592
4096;32;32;8;23;46;2873482
1;32;1;4;2;46;1136994666
1;256;1;64;23;23;218949778
4096;128;8;2;2;46;5514519
4096;16;8;16;23;46;3460000
1024;256;256;16;46;89;18446744073709551615
512;256;2;16;1;89;51818074
2;8;1;1;1;4094;18446744073709551615
1;128;1;128;2;23;9427292889
4096;32;8;16;1;46;32319555
4096;4096;8;1;2;46;12052445
2048;32;32;8;23;46;2966667
8;32;4;8;23;2047;18446744073709551615
4096;8;8;2;2;23;11062370
1024;256;8;1;23;46;11357334
256;256;4;256;23;46;18446744073709551615
4096;128;8;2;23;46;6072297
1;32;1;8;1;23;4684682223
4096;128;8;2;23;89;7940889
4096;32;8;8;23;89;2741630
1;32;1;8;23;2;1062317334
4096;8;8;2;23;46;8607852
1;64;1;4;23;2;516565926
4096;8;8;2;23;23;8589037
512;256;256;64;23;46;18446744073709551615
1;32;1;8;2;46;2278043259
1;32;1;8;23;46;654679556
512;512;4;4;1;4094;18446744073709551615
4;64;4;2;89;2;436539259
2048;32;32;2;2;1;89584148
128;128;64;32;23;89;18446744073709551615
2048;32;8;8;23;1;20181778
4096;32;8;4;23;23;3563408
1;32;1;8;23;89;642352592
2;128;1;32;23;4094;18446744073709551615
4096;32;8;8;89;46;4521185
4096;4;8;2;23;46;13931259
1024;32;4;8;23;46;3936000
4096;32;8;8;23;2;10660889
8;128;4;32;23;2047;18446744073709551615
512;128;256;32;23;46;18446744073709551615
8;16;2;2;23;2;326620889
256;1;1;1;46;46;203134519
512;2048;2;8;89;178;18446744073709551615
4096;32;4;8;23;178;7729333
1024;32;8;8;23;46;2283556
4096;256;8;1;23;89;14767704
4096;32;8;8;46;178;18446744073709551615
1024;32;8;4;23;46;3841037
1024;32;8;8;46;46;2684000
1024;8;8;2;2;46;9580889
1024;16;8;16;2;46;17033630
128;32;8;8;23;46;7214963
1024;16;4;16;23;2;8788148
512;32;4;8;23;46;3907704
1024;32;16;8;23;46;2945629
512;32;8;8;2;46;13268296
1024;32;16;8;23;23;3446518
1024;32;4;8;23;23;3628593
256;16;8;16;23;46;8944000
512;32;8;8;23;89;2740444
256;32;8;4;23;46;5335260
1024;16;8;16;23;46;3460148
1024;32;32;8;23;46;3333630
1024;128;32;1;46;89;10415555
1024;32;8;8;23;1;22342666
1024;32;16;8;23;89;2322074
512;32;8;8;23;46;2969778
2048;32;8;8;2;46;8242667
1024;4;8;1;23;46;16344741
512;8;16;2;89;46;14763259
256;64;8;4;23;46;4831852
512;32;8;8;46;46;2723555
1024;16;8;16;23;23;4306815
1024;32;1;4;23;46;22527407
1024;16;8;8;23;46;3734667
1024;64;16;4;23;46;2415555
1024;32;8;8;2;89;14534074
2048;8;8;2;23;46;8608000
1024;32;8;8;2;178;29267259
1024;16;4;16;23;23;3743407
1024;32;8;8;89;46;4494666
1024;16;32;16;23;46;18446744073709551615
1024;32;4;8;46;46;4651259
128;8;8;2;46;46;25425482
512;32;16;8;23;46;3422519
1024;32;8;8;23;89;2759259
4096;8;8;2;23;89;10061926
512;32;8;8;23;2;18582370
1024;32;8;4;23;89;4965037
1024;64;8;4;2;23;7518666
2048;64;8;4;23;89;4599851
1024;8;16;2;23;46;8473778
1024;32;8;8;178;46;18446744073709551615
1024;4096;8;1;23;46;12061630
1024;32;128;8;4094;46;18446744073709551615
16;32;8;8;23;89;52575556
1024;64;4;4;23;46;5965037
1024;32;8;4;2;46;8186667
2048;8;8;4;2047;1;146309185
1;1;1;1;89;2;28420895852
8;256;2;256;46;1;18446744073709551615
16;8;1;4;4094;2047;18446744073709551615
2048;8;4;2;89;46;29213333
1024;64;8;4;23;46;3471555
1024;128;8;2;23;46;6113037
1024;32;8;8;2;46;8216741
1024;32;8;8;23;178;4191407
1024;32;2;8;23;46;6934815
1024;16;4;16;23;46;5140740
1024;32;8;4;46;46;4753482
64;32;8;8;23;1;164594963
1024;32;8;4;23;46;3796444
1024;32;8;16;1;46;20612889
1024;256;16;1;23;46;7077629
1024;8;8;2;23;46;8594519
64;512;32;8;89;23;6200889
16;256;1;1;46;23;77814963
2;1;2;1;46;2;18108731259
4;16;1;2;89;2;490145185
512;8;4;2;23;46;14871704
1024;64;8;4;46;46;4216741
512;32;8;8;2;89;9509333
1024;32;128;1;23;46;6888444
1024;512;8;1;23;46;11318815
1024;32;8;8;23;2047;18446744073709551615
1;128;1;64;1;23;9337916740
1024;512;32;1;1;2047;35464888
128;4096;1;2;2047;89;18446744073709551615
2048;128;128;1;2;2;132801481
1;32;1;8;46;46;622862370
1024;16;8;16;46;2;16939556
2048;32;16;8;23;46;2261630
256;32;16;8;46;46;4922667
2048;32;16;4;23;46;2381333
2048;32;16;4;89;46;5184000
2048;16;16;16;23;46;2768444
2048;32;16;8;23;23;3961925
1;16;1;16;23;46;1627637926
2048;32;8;8;23;23;2337630
2048;32;16;8;2;46;5216593
2048;32;4;8;23;2;10658370
2048;128;16;1;23;46;7012444
2048;32;64;8;23;23;18446744073709551615
1;64;1;4;23;46;336012741
2048;32;16;8;1;89;16256888
1;8;1;2;23;89;2437104592
2048;32;2;8;46;46;8474222
2048;32;8;8;46;46;2682518
2048;128;16;2;1;89;6002963
2048;256;16;1;1;46;7623556
1;16;1;16;2;46;9075174074
2048;8;16;2;23;46;5274371
2048;32;16;8;1;46;9805778
2048;32;16;4;2;46;4607556
512;128;16;2;23;46;3969481
256;32;16;2;46;46;7704444
512;32;16;8;46;23;4956740
2048;32;8;4;23;46;3790815
1024;64;16;2;23;46;4212889
2048;16;16;16;46;46;2223259
2048;16;16;16;46;89;2915703
2048;16;64;16;46;46;18446744073709551615
1;8;1;2;89;46;2404069037
2048;8;16;2;46;46;6064592
2048;64;16;4;46;46;2581037
2048;8;16;2;89;46;10077481
1024;32;16;8;46;89;2866962
1;2;1;2;46;46;9278953185
1024;16;16;16;46;46;2763704
512;16;16;16;46;46;4064889
2048;16;16;8;23;46;2825481
2048;16;32;16;23;46;18446744073709551615
2048;32;16;4;46;2;20459111
2048;16;16;16;46;2;21321630
2048;16;32;8;46;46;2996000
1024;32;16;2;46;46;5299852
2048;8;16;2;46;2;46923851
256;16;64;16;46;46;18446744073709551615
1024;16;8;4;46;46;5204889
2048;8;8;2;46;23;8618667
1;16;1;16;23;46;1627717778
4096;16;16;16;23;46;2975852
2048;32;16;8;46;46;2309334
1;16;1;16;89;2;2013978667
4096;16;64;16;46;178;18446744073709551615
2048;16;8;16;89;89;18446744073709551615
4096;16;16;16;46;23;3011555
2048;16;32;16;46;46;18446744073709551615
1;64;1;4;46;46;323727852
1;16;1;8;46;46;1216386815
2048;8;16;1;89;46;19819408
256;16;16;8;2;46;31825778
2048;16;16;16;89;46;2267111
2048;16;16;16;23;89;3845777
512;4;16;4;46;46;15804741
2048;16;16;16;178;46;18446744073709551615
2048;16;16;16;46;23;2927703
2048;16;8;16;46;46;2778666
2048;16;16;8;46;46;2633037
1024;16;16;16;46;23;3952741
2048;8;4;1;46;46;31246222
512;16;64;16;46;46;18446744073709551615
2048;16;32;4;46;23;5265926
512;64;16;2;46;46;4969629
2048;16;16;2;46;46;5488593
2048;512;16;1;46;2;64469926
2048;16;16;16;46;1;40856000
2048;16;16;1;46;1;125318370
1024;8;16;2;46;89;8983556
512;64;32;4;2;89;3489777
4096;16;16;16;46;46;2204296
4096;8;16;2;89;46;10080740
4096;16;64;16;89;46;18446744073709551615
1;16;1;16;46;46;1226077629
1024;16;16;8;46;46;3360296
4096;64;8;4;46;46;4221926
4096;16;64;8;46;89;18446744073709551615
2048;16;32;16;46;89;18446744073709551615
4096;16;4;16;46;178;18446744073709551615
1;16;1;16;46;46;1221625186
4096;16;32;16;46;46;18446744073709551615
1;16;1;16;46;23;1262484297
4096;16;16;8;46;46;2779852
4096;8;16;2;23;46;5316593
4096;2;16;2;46;46;9901334
4096;16;16;16;89;46;2265333
2048;16;32;16;89;46;18446744073709551615
1;32;1;2;46;46;625687555
4096;8;32;2;46;89;5271407
2048;4;8;1;46;46;19877185
4096;64;16;4;89;23;3657778
1;64;1;4;46;89;320840741
4096;4;16;1;46;46;12004444
4096;32;16;2;46;23;5517185
4096;8;16;2;46;23;6680445
4096;16;16;16;46;89;2917630
4096;8;16;2;46;46;6075259
1024;16;16;16;23;46;3684149
4096;16;8;16;178;46;18446744073709551615
4096;32;16;2;46;46;4863408
4096;16;16;16;46;2;19269333
1;32;1;8;46;46;625269037
1;4;1;4;46;46;4778210815
1024;8;16;2;46;46;6218370
1;32;1;8;46;23;642628000
4096;32;16;8;46;46;2338815
512;16;16;16;89;46;4168000
1024;16;8;16;46;23;3466667
4096;4;16;4;46;46;5301630
4096;16;32;16;46;89;18446744073709551615
4096;16;32;16;23;46;18446744073709551615
4096;32;16;8;89;46;3298814
4096;8;4;2;46;46;17557334
1024;32;16;8;46;23;3742222
4096;4;32;2;46;46;4817186
512;16;32;16;89;46;18446744073709551615
512;16;8;8;46;23;4113037
4096;16;16;16;89;2;19628593
2048;16;16;8;46;89;2937037
1;128;1;2;46;46;207460741
4096;128;64;1;46;46;4936000
4096;32;4;4;46;46;8309481
4096;64;64;4;46;46;3794814
4096;8;16;1;46;46;10711852
512;32;16;8;46;46;3197630
1024;16;16;16;89;2;26558667
4096;32;4;8;46;46;4639407
4096;16;16;8;46;23;3523852
1024;16;8;16;178;46;18446744073709551615
4096;64;16;4;46;46;2571112
4096;16;32;16;46;2;18446744073709551615
1;8;1;2;46;23;2473763111
4096;16;64;16;46;46;18446744073709551615
4096;256;16;1;46;46;8926518
1;16;1;16;46;2;1894282815
4096;32;32;8;46;46;2743111
4096;128;16;1;178;46;18446744073709551615
4096;16;16;4;46;46;3196889
16;512;4;2;2047;46;18446744073709551615
4;128;1;128;2047;2047;18446744073709551615
1;512;1;8;4094;178;18446744073709551615
4096;16;8;16;46;46;2854666
4096;4096;64;1;46;46;5378963
4096;16;16;16;1;23;19385777
4096;16;16;8;23;46;3414518
1024;16;16;16;178;23;3962963
1;32;1;1;46;89;617064296
2048;4;4;4;178;89;18446744073709551615
2048;4;1;2;46;23;51249037
32;128;4;1;178;46;18446744073709551615
2048;1;16;1;46;46;19681185
1024;16;16;16;46;2;26149333
1;16;1;8;89;89;18446744073709551615
4096;16;16;16;89;23;3061333
4096;4;16;1;23;46;10153481
1;4;1;2;46;46;4675403260
4096;16;2;16;46;46;7052296
4096;16;256;16;46;46;18446744073709551615
1;8;1;2;23;46;2460724888
128;4;1;1;1;1;345390815
1024;256;256;16;46;46;18446744073709551615
512;256;2;16;1;46;37066518
4096;16;1;16;46;178;18446744073709551615
4096;128;64;2;89;2047;18446744073709551615
4096;16;16;16;2047;1;43067852
4096;4;4;1;46;2047;18446744073709551615
1024;16;64;16;46;2;18446744073709551615
1;128;1;8;2;23;590389630
512;256;1;2;4094;4094;18446744073709551615
4;64;4;32;178;2;326799555
256;64;32;2;46;1;94788740
2048;16;4;16;23;46;5150963
4096;64;16;4;2;46;3836444
1024;16;8;16;46;46;2818963
4096;16;4;16;46;46;3884000
4096;16;16;8;89;46;3390963
4096;16;32;16;89;46;18446744073709551615
4096;8;16;2;89;89;18446744073709551615
128;256;128;2;1;2;286638666
256;1;32;1;46;89;127028296
512;128;2;32;89;178;18446744073709551615
512;256;8;4;2047;1;146737333
4096;16;16;1;46;46;9694222
256;16;16;16;1;2;1172173778
4096;16;16;2;46;46;5426518
1024;16;16;8;46;178;18446744073709551615
4096;128;16;1;89;46;19362963
1;512;1;32;4094;178;18446744073709551615
8;256;1;256;23;1;278986518
16;8;1;8;4094;2047;18446744073709551615
64;512;32;16;89;23;18446744073709551615
4096;32;8;2;46;46;8068889
4096;128;32;2;46;46;3512000
1;4;1;1;46;46;4775629037
1024;16;16;16;89;46;2819112
4096;16;4;8;46;46;4748740
2048;16;16;16;89;89;18446744073709551615
4096;16;8;16;46;178;18446744073709551615
1;16;1;16;23;46;1621724741
2048;64;8;4;46;46;4174667
4096;16;32;16;46;23;18446744073709551615
4096;32;32;8;89;46;3086074
2048;16;16;4;46;46;3188000
2048;4;16;1;23;46;10104148
4096;16;32;8;46;46;2928148
4096;16;8;16;46;23;2724741
1024;8;4;1;46;46;31831852
4096;8;8;2;46;2;35508741
4096;16;4;16;46;89;7421629
1024;8;8;4;46;178;18446744073709551615
1;128;1;2;23;46;162750815
4096;64;16;4;46;89;4678370
2048;16;8;16;89;46;2910667
4096;8;8;2;46;46;10092889
4096;16;8;16;46;2;10704741
4096;16;8;8;46;46;2742370
4096;16;32;16;89;89;18446744073709551615
4096;4;16;4;89;46;5338370
4096;16;16;8;46;89;2900592
4096;16;16;16;46;178;18446744073709551615
1;4;1;4;46;46;4796202074
1;8;1;2;46;46;2389536148
4096;16;16;16;1;46;25252741
4096;256;16;1;46;1;120490223
4096;16;16;16;178;46;18446744073709551615
2048;64;16;4;46;2;17219259
4096;16;1;16;46;46;13585037
1024;256;32;1;1;1;191506519
1024;1;128;1;46;2;2291868000
4;2;1;1;89;89;18446744073709551615
1;128;1;4;4094;23;18446744073709551615
1;512;1;1;1;2047;393775260
128;1;1;1;2047;89;18446744073709551615
2048;128;128;1;2;23;13839556
2048;32;16;4;46;46;2870074
4096;512;32;1;89;46;14446666
4096;16;16;2;89;46;10063852
4096;16;16;16;89;89;18446744073709551615
1;16;1;16;46;178;18446744073709551615
1;128;1;2;23;46;162701482
4096;8;32;1;46;46;8073185
4096;8;16;1;46;2;66514222
4096;16;64;16;89;89;18446744073709551615
2;16;1;16;46;46;622751407
4096;16;1;16;178;178;18446744073709551615
4096;128;1;2;46;46;48136148
1;16;1;16;46;1;2765582667
4096;16;16;16;2047;46;18446744073709551615
4096;16;32;4;23;46;3486814
4096;16;16;16;2;46;13409037
4096;1;16;1;4094;46;18446744073709551615
4096;16;16;8;4094;46;18446744073709551615
4096;16;16;16;46;4094;18446744073709551615
1;16;1;16;46;46;1226105926
4096;16;16;16;89;46;2257777
4096;16;16;16;178;178;18446744073709551615
64;16;16;16;46;46;29939407
4096;16;2;16;46;23;4937778
4096;1024;1;2;46;46;50145185
4096;4096;16;1;46;46;10762370
4096;16;64;16;1;46;18446744073709551615
4096;16;128;16;46;46;18446744073709551615
4096;16;32;16;178;46;18446744073709551615
4096;16;16;16;46;1;36748889
32;4;16;1;46;46;232262815
8;16;1;16;46;46;165033481
16;32;4;4;2047;46;18446744073709551615
512;128;16;128;4094;2047;18446744073709551615
2048;512;1;8;4094;23;18446744073709551615
512;64;16;4;46;89;5078518
4096;64;8;4;46;89;8128000
512;16;16;16;2;46;31939111
4096;16;16;16;23;23;3633185
4096;32;16;8;23;23;3385333
4096;16;8;16;46;89;4982519
1;8;1;2;46;46;2398174371
256;4;16;1;46;46;30799555
256;16;16;16;23;46;10920444
1024;4;16;1;46;46;12345185
4096;16;32;16;46;2047;18446744073709551615
128;16;16;16;46;46;16214371
4096;16;128;1;46;46;7474074
1;128;1;2;46;46;207448000
4096;8;16;1;23;46;8723704
4096;16;4;16;23;46;5141481
1;16;1;8;46;23;1255028148
32;64;8;2;178;89;18446744073709551615
2;64;2;16;46;23;180940740
512;32;4;1;4094;2;18446744073709551615
1024;8;16;4;46;23;7590371
4096;2;4;2;46;46;29154370
4096;4;16;1;89;46;19824148
1;16;1;16;46;46;1221632889
2048;16;128;16;89;46;18446744073709551615
1;64;1;2;23;46;329392592
2;16;1;16;46;1;1395700149
4096;16;1;16;46;46;13522666
4096;16;16;16;1;46;25251851
1;16;1;8;2;89;4540879704
4096;8;16;8;89;46;3417630
1;16;1;16;46;89;1211530519
128;2048;2;1;1;1;191957037
1;256;1;16;4094;89;18446744073709551615
512;256;2;1;1;23;37080741
1;128;1;32;2;23;2353355259
4096;16;16;8;46;178;18446744073709551615
2048;16;8;8;46;46;2735407
4096;16;16;1;46;46;9576889
4096;1024;16;1;46;46;9184297
512;512;4;4;178;4094;18446744073709551615
4;1;1;1;2;2;9658043408
2048;32;16;2;2;89;5181778
128;256;2;2;1;2;78807704
4096;32;64;8;46;46;18446744073709551615
4096;16;16;8;46;46;2748148
1;1;1;1;46;89;18274558074
512;2048;2;8;89;1;17239260
2048;4096;8;4;2047;2047;18446744073709551615
1;1;1;1;89;23;19013257037
4096;8;16;2;23;89;5811408
4096;16;4;16;46;23;2876297
256;16;16;16;46;23;12146963
4096;8;16;1;46;89;17754518
8;4;1;4;23;23;667804000
8;8;1;4;178;2047;18446744073709551615
64;512;32;8;2;23;11075259
16;256;1;1;2;23;64199556
512;16;16;16;89;23;6339408
256;16;16;16;46;46;8134815
1024;128;128;2;178;2;89112740
4;16;1;2;89;1;719724296
64;128;2;64;89;23;4837777
1;512;1;1;1;2047;393173037
4096;16;16;2;46;2047;18446744073709551615
128;4096;1;2;2047;1;355325185
2048;256;128;1;2;46;6649185
4;512;2;2;89;1;290095407
4;128;1;128;23;2047;18446744073709551615
4096;16;16;16;4094;46;18446744073709551615
4096;16;16;16;46;2047;18446744073709551615
2048;16;16;16;89;23;3020592
4096;4;8;1;2;46;18998518
2048;4;16;1;46;46;12045630
2048;4096;1;8;1;178;54867703
4096;128;4;2;46;46;13468297
4096;16;64;16;23;178;18446744073709551615
1024;16;16;16;1;46;40659852
4096;16;16;16;46;1;36667407
4096;16;16;16;2047;89;18446744073709551615
512;64;1;4;46;89;51158667
2048;64;4;32;4094;89;18446744073709551615
128;4;128;2;46;23;449000148
512;128;256;1;2047;2;18446744073709551615
4096;64;16;4;89;46;5067703
1;16;1;16;46;46;1221596296
4096;32;16;4;46;46;2820000
4096;4;16;4;46;2;31747111
1;16;1;16;89;89;18446744073709551615
2048;8;8;2;46;46;9983407
4096;16;32;4;23;89;2827111
4096;128;16;2;46;46;4577334
1;128;1;2;46;46;207462370
2048;32;16;8;89;46;3277629
4096;8;16;2;46;89;8889037
4096;8;8;8;46;23;3374814
1;8;1;2;46;89;2371009037
1024;8;64;1;46;46;10226519
4096;16;32;16;23;89;18446744073709551615
2048;256;16;1;46;46;8910518
2048;8;32;2;46;46;4819852
1024;16;64;16;46;89;18446744073709551615
2048;16;8;16;178;46;18446744073709551615
4096;32;8;8;23;178;4241481
512;16;8;16;89;46;4631852
1;8;1;4;46;23;2492008444
128;4;2;1;1;46;89906371
1024;256;1;16;46;89;13232296
512;256;2;128;23;46;3772592
1;1;1;1;1;23;26991638222
512;8;4;4;1;4094;18446744073709551615
2048;64;4;32;1;2;107434519
1;16;1;8;178;46;18446744073709551615
1024;128;16;2;46;23;5456445
4096;32;16;1;46;46;9245482
4096;4;8;1;46;46;19853630
4096;16;8;16;89;46;2898370
1;64;1;4;46;46;323737630
2048;16;4;8;46;46;4746222
4096;64;16;2;46;46;4708592
4096;16;16;16;2;23;10476000
1;16;1;8;46;23;1259890963
4096;64;16;4;46;23;2894223
4096;64;8;2;46;46;7727111
1;16;1;8;46;46;1216306223
1;16;1;16;89;46;1246159704
1;64;1;2;46;46;313076741
2048;1;16;1;2;89;43568000
256;512;1;2;1;2;97211556
256;1;32;1;1;89;180437037
512;64;1;2;89;1;64251112
1024;64;16;4;46;46;2759852
2048;8;1;4;2047;1;179251111
8;1;2;1;89;23;2559740148
8;1;1;1;23;1;5234189333
16;8;16;2;4094;46;18446744073709551615
64;256;32;8;89;23;6802667
16;256;1;256;2;23;636551852
1024;128;64;16;178;89;18446744073709551615
4;4096;1;64;89;2;51690074
64;128;4;64;89;23;4851704
1024;512;2;1;178;2047;18446744073709551615
256;8;256;2;2047;1;18446744073709551615
2048;4096;1;1;2;23;67345926
1024;2;32;2;46;23;30114223
4096;4;4;1;46;46;34984888
4;512;2;32;89;1;64641333
4;1;1;1;2047;4094;18446744073709551615
2048;4096;16;32;23;178;18446744073709551615
512;16;16;4;46;178;18446744073709551615
4096;32;16;8;178;46;18446744073709551615
2048;64;1;32;178;1;35207704
1;4;1;4;46;23;4926439555
512;64;4;1;4094;2;18446744073709551615
1024;8;16;4;46;4094;18446744073709551615
4096;1;16;1;46;46;19714371
4096;64;1;4;46;46;26346222
4096;16;16;1;2047;46;18446744073709551615
16;16;16;16;46;2;1126947703
4096;2048;16;1;46;46;9758371
4096;32;16;8;46;178;18446744073709551615
512;16;16;1;46;46;11652148
4096;16;16;16;46;46;2216889
4;16;2;2;46;89;322437926
4096;128;16;64;46;2047;18446744073709551615
4096;16;4;4;46;89;14373629
4096;16;128;1;46;46;7235556
4096;16;4;1;46;46;28337630
4096;32;256;8;46;46;18446744073709551615
4;16;2;16;46;46;318302815
4096;16;16;2;46;89;8903556
4096;16;16;4;46;46;3198518
1024;16;16;8;89;46;3412592
1024;16;64;16;46;46;18446744073709551615
128;4;2;4;89;46;54388148
1024;1;1;1;46;89;397014519
512;4;128;2;23;46;61096000
128;32;16;8;46;89;7280148
1;2;1;1;2;23;11362023852
512;4096;4;4;1;1;107118074
2048;64;2;32;1;2;60495111
4096;16;32;4;23;46;3483703
4096;32;32;8;46;89;2089185
4096;32;32;8;23;178;1936593
1;8;1;2;46;46;2389160148
4096;64;32;2;89;89;18446744073709551615
1;32;1;8;2;178;2256111852
4096;32;32;8;2;2047;18446744073709551615
4096;128;16;2;23;178;8896889
4096;64;32;4;23;178;2993629
1;32;1;4;23;89;631613630
512;16;32;16;23;178;18446744073709551615
4096;64;32;4;23;46;2845481
2048;32;32;8;23;178;1920148
4096;32;64;8;23;178;18446744073709551615
2048;32;32;4;23;178;3008889
2048;64;256;4;23;178;18446744073709551615
2048;32;64;8;23;178;18446744073709551615
2048;32;64;8;1;178;18446744073709551615
1;32;1;8;23;178;638953481
512;32;32;8;23;178;3146666
2048;32;32;8;46;178;18446744073709551615
2048;16;32;16;23;178;18446744073709551615
2048;64;32;4;23;89;2211111
2048;64;32;4;89;178;18446744073709551615
2048;64;64;4;89;178;18446744073709551615
2048;64;32;4;23;178;2998371
2048;256;32;1;23;178;9227259
2048;32;32;4;23;89;2424593
2048;32;32;8;23;89;2256592
2048;32;64;8;46;89;18446744073709551615
2048;32;64;8;2;178;18446744073709551615
2048;32;64;2;23;178;3337481
2048;8;32;8;23;178;5437037
256;64;32;4;23;178;4141926
2048;64;32;4;2;178;4552593
2048;64;32;4;23;2047;18446744073709551615
2048;64;16;2;23;89;4688296
1024;32;32;2;23;178;4904741
1024;32;32;8;23;89;2864741
1;64;1;4;23;178;328344741
4096;8;32;2;23;178;4927556
2048;64;64;2;23;178;3254075
2048;32;16;8;23;2047;18446744073709551615
2048;32;32;4;46;178;18446744073709551615
2048;64;32;4;46;178;18446744073709551615
2048;16;32;16;2;178;18446744073709551615
1024;16;32;16;23;2047;18446744073709551615
2048;32;16;8;46;178;18446744073709551615
2048;32;32;8;23;4094;18446744073709551615
2048;32;64;8;23;2047;18446744073709551615
1;32;1;4;46;178;18446744073709551615
1024;32;32;8;23;2047;18446744073709551615
2048;256;16;1;23;178;16892444
2048;128;32;2;23;178;4875555
1024;32;32;8;23;178;1914518
512;16;32;8;23;178;5425334
2048;16;32;16;23;2047;18446744073709551615
256;32;32;8;23;2047;18446744073709551615
1024;64;32;4;2;178;2798222
1024;8;32;2;23;178;4900149
1024;16;16;16;23;178;5922075
1024;32;128;8;23;178;18446744073709551615
1024;256;32;1;46;178;18446744073709551615
1024;16;32;16;23;178;18446744073709551615
1024;32;64;8;23;178;18446744073709551615
1024;64;32;4;23;2047;18446744073709551615
128;8;32;2;23;178;30081333
512;64;32;4;23;178;3672000
1024;32;16;8;1;89;13357630
1024;8;32;2;46;178;18446744073709551615
1024;32;32;8;1;178;9184740
128;64;32;4;23;178;4508741
1024;128;32;1;23;178;17070815
1024;16;64;8;46;178;18446744073709551615
1024;64;32;4;23;178;6116444
4096;16;16;16;23;178;12138222
1024;64;32;4;23;89;5333482
1024;64;32;2;1;178;7798815
4096;16;32;16;23;178;18446744073709551615
1024;32;32;4;23;178;6203111
1024;128;32;2;23;178;9888296
1024;16;32;16;46;178;18446744073709551615
1024;32;16;8;23;178;5751111
512;32;8;2;23;178;26803408
1024;16;32;16;2;4094;18446744073709551615
1024;64;128;4;23;178;18446744073709551615
2048;16;16;16;23;178;5958815
1024;32;32;8;46;178;18446744073709551615
1024;16;32;16;23;89;18446744073709551615
128;16;32;16;23;2047;18446744073709551615
512;32;32;4;2;178;5801481
1024;32;16;8;23;2047;18446744073709551615
1024;32;8;1;23;89;15660741
1024;256;128;1;23;178;4551852
1024;16;32;16;2;178;18446744073709551615
1024;32;32;4;2;178;3754815
1024;32;64;4;23;178;2712000
1024;64;128;2;23;178;3080000
1024;16;64;16;23;178;18446744073709551615
256;32;32;4;2;178;6964445
128;32;32;8;23;178;8192444
1024;32;32;8;46;2047;18446744073709551615
1024;32;32;8;2;178;4715555
512;32;32;8;2;2047;18446744073709551615
1024;64;32;4;46;178;18446744073709551615
1024;16;8;16;23;178;10167556
1024;32;16;8;2;178;12243556
2048;128;16;1;23;178;16877333
2048;32;32;2;23;178;4878519
512;32;32;4;23;178;4415703
1024;64;32;4;89;178;18446744073709551615
1024;8;128;2;23;178;6159408
1024;64;32;2;23;178;4870370
1024;32;32;8;23;4094;18446744073709551615
1024;16;32;16;23;4094;18446744073709551615
1024;16;32;16;1;178;18446744073709551615
512;32;32;8;23;2047;18446744073709551615
256;32;32;8;89;178;18446744073709551615
1024;32;16;4;23;178;4616296
2048;16;32;8;23;178;3162222
1024;4;32;1;23;89;12823112
2048;16;64;16;46;178;18446744073709551615
1024;32;64;8;23;4094;18446744073709551615
1024;256;32;1;23;178;9200741
1024;32;32;8;46;89;2262074
2048;8;32;2;23;178;4883852
1024;8;32;2;23;2047;18446744073709551615
4096;32;128;4;46;178;18446744073709551615
1024;16;128;16;23;178;18446744073709551615
256;64;128;4;2;178;18446744073709551615
1024;64;16;4;2;46;4593333
256;32;32;8;23;178;4098222
256;128;32;2;23;89;3303259
1024;32;64;8;23;2047;18446744073709551615
1024;8;32;1;23;178;9304000
512;32;16;8;23;178;2836000
512;32;32;8;46;2047;18446744073709551615
512;32;32;8;23;89;2798667
128;32;16;4;23;178;7168444
1024;32;32;4;23;4094;18446744073709551615
512;64;32;2;23;178;5350963
1024;32;32;8;89;178;18446744073709551615
2048;16;8;16;23;178;10200741
1024;32;64;4;23;2047;18446744073709551615
1;4;1;4;2;178;8894554815
512;32;64;8;23;178;18446744073709551615
1024;32;32;8;2;2047;18446744073709551615
1024;64;64;4;23;89;2864592
512;2;32;2;46;178;18446744073709551615
256;32;32;4;23;89;5202815
1024;32;32;2;2;178;2970222
1024;32;32;4;2;4094;18446744073709551615
1024;128;16;2;23;178;8840445
1024;32;32;4;23;2047;18446744073709551615
4096;32;32;8;23;89;2281481
4096;128;32;2;23;178;4890963
1024;16;8;16;23;89;6164296
128;32;32;8;89;178;18446744073709551615
1024;64;32;1;23;178;9192296
1024;128;32;2;46;89;5233778
1024;8;16;2;23;178;8965630
1024;64;8;4;23;178;7853778
2048;8;32;2;2;178;8464741
1024;32;32;4;23;89;2767260
512;32;32;8;89;178;18446744073709551615
1024;128;64;2;23;178;3257925
2048;32;128;4;23;178;18446744073709551615
1024;64;64;4;23;178;2437482
256;32;8;8;89;4094;18446744073709551615
512;256;32;1;23;178;9382518
4096;32;32;4;23;178;3042371
1024;16;32;8;23;178;3164592
512;16;32;16;23;2047;18446744073709551615
1024;32;64;8;2;178;18446744073709551615
2048;32;32;8;89;178;18446744073709551615
128;32;64;4;23;178;9068592
512;32;16;2;23;178;8830074
1;32;1;8;89;178;18446744073709551615
2048;32;32;8;23;2047;18446744073709551615
1024;32;64;4;23;46;4672889
256;32;32;4;23;2047;18446744073709551615
256;32;32;8;46;89;4412000
1024;4;64;2;23;2047;18446744073709551615
1024;4;32;1;23;2047;18446744073709551615
256;32;32;4;23;178;4428000
1024;32;32;8;89;89;18446744073709551615
1024;32;32;2;46;178;18446744073709551615
1024;8;32;2;2;178;7117333
1024;16;32;8;23;2047;18446744073709551615
2048;32;32;8;2;178;5717334
1024;32;16;8;46;178;18446744073709551615
1024;16;32;8;2;89;10943704
256;32;32;8;46;178;18446744073709551615
1024;32;32;4;46;178;18446744073709551615
2048;32;16;2;2;1;102637926
128;256;2;2;1;1;151961334
256;1;256;1;46;2;16622982518
128;2048;2;8;89;1;30665481
1024;8;128;4;2047;1;18446744073709551615
16;1;16;1;89;23;2624886815
1;256;1;256;23;1;2107062223
128;8;2;4;4094;2047;18446744073709551615
1024;8;64;2;23;178;6611852
4096;16;32;16;2;178;18446744073709551615
64;2;32;2;1;89;612679703
16;2;1;1;2;23;767527111
128;128;128;4;178;2;18446744073709551615
1024;4;16;1;23;178;16889333
512;128;64;2;23;178;3344297
1024;2048;32;1;23;178;9192296
1024;32;32;8;23;1;86721630
1024;32;32;16;23;178;18446744073709551615
1024;32;4;8;23;178;7594518
1024;32;32;8;1;178;11262814
1024;32;32;8;23;1;86751408
1;32;1;4;23;178;628461630
1024;32;64;16;23;178;18446744073709551615
1;32;1;8;23;178;637824445
1024;32;4;8;23;1;20521926
1024;32;2;8;23;178;14339555
1024;32;128;2;23;178;3447260
1024;32;32;8;4094;178;18446744073709551615
1024;32;32;1;23;46;6293777
1024;32;32;16;46;178;18446744073709551615
1024;2;32;2;2;178;22586963
1024;32;1;8;23;178;27354815
2;1;2;1;23;178;9366396296
64;64;32;4;23;178;8440444
1024;32;256;8;23;178;18446744073709551615
1024;32;8;8;46;178;18446744073709551615
1024;32;32;8;178;178;18446744073709551615
1024;32;32;8;23;23;4953333
512;32;32;8;4094;178;18446744073709551615
1024;1;32;1;23;178;37580148
1024;1;32;1;23;23;60941630
1024;4096;32;1;23;178;9313926
1024;32;128;8;178;178;18446744073709551615
4;32;1;8;46;178;18446744073709551615
64;32;32;8;23;178;16332148
1024;1;16;1;23;178;68836889
64;32;32;8;23;4094;18446744073709551615
4;512;1;256;89;2;60409185
1024;128;2;64;89;23;3725186
1024;512;32;8;1;2047;24041778
128;4096;1;1;2047;1;692775259
1024;32;32;32;23;178;18446744073709551615
1024;1;32;1;89;178;18446744073709551615
1024;32;32;1;23;23;8697481
1024;16;1;16;23;178;69242222
2048;256;32;4;23;46;2706667
4;512;2;2;23;1;145488148
4;1;2;1;23;2047;18446744073709551615
2048;4096;1;64;2047;178;18446744073709551615
1024;32;32;8;2;4094;18446744073709551615
1024;4;32;1;23;46;11296149
512;64;32;4;23;89;2817185
512;8;32;2;23;89;8355259
1024;32;32;2;23;178;4888296
1024;4;2;1;2;178;169743852
256;2;32;2;1;178;132646519
1024;128;32;2;2;178;1705333
2048;128;32;2;2;178;1727260
1024;128;32;1;2;178;2958667
1024;64;32;2;2;2047;18446744073709551615
512;128;32;2;46;178;18446744073709551615
1024;512;32;1;2;89;3464445
1;256;1;1;2;178;118941333
1024;128;64;2;2;178;2557038
1024;64;64;4;2;2047;18446744073709551615
1024;128;32;128;23;178;18446744073709551615
1024;64;16;4;2;2047;18446744073709551615
1024;1024;32;1;23;178;9190963
512;128;32;2;2;178;2147852
256;128;32;2;2;178;2229926
4096;128;128;2;2;178;2921630
1024;64;16;4;2;178;4443556
1024;256;32;1;2;178;2902075
1;128;1;128;2;178;8891515555
512;64;8;4;46;1;40315852
2;1;2;1;178;1;37795660444
2048;4;256;2;46;23;18446744073709551615
512;128;64;1;4094;4094;18446744073709551615
1024;128;128;2;2;178;2892889
1024;128;16;2;2;178;2912296
4096;128;64;2;2;178;2277629
1024;128;32;1;46;178;18446744073709551615
2;128;2;2;2;178;86172000
1024;128;32;2;2;2;43954370
1024;128;32;128;2;178;18446744073709551615
1024;128;32;128;2;2047;18446744073709551615
4096;256;32;1;1;89;4021926
512;128;32;2;2;2047;18446744073709551615
1024;128;16;128;2;178;18446744073709551615
1024;256;32;256;2;178;18446744073709551615
512;32;32;8;1;178;18231704
2048;128;16;1;2;178;5153185
4096;128;32;8;1;178;9028592
1024;128;1;2;46;178;18446744073709551615
1024;128;16;2;1;178;5151555
1024;4096;32;1;2;178;2884148
32;32;16;1;46;23;46005333
256;4;1;4;89;2;39016889
32;256;8;64;1;89;18446744073709551615
512;32;128;2;23;89;5462815
1024;128;32;2;2;2047;18446744073709551615
1;256;1;1;1;178;112462222
1024;256;32;256;23;178;18446744073709551615
1024;64;32;2;2;178;1907111
1024;128;16;1;2;178;5218370
4096;256;32;1;2;178;2905481
1;128;1;2;23;178;159223259
1024;128;16;2;23;89;4536592
1024;128;32;128;2;89;18446744073709551615
1024;128;128;2;89;178;18446744073709551615
1024;128;2;2;2;4094;18446744073709551615
1024;8;32;4;2;178;9500740
1024;128;32;64;2;178;18446744073709551615
1024;128;64;2;1;178;3751704
1024;128;64;2;2;2047;18446744073709551615
2048;128;16;2;1;178;5347703
256;128;256;8;2;89;18446744073709551615
4096;4096;1;4;1;2;74004444
2048;64;2;8;1;2047;585097629
512;2048;16;2;2;2;41404297
4096;64;32;4;2;178;4157333
1024;16;64;16;2;178;18446744073709551615
1024;128;1;2;89;178;18446744073709551615
1024;128;1;2;2;178;32668444
4096;128;32;2;2047;178;18446744073709551615
1024;128;256;2;2;23;18446744073709551615
512;128;128;2;46;178;18446744073709551615
128;128;32;2;1;178;6106519
128;256;32;2;1;1;183984592
256;32;128;8;46;89;18446744073709551615
1;2048;1;8;89;1;174411704
2048;4096;1;16;2047;1;48775852
512;128;64;2;1;89;5033482
1024;128;32;8;2;178;3425037
2048;64;16;4;2;178;4491111
1;128;1;2;2;2;310092741
128;128;8;2;2;178;6244889
1024;64;32;2;2;89;3084296
1024;256;64;1;2;178;1989037
1024;64;32;2;23;2047;18446744073709551615
512;128;32;2;2;89;2288296
8;1;2;1;89;46;2438968149
8;256;1;256;23;2;188272296
128;8;2;4;4094;2;18446744073709551615
64;128;32;8;2;23;30454667
512;64;32;4;2;178;3706222
1024;128;64;2;1;178;3951703
1024;128;32;2;2;4094;18446744073709551615
64;128;32;2;2047;178;18446744073709551615
32;256;1;1;2;2;100629037
1024;1;16;1;178;2;291033037
32;4096;8;64;89;2;18446744073709551615
1024;128;2;64;46;46;3436000
2048;512;128;1;2;178;2990074
2048;128;64;2;2;178;2204593
8;1;2;1;2;178;2901000444
1024;1024;32;1;1;178;3005333
128;128;32;2;2;178;3176296
1024;128;8;2;23;178;15228000
4096;128;32;2;2;178;1716148
32;512;1;8;1;46;64155555
128;4;1;2;2047;1;355929629
2048;256;1;4;178;1;32690518
4;512;2;32;89;2;31559704
256;16;32;8;2;178;28483703
1024;128;32;2;2;1;83543259
1024;1;32;1;2;178;43888741
1024;128;32;32;46;178;18446744073709551615
512;128;32;1;2;178;3386222
256;128;1;128;46;2047;18446744073709551615
2048;4;1;1;23;178;197356148
512;64;16;8;46;2;24808444
2048;64;1;32;2047;46;18446744073709551615
256;1;32;1;2;178;131074519
1024;512;32;1;2;178;2907259
1024;128;32;2;2;89;2341778
1024;128;32;2;23;4094;18446744073709551615
512;64;32;4;46;4094;18446744073709551615
2048;4;1;4;46;23;34219260
512;128;4;32;4094;2;18446744073709551615
1024;4096;16;2;1;23;10259260
256;4;1;4;89;1;56450222
1024;128;2;2;2;23;17688592
8;256;2;1;46;89;110349482
512;16;2;16;23;46;11471407
1;128;1;2;2047;23;18446744073709551615
4096;4096;1;4;2;2;41811407
1024;128;32;2;1;178;2989926
1024;128;32;2;89;178;18446744073709551615
1024;128;32;2;178;178;18446744073709551615
1024;128;32;2;1;178;2984148
2048;64;1;4;1;1;111848000
1;32;1;2;2;89;686068889
1;256;1;2;1;2;298558074
2;1;2;1;46;89;9520224000
1024;128;32;32;2;178;18446744073709551615
1024;128;32;16;2;178;18446744073709551615
1024;2048;256;16;2;178;18446744073709551615
512;128;256;8;178;1;18446744073709551615
2048;4096;1;4;89;1;37042667
1;256;1;1;89;46;396203704
32;256;16;256;23;2047;18446744073709551615
1024;128;32;2;4094;178;18446744073709551615
1;128;1;2;178;178;18446744073709551615
2048;128;32;2;2;89;2031408
1024;128;32;2;23;2047;18446744073709551615
2048;64;128;4;2;46;18446744073709551615
16;8;1;4;4094;89;18446744073709551615
64;2048;32;8;89;23;6030815
16;32;1;2;2;1;188113926
256;128;32;2;89;2;46266519
16;128;4;16;2;178;79724296
1024;128;32;1;46;178;18446744073709551615
1;4096;1;64;89;1;66781333
1024;1;2;1;2;46;123986074
1024;512;32;8;89;2047;18446744073709551615
64;1;2;1;2047;1;1225050370
1;128;1;2;4094;178;18446744073709551615
2048;128;32;2;1;178;3005482
1024;128;32;2;46;178;18446744073709551615
2048;64;32;2;46;178;18446744073709551615
2048;256;32;4;1;23;11541630
1;512;1;32;89;2;79486666
4;128;1;2;2047;23;18446744073709551615
2048;4096;1;1;1;1;197894074
1024;2;32;1;2;178;21801037
1024;2048;128;32;2;178;18446744073709551615
1024;128;32;2;2;23;4791111
512;32;32;8;2;178;9345778
512;256;32;1;2;178;3111259
64;64;1;4;46;89;51094519
1;64;1;1;1;1;1197932296
2048;4;1;4;46;23;34220889
512;128;4;64;46;2;7121778
1024;128;8;1;23;178;29100888
64;128;32;2;2;178;5269185
64;128;32;2;2;46;7132444
1024;32;16;4;2;178;7376889
1024;8;1;2;46;23;44796148
256;256;1;2;89;2;42234074
1024;256;1;16;46;89;13231852
512;256;2;128;23;2047;18446744073709551615
64;128;32;128;2;178;18446744073709551615
1024;128;1;2;2;178;33161037
1024;128;2;2;1;178;32666518
256;128;16;2;2;178;3649778
256;128;32;2;23;178;5248445
128;128;1;8;46;2;11966223
128;4096;1;4;1;2;72878222
2048;64;2;32;89;2;11407407
16;32;1;2;2;89;52053630
16;128;1;2;2;178;42469333
1024;128;32;2;1;2047;28137334
128;256;2;2;178;89;18446744073709551615
256;1;32;1;1;89;181276740
4096;1;2;1;89;1;139647704
2048;4096;1;4;89;2047;18446744073709551615
64;2048;32;1;2;46;5775259
1024;128;32;2;2;178;1667407
1024;16;32;2;2;178;4206075
2048;1024;32;2;178;178;18446744073709551615
32;2;32;2;2;178;541278963
8;128;2;2;2;23;29717481
1024;128;32;2;2047;178;18446744073709551615
1024;128;32;2;1;178;2987555
1024;8;32;1;2;1;298329334
1024;1;32;1;2;178;43822963
1024;512;32;2;2;178;1568593
1;128;1;2;2;1;479285482
1024;128;32;32;4094;178;18446744073709551615
1024;128;32;2;23;178;4869630
1024;512;32;2;2;1;80770222
1024;512;8;2;2;23;6808592
1024;2;32;2;2;178;22553778
1024;512;32;4;2;178;2167111
1024;512;4;2;2;2;41458222
1024;512;32;2;23;178;4869481
4096;512;32;2;89;1;64020148
1024;512;1;64;2;178;91174223
2;512;2;2;2;178;30779852
1;512;1;2;2;1;147142075
64;8;32;2;2;178;70162963
1024;2048;32;2;1;178;2663260
1024;512;32;1;2;178;2908296
1024;512;32;32;2;178;18446744073709551615
16;512;1;2;2;23;31971408
1024;512;16;2;2;178;2625185
1;256;1;2;2;23;107083259
1024;512;32;2;1;178;2726370
1024;64;32;2;2;178;1890667
1024;1024;32;128;2;178;18446744073709551615
1024;512;16;2;2047;178;18446744073709551615
1024;256;32;4;2;2;62576444
1024;512;32;64;23;178;18446744073709551615
1024;512;256;1;2;178;3718074
1024;512;32;2;2;1;80770815
1024;512;32;2;2;4094;18446744073709551615
1024;256;32;2;46;178;18446744073709551615
1024;512;32;32;46;178;18446744073709551615
1024;512;2;2;2;178;15794074
1024;4;32;2;2;178;11285334
512;2048;32;2;2;178;1524741
1024;256;32;2;2;178;1564000
4;4096;4;2;2;23;14618370
8;2048;2;2;2;2;43896741
16;2048;8;2;2;178;4909926
512;4096;32;8;4094;178;18446744073709551615
128;2048;32;2;2;178;1646963
512;128;32;2;2;178;2050815
512;2;32;2;2;178;45256888
512;1;32;1;2;178;87419407
512;2048;2;2;2;178;15050815
512;2048;32;1;2;178;2828888
512;8;32;2;2;178;11412740
512;2048;4;2;2;178;7864296
512;2048;32;2;4094;89;18446744073709551615
512;1024;8;2;2;178;4532889
512;1024;32;2;2;2047;18446744073709551615
1;2048;1;2;2;178;32864000
512;256;32;2;2;178;1844740
512;2048;32;2;2047;2047;18446744073709551615
512;32;64;2;1;178;6559260
1024;2048;32;2;2;2;41560444
32;64;32;2;2;178;20395259
512;2048;32;1;2;1;146816592
512;8;32;4;2;178;19046815
512;8;16;2;2;178;12557333
512;2048;32;2;2;2;41560149
256;2048;2;2;2;1;80788149
512;2048;32;2;46;178;18446744073709551615
16;128;1;2;2;178;42542667
512;2048;32;32;2;178;18446744073709551615
512;2048;32;2;1;178;2716296
512;2048;16;2;1;178;4578519
512;32;32;8;2;178;9390963
512;2048;32;2;2;1;79616593
512;2048;32;2;2047;178;18446744073709551615
16;2048;1;2;2;1;84514963
512;2048;32;1;2;178;2829926
512;64;32;2;2;178;2960593
512;2048;32;128;2;178;18446744073709551615
512;2;256;2;178;178;18446744073709551615
512;2048;1;2;2;178;29455852
512;2048;32;256;2;178;18446744073709551615
512;2048;32;2;2;23;4311111
1024;64;1;2;2;178;37200000
512;1;32;1;2047;178;18446744073709551615
512;2048;32;2;2;2047;18446744073709551615
2048;2048;32;2;2;178;1495260
512;1024;32;2;2;178;1571852
32;2048;32;2;2;178;2292444
2048;2048;32;128;46;178;18446744073709551615
1024;2048;32;64;2;178;18446744073709551615
2048;2048;32;128;2;178;18446744073709551615
2048;2048;32;2;23;178;4936297
2048;2048;32;2;2;23;4263408
2048;2048;32;16;2;178;18446744073709551615
1024;2048;32;2;2;178;1472889
2;4096;2;2;2;178;16000741
1024;2048;32;16;2;178;18446744073709551615
1024;2048;32;2;46;89;5254223
1024;2048;16;2;2;178;2486074
1024;2048;32;64;2;2047;18446744073709551615
1024;2048;2;8;2;178;14179407
1024;2048;32;2;1;178;2664444
1024;2048;1;2;2;178;29533926
1024;4096;8;2;2;178;4320593
1024;2048;32;2;2;46;2794222
2048;128;32;2;2;178;1664000
8;2048;2;2;2;178;15741630
2048;2048;32;2;4094;178;18446744073709551615
1024;16;32;2;178;178;18446744073709551615
1024;128;128;2;2;178;2892296
64;2048;32;8;2;178;2777926
1024;2048;16;1;2;178;4822222
1024;2048;32;256;2;1;18446744073709551615
1024;2048;256;2;2;178;18446744073709551615
1024;2048;8;2;2;178;4288889
1024;2048;32;2;2;1;78989925
1024;2048;32;2;178;178;18446744073709551615
1024;2048;32;128;2;46;18446744073709551615
1024;2048;8;2;4094;178;18446744073709551615
4096;2048;32;2;2;178;1580444
1024;2048;32;8;2;46;3812296
1024;2048;32;256;2;178;18446744073709551615
1024;2;32;1;178;178;18446744073709551615
8;2048;1;2;2;178;43092148
1024;2048;128;2;2;178;2639556
1024;2048;64;2;89;178;18446744073709551615
4;2048;4;2;2;178;9413926
1024;64;32;2;2;89;3073926
1;2048;1;1;2;178;61125925
1024;2048;32;32;2;4094;18446744073709551615
4;2048;2;2;2;178;16469482
256;2048;32;2;2047;178;18446744073709551615
4;512;4;2;2;178;13783852
1024;2048;1;2;2;178;29518371
16;2048;1;4;2;178;28736148
1024;2048;64;2;2;178;2100889
1;2048;1;64;2;178;281886815
1024;2048;4;2;4094;178;18446744073709551615
2;1024;2;2;2;178;18856593
1024;2048;32;128;2;178;18446744073709551615
1024;1024;32;2;2;178;1536592
8;2048;2;2;2;1;86142815
1024;2048;32;2;2;4094;18446744073709551615
1024;2048;32;1;4094;2;18446744073709551615
1024;2048;32;2;4094;178;18446744073709551615
1024;2;1;2;2;178;470041926
16;2048;1;2;1;4094;18446744073709551615
4096;2048;32;2;2;89;1890815
1024;2048;16;2;2;4094;18446744073709551615
1024;32;32;2;2;178;2977778
1024;2048;32;2;89;178;18446744073709551615
1024;2048;256;2;1;178;18446744073709551615
16;2048;1;2;2;178;30476296
1024;128;32;4;2;178;2745186
1024;2048;32;1;2;4094;18446744073709551615
1024;2048;32;2;2;23;4264740
1024;2048;32;256;2;4094;18446744073709551615
1024;4096;32;2;2;1;78842371
1024;2048;32;1;2;178;2793481
2;2048;2;256;2;178;18446744073709551615
1024;2;4;2;2;178;126457333
128;2048;4;2;2;178;7838815
2;2048;2;2;2;178;17152741
1024;2048;32;2;46;178;18446744073709551615
128;2048;32;2;2;89;1976148
2;1;2;1;2;178;11047144889
1024;2048;2;2;2;178;15107407
1024;2048;4;2;2;178;7889482
1024;128;256;8;2;178;18446744073709551615
1024;2048;32;2;89;2047;18446744073709551615
512;4;32;2;2;178;23342222
1024;4096;32;2;2;178;1477481
1024;2048;32;1;2;178;2792889
1024;2048;32;2;2;2047;18446744073709551615
1;512;1;2;2;178;59721926
256;2048;1;2;2;178;29384444
1024;2048;2;16;23;2047;18446744073709551615
1024;2048;32;2;4094;1;18446744073709551615
32;2048;32;128;2;178;18446744073709551615
1024;2048;32;8;2;178;2725630
1024;2048;32;2;1;1;145592148
16;2048;1;2;2;2047;18446744073709551615
1024;2048;32;2;2;1;78995852
1024;2048;128;8;2;178;18446744073709551615
1024;2048;2;4;1;178;27267703
1024;16;64;2;2;178;5188149
512;2048;32;2;2;89;1803556
1024;2048;32;4;2;178;2042370
1024;2048;32;2;23;178;4869037
8;2048;2;4;2;178;14854518
2048;2048;32;256;2;178;18446744073709551615
1024;8;32;2;2;2047;18446744073709551615
1024;2048;32;2;2047;1;284338222
1024;8;64;2;2;178;8550222
16;2048;16;1;2;4094;18446744073709551615
1;2048;1;2;2;178;32867556
1024;2048;8;2;46;178;18446744073709551615
1024;2048;1;64;2;1;65014815
32;2048;1;64;2;178;32718370
1024;2048;1;2;178;178;18446744073709551615
1024;16;128;2;2;178;4738814
1024;1;64;1;2;178;51166963
1;2048;1;8;2;178;42594371
1024;2048;32;32;2;178;18446744073709551615
1024;2048;32;2;46;4094;18446744073709551615
64;2048;32;2;2047;178;18446744073709551615
1024;32;32;2;4094;178;18446744073709551615
1024;2048;32;1;2;1;146553926
1024;1;32;1;2;178;43867852
1024;2048;1;16;2;178;28683259
1024;2048;32;2;1;1;145600000
1024;2048;32;2;2;89;1802371
1024;4096;32;256;2;178;18446744073709551615
1024;4096;32;2;2;46;2776000
4096;2048;2;2;1;178;29502963
1024;2048;32;32;1;178;18446744073709551615
128;16;1;4;2;178;184941185
1024;4096;32;2;178;178;18446744073709551615
1024;8;32;4;2;4094;18446744073709551615
2;2048;2;1;2;1;167126222
1024;64;32;2;2;1;88794815
1024;2048;2;2;89;178;18446744073709551615
4;512;4;2;2047;178;18446744073709551615
1024;1;2;1;2;178;480166963
1024;2048;16;128;2;178;18446744073709551615
1024;2048;32;2;2047;178;18446744073709551615
1024;128;4;4;2;178;8807704
2;2048;2;64;2;178;145636889
32;1024;32;2;2;178;2345333
1024;1;32;1;2047;178;18446744073709551615
1024;32;32;1;2;178;3536444
1024;4;32;2;23;178;9742518
1024;2048;1;2;46;178;18446744073709551615
1024;2048;4;2;2;2047;18446744073709551615
1024;2;32;2;178;178;18446744073709551615
1024;2048;32;2;4094;23;18446744073709551615
1024;1024;256;2;2;178;18446744073709551615
64;2048;32;2;2;178;1902222
1024;2048;32;128;178;178;18446744073709551615
1024;2048;32;1;2;23;7993333
8;2048;2;2;4094;178;18446744073709551615
2048;2048;32;4;2;178;2042222
256;512;64;1;2;178;1947408
1024;1;32;1;2;2047;18446744073709551615
1024;512;8;2;2;178;4543555
128;2048;32;2;2;4094;18446744073709551615
4;128;4;2;89;46;59555704
8;64;1;2;4094;1;18446744073709551615
4;8;1;1;23;1;1327112889
1024;256;32;1;2;178;2899556
1024;2048;32;2;23;2047;18446744073709551615
512;2048;32;1;2;2047;18446744073709551615
1024;2048;8;1;2;2047;18446744073709551615
4096;2048;32;2;2;2047;18446744073709551615
128;2048;1;8;89;23;13046518
16;256;1;1;2047;23;18446744073709551615
16;128;1;2;89;2;67850518
512;512;1;64;89;2;19387407
2048;1024;1;64;46;46;5177037
1;512;1;8;1;2047;277708741
128;4096;1;2;46;1;63109185
2048;256;256;4;23;46;18446744073709551615
512;2048;32;2;23;46;3090519
1024;4096;32;2;1;2047;26372297
512;2048;64;2;2;178;2090074
1024;4096;32;1;2;178;2886222
1024;1024;32;2;23;178;4871260
2048;1024;32;2;2;89;1784740
4096;2048;16;2;23;178;9322222
512;2048;32;4;2;178;2083852
1024;1024;64;8;1;178;18446744073709551615
128;2048;32;1;2;4094;18446744073709551615
1024;2048;32;2;1;2047;28195407
1024;512;32;4;2;89;2770963
1024;2048;32;4;2;2047;18446744073709551615
512;2048;32;8;2;178;2865482
1024;1;64;1;2;178;50716592
2048;1;32;1;2;2047;18446744073709551615
1024;256;32;2;1;178;2810519
256;2048;32;4;2;178;2091852
4096;2048;32;2;1;178;2780889
1;2048;1;2;2;178;32859407
1024;4096;64;2;1;178;2854074
256;512;32;1;2;178;2922815
1024;2048;64;2;1;178;2888444
1024;4096;32;2;2;4094;18446744073709551615
1024;2048;8;1;2;178;8486963
1024;2048;128;4;2;178;18446744073709551615
1024;2048;32;1;23;178;9207704
1024;512;32;2;2;89;1926814
1;2048;1;2;23;178;106659111
1024;2048;16;2;2;89;2701926
256;512;64;2;2;178;2205185
4;512;2;32;89;1;61054667
4;128;1;128;2;2047;18446744073709551615
1;256;1;1;1;178;111838666
512;64;16;4;46;23;3787852
1;4096;1;2;2;2047;18446744073709551615
256;1024;32;2;1;178;2756889
256;2048;16;1;1;178;5064148
512;1;64;1;1;4094;18446744073709551615
1024;1024;64;2;2;178;2097629
2048;64;1;32;23;1;35113185
2048;32;1;32;46;23;6156148
16;128;16;64;46;2047;18446744073709551615
1024;8;16;4;23;23;8051703
2048;1024;64;2;2;178;2085778
2048;2048;8;2;23;2047;18446744073709551615
1024;1;16;1;1;178;92901037
1024;256;64;2;1;178;3279407
256;4096;1;256;89;2;12201630
1024;256;1;1;46;89;196998963
512;256;1;128;2047;46;18446744073709551615
64;128;2;128;46;2;18490815
1024;1;64;1;2;89;57346074
2048;2048;16;1;2;178;4835703
2048;1;16;1;2;178;80295260
1024;2048;32;4;23;178;2753333
256;1;32;1;2;178;131684741
512;1;32;1;2;2047;18446744073709551615
512;512;32;2;2;178;1672445
2048;2048;16;2;2;178;2490074
1024;1;128;1;2;89;77992741
512;1;16;1;2;178;80327704
1024;2048;64;1;2;178;1815704
512;4096;64;2;23;89;3117778
2048;4096;32;2;2;178;1550370
1024;2048;16;2;2;46;3381925
1024;1024;64;2;1;178;2944888
1024;2048;16;1;2;178;4822815
2048;2048;32;2;2;2047;18446744073709551615
1024;4096;32;2;2;2047;18446744073709551615
1024;2048;32;1;1;178;2952592
4096;64;1;4;2;2;42174222
2048;64;2;32;89;1;21545481
2048;32;16;1;178;89;18446744073709551615
128;1;2;1;1;2;597756296
1;2048;1;8;2;178;42565629
1024;2048;16;4;2;178;2322519
2;2048;1;2;2;178;31987704
1024;2048;32;128;2;23;18446744073709551615
512;2048;16;2;46;178;18446744073709551615
1024;1024;32;2;46;89;5257629
1024;4096;32;2;2;89;1769778
1024;2048;4;256;2;178;18446744073709551615
256;4;32;1;4094;89;18446744073709551615
512;2048;128;2;89;2;113619852
1;4096;1;4;89;1;298473630
4;1;4;1;89;46;5231274074
1024;2048;1;128;2;178;81504296
256;2048;32;2;46;178;18446744073709551615
256;2048;32;2;2;178;1547555
128;2048;32;4;2;178;2212296
2048;2048;32;2;2;89;1770666
1024;256;32;2;4094;178;18446744073709551615
1024;256;32;2;2;1;83903556
1024;2048;16;2;2;23;5434815
1024;512;32;2;1;2047;28139260
2;256;2;2;2;23;49256148
8;256;1;1;23;2;97453482
4096;8;32;1;2;1;166286222
8;256;2;8;89;23;16876740
128;1;1;1;46;2;239707852
256;16;32;2;2;178;8465037
1024;1;32;1;1;178;51513482
2048;4096;16;2;2;2047;18446744073709551615
1024;256;32;2;23;178;4862518
1024;128;1;2;2;178;33472148
1024;2048;1;2;2;89;28394222
1024;4;32;2;2;89;13080000
1024;2048;256;2;2;89;18446744073709551615
512;2048;32;128;89;178;18446744073709551615
1024;8;32;2;2;178;6121038
32;2048;4;2;2;178;8059704
1;2048;1;2;2;2;72745185
1024;1;32;1;2;178;44116297
128;2048;32;2;4094;178;18446744073709551615
1024;32;16;2;2;178;5042963
1024;2048;4;2;2;46;8693333
1024;4;32;2;46;178;18446744073709551615
1024;2048;32;2;46;2047;18446744073709551615
4;2048;4;2;2;2047;18446744073709551615
1024;2048;2;1;2;178;30377482
512;2048;32;4;46;178;18446744073709551615
1024;1;32;1;2;178;43771704
256;128;256;2;4094;2047;18446744073709551615
512;8;1;4;89;2;24910074
1024;128;1;64;46;46;5828592
8;512;2;8;1;2047;284208148
1024;4096;128;4;2;89;18446744073709551615
1024;1;16;1;2;178;83602815
1024;2048;8;1;1;178;8676741
1024;4096;32;2;23;178;4913777
2048;512;32;1;2;178;2913185
1024;2048;32;2;1;89;3402814
4096;2048;8;1;2;46;10096592
1024;1;32;1;46;4094;18446744073709551615
1024;1;32;1;2;4094;18446744073709551615
1024;2048;32;8;23;178;1684593
4096;2048;16;2;2;178;2631704
1024;1024;32;8;1;2047;23496593
1024;2048;64;4;2;178;2697185
2048;256;32;1;2;178;2920000
512;2048;32;4;2;89;2565926
2048;1024;8;2;2;178;4529333
1024;2048;128;4;46;89;18446744073709551615
4096;1;32;1;2;178;43948148
1024;1024;16;2;1;178;4602074
4096;2048;8;1;23;178;30786371
1024;2048;64;2;2;89;3376741
4096;2048;32;1;2;178;2917185
4096;2048;64;2;2;178;2125185
1024;1024;64;2;2;2047;18446744073709551615
1024;2048;16;2;2;2047;18446744073709551615
1024;512;32;2;1;178;2721185
256;2048;64;2;23;178;3351852
1024;1;32;1;2;89;50707556
256;4096;64;2;23;178;3357185
2048;2048;8;2;2;178;4309037
1024;2048;16;4;2;2047;18446744073709551615
1024;2048;16;2;1;178;4583111
1024;4096;64;2;1;2047;13256148
1024;2048;32;1;2;89;3392445
1;1;1;1;2;178;21529047852
1024;2048;32;1;46;178;18446744073709551615
1024;2048;32;1;2;2047;18446744073709551615
512;128;32;1;2;178;3445037
128;1024;32;1;1;178;3145926
4096;1;128;1;2;178;19384149
1024;4096;64;2;23;178;3154815
128;1024;32;8;2;2047;18446744073709551615
256;4096;32;2;2;178;1513037
2048;2048;32;1;2;178;2807704
1;2048;1;4;2;178;39571408
512;2048;32;2;23;2047;18446744073709551615
512;2048;32;4;1;178;4013630
1024;1024;64;2;23;178;3124889
4096;2048;64;1;23;89;4014815
4096;1024;32;2;2;46;2790223
256;512;32;2;1;178;2884000
1024;2048;32;2;1;46;5350371
1024;1;64;1;2;4094;18446744073709551615
512;2048;16;4;23;178;4612741
1;2048;1;4;23;2047;18446744073709551615
1024;1;32;1;2;178;43733037
1024;4096;32;1;23;178;9312889
1024;512;64;2;2;178;2173482
1024;1024;32;2;2;2047;18446744073709551615
2048;2048;32;1;2;89;3378518
4096;2048;32;1;1;178;3060296
1;2048;1;4;46;178;18446744073709551615
2048;2048;32;2;2;46;2783556
1024;2048;64;4;1;178;4607111
512;4096;32;2;23;178;4954963
1024;2048;16;1;2;2047;18446744073709551615
1024;4096;16;2;2;178;2466963
1024;2048;128;2;2;4094;18446744073709551615
1024;1024;32;2;2;1;79572741
1024;2048;32;4;2;89;2579555
256;2048;32;2;2;2047;18446744073709551615
256;2048;16;2;2;178;2573778
256;2048;32;8;2;178;2218963
1024;2048;16;1;1;178;5040592
2048;1024;32;2;2;178;1526074
1024;1024;32;2;2;89;1822963
256;2048;64;2;2;178;2092741
1024;512;32;8;23;178;1769185
1024;1024;16;2;2;178;2595555
256;2048;32;2;23;178;4893481
1024;256;32;4;2;178;2337778
2048;512;32;4;2;178;2192889
1024;2048;128;1;2;178;6107704
1024;2048;64;2;23;178;6470963
2048;2048;32;2;46;178;18446744073709551615
1024;4096;64;2;2;2047;18446744073709551615
1024;1024;32;1;2;178;5789925
512;1024;16;2;2;178;5344741
1024;1024;16;2;23;178;17999556
1024;1;32;1;23;178;50635111
256;1024;32;2;2;178;1574814
1024;4096;8;2;23;178;15513037
1024;1024;16;2;2;2047;18446744073709551615
2048;2048;64;2;2;178;2058222
512;2048;64;8;2;178;18446744073709551615
1024;2048;32;8;2;2047;18446744073709551615
128;4096;32;2;1;178;2713926
256;1024;32;4;1;89;5356296
1024;4096;128;1;2;178;2902222
2048;1;128;1;2;178;38530815
1024;2048;32;8;1;89;8892296
1024;2048;32;2;89;46;7580592
1;4096;1;2;23;178;106616889
2048;512;32;1;2;89;3410666
256;4096;32;2;2;89;1784740
512;1024;128;2;2;178;2645038
4096;2048;32;4;2;178;2174815
512;4096;32;1;2;89;3383260
1024;2048;64;8;2;178;18446744073709551615
64;1;32;1;1;178;660985778
2048;2048;64;2;2;2047;18446744073709551615
1024;2048;128;2;2;89;4539852
512;2048;16;2;2;178;2480000
1024;2048;32;2;23;89;2682815
1024;2048;8;2;2;2047;18446744073709551615
1024;1024;16;1;2;178;4803111
256;2048;8;2;2;178;4270074
1024;2048;8;2;2;89;4556593
256;2048;32;1;2;178;2828741
1024;2048;32;2;23;46;2983555
2048;1024;32;2;23;89;2625185
1024;2048;32;4;23;2047;18446744073709551615
512;4096;64;2;2;178;2044445
1024;4096;64;1;2;178;1808445
2048;2048;32;8;1;2047;23378223
512;2048;128;2;2;178;2652000
1024;2048;128;1;46;178;18446744073709551615
256;2048;64;2;2;89;3396444
128;4096;8;1;46;1;138523407
2048;16;256;4;46;46;18446744073709551615
4;512;1;8;178;2;65406222
128;128;2;8;2047;23;18446744073709551615
1024;1024;32;1;2;2047;18446744073709551615
1024;4096;32;4;2;178;1999407
512;2048;8;2;2;2047;18446744073709551615
512;2048;32;2;23;178;4962666
256;2048;32;2;1;178;2696296
128;2048;16;2;2;178;2593037
1024;2048;16;2;23;178;18027407
2048;1;16;1;2;178;92995111
128;1024;32;2;2;178;1715408
1024;2048;128;2;23;178;2933482
4096;2048;32;2;23;178;5139408
2048;1024;32;1;2;2047;18446744073709551615
512;2048;64;4;1;178;2770074
2048;2048;32;8;2;178;2709186
1024;1;64;1;2;178;51061926
1024;4096;64;4;2;89;3184296
1024;2048;64;1;2;2047;18446744073709551615
1024;4096;32;1;46;178;18446744073709551615
1;2048;1;2;2;2047;18446744073709551615
1024;1024;32;2;1;2047;28202963
4096;1;32;1;2;2047;18446744073709551615
4096;512;32;2;2;89;1831408
512;2048;64;1;2;178;1796740
512;1024;32;1;1;178;3096889
1024;2048;64;2;46;178;18446744073709551615
1024;4096;128;2;1;178;3247556
1024;2048;16;2;2047;4094;18446744073709551615
1024;1;16;1;2;2047;18446744073709551615
2048;64;1;4;1;178;144913333
512;16;16;4;46;23;7584148
2048;64;1;4;23;1;35834223
1024;2048;32;32;89;178;18446744073709551615
1024;2048;32;1;2;1;146554815
1024;512;16;1;23;178;16867111
1024;2048;16;8;2;178;3551556
1024;2048;32;1;23;2047;18446744073709551615
1024;2048;32;4;46;178;18446744073709551615
1024;512;32;1;1;178;3051852
2048;32;16;32;89;23;18446744073709551615
512;128;4;64;1;2;139017630
1024;1;16;1;46;23;44610223
1024;2048;256;256;89;2;18446744073709551615
1024;4096;32;4;1;178;3822519
1;2048;1;1;2;178;61127407
4096;2048;32;2;2;46;2890518
1024;512;64;2;2;2047;18446744073709551615
256;1;32;1;46;178;18446744073709551615
1024;2048;32;2;23;4094;18446744073709551615
1024;4096;32;8;1;178;5346074
1024;2048;16;1;2;89;5229926
1024;4096;128;2;2;178;2588889
1024;512;16;4;2;178;2315111
512;2048;16;4;2;178;2319852
2048;2048;128;2;2;178;2707556
512;2048;8;2;2;178;4280889
256;2048;128;2;2;2047;18446744073709551615
1024;1;32;1;2;178;43880740
1024;2048;32;4;1;178;3865038
1024;2048;64;8;23;178;18446744073709551615
1024;256;32;2;2;46;3034222
256;4096;128;2;2;2047;18446744073709551615
1024;512;64;8;2;178;18446744073709551615
1024;2048;16;2;1;4094;18446744073709551615
512;2048;16;2;2;89;5718667
2048;1024;32;2;89;178;18446744073709551615
1;2048;1;2;2;89;45912444
512;1024;128;1;2;178;3030074
1024;2048;64;8;2;46;18446744073709551615
1024;4096;32;2;1;178;2625185
4096;1024;32;2;2;178;1533037
256;1;32;1;2;178;131128000
1024;1024;32;1;2;1;146836297
1;1024;1;2;23;178;106640148
