GLOBAL_SIZE_0;GLOBAL_SIZE_1;LOCAL_SIZE_0;LOCAL_SIZE_1;cost
4096;512;128;2;1196640
2;4096;1;256;17060864
2;1;2;1;3500079040
8;1;1;1;1048094976
32;8;2;2;35326560
4096;2048;256;1;1187808
2;64;2;2;65076064
1;256;1;4;29438688
1024;2048;256;1;1042656
4096;2048;256;1024;18446744073709551615
4096;256;256;2;1636896
4096;1;64;1;4685216
512;1;512;1;22950464
1024;1024;256;1024;18446744073709551615
1024;2048;128;1;1015872
1024;1024;512;1;1151328
256;4096;128;512;18446744073709551615
1024;1;128;1;13807456
1024;2048;64;1024;18446744073709551615
1024;2048;64;1;1310112
1;64;1;16;178666560
1024;4096;64;1;1249600
256;2048;128;512;18446744073709551615
1024;512;128;2;1335008
32;64;1;4;14359872
4;128;4;8;23716704
1024;2048;128;4;1076768
1024;4;128;4;3575936
128;1;1;1;64653056
8;2;2;1;524057184
1;512;1;8;17197152
1;4096;1;1;29423296
1024;4096;128;1;998144
2048;2048;512;512;18446744073709551615
1024;1024;256;1;1112640
512;4096;128;1;1007872
1024;1;128;1;13853568
2048;4096;64;1;1301056
4096;4096;128;512;18446744073709551615
1024;1;64;1;13841536
1024;1;32;1;13785504
1024;4096;1024;1;1131968
256;512;128;2;1982624
1024;1;256;1;13341792
1024;4096;32;1024;18446744073709551615
1024;4096;32;1;1996320
1024;4096;128;1024;18446744073709551615
1;4096;1;1024;20082976
128;4096;128;1;1155520
1024;4096;512;1;1093568
2048;4096;128;1;1043104
1024;4096;128;512;18446744073709551615
512;2048;256;1;1098752
4096;2048;64;1;1836800
2048;2048;512;1;1108640
256;4096;64;1;1270944
1024;4096;256;1;1030016
4096;4096;128;1;1248256
1024;4096;256;512;18446744073709551615
512;2048;128;1;1076544
4096;4096;32;1024;18446744073709551615
4096;4096;128;1024;18446744073709551615
2048;512;128;1;1166400
512;1;128;1;23183968
1;4096;1;1024;20104736
1024;4096;64;1024;18446744073709551615
1024;4096;32;512;18446744073709551615
1024;1024;128;1;1107040
1024;1024;64;1;1289312
16;32;2;4;18994464
512;4096;512;1;1035968
256;4096;128;1;1065856
1024;2048;128;1024;18446744073709551615
128;64;2;4;6486880
1024;8;128;8;2100416
1024;2048;128;512;18446744073709551615
512;1;64;1;23360864
2048;4;32;2;2538496
128;128;8;8;5664288
16;16;1;2;34859744
64;64;1;1;40911296
256;2048;128;1;1158432
512;8;512;4;18446744073709551615
32;4096;2;1;20381312
2048;2048;128;1;1014080
4096;1024;256;1;1208832
512;256;256;2;1919008
256;256;128;2;2273984
1024;32;256;16;18446744073709551615
4096;4096;256;1;1274304
1024;512;64;2;1276000
2048;4096;256;1024;18446744073709551615
4;4096;2;1024;18446744073709551615
1024;4096;512;16;18446744073709551615
1024;4096;128;1;993856
8;4096;8;1;5405920
1024;4096;128;32;18446744073709551615
1024;4096;2;2;14787680
8;4096;1;1;40289408
1024;2048;128;256;18446744073709551615
1024;4096;512;1;1085920
4096;4096;128;1;1250912
1024;128;1024;1;1546624
1024;128;128;1;2899904
1024;1;16;1;13627712
512;4096;128;1;1009152
32;4096;2;1;20390368
16;4096;4;1;10250624
1024;4096;128;2;993056
1024;4096;1;1;53230112
1024;4096;64;2;1002848
1024;4096;128;128;18446744073709551615
1024;4096;256;2;1060896
128;4096;128;2;1159936
16;512;4;2;5891552
1024;2048;1024;2;18446744073709551615
1;4096;1;16;7700512
1024;4096;8;2;3811808
64;4096;1;2;22025472
8;4096;8;2;3325152
1024;2048;128;2;1022208
1024;4096;1;2;28985792
2;4096;2;2;10278144
1024;4096;512;2;1124000
1024;4096;128;8;1115520
256;4096;128;2;1079968
2048;1;128;1;9033088
2048;4096;8;2;4638272
4096;4096;16;2;3972288
1024;8;128;2;2104352
1024;4096;128;4;1057888
512;1024;256;4;1273344
512;4096;256;2;1035040
4096;1;4;1;20991712
1024;1024;32;1;1847520
16;512;8;512;18446744073709551615
1;4096;1;32;7716544
2048;4096;128;2;979552
512;4096;128;2;1001120
1;4096;1;1;29429184
1;2048;1;1;29414624
2048;4096;128;1;1047520
2048;4096;64;2;1023104
1024;2048;128;1;1017216
2048;1;128;1;9048032
2048;4096;128;8;1151520
2048;4096;256;2;1009984
4096;4096;128;2;1271840
4096;2048;128;2;1159776
1024;1;256;1;13338848
2048;4096;128;512;18446744073709551615
256;4096;16;2;1896448
2048;2;32;2;4553856
2048;4096;128;4;1002752
2048;2048;128;2;997664
256;4096;128;1;1076384
4096;4096;128;8;1604960
2048;1024;128;1;1077824
2048;1024;128;2;1069568
2048;2048;128;1;1011072
2048;2048;256;2;1070624
4096;4096;256;4;1603136
4096;4096;128;4;1303808
2048;1024;64;2;1069248
1;4096;1;4;9803168
2048;1;128;1;9037248
2048;1;128;1;9032384
1024;1024;128;2;1123776
2048;1;64;1;8962656
4096;4096;64;2;1250080
512;4096;128;4;1041280
2048;2048;256;1;1043616
4096;2048;128;8;1395808
1;4096;1;2;16996576
1024;2048;256;1024;18446744073709551615
4096;4096;32;2;2067936
2048;512;128;4;1315648
256;512;128;2;1958912
1024;512;256;1;1266720
1024;512;128;1;1241664
2048;128;256;4;1553760
2048;64;128;2;2340864
4;128;1;128;37744928
32;64;1;8;11318240
512;512;8;512;18446744073709551615
128;4096;16;1;2924544
2048;4096;256;8;18446744073709551615
2048;2048;1024;2;18446744073709551615
1;4096;1;1;29406624
2048;4096;256;1;1043168
4096;4096;256;2;1314080
512;1;128;1;23175072
2048;1;64;1;8956128
2048;4096;512;1;1055648
2048;4096;64;1;1300608
2048;4096;1024;2;18446744073709551615
2048;4096;64;4;991840
2048;4096;32;8;991072
1024;4096;64;8;1087680
2048;4096;32;2;1283328
2048;1;32;1;8970880
2048;2048;512;2;1128512
16;4096;4;2;5801728
2048;16;128;2;2993184
2048;4096;16;16;1008800
1;512;1;2;26895296
2048;4096;512;2;1218144
1;4096;1;4;9802048
2048;1;256;1;9014720
2048;8;128;2;2093216
2048;4096;128;32;18446744073709551615
1;4096;1;2;17006240
1024;1024;64;2;1120960
2048;256;256;2;1618080
1;512;1;128;33090304
4096;1;2;1;41316960
2048;1024;256;1;1105248
2048;2048;128;4;1103552
2048;512;256;1;1182560
2048;1;256;1;9004416
512;1024;128;2;1237408
1;4096;1;2;17026624
2048;4096;128;128;18446744073709551615
1024;1024;128;8;1274272
2048;4096;16;2;2518400
2048;2048;256;1024;18446744073709551615
1;4096;1;8;7392608
2048;1;512;1;9009280
32;32;16;1;9616320
64;2048;64;256;18446744073709551615
1024;4;16;4;4880576
2;1;1;1;3579460128
512;128;256;1;2812544
2048;1024;512;8;18446744073709551615
2048;4096;64;8;1024768
2048;2;128;2;4616288
2048;4096;2;2;18095744
1;1;1;1;5535301920
2;256;1;1;41900224
4;2048;1;1;40556000
512;1;128;1;23180416
256;4;16;2;11724672
512;2048;128;2;1105152
2048;512;128;2;1190528
2048;2048;64;2;1013952
2048;2048;16;2;2170400
1;2048;1;2;17039936
512;4096;64;2;1027872
2048;1;64;1;9009280
2048;1024;32;2;1304768
2048;1;1024;1;9266560
8;4096;8;1;5423136
2048;4096;128;16;18446744073709551615
2048;1024;64;4;1098112
2048;4096;16;1;4434752
1;4096;1;2;17013056
4096;1;128;1;4671200
256;2048;128;2;1187200
2048;2048;128;8;1162304
2048;256;256;2;1625632
4096;2048;128;1;1186400
2048;4096;512;4;18446744073709551615
1024;1;256;1;13369024
1024;4096;64;4;1023072
1024;2048;256;2;1074112
1;1;1;1;5536566560
2048;2048;64;1;1270176
4096;1;128;1;4668544
4096;1;256;1;4731744
2048;512;64;2;1174208
2048;4096;256;4;1179040
512;1;128;1;23178976
1;1;1;1;5637254176
1024;4096;256;1;1035776
2048;512;32;4;1304928
1;1024;1;4;15195424
1024;4096;16;2;2064512
1024;1024;256;2;1148256
2048;1024;256;2;1130816
1024;4096;32;1;1992448
2048;1024;128;4;1146912
1024;4096;256;4;1138464
1024;1;512;1;13637408
1;4096;1;2;17020256
1024;4096;64;1;1264800
1024;1;128;1;13861888
1024;1;128;1;13814784
2048;256;128;2;1711712
512;4096;1;8;7835584
64;2048;1;2;21847968
512;2;8;2;12146560
4096;512;8;8;1990944
2;4096;1;32;19417024
1;1;1;1;5638978912
2048;1024;1;2;28906752
1;1024;1;2;20235104
2048;4096;1024;1;1270304
1;1;1;1;5641775104
2048;512;128;8;1298176
2048;1;32;1;9008288
4096;4096;64;1;2081568
512;4096;64;1;1372704
2048;1;16;1;9294688
2048;4096;128;64;18446744073709551615
2048;4096;128;1024;18446744073709551615
2048;1;128;1;9030592
4;4096;2;2;11060512
2048;128;128;2;2148096
2048;4096;1;1;66667360
2048;4096;1;2;35805472
2048;4096;512;256;18446744073709551615
2;4096;2;1024;18446744073709551615
2048;128;512;2;1725536
2048;64;8;2;4308160
4096;2;512;1;2467392
1024;1;128;1;13861312
1;1;1;1;5545784032
1;4;1;2;1713673696
1;2048;1;2;17024192
2048;32;128;2;2725696
1024;1;64;1;13852000
4096;1024;128;2;1194528
128;128;8;1;5585280
16;16;4;2;37586560
1;64;1;1;87083968
4;512;4;1;12370784
512;512;128;2;1678752
4096;2048;256;1;1181984
1;1024;1;8;8968832
4096;4096;512;8;18446744073709551615
2048;512;512;4;18446744073709551615
4096;1024;512;2;1276288
2048;4096;512;8;18446744073709551615
256;4096;64;4;1108160
2048;4096;8;4;2550528
2048;4096;256;16;18446744073709551615
2048;4096;32;1;2390720
1;1;1;1;5638914016
2048;2048;32;2;1257664
1024;2048;64;2;1031968
4096;1;256;1;4732320
2048;4096;32;4;1013696
256;4096;128;4;1106432
2048;1024;128;8;1154976
4096;1024;128;4;1261888
4096;4096;512;2;1608768
4096;4096;64;8;1337440
4096;2048;16;8;1266720
4096;4096;128;16;18446744073709551615
4096;2048;256;2;1243968
512;256;128;2;2146528
2048;1;512;1;8990336
1;4096;1;2;17013696
512;1;256;1;22522272
1024;4096;32;2;1243104
1;1;1;1;5637319040
1024;1024;4;1;11973216
256;512;128;512;18446744073709551615
1;16;1;1;344852896
32;1;1;1;262047136
512;4096;256;8;18446744073709551615
2048;1;256;1;9022688
1;4096;1;4;9809216
256;4096;64;2;1077152
1024;4096;512;4;18446744073709551615
128;64;64;2;2192928
512;512;256;2;1648384
128;4096;4;1;10682336
1;1;1;1;5546660800
256;4096;128;8;1147072
1024;2048;16;2;1952128
512;1;128;1;23338208
4096;4096;64;4;1263456
1;4096;1;1;29404192
1024;4096;512;8;18446744073709551615
4096;2048;128;4;1261696
512;4096;128;8;1080416
1;4096;1;2;17012192
4;2;2;2;1166125824
2;16;2;2;259958080
2048;4096;1024;4;18446744073709551615
2048;32;256;2;2219904
2048;4096;4;2;9163808
2048;1;2;1;24881152
4096;1;2;1;41303456
256;4096;256;64;18446744073709551615
1;32;1;32;527145152
64;2048;1;256;49451392
8;4096;8;16;4038688
4;4096;2;16;4779808
4096;1024;128;1;1190304
1024;2048;1024;32;18446744073709551615
2;256;2;1;28709728
2;256;2;4;17440000
1024;2048;512;128;18446744073709551615
4096;1024;64;2;1205888
4096;4096;32;1;3894368
2048;1024;8;2;3848096
512;2048;128;1;1078496
4096;1;64;1;4682688
4096;256;128;4;1569056
2048;1;256;1;8979968
4096;128;128;4;1579776
32;4;16;2;82861792
4;2;1;2;1138719584
1;1024;1;4;15178880
4096;4096;256;1;1276192
2048;512;256;2;1211072
1024;1;32;1;13828256
2048;4096;64;16;1156480
256;4096;1;8;7385184
8;4096;8;1024;18446744073709551615
2048;128;4;2;7120096
4096;256;128;2;1607520
128;4096;16;2;2101792
2048;4096;1;1024;11038272
2048;4096;4;1024;18446744073709551615
2048;4096;1;2;35791968
4096;1;1024;1;4915488
2048;1024;512;2;1124544
2;4096;1;2;19805408
2048;8;128;4;2077312
4096;1024;2;8;6743296
1;256;1;256;68025152
128;256;1;4;12318208
4096;8;512;4;18446744073709551615
4096;1024;256;1;1210880
1024;1024;1;1024;51843168
4;512;1;16;7187904
1;4;1;2;1707325728
128;64;8;1;6318816
16;16;1;1;65337184
64;4;1;2;35020512
16;2048;4;1;10310368
1024;1;1;1;44178016
16;512;4;2;5881728
1;4096;1;1;29432256
1;4096;1;1;29392160
4;4096;1;128;29477760
128;4;64;4;19408416
1;512;1;1;34743168
128;2048;16;512;18446744073709551615
1024;1024;128;4;1175232
2048;512;512;2;1219232
64;512;4;128;11187744
4096;1;1;1;81850912
1;128;1;1;46464928
1;32;1;1;172122400
2048;2;128;1;4571360
2048;512;128;32;18446744073709551615
1024;2048;512;4;18446744073709551615
4096;2048;512;1;1270496
64;2048;8;256;18446744073709551615
32;4;16;4;83081120
2;256;2;128;26048032
128;32;8;32;4935072
4;1;1;1;2091736736
4096;32;32;4;1897024
256;32;16;16;3374816
256;2;8;2;19999680
256;512;4;8;2935072
2;1;1;1;3556450048
2048;64;1024;2;18446744073709551615
2048;4096;1024;32;18446744073709551615
64;4096;1;16;4960352
128;4096;128;512;18446744073709551615
128;256;16;4;3183520
4096;2;16;1;7277472
1024;1;2;1;27068768
4;256;1;16;13611200
2048;1;512;1;9019168
2048;2048;256;4;1130080
1024;1;128;1;13819744
512;4096;512;4;18446744073709551615
4096;2048;64;1;1836416
128;4096;2;2;11449952
1;4096;1;2;16991232
256;4096;256;4;1121472
1;1;1;1;5545428512
2048;512;64;1;1268832
512;1024;512;2;1305056
2048;512;128;1;1171552
4096;1;32;1;4670336
4096;512;64;2;1182752
1024;1;256;1;13347552
512;4096;32;2;1398752
1;1;1;1;5547075008
4096;2048;16;2;3478176
512;2048;256;2;1112864
1;4096;1;4;9820320
512;4096;512;2;1078624
1;256;1;2;26650944
1;2048;1;2;17012768
2048;1024;32;1;2024864
4096;1;128;1;4664128
256;1;128;1;42279712
1;2048;1;2;17015072
2;128;1;1;55252128
128;32;8;1;7258688
1;16;1;2;425420224
64;1;1;1;128267040
1;2048;1;1;29458624
2048;1024;128;1;1073376
4;512;2;2;13104352
8;4096;8;32;3878144
2048;1;1024;1;9259872
2048;4096;512;64;18446744073709551615
1;2048;1;2;17018400
1024;2048;256;4;1104832
4096;1;64;1;4673344
1024;1024;128;32;18446744073709551615
1024;512;128;2;1334048
1024;4096;1;2;29006848
2048;1;16;1;9275872
1024;2048;256;8;18446744073709551615
2048;1;64;1;9014944
512;1024;128;8;1283552
2048;1;128;1;9019264
1;64;1;2;106602080
512;512;8;2;3391808
128;16;8;2;5564800
64;1024;4;128;11078144
1;2048;1;4;11625216
2048;4096;16;128;18446744073709551615
4096;1;1;1;81852832
2048;1;256;1;8994560
32;2048;16;1;3054464
64;128;1;8;7222880
1024;2048;128;8;1122400
2048;256;32;4;1541120
1;1;1;1;5534737248
4;4;2;4;625880256
256;256;8;128;6735680
1;1;1;1;5644576608
256;2048;1;16;4937728
256;1024;256;4;1265984
1;1;1;1;5534584000
4096;4096;256;8;18446744073709551615
2048;4096;512;128;18446744073709551615
32;4096;2;2;11115872
512;4096;512;8;18446744073709551615
4096;1024;8;4;3316448
256;32;16;1;4963456
512;2;256;2;11510848
4;512;1;1;40621376
1;4096;1;1024;20074176
16;4096;2;2;11104032
4096;4096;4;256;2099456
128;32;16;4;4423328
4096;1;512;1;4693472
1024;1;128;1;13802336
512;512;4;16;5009472
2048;16;1;16;5161568
1;128;1;1;46502880
1024;16;1;4;13359456
64;4;8;1;33614848
128;1;4;1;68263744
4096;1024;128;1;1190944
4096;512;1;2;44102432
2048;16;2;2;13712768
2048;4096;2;8;5261088
2;4096;2;128;6150208
1;4096;1;2;17003520
512;4096;2;2;12902240
32;4096;2;2;11113888
512;16;128;4;2142464
16;4096;4;256;8476992
32;4096;16;2;2239488
8;4096;8;256;18446744073709551615
1;2048;1;1;29449376
256;64;64;2;2134400
256;512;256;256;18446744073709551615
2048;512;16;2;2108384
1;2048;1;16;6487968
1;4096;1;4;9803328
64;1024;4;1;10282400
4096;32;2;8;6353536
2048;256;256;1;1593344
2048;4096;1;32;4056032
2048;1024;2;128;5250048
1024;256;512;2;1595840
2048;128;128;8;1463136
2048;4096;128;256;18446744073709551615
32;16;32;16;18887168
64;128;8;8;4792864
1024;8;16;2;4856384
256;256;8;32;6146336
2048;2048;4;2;7996128
2048;256;32;2;1792320
128;32;4;32;5731424
2;1;2;1;3500984928
4096;128;2;4;11336832
256;32;16;16;3414656
256;2;256;2;20738912
1024;1;8;1;13432800
4096;4096;4;128;1610816
128;256;16;4;3417280
2048;2048;512;8;18446744073709551615
1;1;1;1;5545857152
1024;1;512;1;13613056
4096;512;1;16;7341056
2048;128;32;16;1819232
1;128;1;4;58885312
512;1;1;1;49731232
64;128;8;8;4677120
16;2048;4;1;10313056
4;4096;1;128;29851680
4096;4096;1024;2;18446744073709551615
2048;2;1024;2;18446744073709551615
16;64;4;16;12015168
128;4096;8;32;4662752
1;16;1;2;426593728
4096;4096;32;4;1249120
256;1;128;1;42271392
2048;1024;512;1;1130720
2048;1;1024;1;9266560
1024;512;256;2;1354112
128;2048;8;4;2299936
1024;4096;128;16;18446744073709551615
1;4096;1;2;16995744
256;1024;128;2;1529728
2048;2048;1;2;31079360
2048;1;256;1;8983616
256;1;128;1;42395200
512;1024;64;2;1203392
4096;4096;512;1;1335520
2048;4096;1;1;66685696
1;2048;1;1;29456096
2048;2048;128;16;18446744073709551615
1;4096;1;1;29417696
128;64;8;2;4743584
512;512;64;2;1610304
128;1024;16;1;2958528
32;1024;4;1;10341152
1024;4096;32;4;1012128
4096;32;1;32;4964032
2048;1024;1;1;53144352
