GLOBAL_SIZE_0;GLOBAL_SIZE_1;LOCAL_SIZE_0;LOCAL_SIZE_1;v_TP_186;v_TP_187;cost
16;512;8;128;2047;89;18446744073709551615
1024;4096;2;16;23;23;218824920
1024;2;8;1;1;23;470082763
8;32;8;2;46;2;459872924
1024;4096;2;16;2;23;257043250
512;4096;2;16;23;23;218783842
256;4096;1;16;23;46;176567799
1024;1;2;1;23;23;1232127372
256;4096;32;16;23;46;18446744073709551615
128;4096;1;16;2;46;196588213
256;4096;8;1;23;46;1447255553
4;4096;1;16;178;46;1588358431
256;512;1;16;23;23;651923958
256;1;1;1;23;46;854825861
256;4096;1;16;89;23;871146822
256;4096;2;16;23;89;163933380
8;4;4;2;46;4094;2510658042
4096;16;1;8;178;178;1535602311
256;4096;16;1;1;2047;1266748175
1;2048;1;1;23;89;1934035452
256;4096;2;16;23;46;173818420
256;4096;1;32;2;89;176179464
256;1024;2;16;23;89;160324587
512;4096;2;16;23;89;141408626
512;4096;2;16;46;89;267152177
512;2048;2;32;23;46;205138084
512;4096;2;16;2;89;162742047
512;4096;2;16;23;178;130937044
512;4096;2;16;23;2047;113699417
512;4096;2;64;23;178;151520171
256;4096;1;8;23;178;479132558
512;1024;1;32;23;178;129180501
512;4096;16;16;46;2047;764694598
512;4096;2;8;23;2047;203015292
512;4096;1;16;23;1;1520831540
512;1;2;1;2;4094;492474760
512;1;2;1;23;2047;1051812529
512;4096;2;16;89;2047;109817335
64;1;4;1;23;2047;1458638493
512;4096;8;16;23;2047;114766337
512;4096;1;16;89;2047;114572794
64;1;4;1;89;2047;1431267804
512;4096;4;32;89;2047;106891712
512;4096;4;64;89;1;1688050510
4096;4096;4;32;46;178;142317961
256;4096;4;32;89;2047;106125251
512;4096;8;32;89;178;465830137
256;2048;4;32;89;2047;104783668
256;4096;4;32;178;2047;105472083
512;4096;8;32;89;2047;474735179
256;2048;8;32;178;2047;504709391
256;2048;4;32;178;2047;105588001
512;1024;2;32;89;2047;109504544
256;2048;4;16;178;2047;105562793
256;512;2;32;89;89;823032326
128;2048;4;32;89;4094;105446211
256;1024;4;32;46;1;1492655232
256;1;4;1;89;2047;964052992
256;2048;8;32;89;4094;453001682
2048;2048;4;8;2047;2047;353610336
512;2048;4;32;89;2047;105521754
256;2048;4;8;89;4094;119352542
2048;1;64;1;178;46;1594542539
4;32;1;2;46;23;834960403
2;128;1;2;1;23;724921345
1;64;1;64;1;178;1046169955
256;2048;4;64;89;2047;131999544
256;1024;4;32;89;2047;104134418
256;2048;16;32;89;2047;18446744073709551615
256;1024;4;32;89;4094;103456001
2048;1024;8;32;89;2047;491504969
256;512;4;32;89;2047;103619751
256;1024;4;32;46;178;137969129
256;1024;4;32;89;1;1509174187
256;1024;4;64;89;4094;269747923
256;1024;4;32;178;4094;102011958
256;1024;4;32;46;4094;105351875
512;1024;4;16;46;4094;108418292
256;512;4;32;178;4094;101958628
256;1024;4;8;89;4094;147962752
256;512;4;32;178;2047;105671168
256;512;4;64;178;4094;143641880
256;512;2;32;178;4094;107908752
512;512;8;32;178;4094;448901601
256;1024;4;64;178;4094;111228796
256;512;4;32;2047;4094;189430046
256;256;2;16;89;4094;109045583
128;512;4;32;178;4094;101922170
1024;256;4;16;178;4094;102109460
256;512;4;64;178;1;1736152217
128;512;4;32;178;2047;105427917
256;512;4;16;4094;4094;696092065
256;256;1;32;178;4094;143181334
128;512;16;32;89;4094;18446744073709551615
128;512;4;16;178;4094;102155545
1024;2048;4;16;46;4094;108254920
64;1024;4;32;178;4094;103810793
64;512;4;32;178;4094;103623792
128;4096;2;32;178;4094;107337502
128;512;4;32;2047;4094;189430047
128;2048;4;32;178;4094;101738210
128;1024;4;32;89;4094;105718211
128;2048;4;32;178;1;1515577464
128;2048;8;32;2047;4094;102065001
16;2048;2;32;178;4094;107774668
512;2048;4;32;178;4094;102147667
128;2048;4;16;178;4094;102146750
128;2048;4;32;2047;4094;189214800
16;4096;4;32;89;4094;114970459
128;4096;4;32;2047;4094;189551254
128;1;4;1;178;4094;951506284
32;2048;2;64;178;4094;119982502
128;2048;16;32;89;1;18446744073709551615
64;2048;4;64;178;1;1684191316
128;2048;4;128;178;4094;18446744073709551615
1024;1;128;1;178;4094;938213870
128;2048;4;32;1;4094;391452346
128;2048;4;32;23;4094;105244213
1024;2048;4;4;4094;4094;2412957411
128;256;8;32;178;4094;358750181
128;2048;8;32;178;4094;385705554
256;2048;4;32;89;1;1513522603
256;1024;4;16;178;4094;102190504
128;2048;2;32;178;4094;107240377
128;2048;16;128;178;1;18446744073709551615
128;4096;4;32;89;4094;105480668
64;2048;4;32;178;4094;103820710
16;2048;4;16;178;4094;192088542
256;4096;4;64;178;4094;111881878
128;4096;8;32;178;4094;347450922
128;1;4;1;178;4094;950806960
256;2048;4;32;178;4094;101958085
256;256;4;16;178;4094;102327253
2;256;2;256;89;2047;18446744073709551615
256;2048;4;32;2047;4094;189205750
64;4096;4;32;178;2047;106702585
16;4096;4;16;89;4094;201005799
32;2048;2;32;178;2047;108569297
128;2048;4;32;178;2047;110716459
128;256;4;32;178;1;1573767107
1024;32;16;1;89;46;1414001799
128;2048;4;64;178;4094;113242084
128;2048;32;32;178;4094;18446744073709551615
32;2048;4;32;2047;4094;189131839
256;2048;2;32;178;4094;107804833
256;2048;4;16;46;2047;108413171
128;1;4;1;178;4094;951569448
64;2048;4;16;178;1;1459150011
128;64;32;4;89;89;1847966366
128;256;4;32;178;4094;112135376
128;2048;2;32;89;4094;108213962
64;2048;4;32;89;4094;108579462
128;2048;1;32;178;2047;114877795
64;2048;4;32;178;1;1514809678
128;4096;4;64;178;4094;113543087
32;2048;4;32;178;4094;105807379
128;2;4;2;178;4094;400258009
64;512;16;2;2047;89;1551174633
256;32;64;4;89;46;1412157807
128;2048;4;4;178;4094;713229900
1;1;1;1;178;46;42073710336
32;1;2;1;46;1;3152533618
2;4096;1;8;89;178;655222021
2048;8;1;1;46;4094;1305918320
64;4096;4;8;178;4094;123954422
1024;2048;4;16;178;4094;102076001
32;2048;4;32;178;1;1517665999
256;2048;4;64;2047;4094;110569670
256;2048;4;32;89;4094;103809958
256;2048;16;16;178;4094;816410589
256;4096;4;32;178;4094;102008839
32;2048;4;32;89;4094;110118166
4;256;4;2;46;46;802749484
8;16;2;8;46;89;698168338
256;2048;4;32;178;1;1515540765
128;256;8;16;178;4094;127337880
128;2048;8;64;178;4094;18446744073709551615
128;2048;4;64;89;4094;229011964
128;2048;4;16;178;2047;105450212
2048;2048;4;32;178;4094;101763043
128;2048;4;32;2047;178;1307405416
128;1024;4;32;178;4094;102295500
64;2048;8;32;178;4094;351975127
8;1;1;1;4094;89;41551999731
8;8;1;2;178;46;1310619233
1024;32;256;4;178;2;18446744073709551615
256;1;2;1;1;89;430303221
16;128;2;16;178;46;1421414088
128;2048;1;2;178;4094;1205950417
4;128;4;32;89;89;1210159375
128;32;4;32;178;4094;101430293
32;32;4;32;89;4094;110107338
512;32;4;32;178;4094;101549959
128;4096;4;32;178;4094;101847294
1024;32;4;32;178;4094;101766795
128;32;1;32;2047;4094;699272775
128;32;4;32;2047;4094;188491590
128;32;4;32;23;4094;104038917
128;32;8;1;178;4094;900636829
128;32;8;32;178;4094;347413299
128;1;16;1;178;4094;717903640
128;32;16;32;178;4094;18446744073709551615
128;32;4;2;178;4094;408248600
128;1024;1;32;178;4094;142549792
1024;2;4;1;178;4094;950301480
16;32;4;32;178;4094;107202586
128;32;4;32;178;23;398590716
128;32;4;32;178;1;2041468035
128;32;2;32;178;4094;107540169
128;32;4;16;178;4094;102493501
64;64;4;64;178;4094;115150378
128;16;4;1;2047;4094;4708498042
128;32;4;16;178;1;1554807869
128;32;4;32;89;1;1748077895
128;32;4;1;178;2047;634990014
256;32;4;16;178;4094;102613792
128;32;4;16;89;4094;106380752
1;1;1;1;1;2;58304048596
256;64;8;32;178;4094;416264711
512;32;8;1;178;4094;767980573
128;32;4;16;46;4094;111533294
128;32;4;2;178;4094;405773501
256;32;1;32;178;4094;141798584
128;32;2;2;2047;4094;4716874333
128;16;4;1;2047;1;674064681
64;32;4;32;178;4094;103907207
32;32;4;32;178;4094;106199003
32;256;32;4;178;89;1862338382
128;32;4;32;89;4094;105463875
4096;64;256;32;4094;2047;18446744073709551615
16;8;1;8;4094;2;44671108527
1;4096;1;2;1;46;327914752
1;16;1;8;46;2;20371065084
8;32;1;4;46;46;765199219
8;128;1;2;46;23;944617792
8;64;1;8;89;46;1404538382
64;32;32;4;89;23;1415551418
128;32;4;32;178;178;1113517163
128;32;4;32;89;2047;112390792
128;8;4;2;89;4094;474729003
256;32;4;32;178;4094;101558003
128;16;4;1;178;2047;628747004
128;64;4;16;178;4094;102455461
4096;32;4;32;178;2;1077968112
128;2;4;2;178;89;1148297213
4096;32;4;32;178;4094;101788917
128;32;4;4;178;4094;711783226
128;8;4;1;178;4094;951918344
128;32;8;32;2047;4094;99850583
64;32;16;32;2047;4094;18446744073709551615
128;32;8;1;2047;4094;2413523316
128;64;4;8;178;4094;123850129
64;32;8;32;2047;4094;101898293
128;32;8;32;4094;1;11600701150
128;32;2;32;2047;1;21331994055
128;64;8;32;89;4094;707975231
128;8;8;8;2047;4094;330985085
128;32;4;32;1;4094;349539295
32;4;8;4;2047;1;5850952189
128;8;8;8;2047;4094;330957881
128;64;8;32;2047;4094;102227420
128;4;4;4;178;4094;708490857
128;32;8;16;2047;4094;191180168
128;32;8;1;4094;2047;2506081312
64;64;8;32;2047;4094;98652253
64;32;8;32;178;4094;427991053
128;32;4;1;2047;2047;2510962335
128;256;16;32;2047;4094;18446744073709551615
64;8;2;2;178;4094;885253817
256;256;8;32;4094;4094;230715378
64;64;32;32;2047;4094;18446744073709551615
32;64;8;32;2047;4094;129449086
64;64;16;32;2047;4094;18446744073709551615
64;128;2;32;1;4094;179778548
256;64;8;32;4094;4094;190518841
64;64;8;32;178;1;1166112416
64;64;4;32;4094;4094;368474208
64;128;16;32;2047;4094;18446744073709551615
16;64;8;32;178;4094;109131545
64;128;4;64;2047;4094;126737464
64;64;16;1;2047;1;1752831552
64;64;8;64;2047;4094;18446744073709551615
64;8;8;2;2047;4094;1250896031
64;128;8;32;2047;4094;100030587
8;64;8;32;2047;4094;222226176
64;64;4;8;2047;4094;660815981
64;64;4;32;2047;2047;100041921
64;64;8;32;2047;1;3080617346
256;64;16;32;2047;4094;18446744073709551615
64;64;8;32;4094;4094;242666588
64;4;8;4;2047;4094;935647451
32;64;8;32;178;4094;134740378
2048;256;8;128;46;1;18446744073709551615
1;512;1;1;46;2047;20407350733
1;128;1;32;1;23;1009351079
2;512;1;1;4094;1;613052675
64;64;16;16;178;4094;564760555
16;64;8;32;2047;4094;99611835
64;64;4;32;2047;4094;189499795
16;64;1;8;89;23;1648032608
32;128;16;2;178;46;1587771920
32;64;8;64;2047;1;18446744073709551615
64;512;32;32;2047;4094;18446744073709551615
1;64;1;32;2047;4094;1334293292
64;1;8;1;2047;4094;2412685988
64;64;2;2;2047;23;605586434
64;64;8;32;178;4094;422546844
64;16;8;8;2047;2047;185911753
64;64;8;32;2047;2047;340381128
64;64;8;16;2047;4094;190533298
16;64;4;1;89;23;1118520134
512;64;8;32;2047;4094;114677712
32;64;8;32;2047;2047;115712128
16;64;8;2;89;23;1273360068
16;16;2;2;23;4094;1513633890
1;4;1;4;23;1;72362038515
256;2048;32;8;1;178;1145564101
128;64;8;32;2047;1;3132189594
32;64;8;64;2047;4094;18446744073709551615
128;8;8;2;1;4094;1188762250
8;32;1;4;46;23;825490716
8;64;1;2;46;23;829680924
8;64;1;4;89;23;1382921885
32;32;16;4;89;23;1382172088
64;512;8;32;2047;4094;103057126
64;256;64;32;2047;4094;18446744073709551615
64;1;8;1;2047;23;2784507426
128;16;8;1;2047;4094;2407402651
16;64;8;32;2047;1;3023956123
64;128;8;32;2047;1;1652628390
64;32;16;32;89;4094;18446744073709551615
16;16;8;1;2047;4094;2410645675
64;64;32;64;2047;178;18446744073709551615
2;1;2;1;89;89;20512752834
1;1;1;1;178;4094;38641996166
256;128;2;128;178;46;332581627
128;1;8;1;2047;2;4189613159
64;128;4;32;2047;1;3443566291
128;32;1;32;2047;4094;698567555
64;128;8;32;4094;4094;221137880
64;256;16;32;2047;4094;18446744073709551615
256;64;8;16;2047;4094;190872334
1024;64;8;32;2047;4094;102436961
64;64;8;32;2047;23;478426058
64;64;8;64;1;4094;18446744073709551615
64;4096;8;16;2047;4094;190543171
16;64;16;2;89;23;1270320889
16;64;16;4;89;23;1527134166
64;64;8;16;2047;2047;195495837
64;32;8;16;2047;4094;190782125
2;1;2;1;2;1;37200500092
32;4;1;2;2;2047;619686186
1024;1024;8;32;1;23;1040869936
2048;1;2;1;1;46;418886208
64;128;8;16;178;4094;107718250
128;64;8;1;2047;4094;2413095884
8;64;8;16;2047;4094;377531919
64;64;8;32;1;4094;417668041
32;2048;1;32;2047;4094;699364099
64;64;1;32;2047;4094;697798816
64;128;1;32;4094;4094;1332781972
64;64;8;1;2047;2047;1358014399
64;64;2;32;2047;4094;351309210
16;64;16;32;2047;4094;18446744073709551615
128;64;8;16;2047;4094;190563544
128;64;8;1;178;4094;902123888
128;64;32;32;2047;4094;18446744073709551615
1;4096;1;2;178;1;612135474
2;128;1;2;2047;23;879982612
1024;64;4;64;1;178;540794295
128;1;1;1;1;46;830791894
64;64;4;32;4094;2047;196750464
64;64;8;64;4094;4094;18446744073709551615
64;64;2;32;1;4094;179441045
2048;64;8;32;2047;178;861406528
64;64;8;64;46;4094;18446744073709551615
64;128;4;32;2047;4094;189137089
256;128;8;64;2047;2047;18446744073709551615
256;64;8;64;2047;4094;18446744073709551615
64;128;32;32;2047;4094;18446744073709551615
32;16;2;8;46;1;1402036090
2;4096;1;8;46;1;827490425
2048;1024;1;16;46;2;831955855
8;1;1;1;4094;4094;38723474250
1024;8;32;2;178;46;1627526849
1024;32;256;4;23;1;18446744073709551615
8;1;2;1;1;89;10311212083
1;512;1;32;4094;2047;729396679
16;8;1;2;4094;2;11194745791
1;4096;1;2;1;46;329479551
1;64;1;2;4094;1;2456992215
4;256;1;1;46;1;802871343
1;1;1;1;46;2047;41287280333
1;1;1;1;1;23;43317943888
64;512;4;1;4094;1;1294000769
16;16;2;2;1;4094;2397626308
1;4;1;4;23;1;72362326292
2048;1;32;1;1;23;1320674250
2;1;1;1;89;89;20714171625
1;1;1;1;178;4094;38642016500
256;128;2;4;178;46;1515991672
128;1;8;1;2047;2;4190343133
4;1;2;1;2;1;18621830417
32;4;2;1;2;2;822368015
512;64;32;4;1;23;952979228
2048;1;2;1;23;46;1206425085
1;4096;1;16;178;1;1334744291
2;128;2;64;1;23;2042091665
1024;64;8;64;1;178;18446744073709551615
128;1;64;1;1;46;21158869125
1;128;1;8;1;1;4733414072
1;4;1;1;89;178;10497540354
2048;1024;128;16;46;2;18446744073709551615
8;1;1;1;4094;89;41552039065
128;8;1;2;178;46;1267835780
1;32;1;4;178;23;2064997322
256;1;2;1;1;1;639088563
256;512;1;32;4094;2047;715096854
16;8;1;8;4094;2;44669754403
