ec33646cd4633fa1ff9b7e12a203bd054e2fb87b7b1303908afe3d8f2874f742.cl -> 502265479 (4096;8;2;8;178;4094;502265479)
c755873cf1ad37502bd392f430ad8f140ca37f2a83e3dbc8aa3333030226fd55.cl -> 447445679 (2;4096;1;2;1;23;447445679)
c223634dca9e5329fea4a0cc19ea7f3eca94e500a46370ac40158151eb62039a.cl -> 158405212 (1;1024;1;32;2047;1;158405212)
68d105507624fdc148ea9e35ef116bf024a6d0695052d39799ffbe4fd4f5f9b7.cl -> 117638544 (32;32;2;8;1;1;117638544)
ca900c4dcbbc1810a084f86b127798f7de6c3f116373b58f917de85ed0e4a3d9.cl -> 98652253 (64;64;8;32;2047;4094;98652253)
c8e0e685b7995c493dae11781b896fca39e2cd4e58fba98a3f4ec1bd32297a42.cl -> 90431750 (8;4096;8;1;1;4094;90431750)
f0f08081347160da9664b2fdd8ad8ca313290b393417b2621a6a6da55f7878f0.cl -> 82862625 (2048;16;4;16;82862625)
1b78677663bd2dedfca1d511f2bb6b08eb5a0c873e51762fac94c9f7387371c7.cl -> 73264919 (1024;4096;16;16;73264919)
