epoch;GLOBAL_SIZE_0;GLOBAL_SIZE_1;GLOBAL_SIZE_2;LOCAL_SIZE_0;LOCAL_SIZE_1;LOCAL_SIZE_2;cost
1505191400;128;128;256;1;8;64;18446744073709551615
1505191401;1;32;1;1;32;1;554969630
1505191401;2;2;256;2;1;64;38025037
1505191401;64;4;128;8;4;16;18446744073709551615
1505191401;2;2;256;2;2;64;71288000
1505191401;2;32;8;2;1;4;22992741
1505191402;2;16;256;2;2;64;25360741
1505191402;2;32;32;1;1;1;71149037
1505191402;2;64;8;2;32;4;66066222
1505191402;1;32;8;1;1;2;46470370
1505191402;2;128;8;2;32;4;33758666
1505191402;2;2;64;1;1;32;74773333
1505191403;1;8;4;1;4;1;307973778
1505191403;2;32;8;2;4;1;22989630
1505191403;128;16;16;8;4;8;5246075
1505191403;32;2;2;2;2;2;93566074
1505191403;1;16;16;1;4;2;39218074
1505191403;128;4;1;8;4;1;28312741
1505191403;128;16;2;8;4;2;4241037
1505191404;64;1;1;4;1;1;212007259
1505191404;64;32;2;8;4;2;4181481
1505191404;128;16;2;8;4;2;4258074
1505191404;128;16;64;2;4;8;18221037
1505191404;16;4;64;2;1;32;19908445
1505191404;64;32;2;8;4;2;4169926
1505191404;8;32;2;4;2;2;21071704
1505191405;64;32;2;8;4;1;3649334
1505191405;64;32;2;8;4;2;4161185
1505191405;64;32;2;8;4;1;3639704
1505191405;256;32;2;8;4;1;5412148
1505191405;64;1;2;8;1;1;101563259
1505191405;1;32;2;1;4;1;151908741
1505191405;4;32;2;4;4;1;38901333
1505191405;128;32;2;8;8;1;3232741
1505191406;64;32;1;8;4;1;7887852
1505191406;1;1;256;1;1;1;75335556
1505191406;128;32;2;8;2;1;6203555
1505191406;128;32;2;8;8;2;3441778
1505191406;128;32;2;8;8;2;3121778
1505191406;128;1;2;8;1;2;55804297
1505191406;128;128;1;8;2;1;6602074
1505191406;128;4;2;8;2;2;13756296
1505191406;128;8;2;8;2;2;8702963
1505191407;64;2;64;4;1;1;18391407
1505191407;128;32;32;8;2;32;18446744073709551615
1505191407;16;32;2;8;8;2;14872741
1505191407;4;16;1;2;1;1;153411111
1505191407;64;32;2;8;8;2;4029037
1505191407;1;32;2;1;8;2;169666963
1505191408;4;32;2;4;8;2;42393185
1505191408;32;4;8;4;2;4;13121629
1505191409;2;2;2;2;2;2;1213483408
1505191409;128;32;32;8;8;32;18446744073709551615
1505191409;128;2;64;1;2;32;60682963
1505191409;1;16;8;1;1;1;89586519
1505191410;1;8;256;1;2;2;24775703
1505191410;1;32;4;1;8;4;116372000
1505191411;8;1;1;2;1;1;1328708000
1505191411;8;4;64;8;1;64;18446744073709551615
1505191411;128;32;2;8;16;2;3380296
1505191411;128;32;1;8;8;1;4214666
1505191412;128;32;2;2;8;2;18052000
1505191412;64;8;16;8;8;1;4123111
1505191412;128;8;32;8;4;32;18446744073709551615
1505191412;64;8;32;32;8;16;18446744073709551615
1505191412;16;32;16;8;4;2;3423408
1505191412;1;32;128;1;8;32;72969778
1505191412;128;64;2;64;4;2;18446744073709551615
1505191412;128;32;2;8;1;2;6187704
1505191412;256;64;2;8;4;1;5544592
1505191412;128;16;8;32;16;4;18446744073709551615
1505191413;128;2;2;8;2;2;28052445
1505191413;128;32;2;8;1;2;5965482
1505191413;128;32;2;128;8;2;18446744073709551615
1505191413;128;32;2;1;8;2;26642815
1505191413;16;8;64;8;1;32;4941629
1505191413;16;8;32;8;4;16;18446744073709551615
1505191413;128;32;2;8;4;2;3565926
1505191413;128;32;1;8;8;1;4235556
1505191413;128;4;2;8;1;2;15655704
1505191414;1;32;2;1;8;2;169380592
1505191414;128;256;2;8;1;2;6100592
1505191414;128;32;2;8;2;2;4908741
1505191414;128;8;32;8;2;2;5281777
1505191414;128;128;2;8;1;2;8741185
1505191414;128;32;8;8;8;2;6117778
1505191414;128;32;4;8;8;4;4843111
1505191414;64;8;32;8;1;1;9232296
1505191414;64;32;1;16;2;1;7675259
1505191415;128;8;1;1;8;1;16805482
1505191415;16;16;8;2;16;1;8581630
1505191415;32;16;16;8;8;2;2592444
1505191415;16;16;32;8;8;1;4727555
1505191415;64;32;16;8;4;1;5460889
1505191415;64;16;32;8;4;1;4826815
1505191415;32;16;32;16;8;32;18446744073709551615
1505191415;16;16;32;8;4;32;18446744073709551615
1505191415;32;16;16;2;8;2;14640740
1505191415;32;16;16;8;4;2;3174222
1505191416;128;16;32;8;4;4;5516741
1505191416;32;8;8;8;8;4;7135259
1505191416;16;16;16;8;8;2;3972889
1505191416;32;16;16;4;8;2;5067703
1505191416;64;16;32;8;4;2;4818667
1505191416;32;32;4;8;8;1;3958814
1505191416;32;16;16;2;8;4;13798963
1505191416;32;16;1;8;8;1;26465334
1505191416;32;16;32;2;1;4;18165482
1505191417;4;16;16;1;8;2;13324148
1505191417;32;16;16;1;2;2;34090815
1505191417;32;4;2;8;1;1;48469926
1505191417;32;16;32;4;2;2;14617777
1505191417;256;128;2;32;16;1;18446744073709551615
1505191417;8;1;64;4;1;1;40919704
1505191417;128;16;128;32;1;1;2468592
1505191417;1;64;2;1;2;1;83200444
1505191417;32;32;64;1;4;8;32975111
1505191418;32;8;16;1;2;1;43061037
1505191418;64;1;1;1;1;1;221685777
1505191419;4;1;4;2;1;4;634826222
1505191419;1;256;128;1;256;2;18446744073709551615
1505191419;16;32;4;2;8;4;10639852
1505191419;16;1;128;16;1;8;7930963
1505191419;256;1;1;2;1;1;68658371
1505191419;32;16;16;8;8;1;5167408
1505191420;1;1;16;1;1;2;603225926
1505191420;128;8;64;128;1;1;2987703
1505191420;32;16;32;32;16;16;18446744073709551615
1505191420;1;128;128;1;1;1;70973037
1505191421;32;1;2;4;1;2;202874074
1505191421;2;128;128;1;2;2;24382815
1505191421;32;16;32;8;4;2;4312741
1505191421;128;16;128;32;4;1;2722666
1505191421;128;16;128;32;2;1;2531259
1505191421;16;16;128;1;1;1;71669629
1505191421;8;4;128;8;4;1;3749630
1505191422;64;2;256;1;1;2;41933630
1505191422;8;1;128;8;1;1;13820000
1505191427;2;1;1;2;1;1;4723678370
1505191427;16;8;64;8;4;1;5283407
1505191427;32;4;128;32;4;1;2878667
1505191427;256;16;128;32;1;1;3246814
1505191427;128;32;128;32;1;1;2337630
1505191427;128;32;128;32;32;1;18446744073709551615
1505191427;64;32;128;32;1;4;2903111
1505191427;128;64;128;64;32;4;18446744073709551615
1505191427;128;16;128;64;2;1;3394370
1505191427;128;32;128;16;1;1;4553481
1505191428;1;32;128;1;1;1;71580888
1505191428;128;32;128;32;1;2;2787407
1505191428;128;32;128;16;32;1;18446744073709551615
1505191428;128;32;128;32;2;1;2590963
1505191428;128;32;256;32;1;1;2293629
1505191428;128;32;1;64;1;1;4130963
1505191428;128;32;1;32;2;1;4110370
1505191428;128;32;256;32;1;2;1696148
1505191428;128;64;1;8;32;1;5248000
1505191428;128;64;256;32;1;2;1525037
1505191429;128;32;64;32;1;2;2970074
1505191429;64;64;256;32;64;2;18446744073709551615
1505191429;128;64;256;64;4;4;18446744073709551615
1505191429;128;64;64;16;1;2;2942222
1505191429;128;64;1;32;1;1;3484296
1505191429;128;32;256;32;2;1;1971259
1505191429;256;64;256;32;32;2;18446744073709551615
1505191429;64;32;256;16;2;2;2574074
1505191429;128;64;256;32;1;8;1414815
1505191429;128;64;256;32;4;1;1527555
1505191429;64;64;128;32;1;8;1732444
1505191429;128;32;256;32;2;4;1347703
1505191430;128;128;256;64;128;8;18446744073709551615
1505191430;128;64;256;32;1;64;18446744073709551615
1505191430;128;64;256;64;1;4;1402518
1505191430;128;64;256;32;1;4;1443556
1505191430;128;8;256;32;1;4;2676148
1505191431;64;64;256;8;64;4;18446744073709551615
1505191431;256;32;128;32;2;4;1902222
1505191431;256;32;256;32;2;4;1226222
1505191431;128;32;64;32;2;8;18446744073709551615
1505191431;256;32;256;32;4;4;18446744073709551615
1505191431;1;32;256;1;1;4;24843112
1505191431;1;32;256;1;2;4;25720445
1505191431;128;16;256;32;4;4;18446744073709551615
1505191431;256;16;256;128;1;4;18446744073709551615
1505191431;256;32;128;32;4;16;18446744073709551615
1505191432;256;32;64;64;2;4;18446744073709551615
1505191432;128;64;128;32;1;4;1668889
1505191432;256;32;1;32;2;1;2744445
1505191432;256;32;128;16;2;4;2213778
1505191432;256;32;256;16;2;4;3086223
1505191432;256;16;256;32;4;4;18446744073709551615
1505191432;256;32;256;32;1;4;2579852
1505191432;256;32;1;32;2;1;4615259
1505191432;256;32;256;32;8;16;18446744073709551615
1505191432;256;64;256;32;64;4;18446744073709551615
1505191432;256;32;256;32;2;2;2443259
1505191433;1;16;1;1;4;1;625677186
1505191433;256;8;1;32;8;1;8139407
1505191433;256;32;128;32;1;4;2407556
1505191433;256;32;1;32;4;1;2584297
1505191434;256;64;128;32;1;16;18446744073709551615
1505191434;256;32;128;128;2;4;18446744073709551615
1505191434;256;16;1;32;16;1;18446744073709551615
1505191434;256;32;128;16;2;2;2721777
1505191434;128;32;256;128;4;4;18446744073709551615
1505191434;256;64;128;32;1;4;1378222
1505191434;128;32;1;32;2;1;4148444
1505191434;1;32;256;1;2;4;25106963
1505191434;256;64;256;32;1;4;1278667
1505191434;256;32;1;32;2;1;2676888
1505191435;1;64;128;1;1;2;42415852
1505191435;256;32;256;64;4;8;18446744073709551615
1505191435;1;32;1;1;1;1;299011407
1505191435;256;32;256;64;2;4;18446744073709551615
1505191435;256;32;1;32;2;1;2710667
1505191435;256;32;256;128;2;8;18446744073709551615
1505191436;1;32;1;1;2;1;299914222
1505191436;64;32;256;64;1;4;1948889
1505191436;128;32;256;64;2;4;18446744073709551615
1505191436;256;32;256;32;2;8;18446744073709551615
1505191436;256;32;256;32;2;1;1971555
1505191436;256;16;256;16;4;8;18446744073709551615
1505191436;1;16;128;1;4;4;21969629
1505191436;256;32;256;16;2;1;2292445
1505191436;1;32;256;1;2;8;39357630
1505191437;256;32;128;16;4;4;2104592
1505191437;1;32;256;1;2;4;24599703
1505191437;256;128;256;32;128;4;18446744073709551615
1505191437;1;32;256;1;2;4;25175852
1505191437;256;64;1;32;1;1;3884148
1505191437;256;32;128;32;2;16;18446744073709551615
1505191437;256;32;64;32;2;4;2157037
1505191437;256;8;256;16;1;4;3098074
1505191437;1;64;256;1;4;8;66229037
1505191438;256;32;256;64;2;2;1389481
1505191438;256;32;256;32;32;4;18446744073709551615
1505191438;256;16;256;128;4;4;18446744073709551615
1505191438;128;128;256;64;128;4;18446744073709551615
1505191438;32;32;16;8;8;2;5238222
1505191438;32;16;32;8;8;2;5102815
1505191438;32;16;32;8;8;1;5225630
1505191438;64;16;32;8;8;2;5835852
1505191438;128;32;256;32;2;2;1795111
1505191438;256;32;256;32;2;16;18446744073709551615
1505191439;1;32;128;1;4;4;26244889
1505191439;1;32;256;1;2;8;39046815
1505191439;256;32;128;32;4;4;18446744073709551615
1505191439;256;32;128;64;2;4;18446744073709551615
1505191439;1;64;256;1;1;2;42358519
1505191439;256;32;256;16;2;2;3298666
1505191439;64;16;32;8;8;1;9067556
1505191439;64;32;16;8;8;2;9968297
1505191439;1;32;128;1;2;4;31795703
1505191439;256;16;128;128;4;4;18446744073709551615
1505191440;8;4;128;8;1;64;18446744073709551615
1505191440;256;64;256;128;1;4;18446744073709551615
1505191440;1;32;256;1;4;4;33922370
1505191440;64;32;32;8;8;1;5570222
1505191440;8;32;256;2;2;4;12824593
1505191440;256;32;32;32;2;4;2345630
1505191440;256;32;4;32;2;4;2369037
1505191440;128;32;256;32;2;8;18446744073709551615
1505191440;256;32;1;64;2;1;2661482
1505191441;1;16;256;1;4;2;23256000
1505191441;256;32;256;32;4;8;18446744073709551615
1505191441;256;32;1;64;2;1;2726370
1505191441;256;16;256;64;8;4;18446744073709551615
1505191441;256;32;1;128;2;1;2178074
1505191441;256;32;256;64;2;16;18446744073709551615
1505191441;256;32;128;32;2;1;2702963
1505191441;8;16;32;8;8;1;3485185
1505191441;8;16;32;8;8;16;18446744073709551615
1505191441;256;16;256;16;4;4;2018074
1505191442;256;32;256;1;2;4;13826518
1505191442;64;2;4;1;2;2;28974074
1505191442;64;8;32;1;4;8;30160297
1505191442;64;4;128;64;1;2;3128741
1505191442;8;256;256;1;128;1;58877630
1505191442;256;64;256;16;1;4;1850519
1505191442;256;16;1;32;4;1;4500592
1505191442;128;8;256;32;2;4;2084000
1505191443;256;32;256;32;2;32;18446744073709551615
1505191443;128;32;256;32;1;4;1722963
1505191443;256;2;8;256;2;4;18446744073709551615
1505191443;256;1;256;32;1;4;2764296
1505191443;128;32;256;2;2;4;9248444
1505191443;1;8;256;1;8;8;26478370
1505191443;256;64;64;128;1;4;18446744073709551615
1505191443;128;32;256;32;4;4;18446744073709551615
1505191443;256;32;256;16;2;8;1759555
1505191443;256;128;1;32;128;1;18446744073709551615
1505191443;64;32;1;32;1;1;7638519
1505191444;1;64;256;1;1;4;26036889
1505191444;1;16;256;1;4;8;42780592
1505191444;256;8;128;32;8;4;18446744073709551615
1505191444;128;4;256;32;4;4;18446744073709551615
1505191444;1;32;256;1;2;2;24827851
1505191444;128;32;256;16;2;4;2228000
1505191454;1;1;1;1;1;1;9436635111
1505191454;8;1;4;2;1;2;336115556
1505191454;128;32;1;16;2;1;5387852
1505191454;128;16;1;1;1;1;142883852
1505191455;256;64;256;32;32;4;18446744073709551615
1505191455;256;2;256;32;2;4;2031112
1505191455;256;32;256;128;2;4;18446744073709551615
1505191457;1;1;4;1;1;4;2454312148
1505191457;256;4;256;32;2;4;2199852
1505191457;64;32;256;32;2;4;1887852
1505191458;256;32;256;8;2;4;3468592
1505191458;256;128;256;32;128;8;18446744073709551615
1505191458;256;64;128;32;1;8;1407703
1505191458;64;16;128;32;4;4;18446744073709551615
1505191458;256;16;1;32;4;1;4524296
1505191458;32;32;256;32;2;4;1980888
1505191458;256;32;256;64;2;8;18446744073709551615
1505191458;128;16;256;16;4;4;2233926
1505191458;256;32;128;32;2;2;2387555
1505191458;1;32;128;1;1;4;24413926
1505191459;128;32;128;32;2;4;1956000
1505191459;256;32;64;16;4;4;2461185
1505191459;256;32;256;4;2;4;4786667
1505191459;256;64;256;32;2;4;1199111
1505191459;256;64;1;64;2;1;3401630
1505191459;256;64;256;32;4;4;18446744073709551615
1505191459;256;64;128;32;2;4;1242370
1505191459;256;256;256;64;256;4;18446744073709551615
1505191459;256;32;256;16;4;8;18446744073709551615
1505191459;128;64;256;32;2;4;1310815
1505191459;256;64;256;32;64;2;18446744073709551615
1505191460;256;64;256;32;2;2;1252444
1505191460;256;64;1;32;2;1;2833185
1505191460;256;128;1;32;1;1;4366222
1505191460;256;64;256;64;2;4;18446744073709551615
1505191460;256;32;256;32;8;4;18446744073709551615
1505191460;128;128;256;32;1;4;1322222
1505191460;1;64;256;1;2;16;73288000
1505191460;256;128;256;16;1;4;1928592
1505191460;256;16;1;16;8;1;4333629
1505191461;256;128;256;8;1;4;2704741
1505191461;1;64;256;1;2;4;25022963
1505191461;256;64;256;32;2;8;18446744073709551615
1505191461;1;64;256;1;2;2;24409185
1505191461;1;64;256;1;4;4;34758370
1505191462;64;64;256;32;2;4;1684297
1505191462;256;16;256;32;8;4;18446744073709551615
1505191462;1;64;128;1;2;4;22170815
1505191462;256;64;256;64;2;2;1289629
1505191462;128;64;256;32;2;8;18446744073709551615
1505191462;256;64;256;16;2;4;1663259
1505191462;256;128;256;32;1;2;1408889
1505191462;1;64;256;1;4;4;35738815
1505191462;1;64;256;1;2;8;35586815
1505191462;256;64;128;32;4;4;18446744073709551615
1505191463;256;128;256;32;1;4;1327259
1505191463;64;16;256;32;8;4;18446744073709551615
1505191463;256;8;256;32;8;8;18446744073709551615
1505191463;256;64;256;64;4;4;18446744073709551615
1505191463;256;16;128;32;8;4;18446744073709551615
1505191463;256;64;128;32;2;8;18446744073709551615
1505191463;256;64;256;32;2;1;2692296
1505191463;256;128;1;32;2;1;5033926
1505191463;256;64;256;16;4;4;2783704
1505191463;128;64;256;32;2;16;18446744073709551615
1505191463;1;64;256;1;2;4;33665481
1505191464;128;32;1;32;8;1;5378518
1505191464;1;64;1;1;4;1;151605777
1505191464;256;64;256;32;2;16;18446744073709551615
1505191464;1;128;256;1;1;4;26962962
1505191464;256;32;256;64;4;4;18446744073709551615
1505191464;256;64;256;32;4;8;18446744073709551615
1505191464;256;64;128;64;2;4;18446744073709551615
1505191464;256;64;256;64;1;4;1287851
1505191464;256;64;64;32;2;4;1815408
1505191465;16;16;32;2;16;4;16751259
1505191465;256;1;2;32;1;1;30198222
1505191465;8;2;32;4;2;2;21525185
1505191465;1;16;128;1;2;1;42542963
1505191465;256;64;256;8;4;4;2005778
1505191465;256;64;128;8;2;2;2680741
1505191465;128;64;256;32;2;2;1397333
1505191465;256;256;256;32;256;8;18446744073709551615
1505191466;1;64;1;1;2;1;150892593
1505191466;256;64;256;16;2;8;1642963
1505191466;1;32;128;1;1;4;24250370
1505191466;256;64;256;32;2;32;18446744073709551615
1505191466;256;64;256;32;1;2;1364889
1505191466;128;128;256;32;1;8;1353037
1505191466;256;64;1;32;4;1;2634518
1505191466;256;64;256;8;2;2;2577778
1505191466;256;64;1;16;2;1;3412000
1505191467;64;64;2;16;2;1;2567408
1505191467;32;32;64;1;4;8;32935555
1505191467;32;1;16;1;1;16;35080149
1505191467;32;1;1;16;1;1;409517778
1505191467;128;64;256;32;4;4;18446744073709551615
1505191467;256;32;256;16;4;4;1655111
1505191468;1;64;256;1;1;8;35298962
1505191468;128;64;256;16;2;4;1879703
1505191468;256;64;256;64;2;8;18446744073709551615
1505191468;256;64;1;32;2;1;2729333
1505191468;256;32;256;32;4;16;18446744073709551615
1505191468;4;1;128;1;1;32;41701037
1505191468;1;256;128;1;256;2;18446744073709551615
1505191468;16;32;4;2;4;4;8683704
1505191468;16;32;128;16;4;8;18446744073709551615
1505191469;4;64;256;4;2;4;7885333
1505191469;128;32;256;16;4;4;1922222
1505191469;256;32;1;16;4;1;2449185
1505191469;256;64;256;32;4;2;1369333
1505191469;256;64;256;32;1;1;2182519
1505191469;256;64;256;1;2;4;13833037
1505191469;32;64;256;32;2;4;1874815
1505191469;1;64;256;1;2;4;24103111
1505191469;2;64;32;2;2;4;10526666
1505191469;256;64;16;32;2;1;3170074
1505191470;8;64;256;2;2;4;21128888
1505191470;256;64;256;8;2;4;3988297
1505191470;256;64;256;32;1;8;2503260
1505191470;256;64;1;2;64;1;37898815
1505191470;32;16;2;8;8;2;15773630
1505191471;1;1;16;1;1;4;610559852
1505191471;128;8;64;128;2;1;2455852
1505191471;1;128;256;1;1;1;71144000
1505191471;32;1;16;1;1;4;25594222
1505191471;4;128;1;1;2;1;42022815
1505191471;64;2;256;2;1;1;36129333
1505191471;32;128;128;4;2;1;9519260
1505191472;2;32;1;2;2;1;149177482
1505191472;256;64;4;32;32;4;18446744073709551615
1505191472;64;2;16;1;1;16;19081630
1505191472;64;8;32;1;4;1;33546518
1505191472;64;4;1;8;1;1;51941481
1505191472;128;32;256;32;8;4;18446744073709551615
1505191472;4;128;256;4;1;4;7958815
1505191473;128;64;256;1;2;4;14518222
1505191473;256;64;256;32;1;4;1276593
1505191473;1;8;256;1;1;2;42546667
1505191473;16;2;4;4;1;4;97805037
1505191473;64;32;4;2;2;2;18585037
1505191473;128;32;1;16;2;1;5379259
1505191473;128;64;256;32;64;4;18446744073709551615
1505191473;256;64;2;32;2;1;3004889
1505191473;2;64;256;2;2;4;13530074
1505191474;256;2;256;32;1;8;2317037
1505191474;256;64;1;8;2;1;6191260
1505191474;256;8;128;32;1;4;2849185
1505191474;256;128;256;128;1;4;18446744073709551615
1505191474;2;32;1;1;8;1;154245037
1505191474;16;16;8;2;2;1;22372444
1505191474;256;16;2;1;1;1;169304592
1505191475;8;2;32;4;1;8;23160148
1505191475;2;64;256;2;16;4;41018815
1505191475;256;64;256;4;2;8;5769037
1505191475;256;16;256;8;8;4;3669185
1505191475;128;16;128;32;4;4;18446744073709551615
1505191475;4;32;2;2;4;1;39138815
1505191475;32;32;64;8;4;8;4672445
1505191475;128;1;16;1;1;16;26332444
1505191475;64;64;256;8;2;4;4426519
1505191476;256;64;256;32;2;256;18446744073709551615
1505191476;256;256;256;32;128;2;18446744073709551615
1505191476;256;128;256;64;1;4;1294815
1505191476;8;16;1;8;2;1;85821334
1505191476;1;1;128;1;1;32;149939703
1505191476;1;256;128;1;256;2;18446744073709551615
1505191476;16;32;4;2;4;1;14818667
1505191477;256;64;256;32;2;64;18446744073709551615
1505191477;2;2;256;2;1;4;18636000
1505191477;256;64;1;32;2;1;2801926
1505191477;1;128;256;1;1;4;26790074
1505191477;256;128;256;32;2;4;1229185
1505191477;64;4;1;16;4;1;53673333
1505191477;8;64;1;1;64;1;91656593
1505191477;32;64;64;8;2;1;6214222
1505191478;1;1;16;1;1;2;603756445
1505191478;256;64;256;32;2;4;1200148
1505191478;1;32;256;1;8;4;50447556
1505191478;256;256;256;32;256;4;18446744073709551615
1505191478;64;64;256;64;4;4;18446744073709551615
1505191479;128;256;1;2;2;1;21183407
1505191479;64;1;128;1;1;8;32474223
1505191484;1;2;1;1;2;1;4803714074
1505191484;2;128;1;1;2;1;44283556
1505191484;256;2;256;32;1;4;2582370
1505191484;256;64;256;128;2;4;18446744073709551615
1505191484;1;64;64;1;2;4;21448444
1505191484;1;1;256;1;1;1;75374667
1505191484;32;128;1;4;1;1;18539112
1505191485;2;32;1;2;2;1;149765777
1505191489;1;2;1;1;1;1;4717156000
1505191490;256;64;256;1;2;4;13831259
1505191490;256;4;256;32;4;4;18446744073709551615
1505191490;256;64;1;1;2;1;40763259
1505191490;256;1;256;32;1;4;2742667
1505191490;256;128;1;32;1;1;3927556
1505191490;1;128;128;1;1;2;42054222
1505191490;1;8;32;1;4;4;42646223
1505191490;64;4;128;2;1;2;21025186
1505191491;1;8;256;1;2;4;19168000
1505191491;1;2;32;1;1;32;292759703
1505191491;64;32;256;2;2;2;12944148
1505191492;32;32;1;16;2;1;13240297
1505191492;1;16;256;1;8;4;57916741
1505191492;256;32;256;32;4;2;1737333
1505191492;256;64;32;32;2;4;2158667
1505191492;128;64;1;1;8;1;33718667
1505191492;4;16;8;2;16;1;26979851
1505191493;256;1;1;32;1;1;61653629
1505191493;8;8;32;1;2;2;23584148
1505191493;256;128;128;32;1;4;1309037
1505191493;128;16;128;32;8;1;2443852
1505191493;64;4;2;16;4;1;26007852
1505191493;1;32;64;1;4;8;17373629
1505191493;256;64;8;32;1;4;3012889
1505191493;256;64;256;32;2;1;1357630
1505191493;1;1;256;1;1;4;41460592
1505191493;256;8;256;32;1;4;2625334
1505191494;4;1;256;4;1;4;12066815
1505191494;128;1;16;1;1;16;22540148
1505191494;1;16;32;1;2;8;21675407
1505191494;4;1;128;1;1;32;42422519
1505191494;1;256;128;1;256;2;18446744073709551615
1505191494;16;1;4;16;1;4;192640445
1505191495;16;16;128;1;4;8;39586667
1505191495;256;2;128;4;1;32;15347259
1505191495;32;16;1;16;8;1;29012296
1505191495;256;64;256;8;2;32;18446744073709551615
1505191495;256;64;16;32;2;4;2442519
1505191495;256;64;256;32;64;1;18446744073709551615
1505191495;256;64;256;32;8;4;18446744073709551615
1505191495;64;64;16;16;2;1;4186815
1505191495;128;8;4;1;8;4;27038074
1505191495;64;1;128;1;1;8;28844593
1505191496;32;1;4;1;1;2;103821630
1505191496;2;128;128;1;2;2;24613926
1505191496;64;1;256;16;1;1;4697037
1505191496;1;128;128;1;2;1;42218074
1505191496;2;128;1;2;16;1;52730222
1505191496;4;64;256;4;4;4;10856740
1505191496;256;64;1;32;1;1;4027407
1505191496;256;64;256;32;4;4;18446744073709551615
1505191497;64;1;16;1;1;16;20548741
1505191497;64;8;1;1;4;1;28874222
1505191497;64;1;128;16;1;2;5339852
1505191497;4;64;16;4;2;4;3692889
1505191497;256;64;1;32;1;1;3987111
1505191497;256;16;256;32;8;1;2066371
1505191497;1;64;1;1;4;1;151626963
1505191498;16;2;4;4;1;4;98299556
1505191498;64;32;256;2;32;2;21865925
1505191498;128;64;1;32;2;1;3261482
1505191498;128;64;8;1;4;8;36362222
1505191498;1;4;8;1;1;2;298835111
1505191499;256;1;2;1;1;1;72746074
1505191501;1;4;1;1;4;1;2438098222
1505191501;32;1;128;32;1;16;18446744073709551615
1505191501;64;8;2;16;1;1;14898370
1505191501;16;256;64;8;256;2;18446744073709551615
1505191502;128;1;16;4;1;16;9225481
1505191502;1;16;32;1;2;32;66931556
1505191502;128;1;128;1;1;32;63618074
1505191502;256;64;256;4;2;4;3281333
1505191502;8;256;128;1;256;2;18446744073709551615
1505191502;16;32;4;8;1;4;8109333
1505191502;16;16;128;16;4;8;18446744073709551615
1505191502;256;2;128;1;1;32;64239556
1505191503;8;64;256;2;8;4;20607852
1505191503;32;16;16;8;8;4;1997185
1505191503;64;64;16;64;1;1;2929926
1505191503;256;8;256;16;2;1;2424889
1505191503;64;1;256;64;1;8;18446744073709551615
1505191503;256;256;256;32;8;4;18446744073709551615
1505191503;256;64;256;32;16;4;18446744073709551615
1505191503;32;1;16;32;1;4;29174666
1505191503;2;128;128;2;2;2;14382666
1505191503;64;1;16;16;1;2;13440297
1505191504;8;128;128;1;2;1;41961778
1505191504;64;1;256;32;1;4;3940592
1505191504;256;64;256;2;2;4;8585037
1505191505;2;4;1;1;2;1;1175819704
1505191505;64;1;16;1;1;2;44188445
1505191505;64;8;8;1;4;4;24763111
1505191505;256;4;128;64;1;2;3601926
1505191506;256;64;4;32;2;4;2379555
1505191506;256;64;256;2;2;64;27737037
1505191506;128;8;256;1;2;4;20783852
1505191506;16;2;128;4;1;32;5362370
1505191506;64;32;256;1;2;2;22086666
1505191506;128;64;1;2;2;1;21609185
1505191506;64;64;256;2;2;4;9193037
1505191506;256;64;2;32;2;1;3118815
1505191506;128;8;1;4;8;1;14732445
1505191507;256;16;8;2;16;1;20275852
1505191507;256;1;1;32;1;1;61625926
1505191507;8;2;4;4;1;2;169269481
1505191507;128;16;1;32;8;1;7738518
1505191507;64;64;2;1;16;1;38258370
1505191507;32;2;64;8;1;8;6129481
1505191507;64;1;16;4;1;4;16603704
1505191508;4;64;256;1;1;4;22658963
1505191508;256;1;256;32;1;2;2583111
1505191508;1;16;256;1;8;4;52690074
1505191508;256;64;1;32;2;1;2862222
1505191508;256;32;256;32;8;1;1825037
1505191508;1;32;256;1;4;1;24817037
1505191508;256;64;1;16;4;1;2849333
1505191508;16;16;4;4;2;1;12890370
1505191509;4;1;128;1;1;32;41209185
1505191510;1;1;8;1;1;2;1207795408
1505191510;1;64;4;1;1;1;75225482
1505191510;256;32;128;32;4;2;2030222
1505191510;256;32;256;128;4;1;18446744073709551615
1505191510;1;64;128;1;2;8;34551408
1505191510;256;64;256;16;2;2;1803704
1505191511;1;32;256;1;4;4;31731407
1505191511;256;128;256;64;1;2;1332445
1505191511;256;64;1;16;2;1;3476444
1505191511;256;64;256;8;2;1;4571259
1505191511;256;64;32;32;1;8;2474370
1505191511;256;128;256;32;1;8;1340593
1505191511;1;1;128;1;1;8;79048296
1505191511;256;64;128;4;64;8;18446744073709551615
1505191511;32;256;256;8;256;1;18446744073709551615
1505191512;16;64;16;2;16;1;19045630
1505191512;128;32;1;32;4;1;4007111
1505191512;256;128;64;16;1;4;2024444
1505191512;256;32;256;128;8;4;18446744073709551615
1505191512;128;64;1;32;2;1;3279852
1505191512;256;8;1;16;2;1;8792444
1505191512;64;1;16;1;1;8;29679111
1505191512;32;32;16;1;16;4;43590074
1505191512;2;128;128;1;2;1;42014667
1505191513;32;64;256;32;4;4;18446744073709551615
1505191513;256;8;256;8;4;16;18446744073709551615
1505191513;128;32;256;64;4;8;18446744073709551615
1505191513;256;64;128;16;4;4;1680445
1505191513;1;64;256;1;2;8;37295111
1505191513;256;64;1;16;2;1;3589777
1505191513;256;8;256;32;4;64;18446744073709551615
1505191513;256;32;256;128;4;4;18446744073709551615
1505191513;256;64;256;32;2;128;18446744073709551615
1505191514;64;1;1;16;1;1;211572297
1505191514;32;128;128;32;2;16;18446744073709551615
1505191514;2;32;1;2;2;1;149734371
1505191514;64;8;16;4;8;8;6610519
1505191514;8;8;8;1;4;4;24581926
1505191517;1;4;1;1;1;1;2342014815
1505191518;1;8;1;1;2;1;1206468296
1505191518;16;1;128;1;1;32;37178963
1505191518;64;32;256;4;4;1;6520593
1505191519;128;1;1;32;1;1;112152297
1505191519;128;8;16;4;8;1;9108000
1505191519;128;16;8;2;16;1;19026223
1505191519;256;4;4;32;1;4;4462371
1505191519;1;64;2;1;2;1;81529481
1505191519;128;2;32;4;2;2;7613778
1505191519;128;16;1;32;8;1;10280593
1505191519;64;64;2;16;4;2;2897926
1505191519;32;32;64;8;4;32;18446744073709551615
1505191520;256;64;128;32;2;1;2504740
1505191520;128;128;16;4;16;16;18446744073709551615
1505191520;16;8;4;4;1;1;35970519
1505191520;4;1;128;1;1;32;43006518
1505191530;1;1;1;1;1;1;9433204889
1505191530;256;16;256;32;16;4;18446744073709551615
1505191530;16;64;256;1;2;4;14772741
1505191530;16;32;4;4;1;1;19910074
1505191531;16;1;1;16;1;1;796668148
1505191531;256;2;4;32;1;4;8641481
1505191531;32;16;64;8;8;1;6070963
1505191532;256;32;64;32;4;4;18446744073709551615
1505191532;256;2;256;64;1;4;2494074
1505191532;256;256;2;32;256;1;18446744073709551615
1505191532;1;64;256;1;2;2;24048296
1505191532;64;64;128;32;2;4;1955407
1505191532;64;64;16;64;32;1;18446744073709551615
1505191532;256;16;256;16;1;1;4322371
1505191532;8;256;128;8;1;8;7724444
1505191532;32;1;16;1;1;4;26414518
1505191533;64;64;256;4;2;4;6964297
1505191533;256;256;64;32;256;4;18446744073709551615
1505191533;2;1;128;2;1;2;42738667
1505191533;64;1;256;16;1;1;4687407
1505191533;32;1;128;4;1;1;18360444
1505191533;2;128;4;2;16;4;30149481
1505191533;256;64;8;32;2;8;18446744073709551615
1505191533;256;16;1;32;8;1;4326371
1505191534;64;8;1;4;1;1;27479260
1505191534;8;1;8;1;1;4;167660592
1505191534;256;4;128;16;1;2;3824000
1505191534;64;8;256;8;1;4;5456296
1505191534;32;256;64;32;128;2;18446744073709551615
1505191534;256;256;256;16;256;4;18446744073709551615
1505191534;128;32;256;32;4;2;1828296
1505191534;1;2;128;1;1;32;76087111
1505191535;8;32;16;2;32;8;18446744073709551615
1505191535;16;1;256;8;1;128;18446744073709551615
1505191535;128;8;16;4;2;8;10524445
1505191535;256;16;16;32;8;4;18446744073709551615
1505191535;256;64;64;32;1;4;2252296
1505191535;256;16;8;128;8;1;18446744073709551615
1505191535;256;4;4;32;1;1;4055703
1505191535;256;64;4;32;2;4;2363852
1505191535;128;2;32;64;1;1;2862963
1505191535;128;16;128;1;4;1;23298667
1505191536;64;1;2;16;1;1;106291556
1505191536;32;16;64;2;8;8;20470370
1505191536;256;64;1;32;4;1;2569482
1505191536;256;128;1;8;2;1;8007852
1505191536;32;8;16;4;1;16;5964889
1505191536;16;16;4;4;4;1;13982666
1505191538;4;1;2;1;1;2;1227181333
1505191539;1;1;8;1;1;2;1197855852
1505191539;2;64;64;2;2;4;12201482
1505191539;256;8;256;32;2;4;2006815
1505191540;8;1;4;8;1;4;341124741
1505191540;16;1;128;4;1;8;9817037
1505191540;256;128;256;1;1;4;21378963
1505191540;8;64;2;2;2;1;21251704
1505191540;256;64;256;4;16;4;6265926
1505191540;1;64;256;1;16;4;133463852
1505191540;256;2;4;1;1;1;69529926
1505191540;32;16;8;32;8;1;4795704
1505191541;64;64;16;64;2;1;2847407
1505191541;256;8;256;16;2;8;2574667
1505191541;8;256;128;8;1;1;9039259
1505191541;32;1;32;1;1;4;30798667
1505191541;1;128;64;1;8;4;60512740
1505191541;64;1;256;4;1;1;18236296
1505191541;256;64;256;256;2;4;18446744073709551615
1505191541;256;4;256;16;4;8;18446744073709551615
1505191542;1;8;128;1;2;8;14275111
1505191542;128;128;4;16;16;4;18446744073709551615
1505191542;64;1;16;4;1;8;14882518
1505191542;8;8;1;1;4;1;168962667
1505191542;32;4;128;1;1;2;41996000
1505191542;8;8;256;8;1;16;5916741
1505191542;16;2;128;8;1;32;5882519
1505191542;64;32;256;4;4;16;8962815
1505191543;32;64;256;32;2;64;18446744073709551615
1505191543;256;64;8;32;2;1;3174519
1505191543;256;64;128;2;16;4;13678963
1505191543;256;64;128;32;2;64;18446744073709551615
1505191543;128;8;1;32;2;1;14043259
1505191543;128;8;16;4;8;16;18446744073709551615
1505191543;16;16;1;2;8;1;51805186
1505191543;256;4;32;32;4;4;18446744073709551615
1505191543;32;64;256;32;2;8;18446744073709551615
1505191544;256;4;1;32;1;1;15134519
1505191544;128;2;32;64;1;1;2996297
1505191544;128;16;256;32;8;32;18446744073709551615
1505191544;64;64;2;64;1;1;2794222
1505191544;8;32;8;8;4;8;6929037
1505191544;1;8;16;1;1;16;94404593
1505191544;256;1;256;32;1;4;2788444
1505191544;16;32;4;4;8;1;7682666
1505191544;4;1;256;1;1;32;26786074
1505191546;1;1;8;1;1;4;1225488445
1505191546;16;32;1;8;1;1;27129926
1505191546;16;64;128;16;1;8;3958963
1505191546;256;2;4;32;2;4;7902962
1505191546;32;2;32;4;1;1;19944000
1505191546;1;64;16;1;4;1;22127852
1505191546;256;64;256;16;2;1;2286222
1505191547;4;64;8;4;2;4;6135852
1505191547;32;8;256;32;2;1;2686815
1505191547;8;256;128;8;4;8;4129926
1505191547;32;4;16;8;2;4;6612593
1505191547;2;128;128;2;64;2;39477482
1505191547;128;8;256;1;1;1;72365037
1505191547;32;64;64;4;2;2;8990519
1505191547;2;128;128;2;16;1;28257333
1505191548;64;8;1;4;8;1;27301926
1505191548;1;64;256;1;2;4;24973334
1505191548;8;8;1;1;4;1;168341925
1505191550;1;1;4;1;1;2;2412637629
1505191551;32;8;256;8;1;4;5160741
1505191551;64;2;128;1;1;32;61988000
1505191551;64;4;256;4;4;1;8218667
1505191561;1;1;1;1;1;1;9433011556
1505191561;16;8;16;4;8;1;8079556
1505191561;32;16;128;2;16;1;18883852
1505191561;256;64;1;32;2;1;2806222
1505191561;256;4;64;32;1;4;2984000
1505191562;128;2;32;64;1;8;18446744073709551615
1505191562;128;16;128;32;4;1;2688148
1505191562;64;64;2;16;16;1;2651852
1505191562;256;64;8;32;2;4;2553185
1505191562;32;64;64;8;2;64;18446744073709551615
1505191562;32;8;16;4;1;4;8991704
1505191562;16;32;4;8;8;1;6455555
1505191562;4;4;256;1;4;32;24472148
1505191562;256;64;256;256;2;256;18446744073709551615
1505191562;256;2;64;32;1;4;2506667
1505191564;1;1;8;1;1;1;1193980593
1505191564;1;32;4;1;1;1;89168741
1505191564;1;1;128;1;1;8;79434667
1505191564;8;2;256;2;2;64;25321630
1505191564;256;2;256;32;1;256;18446744073709551615
1505191564;256;32;256;64;8;4;18446744073709551615
1505191565;1;32;256;1;4;2;25112741
1505191565;256;64;256;128;4;4;18446744073709551615
1505191565;128;64;256;32;4;16;18446744073709551615
1505191565;32;32;16;8;8;4;4545926
1505191565;64;64;16;2;2;1;20986666
1505191565;256;8;1;16;4;1;7882519
1505191565;8;256;128;4;1;8;9105185
1505191565;256;64;64;16;2;4;2318370
1505191565;256;128;256;32;2;2;1294370
1505191566;256;64;64;32;4;4;18446744073709551615
1505191566;128;64;256;64;2;4;18446744073709551615
1505191566;256;64;1;128;2;1;2551556
1505191566;128;4;256;16;4;2;3183851
1505191566;256;64;128;64;2;2;1413630
1505191566;256;32;256;64;4;2;18446744073709551615
1505191566;256;16;256;32;8;1;1977630
1505191566;64;64;1;64;2;1;3887704
1505191566;256;64;256;32;4;1;1730815
1505191566;256;64;64;32;2;1;2827556
1505191567;128;64;1;32;2;1;3280000
1505191567;256;64;256;64;1;8;18446744073709551615
