GLOBAL_SIZE_0;GLOBAL_SIZE_1;LOCAL_SIZE_0;LOCAL_SIZE_1;v_TP_46;v_TP_47;cost
4;4;4;1;1365;2730;4720815555
256;1;1;1;14;6;189642370
4096;2048;128;64;117;39;18446744073709551615
1;1;1;1;1170;21;28956487407
1024;8;64;1;819;273;476473334
256;1;1;1;14;78;446324296
64;4;1;2;1170;35;183712889
1024;1;1;1;14;6;164765185
1024;1;1;1;13;6;162412148
1024;1;1;1;21;1;424397185
1024;1;1;1;14;6;164221037
1024;1;1;1;39;6;206277481
2048;1;128;1;13;6;24546667
1024;4096;64;8;13;6;18446744073709551615
1024;1;32;1;13;6;47267852
2;1;2;1;13;6;15014654074
16;8192;4;1;1365;6;356773778
8192;4096;128;128;182;45;18446744073709551615
8192;4;32;4;5;1170;1664105037
2048;2048;2;64;8190;315;2148271111
2048;1;64;1;26;6;73027407
2048;1;128;1;35;30;321435556
2048;8192;1;8;13;39;42026815
2048;1;16;1;42;2;22944148
2048;1;16;1;65;1;54437629
1;1;1;1;42;2;45702654371
2048;1;16;1;42;2;22955704
2048;8192;32;4;35;10;18670222
2048;8192;32;2;195;10;23750074
2048;8192;32;4;45;10;21972148
2048;8192;16;4;35;10;21011111
2048;8192;32;4;35;18;42956889
2048;1;32;1;182;10;35373481
4;8192;4;4;35;105;52323555
2048;8192;32;1;35;10;10257778
2048;8192;2;4;35;10;25041037
2048;8192;32;128;35;10;18446744073709551615
2048;8192;32;1;35;18;18456741
8192;8192;32;1;35;10;13012889
2048;8192;2;1;1170;10;96863852
4096;8192;64;1;35;10;15189926
2048;8192;32;1;35;14;13456444
8192;8192;32;1;18;10;20744297
512;8192;32;1;35;10;9853926
512;8192;8;1;39;10;21504593
128;8192;32;1;35;10;14470815
128;8192;32;1;15;15;46228445
512;8192;64;1;78;13;38652000
1024;8192;32;1;35;10;9882370
256;8192;32;1;35;10;10591555
512;1;16;1;35;10;66251111
512;8192;32;128;63;10;18446744073709551615
512;8192;4;1;35;10;43191704
512;2048;32;1;35;10;10013333
512;8192;1;32;35;10;74473926
4;8;1;1;2730;39;3015848148
512;8192;32;1;35;7;8495111
512;8192;32;256;35;10;18446744073709551615
512;4096;64;256;35;2;18446744073709551615
512;8192;32;1;21;7;15221333
512;1;32;1;35;7;80845926
512;8192;8;1;35;7;23644296
512;8192;128;256;14;7;18446744073709551615
512;2048;32;1;45;7;8833778
512;8192;32;1;13;7;8819111
1;1;1;1;1;273;54943767407
256;8192;32;256;35;7;18446744073709551615
32;4096;32;1;21;21;98781926
512;8;8;1;390;13;25930518
4;512;1;256;91;18;245878666
8192;2;4;1;14;13;110838074
32;1024;8;256;6;30;18446744073709551615
128;8192;32;1;35;78;73586815
4;8192;1;1;35;7;205921333
4;8192;4;1;35;7;84891704
512;512;32;1;35;7;8450815
512;512;4;1;35;7;46025037
512;512;32;1;315;7;11079407
512;512;32;1;3;7;9107408
1;1;1;1;35;7;30104507704
512;512;32;1;35;210;38206518
512;4096;32;1;35;7;8580889
16;16;4;4;1170;130;425115260
512;8;8;2;35;182;201148593
512;512;32;1;35;2730;328273037
512;512;128;1;35;7;11409481
512;512;16;1;35;7;11956740
1024;512;32;1;26;10;9632889
1024;512;16;1;35;15;11963852
1;512;1;2;70;1365;493363556
512;512;32;8;35;7;14400740
16;512;1;1;585;585;396175852
512;512;32;1;234;7;9636444
1;512;1;128;35;7;602455259
512;512;32;16;14;7;18446744073709551615
8192;512;32;1;35;7;7296889
8192;512;32;1;585;7;9458963
8192;32;32;8;35;7;13119704
8192;512;64;1;35;7;10625185
8192;512;32;128;35;7;18446744073709551615
8192;2;32;2;35;7;15079111
8192;512;1;1;35;7;186858074
8192;512;64;1;42;7;10867111
8192;512;32;1;35;7;7300445
8192;512;32;1;35;21;44064593
8192;512;32;1;819;10;11132889
8192;512;32;64;10;7;18446744073709551615
8192;4096;1;32;35;7;94957926
8192;1;32;1;35;7;28097333
1024;512;32;1;35;7;7816000
8192;512;32;1;3;455;81868148
8;512;2;1;35;130;119607259
8192;512;32;1;65;7;13637037
8192;8;32;2;35;7;18969482
8192;512;32;64;35;70;18446744073709551615
8192;512;32;128;35;3;18446744073709551615
8192;512;8;1;35;5;35955111
8192;4096;32;1;35;7;9093334
8192;512;32;1;15;7;8322222
8192;512;2;1;35;7;93790814
8192;512;32;4;35;105;70339851
8192;16;32;16;35;7;18446744073709551615
8192;512;32;1;35;585;85911407
8192;512;32;16;35;585;18446744073709551615
8192;512;32;32;35;7;18446744073709551615
8;512;2;1;35;7;103695555
128;512;32;1;35;7;15010667
1;512;1;1;14;7;182548148
4096;512;32;1;30;7;15913334
8192;64;8;4;35;3;10866518
4096;512;32;1;15;7;8328296
2048;128;4;4;182;315;117660740
8192;512;256;1;35;7;9904000
8192;512;1;128;35;7;224522963
8192;512;32;2;35;585;111266074
512;512;32;1;35;630;77337925
8192;512;4;1;35;7;60445926
8192;16;32;16;35;65;18446744073709551615
4;1;2;1;18;26;7090017778
1024;512;32;1;70;3;9250963
1;512;1;128;35;7;617695407
8192;256;32;1;91;7;7804000
8192;32;32;8;35;4095;1020933926
128;512;64;64;35;7;18446744073709551615
8192;512;32;1;630;7;9459111
8192;512;32;4;35;7;12397926
512;512;4;32;910;210;106491851
1024;512;64;1;45;7;11568296
4096;2048;64;1;35;7;11011259
2048;512;128;1;35;7;10266519
16;8;4;8;3;42;441167407
1;8;1;8;6;70;5064584592
8;2;4;1;630;1170;3246649333
1;16;1;4;1365;21;4953822667
1;4;1;1;35;7;7593240592
8192;512;16;1;35;6;11050371
8192;16;128;16;195;7;18446744073709551615
1;1;1;1;1;1;62603961037
1;512;1;1;35;7;241021185
8192;1024;32;1;35;7;7603111
8192;256;16;1;35;7;12006222
8192;512;32;1;35;30;88717926
8192;512;32;1;35;18;17371852
8192;512;8;1;35;7;23586519
8192;512;16;1;35;7;12061037
2048;16;16;8;45;390;325860889
1;512;1;1;35;7;327275704
2048;512;32;1;35;7;7388149
1;512;1;1;18;3;255197037
16;4096;1;1;130;21;148866370
8192;128;32;2;35;7;13000889
8192;512;32;1;35;9;8452889
8192;512;32;1;35;5;6694666
8192;512;32;1;15;2;7259555
1024;512;32;1;18;7;9017333
8192;4096;32;1;39;7;9141185
2048;512;64;1;30;5;11914519
8192;128;32;2;35;5;16851556
512;512;32;1;21;5;15053037
1;64;1;4;91;1;2757956148
8192;128;64;1;26;5;12979704
8192;512;32;1;63;7;7571407
8192;256;32;1;35;5;6645037
1;256;1;1;45;5;349000741
8192;256;32;1;35;1;16234371
2048;256;16;1;35;1;32354815
8192;32;32;8;35;5;13444000
8192;256;32;128;63;13;18446744073709551615
8192;1024;32;1;18;5;7581481
8192;256;32;256;35;5;18446744073709551615
8192;256;32;1;35;7;7278074
8192;256;32;1;39;3;6828444
1;256;1;1;35;1;950549185
8192;64;32;4;39;5;12284149
8192;1024;64;1;35;5;8610519
8192;256;32;1;9;5;7426963
1;256;1;1;35;5;320662519
1;128;1;2;26;5;640575556
8192;128;32;2;35;9;20087259
1;128;1;2;35;5;340136000
8192;256;32;256;70;5;18446744073709551615
1;1024;1;1;35;5;254460000
1;128;1;2;26;6;643616740
8192;256;32;1;39;5;7008296
8192;256;4;1;35;10;41997186
8192;256;64;1;35;3;6589037
8192;256;128;1;35;7;10230371
8192;64;64;2;35;3;7823407
8192;512;64;256;21;3;18446744073709551615
8192;256;64;1;65;3;6538074
4096;256;64;1;210;3;7081037
8192;256;128;1;26;3;8188888
8192;128;32;2;65;3;7169037
1;512;1;256;65;3;1358512592
8192;256;128;1;65;5;7299260
1;128;1;2;65;1;1074538667
8192;256;256;1;30;3;7827111
1;256;1;1;65;3;631233334
4096;512;32;1;65;5;6755407
1;256;1;1;65;2;760400445
8192;256;128;1;30;3;8286667
8192;256;64;256;65;3;18446744073709551615
8192;256;64;1;117;3;7134223
8192;128;64;2;65;3;6939704
8192;64;64;4;21;3;9972149
8192;256;64;1;65;13;27219407
8192;256;64;1;65;6;8827704
8192;256;64;1;18;3;7368888
8192;256;16;1;65;3;17332741
1;256;1;256;45;3;1503241481
8192;256;64;1;65;10;14949925
8192;256;64;1;65;2;6659555
8192;256;32;1;65;3;8936444
4096;256;32;128;65;3;18446744073709551615
4096;256;64;1;26;3;8575407
8192;256;32;1;65;1;15667259
8192;256;64;1;63;3;6437481
4096;256;32;1;63;2;9830223
8192;32;64;8;63;1;18446744073709551615
8192;256;16;1;63;13;11046222
8192;128;64;2;63;6;8739407
8192;256;64;1;63;14;23060889
1024;256;16;1;63;10;10501926
8192;256;64;1;117;1;8144889
8192;256;64;1;182;5;8772444
1024;256;128;1;39;3;7414666
8192;128;64;2;30;3;8080296
8192;512;64;1;63;3;6631408
128;256;64;1;63;3;11827260
8192;256;64;1;63;2;10427852
8192;256;32;1;63;3;19064741
8192;256;32;1;14;3;13192592
8192;64;64;4;91;3;10049629
4096;256;64;1;63;1;16995111
8192;256;64;1;63;5;11970815
8192;256;64;1;63;7;19238519
8192;256;64;1;35;14;31375703
8192;256;64;1;63;9;16009333
1;256;1;1;35;3;412979704
2048;256;64;1;130;3;7583111
8192;512;32;1;63;3;9090815
8192;128;64;2;63;3;6531556
8192;256;256;1;63;3;5511555
2048;64;256;4;65;3;18446744073709551615
8192;256;256;1;42;1;5551703
8192;128;256;2;63;3;18446744073709551615
4096;1024;256;1;63;3;5434074
4096;2048;256;1;63;3;6271111
4096;4096;256;1;63;3;5708741
2048;1024;256;1;63;3;5558519
4096;1024;128;1;45;3;4491408
4096;1024;256;1;63;6;8715704
4096;1024;256;1;117;13;25869630
4096;1024;128;256;45;3;18446744073709551615
4096;1024;128;1;42;3;7046666
2048;2048;128;1;65;5;7167259
2048;1024;128;1;63;3;6468444
4096;2048;128;1;45;6;8987704
4096;1024;128;1;90;3;6167555
8192;1024;128;1;70;3;5594667
4096;1024;128;1;70;3;5766223
2048;1024;128;1;45;3;4549185
4096;1024;128;1;45;2;10305778
1024;1024;64;1;65;10;23912296
2048;1024;256;1;45;3;9745037
4096;2048;64;1;45;3;8329482
1024;1024;128;1;15;2;7699555
4096;1024;128;1;45;5;11787555
4096;1024;256;1;45;2;10315556
4096;1024;128;64;78;3;18446744073709551615
4096;512;128;64;45;3;18446744073709551615
4096;512;128;1;35;3;8827555
2048;1024;128;1;45;1;17372889
4096;1024;128;256;63;3;18446744073709551615
4096;1024;64;1;21;3;10175111
4096;256;128;1;45;3;8803408
2048;512;128;1;45;3;9229481
4096;512;64;1;63;3;9669481
1024;1024;1;1;39;3;220604741
4096;1024;128;256;90;1;18446744073709551615
4096;4096;128;1;45;3;4888888
4096;1024;128;1;65;3;6226370
1;1024;1;1;65;3;627314222
4096;1024;128;1;35;6;11734667
4096;512;128;1;45;13;21816148
128;1024;128;1;65;2;17026667
4096;1024;128;1;18;2;5773630
4096;1024;128;1;45;9;17821186
4096;1024;128;1;91;7;10735407
4096;512;128;1;45;3;4447852
8192;512;128;1;117;14;20219704
4096;128;128;2;45;3;4927259
4096;2048;256;1;45;3;5249333
4096;256;128;1;65;3;6034963
4096;1024;64;1;70;3;6979259
4096;512;128;1;78;14;19129926
1;512;1;256;117;10;951216000
4096;512;128;1;45;10;14932741
1;512;1;1;45;3;360660148
8192;512;128;1;45;3;4421186
1;512;1;256;45;3;1506364149
1024;512;128;256;45;3;18446744073709551615
4096;512;1;1;45;3;224236296
8192;4096;128;1;45;3;5418370
8192;1024;128;1;45;9;17439704
1;2048;1;1;45;3;358582223
8192;512;128;1;42;5;8484889
8192;2048;256;1;45;3;6291260
8192;512;256;1;90;3;5314370
8192;512;256;1;45;3;5716000
8192;128;64;2;45;3;4015852
8192;256;128;1;45;18;41410370
8192;1024;128;1;45;3;4651408
8192;512;32;1;45;3;7476740
4096;128;64;2;45;3;3982519
8192;128;32;2;45;9;19853333
4096;128;32;1;45;3;7338074
4096;128;64;2;45;1;8188889
1024;128;64;2;42;3;9486074
1024;32;32;8;35;3;9688000
4096;128;64;2;45;9;18372297
4096;128;64;2;45;10;17200148
4096;64;64;4;45;1;17781630
1;32;1;8;45;2;1640250667
4096;128;32;2;45;3;4580889
4096;128;64;1;26;3;8395408
4096;128;256;2;45;3;18446744073709551615
4096;128;64;2;39;3;7668445
4096;128;64;2;45;2;4863852
4096;128;64;2;126;3;7231259
4096;128;128;2;7;3;8326963
1;128;1;2;45;3;449830667
4096;128;64;2;70;3;6771111
2048;64;16;4;45;2;6807852
512;128;64;2;45;2;5857037
2048;128;64;2;42;7;11758667
2048;128;64;1;45;1;8292000
4096;128;32;2;45;1;8194074
4096;128;64;2;91;3;7052445
2048;128;64;2;30;3;8820444
2048;512;64;1;45;3;4030666
2048;256;64;1;45;3;4033630
4096;128;32;2;15;5;13359111
4096;256;64;1;45;5;7421334
4096;128;64;2;90;14;26408741
4096;32;32;8;45;3;8612444
2048;64;64;4;45;3;8323259
2048;32;128;8;78;3;18446744073709551615
4096;256;64;1;45;2;10188741
4096;128;64;2;45;5;12486222
4096;512;64;256;91;3;18446744073709551615
1024;32;64;8;45;3;18446744073709551615
4096;256;32;1;26;5;14690815
8192;128;64;2;35;3;9826963
1024;512;64;1;45;3;8130518
4096;128;256;1;39;3;9382370
2048;128;64;1;78;3;9982815
8192;128;64;2;45;13;36965629
4096;256;64;1;18;2;6474963
4096;128;128;2;70;3;6163555
4096;32;64;8;35;1;18446744073709551615
4096;64;64;4;45;3;4129481
4096;128;64;2;35;3;7102963
4096;128;64;2;39;5;9296889
1;32;1;8;45;3;1241900740
8192;128;32;2;30;3;8765185
4096;1024;64;1;45;3;3964593
4096;1024;64;1;39;3;6732445
4096;2048;64;1;45;6;8673334
1;1024;1;1;90;3;552725778
2048;1024;64;1;45;5;7263851
8192;1024;64;1;45;1;8432445
4096;4096;64;256;45;3;18446744073709551615
2048;512;64;1;45;6;8385185
4096;1024;32;128;45;3;18446744073709551615
4096;256;64;1;65;3;6789037
2048;1024;64;1;45;3;4056148
8192;1024;64;1;91;3;7305926
4096;1024;64;1;78;3;7062519
4096;1024;32;1;45;15;16005333
4096;256;64;256;26;1;18446744073709551615
4096;1024;32;256;45;3;18446744073709551615
8192;1024;64;1;42;3;6973037
4096;1024;64;256;18;3;18446744073709551615
4096;1024;64;1;45;13;26897333
4096;1024;16;1;78;3;17630963
8192;4096;64;1;45;3;9964000
2048;1024;32;1;63;1;28287259
8192;1024;8;1;18;3;24904741
4096;8192;64;1;45;3;4927408
4096;1024;64;1;117;3;7099851
4096;1024;64;1;45;1;8207704
4096;2048;64;1;105;3;7197037
4096;1024;256;256;45;3;18446744073709551615
4096;1024;32;1;26;3;6199555
8192;1024;64;1;45;9;15736889
1;1024;1;256;45;1;2972507704
2048;1024;64;1;35;3;7317481
8192;1024;64;1;45;3;4165630
1;1024;1;1;45;2;495023111
4096;1024;64;1;42;2;4902518
4096;1024;64;1;26;3;8804297
1;1024;1;1;35;3;323735259
4096;1024;64;64;45;2;18446744073709551615
8192;1024;64;1;45;6;8598814
4096;1024;64;256;45;3;18446744073709551615
4096;2048;64;1;45;7;11195111
4096;512;64;1;39;7;10814222
1024;1024;256;128;45;3;18446744073709551615
4096;2048;32;1;45;3;7789777
4096;1024;32;1;21;3;6193630
4096;2048;64;128;45;3;18446744073709551615
4096;2048;64;1;45;13;26130222
4096;1024;64;1;45;10;14749185
4096;1024;64;1;45;2;4924889
4096;512;64;1;18;9;18425777
4096;2048;32;1;45;9;8877185
4096;512;64;1;45;3;7906814
4096;4096;64;128;45;3;18446744073709551615
1024;1024;256;1;45;3;8744148
512;1024;64;1;45;3;8419260
1024;1024;64;1;45;3;8107111
4096;256;128;1;45;9;27371259
256;1024;64;256;45;1;18446744073709551615
1;1024;1;1;45;3;358343112
1024;8192;64;1;45;2;5179259
1024;256;16;1;42;7;11957630
2048;512;64;256;45;3;18446744073709551615
4096;1024;64;1;45;5;7386667
4096;2048;64;256;39;3;18446744073709551615
4096;1024;64;256;30;2;18446744073709551615
4096;1024;64;1;26;5;11613186
4096;256;64;1;30;7;16610222
4096;1024;64;1;13;13;32123556
4096;8192;16;1;45;9;15077334
1;512;1;1;45;3;358847704
4096;1024;64;1;63;3;6858370
4096;1024;64;1;90;3;6995852
4096;1024;64;1;42;3;6926074
4096;512;64;128;42;35;18446744073709551615
4096;1024;128;1;45;63;64747852
4096;512;64;1;42;3;7089481
4096;512;64;1;21;3;10059852
4096;1024;64;1;18;5;16781186
8192;2048;64;1;42;7;19656592
4096;512;64;1;26;3;11327408
4096;2048;64;1;45;1;17559407
1024;256;64;1;45;10;23595259
1024;128;16;2;45;3;15128888
1024;1024;16;1;45;6;23985926
2048;1024;64;1;30;21;61749482
4096;1024;32;1;91;5;6829037
4096;1024;32;1;45;3;7467852
4096;1024;16;1;45;3;14500445
4096;1024;64;1;45;9;15810815
2048;512;256;1;45;3;4784593
4096;2048;64;1;70;3;7253482
4096;256;64;1;42;1;5565629
4096;1024;64;1;18;1;5568297
2048;32;32;4;30;45;58963259
128;1;2;1;14;546;2794487555
256;128;64;8;630;315;18446744073709551615
1024;1024;32;8;30;14;38146667
8192;1024;128;1;91;3;6252889
4096;1024;64;128;45;3;18446744073709551615
1;1024;1;1;45;7;302034074
4096;4096;64;1;70;3;7268741
4096;1024;128;1;45;21;64399407
8192;8192;64;1;45;7;12851408
4096;512;64;128;45;3;18446744073709551615
4096;1024;64;1;18;3;6997629
4096;1024;64;1;15;3;6960445
64;512;4;64;234;63;68009334
2048;1024;64;1;45;1;8328296
8192;256;64;1;45;3;3961185
8192;512;64;1;45;3;3962815
4096;256;64;1;45;3;3926074
1;256;1;1;45;9;276128148
8192;256;64;1;45;5;7291259
4096;256;64;1;30;3;7507259
1;256;1;1;42;3;382060445
1024;256;64;1;35;3;8306518
4096;256;64;1;117;10;19180296
4096;1024;64;1;91;15;42989481
8192;512;128;1;65;14;19214074
2048;256;64;1;45;6;8476000
4096;256;64;128;45;3;18446744073709551615
4096;256;64;1;21;3;7553926
4096;128;16;2;91;3;8798370
8192;4;2;4;35;65;73276889
2;1;1;1;210;5;17811218814
2048;1;1;1;26;2730;13753819111
8;1;4;1;1365;13;3226432297
2048;256;64;1;39;10;14887407
4096;16;64;16;45;6;18446744073709551615
512;256;64;256;45;9;18446744073709551615
4096;256;16;1;45;1;32650518
8192;8192;4;256;70;39;18446744073709551615
1;256;1;1;45;3;359199704
8192;128;64;2;70;3;6666074
4096;256;256;1;45;3;5065926
1024;256;32;1;42;5;7262815
4096;256;128;1;63;3;6108148
4096;256;32;1;45;7;7418371
64;64;4;8;630;117;83567111
4096;256;64;1;91;3;7047111
4096;512;64;128;15;3;18446744073709551615
4096;128;128;2;45;2;4868000
4096;256;64;128;35;3;18446744073709551615
4096;512;64;256;45;2;18446744073709551615
8192;1024;1;1;126;2;354364741
2048;256;64;256;45;3;18446744073709551615
4096;1024;32;1;45;5;6812445
4096;256;64;1;39;3;6998963
1024;256;64;1;45;3;8168444
512;256;16;1;45;3;25660444
4096;256;64;128;26;3;18446744073709551615
4096;256;32;1;63;3;8992889
4096;256;64;1;14;5;12299852
4096;256;64;1;18;35;76722667
8192;512;64;1;45;1;8278370
4096;256;64;1;45;10;14136444
1;256;1;1;45;9;275207852
4096;4096;64;1;42;3;7070074
4096;512;256;1;45;6;8693926
4096;512;64;1;117;3;7109185
1024;256;64;1;65;6;10078815
512;512;64;1;45;3;4400889
4096;64;128;4;21;3;18446744073709551615
4096;512;64;1;45;9;15707704
4096;256;128;1;45;6;8702370
4096;128;64;2;117;3;7186371
4096;256;64;1;63;3;6531703
4096;256;64;1;91;2;4844000
4096;256;64;1;45;1;8189926
4096;64;128;2;45;3;4795259
4096;256;64;1;26;2;6425037
8192;256;32;1;45;2;9701037
1024;256;64;1;42;3;10857926
1024;256;64;1;45;2;10339852
4096;256;16;1;14;3;23172741
4096;256;64;256;45;3;18446744073709551615
4096;256;64;1;14;6;15929037
8192;64;64;4;45;2;10334518
1;1;1;1;63;1;76682166519
4096;256;64;128;63;3;18446744073709551615
4096;64;128;4;39;3;18446744073709551615
8192;32;32;8;45;3;4957777
8192;256;64;1;30;3;7322963
4096;256;32;128;45;3;18446744073709551615
4096;256;64;1;45;6;8513778
4096;256;16;1;45;3;14150075
4096;256;1;1;45;3;222225037
4096;256;64;1;234;3;6822223
64;1024;4;4;630;26;37295259
4096;512;64;1;39;3;6637037
4096;256;64;64;21;3;18446744073709551615
4096;256;64;1;42;7;10786963
4096;256;64;4;45;3;4060445
4096;256;32;1;45;3;7338815
128;256;64;1;45;3;8098222
4096;256;64;1;45;630;76650371
4;256;1;1;45;3;249941333
4096;256;64;1;6;117;65329926
4096;256;64;1;45;1170;141141926
4096;128;64;1;45;3;3929630
4096;256;64;1;4095;3;14556889
4096;256;64;1;45;4095;529149333
256;256;64;1;45;4095;528205481
4;8192;1;64;1;7;167498963
4096;32;64;8;39;6;18446744073709551615
4096;512;64;1;78;3;6773185
4096;2048;32;1;65;3;9252148
4096;256;64;1;35;6;11444593
2048;256;32;256;45;3;18446744073709551615
4096;128;64;2;13;3;8146963
4096;256;64;256;45;14;18446744073709551615
4096;256;64;1;42;3;6853185
1;512;1;1;45;9;275224592
4096;512;32;128;30;3;18446744073709551615
4096;256;16;256;45;3;18446744073709551615
1;256;1;1;91;3;582697185
4096;512;64;1;45;2;4909630
1024;256;32;1;30;7;15359260
4096;256;64;1;90;3;6993334
4096;256;64;256;26;3;18446744073709551615
4096;1024;64;1;45;6;8501926
4096;128;64;1;45;7;11677334
4096;512;64;1;45;7;19272593
4096;512;64;128;14;3;18446744073709551615
4096;256;128;1;45;21;67146815
1;256;1;128;45;3;1037589482
2048;64;128;2;45;3;4729037
4096;256;64;1;45;7;10963704
1;256;1;1;45;7;301046667
8192;128;64;1;63;1;8161630
4096;256;64;256;45;6;18446744073709551615
4096;256;256;1;65;6;8682074
2048;256;64;256;91;7;18446744073709551615
2048;1024;64;1;18;9;20574371
4096;128;64;2;45;13;30241482
4096;256;128;1;45;15;28689185
4096;256;64;1;39;1;8141778
4096;256;128;1;70;1;7271556
2048;256;64;1;45;15;33910222
2048;256;64;1;45;7;11104593
8192;512;64;1;65;3;6738371
2048;4096;64;1;45;5;7586222
32;1024;2;32;910;35;145373629
4096;256;64;256;91;3;18446744073709551615
4096;256;64;1;26;7;17067407
4096;256;32;1;70;3;8984741
4096;128;64;2;26;3;11664593
8192;256;64;1;45;6;13468592
8192;256;64;1;21;5;16296444
1;256;1;1;15;3;363419852
8192;256;64;1;45;15;33169037
1;256;1;1;63;3;612997185
4096;64;64;4;18;3;9638667
4096;256;64;1;45;14;22067111
1;256;1;1;78;1;1114626074
4096;512;64;1;35;3;6765926
1;256;1;1;182;3;1046102222
4096;256;128;256;90;6;18446744073709551615
2048;256;64;256;45;7;18446744073709551615
4096;256;64;1;70;3;7014223
4096;512;64;1;90;3;7094815
4096;256;16;1;30;3;11964593
4096;256;32;1;45;5;6738815
4096;64;64;2;91;3;7102962
4096;256;8;1;45;3;28167111
4096;256;64;1;78;1;7259555
4096;256;64;1;45;13;24679555
2048;64;64;4;65;7;11973778
4096;64;16;4;45;1;8420889
4096;512;32;1;70;3;8983111
1;256;1;1;45;3;359213481
4096;1024;128;128;45;3;18446744073709551615
8192;256;64;1;42;3;6739259
2048;256;64;1;45;2;4917037
2048;256;64;1;45;10;15059555
4096;256;32;1;45;10;9347704
4096;256;64;1;70;13;36823704
4096;128;128;2;21;3;8561333
2048;256;64;256;45;5;18446744073709551615
2048;256;32;1;91;3;9266518
4096;256;256;1;90;3;5705334
1024;256;16;256;45;21;18446744073709551615
4096;256;16;1;35;3;13415704
1;256;1;1;45;6;323890370
512;1;64;1;195;455;3885704741
4096;1024;8;256;45;3;18446744073709551615
1;256;1;256;45;3;1505414518
4096;256;256;1;65;3;6009778
4096;256;64;64;45;3;18446744073709551615
4096;256;64;1;45;9;16012889
512;256;64;1;45;3;4362518
4096;1;64;1;45;63;307808740
4096;256;64;32;45;14;18446744073709551615
1;256;1;1;45;3;358020740
2048;256;64;1;42;3;7283555
4096;512;64;128;45;1;18446744073709551615
4096;512;32;1;45;6;6449777
2;256;2;8;1638;7;3375691852
128;32;2;1;819;63;151002074
32;2048;2;4;35;15;24779852
1;32;1;8;1170;390;5934314222
4096;128;128;2;18;3;8644592
4096;256;128;1;35;3;6987852
4096;256;64;1;105;3;7032889
8192;256;128;1;45;3;4383407
1;256;1;1;45;14;243180297
2048;128;128;1;63;30;97960444
8192;128;64;2;42;3;7937629
4096;512;64;1;130;3;7025185
1;128;1;2;126;3;799189334
1;256;1;1;45;1;852871112
4096;256;32;1;90;3;9124592
8192;256;256;1;21;3;7611112
128;1;16;1;210;130;769438963
4096;256;64;1;39;9;15324593
4096;1024;64;1;78;9;17642519
4096;256;128;1;45;18;42995111
1024;256;128;1;130;1;7722518
4096;256;64;1;30;1;5734222
8192;256;64;1;45;2;4879704
128;128;4;32;630;70;35631556
2048;256;256;1;7;3;7023260
1;1024;1;1;45;6;324372740
4096;512;64;1;45;15;56330075
4096;256;64;1;15;3;7300296
4096;64;64;4;90;3;6804889
4096;512;64;256;45;7;18446744073709551615
2048;16;16;4;182;630;504648741
128;4096;16;4;195;390;99571556
64;1;8;1;9;273;2088235111
2;4096;1;1;14;182;249795111
4096;32;4;8;45;3;14368741
4096;256;64;32;45;3;18446744073709551615
256;256;64;1;45;3;6395259
4096;2048;64;1;35;3;6788296
4096;512;64;1;18;3;7339852
8192;32;64;8;65;3;18446744073709551615
4096;256;64;256;30;10;18446744073709551615
4096;128;256;2;45;10;18446744073709551615
4096;256;32;1;45;1;16343111
64;512;4;32;630;63;87323111
4096;512;32;128;45;3;18446744073709551615
4096;32;64;8;39;3;18446744073709551615
1;256;1;256;35;5;1265088445
1;1024;1;256;1;2;154465926
1;256;1;1;65;3;627506667
4096;256;64;256;15;3;18446744073709551615
4096;32;64;8;35;3;18446744073709551615
4096;256;64;256;182;3;18446744073709551615
4096;256;128;256;45;3;18446744073709551615
4096;256;64;1;78;3;6850815
4096;32;256;4;21;6;18446744073709551615
4096;256;64;1;117;3;7091852
4096;256;64;256;45;15;18446744073709551615
4096;128;32;2;78;3;7548889
1;256;1;1;42;3;374991852
8192;512;128;1;45;9;17001778
4096;256;16;1;91;10;10648148
4096;128;64;2;78;3;7039555
2048;128;64;2;45;3;4338519
8192;256;64;1;105;2;4968889
4096;256;32;1;45;2;9678074
4096;256;1;1;45;3;222227259
8192;256;64;1;45;1;8249482
4096;1024;64;1;35;3;6651407
4096;256;64;1;117;2;11564296
8192;256;64;1;35;1;17047556
8192;128;64;2;45;5;12164000
4096;128;64;1;30;3;11316445
8192;256;64;1;78;3;9910815
8192;2048;64;1;45;3;8870222
8192;128;64;2;39;3;10031703
512;256;64;1;105;9;28278963
8192;256;32;1;45;3;7389185
4096;256;64;256;45;1;18446744073709551615
4096;256;64;1;35;3;7077333
4096;1024;64;128;42;3;18446744073709551615
1024;256;32;1;45;10;9465185
4096;256;128;1;42;6;8675555
4096;256;64;64;42;3;18446744073709551615
4096;512;64;1;45;1;8198518
4096;256;64;1;42;2;4815259
4096;128;64;2;65;3;6780444
4096;32;64;8;45;3;18446744073709551615
2;8;2;4;9;910;2955363851
512;128;4;8;273;130;64419408
8;1;2;1;1;234;6415723259
128;8;2;2;30;1;121554371
4096;256;64;1;630;14;23132296
4096;256;64;1;6;273;96556741
4096;1;64;1;182;3;17739259
8;64;4;4;182;6;112444888
2048;256;64;1;18;2;6578519
4096;256;64;1;18;10;22219260
256;512;4;32;630;126;60732593
2048;16;64;8;45;3;18446744073709551615
8192;256;64;1;30;1;5748889
8192;256;64;256;70;3;18446744073709551615
128;1;2;1;8190;21;305430074
64;2048;2;8;2730;13;138851259
512;2;16;2;9;13;49635111
512;4096;128;64;117;39;18446744073709551615
4096;256;32;1;45;13;13301482
4096;256;64;1;45;30;90480889
2048;256;64;1;45;9;16442519
4096;512;256;1;45;3;9973037
4096;256;256;1;26;3;10733481
4096;256;128;1;26;3;11663259
4096;1024;128;1;42;13;34511111
4096;256;32;1;45;6;6453925
8192;256;256;1;195;3;5816296
512;64;4;4;273;130;62772000
2048;256;128;1;45;3;4571703
512;256;64;1;78;3;8217926
4096;256;32;1;39;3;6800000
4096;512;64;1;14;3;7356593
4096;256;1;1;45;1;522208445
4096;256;64;1;126;3;7255704
1;256;1;1;105;3;657538222
4096;64;64;4;70;3;7608593
4096;128;16;2;45;3;7350074
4096;256;64;1;65;1;7978814
4096;512;32;256;45;3;18446744073709551615
4096;256;128;1;18;2;6149334
4096;256;64;1;45;21;57844296
4096;256;16;1;45;5;13385334
4096;128;64;2;90;5;8211260
2048;256;64;1;117;3;7728000
8192;1024;64;1;45;14;21836296
4096;64;64;4;91;3;10096741
4096;512;16;1;63;1;45625333
4096;256;64;1;126;14;25754963
2048;128;64;128;45;3;18446744073709551615
4096;256;32;1;91;5;6830667
4096;512;128;256;30;2;18446744073709551615
4096;128;64;1;45;3;3915703
4096;128;64;1;126;3;7205482
4096;128;64;1;78;10;16763111
4096;128;64;128;45;3;18446744073709551615
4096;128;64;2;45;6;9315111
1024;32;64;4;45;18;55320297
1;128;1;128;35;3;1347952000
4096;128;64;1;65;1;8023704
4096;256;32;256;45;1;18446744073709551615
4096;128;64;1;90;6;9160741
512;128;64;128;105;3;18446744073709551615
4096;64;64;2;70;13;34337481
4096;64;32;2;45;3;4641333
4096;512;64;256;45;3;18446744073709551615
4096;64;64;2;45;3;3956148
4096;128;64;1;45;13;29168444
4096;128;8;1;45;3;28149333
1;64;1;1;26;3;601626666
4096;128;32;1;30;2;7062075
4096;128;32;1;30;3;6270222
4096;128;64;128;30;7;18446744073709551615
1024;256;32;256;45;3;18446744073709551615
1;128;1;1;45;3;491745185
4096;128;128;128;45;3;18446744073709551615
1024;128;64;1;45;3;4050519
8192;64;64;2;78;3;7189481
4096;128;64;1;45;21;59931852
2048;128;64;1;45;3;4042074
4096;128;64;1;45;2;4863703
4096;256;64;256;45;2;18446744073709551615
4096;128;32;2;45;9;21186222
4096;128;64;64;45;3;18446744073709551615
8192;128;128;128;70;3;18446744073709551615
2048;512;64;256;63;2;18446744073709551615
4096;64;64;2;10;5;13715259
4096;128;64;1;45;6;9120445
4096;64;64;2;45;15;48233926
4096;128;64;1;45;14;24830963
4096;16;64;8;15;3;18446744073709551615
4096;2048;64;128;45;2;18446744073709551615
4096;128;128;1;45;3;4412592
4096;128;128;1;45;5;7521630
4096;128;128;1;14;3;8600741
4096;128;64;1;35;3;7049185
512;128;128;1;70;3;8351259
4096;32;64;4;45;3;4019111
8192;128;64;128;42;3;18446744073709551615
4096;64;64;2;35;3;7824000
4096;128;64;1;39;14;23157778
1;64;1;2;21;3;664409778
1;128;1;1;45;3;435787259
4096;128;64;1;45;1;8239703
1024;128;128;2;45;3;4403703
4096;128;128;1;10;3;8933186
512;128;64;128;45;1;18446744073709551615
4096;32;64;2;45;3;4007555
2048;128;64;1;63;3;10139407
1;32;1;4;78;3;1773672000
4096;32;32;4;45;3;4770666
2048;16;64;8;45;5;18446744073709551615
4096;64;128;1;45;13;22438963
2048;32;64;4;39;1;8619260
4096;128;64;2;65;10;15364148
4096;128;64;1;39;2;6469185
256;128;32;2;39;3;13522518
4096;128;64;128;30;3;18446744073709551615
1;512;1;256;45;3;1503481629
4096;128;32;1;45;7;7775408
4096;128;64;128;42;3;18446744073709551615
4096;128;64;32;45;1;18446744073709551615
1;256;1;64;45;3;574065926
8192;32;64;4;45;3;4061037
4096;128;256;1;35;3;7243704
4096;128;64;1;21;2;6643111
512;128;128;1;45;3;5441481
4096;128;16;2;63;1;16174222
1;128;1;1;45;3;493366667
8192;128;64;1;45;3;3959407
4096;128;64;4;45;90;51096889
256;128;4;8;390;105;40888000
8192;64;64;2;45;3;4009630
4096;128;64;1;90;3;6921482
512;128;64;1;45;3;4683260
4096;128;64;1;42;3;7646222
4096;1024;64;256;45;30;18446744073709551615
4096;32;64;4;45;2;4953926
4096;256;32;256;42;1;18446744073709551615
512;4096;4;64;273;42;89976000
64;1;4;1;1170;21;528151408
512;1;8;1;390;13;83351556
4;32;1;4;91;18;204634815
4096;128;64;1;42;9;16425185
8192;512;32;256;45;3;18446744073709551615
4096;16;64;8;45;3;18446744073709551615
4096;32;64;8;45;26;18446744073709551615
2048;16;64;4;42;21;67631852
4096;256;64;256;78;5;18446744073709551615
4096;128;64;1;45;9;16422222
4096;128;64;1;45;15;41329778
4096;128;256;1;42;3;7349185
4096;128;64;1;91;3;7012297
512;256;64;256;63;3;18446744073709551615
8192;128;64;1;26;2;6585778
4096;128;256;1;45;3;4963852
4096;128;64;1;70;3;6851111
4096;128;64;1;78;3;6893482
4096;64;64;2;70;5;8898370
1;1024;1;256;45;3;1507616000
2048;128;128;128;45;3;18446744073709551615
4096;256;256;256;105;1;18446744073709551615
1024;128;64;2;21;3;10038074
1;128;1;1;42;3;673651555
1024;128;64;1;70;2;7173482
8192;128;64;1;35;3;7144741
4096;64;64;2;21;3;9473037
4096;512;64;256;42;3;18446744073709551615
4096;64;32;2;42;3;8149630
4096;128;64;2;91;5;8232148
4096;256;64;256;90;3;18446744073709551615
1024;128;32;1;6;3;6551556
2048;256;64;256;10;3;18446744073709551615
8192;128;64;1;65;3;6460148
8192;64;64;1;45;9;17655259
4096;128;64;2;65;7;11377333
8192;128;64;1;39;3;7157185
4096;128;64;2;45;14;24070223
4096;128;256;128;30;26;18446744073709551615
4096;128;32;1;39;3;6800444
512;128;64;1;18;3;11262370
1024;64;64;1;45;6;16118667
4096;128;32;128;45;7;18446744073709551615
1;128;1;1;78;1;1419655408
4096;128;64;1;21;3;8712444
4096;128;64;1;39;3;7615407
4096;128;64;128;63;6;18446744073709551615
4096;128;32;1;65;3;8923852
256;256;64;256;65;3;18446744073709551615
4096;128;64;1;45;5;7912592
8192;128;32;128;45;3;18446744073709551615
4096;128;64;1;91;1;8064889
4096;128;256;2;45;21;18446744073709551615
4096;128;64;64;45;7;18446744073709551615
4096;128;64;128;21;3;18446744073709551615
512;16;64;8;45;3;18446744073709551615
2048;128;64;2;63;3;7022223
8192;256;64;256;78;9;18446744073709551615
2048;256;64;256;45;13;18446744073709551615
4096;512;256;256;63;2;18446744073709551615
8192;128;128;128;35;9;18446744073709551615
2048;32;64;4;39;10;18548593
4096;256;64;256;45;5;18446744073709551615
2048;128;64;2;70;13;33094814
4096;32;64;4;35;7;11663852
4096;64;64;2;45;7;12462667
4096;128;32;1;15;3;6282666
2048;128;64;1;45;13;28088592
128;128;4;16;585;105;46952149
1;128;1;1;45;7;372747852
2048;64;64;2;45;1;8366074
4096;128;16;128;45;3;18446744073709551615
2048;128;128;1;26;15;34429481
1;128;1;1;45;3;445305185
4096;1024;64;256;78;6;18446744073709551615
4096;128;64;4;45;3;4224445
512;64;4;1;1638;210;310719111
2048;128;64;1;45;2;4958666
128;512;4;32;315;70;31998963
8192;2;1;2;1;105;234698223
32;1024;8;256;10;30;18446744073709551615
16;1;2;1;3;42;2634487704
4096;128;64;1;35;2;4984149
4096;512;64;256;45;6;18446744073709551615
8192;128;128;2;45;3;4716741
4096;512;64;256;42;2;18446744073709551615
4096;256;32;256;45;5;18446744073709551615
4096;128;64;1;126;1;7364889
4096;128;32;1;42;3;6848000
512;128;32;1;45;3;7609481
8;1024;4;64;2730;26;1248421630
4096;64;256;2;45;6;18446744073709551615
4096;64;64;2;45;1;8254667
4096;128;64;1;42;1;5561926
4096;256;32;256;45;9;18446744073709551615
4096;32;64;8;18;3;18446744073709551615
1;128;1;1;63;3;706967704
256;128;4;16;390;117;43019852
32;64;4;4;273;35;45647111
1;256;1;256;70;3;1382968148
8192;16;16;8;45;3;6648296
2048;32;64;4;45;3;4544296
4096;128;32;128;45;3;18446744073709551615
4096;128;32;1;70;1;14323407
64;128;4;8;390;63;49719111
1;1;1;1;39;455;55191538815
8;2;4;1;910;1170;3355082667
1;1;1;1;1365;21;28830542814
256;32;32;4;210;45;40771704
256;128;64;1;45;3;6299112
1024;128;64;1;45;2;4935407
4096;128;64;1;1;3;6887408
128;256;4;32;546;70;33722666
128;512;4;16;546;42;63989926
128;256;4;16;390;90;32945333
128;256;4;32;390;90;33067111
4096;128;64;2;15;1;6315259
4;128;1;1;45;3;249881926
2;128;1;1;45;3;353748296
8;128;4;1;45;3;68779555
1;128;1;128;26;3;1377395111
2048;128;64;1;26;5;13356297
4096;128;64;64;35;3;18446744073709551615
4096;128;16;1;126;3;17534222
128;256;4;32;455;90;38074963
512;1;1;1;14;546;2750911408
256;128;64;8;630;2;18446744073709551615
128;512;4;32;546;91;39894815
4096;128;64;128;78;13;18446744073709551615
4096;32;64;2;45;5;8713481
4096;128;64;2;42;3;7691407
2048;128;128;2;45;3;4664296
4096;512;64;256;21;15;18446744073709551615
4096;128;64;2;70;9;16902074
1024;64;64;2;45;3;4298518
4096;128;128;1;45;1;8188148
4096;128;64;2;45;7;11649482
4096;512;128;256;45;3;18446744073709551615
4096;64;64;2;45;6;9761482
4096;64;128;2;45;2;4899555
4096;512;64;256;45;14;18446744073709551615
8192;128;64;1;63;3;6843259
2048;128;64;128;45;5;18446744073709551615
4096;128;64;128;91;5;18446744073709551615
4096;64;64;2;26;3;10016148
1024;1024;64;256;14;3;18446744073709551615
1;128;1;1;90;3;879483407
1024;128;64;2;45;5;8839852
4096;128;256;1;45;10;16470370
4096;128;128;1;63;3;5745334
256;128;64;2;63;2;9710222
1024;1024;1;8;30;14;23244593
8192;4;2;1;35;273;656198370
128;64;4;1;315;234;137172889
2;1;1;1;210;2730;27466424889
4096;64;64;2;65;3;7072148
8192;64;32;2;45;7;14130370
4096;64;64;1;45;3;3922074
1;512;1;256;45;6;1139714074
2048;16;64;4;35;5;12463408
8192;128;8;1;45;2;38684297
1024;128;64;2;45;1;8342222
4096;128;128;1;18;3;8233481
2048;128;32;128;45;3;18446744073709551615
4096;64;64;2;45;5;8717778
1;512;1;256;45;5;1230677778
2048;128;64;1;18;3;8790963
4096;64;64;4;15;3;9464889
4096;128;16;1;90;5;13383408
1;128;1;1;45;2;689362667
4096;128;64;1;30;6;13624000
8192;128;64;1;45;10;16439259
4096;128;64;1;63;3;6661481
4096;128;64;128;35;5;18446744073709551615
8192;64;256;2;45;3;18446744073709551615
8192;128;256;1;45;3;5575111
4096;128;64;128;45;5;18446744073709551615
2048;128;64;1;45;10;16449333
4096;16;64;8;45;2;18446744073709551615
2048;128;64;2;18;3;8789482
2048;128;1;1;45;3;221114666
1;64;1;2;78;3;925650518
2048;256;64;256;45;9;18446744073709551615
1;32;1;4;45;3;1223272148
4096;128;64;1;18;2;6586666
4096;64;128;1;45;3;4427111
8192;128;32;2;45;3;4592741
4096;128;256;1;91;10;16641333
4096;128;64;1;45;39;63454519
1;128;1;1;45;3;489918815
128;512;4;32;546;65;37424592
2048;1;1;1;26;2730;13756097185
8;1;4;1;1365;130;5767110815
2;1;2;1;1638;7;16091886963
128;64;4;32;315;45;37304296
4096;128;64;1;45;10;16125630
2048;128;32;1;45;3;7434963
4096;32;32;4;45;5;9869926
4096;128;64;128;45;10;18446744073709551615
4096;64;64;64;45;3;18446744073709551615
4096;128;32;1;70;3;8980741
32;1;8;1;91;1;3392163851
1;32;1;1;1170;195;4945846815
128;4096;16;32;1;390;18446744073709551615
64;1;8;1;1;273;2087332889
4096;128;64;128;35;3;18446744073709551615
1024;256;64;256;35;3;18446744073709551615
128;128;4;32;390;65;36312148
4096;128;64;1;45;26;54510075
1;128;1;2;30;3;542975111
128;256;4;32;455;65;38076148
4096;128;32;1;45;15;16189482
2048;64;16;1;70;3;17720148
4096;128;64;2;45;3;3999556
4096;128;64;1;45;8190;1841315704
512;128;64;4;45;3;5045185
4096;128;64;1;45;30;94292593
4096;32;64;4;10;3;9501185
4096;512;64;256;45;273;18446744073709551615
4096;128;16;1;45;3;14143111
4096;128;64;1;1;7;10589630
4096;128;128;32;45;3;18446744073709551615
4096;8;64;1;45;65;145724593
4096;128;4;1;45;3;55833926
4096;128;64;1;45;130;86621777
4096;128;64;16;45;3;18446744073709551615
4096;128;64;1;45;273;129869334
4096;128;64;1;45;126;55054667
1;128;1;1;45;3;439446815
4096;128;64;1;70;390;79779407
4096;128;64;1;45;78;78103111
4096;128;64;1;45;90;47066963
4096;128;64;2;45;630;108725778
4096;32;64;1;91;3;6936148
4096;32;64;4;15;7;19257629
1;128;1;1;45;6;448120741
4096;128;64;1;70;7;11397926
4096;128;32;1;26;14;13035852
4096;1024;64;256;315;3;18446744073709551615
2;128;1;128;45;3;811967556
2;8192;1;1;14;182;249862518
2;1;2;1;1;910;23507484149
8;1;2;1;1;234;6441827555
128;4096;2;2;30;1;92039111
8192;128;64;1;45;39;65794518
4096;8;32;1;45;3;8500148
1;128;1;1;30;3;534680445
4096;128;32;128;70;3;18446744073709551615
4096;128;128;64;45;3;18446744073709551615
2048;128;64;1;26;3;9515408
4096;128;64;1;45;390;99220296
8192;16;64;8;45;3;18446744073709551615
4096;128;64;1;2;3;4838518
4096;1;64;1;9;3;17146519
2048;128;128;1;45;3;4537333
4096;128;64;64;105;7;18446744073709551615
1;1;1;1;8190;21;29227502519
1;2048;1;1;2730;13;8590105185
512;8;16;2;1365;13;18077037
4096;2048;32;64;15;39;18446744073709551615
4096;128;64;2;90;3;7151704
4096;256;64;256;42;6;18446744073709551615
128;128;64;128;45;3;18446744073709551615
4096;64;64;64;45;7;18446744073709551615
2048;128;64;1;45;6;9101778
16;128;2;1;45;45;117892444
4096;128;64;1;455;3;7059852
256;1024;64;256;45;3;18446744073709551615
4096;128;128;1;78;2;6510815
1024;32;128;4;39;3;18446744073709551615
64;8;4;2;1170;21;74320889
32;8;8;1;1;13;93166370
4;32;1;1;91;42;448774815
8192;2;4;1;65;13;52428445
2048;128;64;128;45;7;18446744073709551615
1024;256;64;256;45;5;18446744073709551615
4096;128;16;2;45;2;9693926
1024;1024;32;256;21;3;18446744073709551615
4096;512;64;256;45;1;18446744073709551615
4096;128;64;1;18;3;11435259
1;128;1;1;45;182;513839259
4096;128;64;8;45;3;18446744073709551615
4096;128;64;4;45;63;67708000
1024;32;64;4;30;3;9208444
1;1024;1;4;3;30;72987111
16;8;4;8;3;13;250103556
1;2048;1;8;21;70;118057926
1;2;1;1;35;45;18066488149
4096;1024;64;256;105;3;18446744073709551615
8192;128;64;1;117;9;17192148
8192;128;64;128;39;5;18446744073709551615
1024;64;64;2;65;3;7444000
4096;2;64;1;45;3;11683704
4096;1;32;1;14;234;1444087408
4096;128;1;1;21;3;185257629
4096;128;32;1;21;1;11132296
4096;256;64;256;26;2;18446744073709551615
1;16;1;4;63;78;3198266370
512;32;32;4;210;45;50122814
1024;1;1;1;15;546;2744713333
1;128;1;16;630;1638;3390990518
1024;1024;1;8;390;14;29063407
8192;1024;2;32;210;65;69258519
2;1;1;1;210;78;23125171111
2048;1;1;1;26;2730;13754320296
1;128;1;1;63;6;624435852
1024;128;32;128;70;3;18446744073709551615
16;128;8;1;45;3;38969037
4096;1;64;1;45;3;14137482
64;128;64;1;45;3;11926222
4096;128;1;1;45;3;221577926
4096;128;16;1;65;3;17212000
4096;32;32;4;117;3;7884148
4096;64;32;2;45;7;13879555
4096;16;64;8;26;3;18446744073709551615
2048;128;64;1;130;3;7554074
2048;64;64;2;42;1;5866667
8192;128;256;2;45;3;18446744073709551615
8192;128;64;64;21;3;18446744073709551615
2048;64;64;2;45;3;4408889
8192;64;64;1;45;3;3950963
4096;256;64;256;105;3;18446744073709551615
4096;128;32;1;45;5;6733037
4096;256;128;256;26;3;18446744073709551615
1024;128;64;2;63;3;7224444
4096;128;64;1;90;1;15563852
1;128;1;1;45;3;500104741
8192;64;64;2;45;9;18842222
1;128;1;1;90;5;458660741
8192;128;32;1;45;10;9516740
4096;128;64;64;45;14;18446744073709551615
4096;128;64;128;45;26;18446744073709551615
4096;128;64;128;65;3;18446744073709551615
4096;256;64;256;35;3;18446744073709551615
4096;128;32;1;45;1;16339408
512;128;128;128;45;3;18446744073709551615
4096;128;256;1;182;3;6692296
2048;64;128;4;42;3;18446744073709551615
2048;128;64;1;91;7;11679111
512;64;64;2;45;42;92358222
4096;128;64;1;30;10;15428296
4096;128;64;128;45;1;18446744073709551615
4096;128;32;1;45;13;14277186
4096;128;64;64;70;3;18446744073709551615
4096;128;64;1;21;6;12468000
1;128;1;1;39;3;449989629
4096;128;128;2;65;3;10388889
4096;128;128;128;45;6;18446744073709551615
512;1024;64;256;45;3;18446744073709551615
1024;128;16;1;45;3;25554222
2048;128;64;1;42;18;51474667
8192;256;64;64;90;1;18446744073709551615
4096;128;32;64;45;3;18446744073709551615
4096;128;128;2;90;3;5903111
8192;8;64;2;42;3;8598370
4096;64;64;2;45;13;36480148
1024;128;64;1;42;5;11557185
4096;128;128;1;65;3;5863852
4096;128;128;1;21;3;8145481
2048;128;64;128;78;5;18446744073709551615
4096;64;64;2;91;2;4840296
4096;128;64;1;65;30;90449185
4096;128;64;2;63;15;37821333
4096;128;16;1;35;2;19548592
8192;128;64;1;18;3;8008000
2048;128;64;64;45;3;18446744073709551615
4096;128;64;1;70;1;7271259
4096;128;32;64;45;9;18446744073709551615
512;128;128;1;35;3;10339852
1;128;1;1;45;10;371305630
4096;16;64;8;65;3;18446744073709551615
4096;128;64;64;5;3;18446744073709551615
4096;256;32;256;45;7;18446744073709551615
1;128;1;1;70;3;468452592
8192;128;64;1;45;7;11411851
1;128;1;2;45;5;437598963
8;1;4;1;1365;91;4721096148
2;512;2;8;1638;7;3372996000
32;2048;2;4;45;630;75422370
1;32;1;1;8190;195;34451793333
2048;128;64;2;35;3;7602518
2048;128;16;1;117;18;12935704
4096;256;64;1;63;35;75019703
8192;128;64;1;90;3;6840592
4096;128;32;1;35;3;6928000
1;128;1;1;45;9;381460148
8192;128;64;128;45;9;18446744073709551615
4096;128;64;1;6;1;5817481
4096;128;64;2;90;9;17924889
4096;256;64;256;78;3;18446744073709551615
1;64;1;2;45;3;621408592
4096;64;64;2;78;14;25248593
512;128;128;2;45;6;10278814
8192;128;32;2;70;3;8037037
4096;128;64;1;35;1;8116000
4096;512;64;256;45;5;18446744073709551615
2048;32;128;4;45;3;18446744073709551615
1;128;1;2;45;3;447660593
4096;32;64;4;45;1;8392445
4096;32;32;4;42;3;9195408
2048;512;64;128;45;3;18446744073709551615
128;4096;64;4;195;63;56787556
64;64;8;64;1;273;18446744073709551615
1;4096;1;8;14;182;94686815
2;1;2;1;9;910;23137142371
4096;1024;64;128;45;5;18446744073709551615
4096;128;64;1;14;3;8567703
4096;2;32;1;1;234;1048699111
256;4096;64;2;30;1;10394074
128;512;2;256;1;14;18446744073709551615
64;2048;2;1;2730;13;148223111
4096;32;16;4;45;3;6022371
