GLOBAL_SIZE_0;GLOBAL_SIZE_1;LOCAL_SIZE_0;LOCAL_SIZE_1;v_TP_75;v_TP_76;cost
512;2048;2;1;23;1;44911648
512;32;64;4;1;89;21478272
2;2;2;1;1;1;2533754272
4096;32;64;1;23;89;24383456
256;1;2;1;1;1;53218304
2048;1;1;1;178;46;134114048
32;512;8;1;23;178;15435904
4;512;1;1;4094;46;2943745632
2048;256;512;2;2;4094;417536128
1024;32;32;2;89;4094;435870656
32;2;16;2;46;1;190448576
1024;1;1;1;1;46;127959680
32;512;32;1;23;178;40738592
32;512;16;1;2047;4094;4828062272
32;32;8;16;23;178;40105312
32;512;8;512;23;178;18446744073709551615
64;1;2;1;1;1;179302848
16;64;1;8;46;23;24830816
32;64;2;8;23;23;12634048
512;4;64;4;2047;89;314524768
1;1;1;1;1;178;10671712768
4096;2;16;2;23;23;68175648
256;128;128;64;4094;23;18446744073709551615
4;1;4;1;4094;23;3579636736
64;4096;4;1024;1;178;18446744073709551615
8;2;8;1;4094;4094;9649602144
512;4096;2;256;4094;1;64916128
1;32;1;1;2047;46;5792649504
64;64;1;8;23;23;13683584
16;64;4;16;23;23;26467040
32;64;2;8;23;2;9572672
32;64;1;8;46;23;14175168
128;64;1;16;23;2;21807648
16;16;4;1;2;2;31941696
32;64;1;8;23;2;16235680
32;64;2;16;23;23;15850528
32;256;2;2;23;2;16140256
64;64;1;8;23;2;12395392
8;64;8;8;23;2;29335936
64;64;32;8;23;2;3949792
64;32;32;16;23;2;8431392
64;128;32;4;23;2;2591168
64;64;64;8;23;23;19497792
128;64;32;16;2;23;18446744073709551615
64;128;32;1;23;2;2568000
64;128;1;8;23;23;12239392
64;256;32;2;23;2;1800256
64;256;32;256;46;2;18446744073709551615
64;256;64;2;46;2;2561088
8;256;2;2;23;2;18510368
64;256;32;256;23;2;18446744073709551615
64;256;32;4;23;2;1829792
32;256;1;4;23;2;16294784
32;512;32;2;23;1;3875424
64;256;16;2;46;2;2711616
128;1024;64;1024;23;2;18446744073709551615
64;64;32;8;46;2;5051616
32;256;8;2;2;2;3757568
512;256;32;2;23;2;1711520
512;256;32;2;1;2;1512960
1024;256;32;2;23;2;1653280
128;64;128;8;23;1;4076256
512;128;32;4;23;2;1906720
512;256;16;2;1;2;1918496
1024;256;64;2;1;2;1522688
512;256;8;2;1;2;3111552
512;256;32;2;1;23;31168992
512;512;16;256;1;2;18446744073709551615
4096;256;32;2;1;1;2205760
1024;256;32;2;1;2;1493376
1024;512;16;1;23;2;3938816
1024;32;32;32;2;2;1497600
1024;128;64;2;1;2;1925216
128;256;32;2;1;1;2262048
1024;256;8;128;1;46;27256992
1024;16;16;1;1;1;6103712
2048;256;32;2;1;2;1723840
1;256;1;4;1;2;34947872
1024;512;64;1;1;2;1177280
1024;256;32;2;2;2;1219264
1024;256;32;2;1;1;1892640
512;512;64;1;1;2;1204224
2048;512;64;512;1;2;18446744073709551615
256;512;64;1;2;2;1171680
1024;512;32;1;1;2;1665152
256;512;256;1;2;23;7623744
64;512;64;1;2;1;1934816
256;2048;64;1024;23;2;18446744073709551615
128;512;64;1;2;1;1843776
64;512;64;2;2;2;1527168
256;512;64;1;2;23;4982592
256;512;64;2;2;2;1243264
128;512;64;1;2;2;1295968
2048;4;1;1;2;1;61778912
256;32;4;8;2047;178;364253920
512;1024;64;1024;2;1;18446744073709551615
256;512;64;1;23;2;1765632
256;256;64;4;2;2;1474368
256;512;1;1;2;2;34827744
256;256;64;2;2;2;1543488
512;512;64;1;2;1;1525536
256;128;64;4;2;2;1544928
256;512;32;1;1;2;1601920
128;256;64;2;2;2;1581504
256;512;64;1;2;178;32071808
1;4096;1;1024;2;2;36974016
4;4096;1;512;2;2;25579616
8;512;4;1;2;4094;77824960
1;4096;1;8;46;4094;160382784
64;32;16;4;178;178;51193504
4;1;4;1;178;2;2801862272
2048;1;2;1;2;1;31596352
128;2048;64;1024;2;2;18446744073709551615
64;512;64;1;1;23;32336224
128;32;1;2;1;2;20979648
1024;512;64;1;2;1;1504000
256;512;32;512;2;2;18446744073709551615
256;512;64;1;2;1;1622080
256;1024;64;1024;2;2;18446744073709551615
256;512;64;512;2;1;18446744073709551615
64;64;8;4;2;2;3936256
512;512;64;1;2;2;1092512
512;512;8;256;2;2;18446744073709551615
512;256;64;2;2;2;1274016
1024;256;64;4;1;2;1480192
1024;512;64;1;2;2;1065760
1024;512;64;512;23;2;18446744073709551615
2048;512;256;1;2;2;992000
1024;512;64;2;2;2;1028064
1024;128;64;4;2;2;1366752
2048;256;32;2;2;2;1174432
1024;512;1;2;2;2;20237152
2048;1024;256;1024;2;2;18446744073709551615
2048;512;128;1;2;2;977504
2048;512;128;2;2;2;990592
2048;512;128;512;2;1;18446744073709551615
2048;64;64;8;1;23;21399968
1024;512;128;1;23;2;1603232
2048;512;128;1;2;1;1416640
1;512;1;512;2;2;49359104
2048;512;128;2;23;2;1606240
2048;128;256;4;2;2;1430784
1;64;1;1;1;2;111708480
2048;512;128;512;2;2;18446744073709551615
2048;64;128;8;1;2;1732800
2048;256;128;128;1;2;18446744073709551615
2048;2048;128;512;2;1;18446744073709551615
2048;512;128;2;2;23;7881120
2048;512;64;1;2;2;1067840
2048;512;512;1;1;2;1263200
2048;256;128;2;2;2;1134464
2048;512;512;1;2;2;1052320
2048;128;128;4;2;2;1220928
2048;512;64;512;2;2;18446744073709551615
2048;256;128;2;2;23;7847552
2048;512;64;128;2;46;18446744073709551615
32;32;16;2;1;1;13735360
1024;512;128;512;2;2;18446744073709551615
4096;512;64;256;2;2;18446744073709551615
256;512;128;2;2;23;7598464
64;128;8;32;23;1;6191200
1024;32;512;16;2;89;18446744073709551615
2048;32;1024;16;46;1;18446744073709551615
128;1;16;1;2047;46;213573344
2048;512;16;1;2;2;2611008
4096;256;128;2;2;2;1119680
256;512;128;2;2;2;1243360
256;4096;128;1024;23;1;18446744073709551615
4;1;1;1;89;1;3255589216
2048;1024;16;1024;1;2;18446744073709551615
1024;1024;128;1024;2;2;18446744073709551615
2048;512;128;1;23;2;1593344
2048;2048;128;512;2;46;18446744073709551615
2048;512;128;128;2;2;18446744073709551615
4096;128;128;4;1;2;1562560
1024;512;1;1;1;23;63594784
512;512;256;1;23;2;1686528
1024;512;128;1;2;2;1014016
1024;512;128;1;2;23;5081824
1024;2048;128;1024;2;2;18446744073709551615
1024;512;256;1;2;23;7742208
1024;512;128;1;1;2;1111264
2048;512;32;1;2;2;1537696
1024;512;128;1;2;46;50729792
4096;512;32;1;2;2;1603776
2048;64;128;4;2;23;18446744073709551615
2048;512;256;512;2;2;18446744073709551615
1;512;1;1;2;1;64941248
2048;512;128;1;46;2;1489728
1024;128;256;2;23;2047;94579328
2048;512;128;2;2;2;993728
2048;512;128;2;2;46;48267424
2048;1024;128;256;2;2;18446744073709551615
4096;512;128;1;1;2;1178080
2048;512;256;2;2;23;18446744073709551615
2048;512;128;512;23;2;18446744073709551615
4096;512;256;1;2;89;38736064
2048;512;64;1;23;1;2426080
4096;512;1024;1;46;1;1798112
2048;256;128;1;23;2;1585184
256;512;64;512;2;2;18446744073709551615
2048;1024;64;1024;2;2;18446744073709551615
512;512;128;2;2;2;1099008
512;2048;128;1024;2;23;18446744073709551615
2048;128;32;4;2;2;1217408
2048;512;32;2;2;2;1073376
2048;512;512;1;2;1;1525856
4096;512;128;256;2;2;18446744073709551615
2048;512;128;1;2;23;5132704
2048;128;128;8;2;23;18446744073709551615
2048;512;16;2;46;2;2262240
2048;512;128;1;1;2;1154688
1;128;1;4;2;2;68540224
512;512;64;1;1;1;1693568
4096;512;256;2;2;2;1086528
1024;512;256;1;2;2;1006560
256;4;1;1;1;23;70194528
32;1024;2;128;2047;1;272514432
512;1024;16;64;4094;23;112484416
16;256;2;128;1;1;6962272
2048;256;64;2;2;2;1151488
1;512;1;1;2;2;43777024
2048;512;128;256;2;2;18446744073709551615
1;512;1;128;1;2;36757856
256;8;8;2;2;46;28423488
2048;1024;256;1024;2;23;18446744073709551615
512;1024;64;1024;2;2;18446744073709551615
4096;512;128;2;2;2;1035296
2048;512;128;1;1;23;32054816
2048;1024;64;512;1;2;18446744073709551615
2048;128;128;8;2;2;1378624
1;1024;1;128;1;1;20922880
4096;512;128;1;23;2;1602464
2048;512;128;1;2;89;40909536
2048;512;128;1;178;23;19773824
8;32;2;4;178;1;68043744
2;8;2;2;1;1;690618592
1024;16;4;16;2;178;72398368
256;1;2;1;1;1;53108320
2048;512;128;256;2;1;18446744073709551615
2048;512;1024;512;2;2;18446744073709551615
1024;256;128;2;1;2;1516064
1024;512;256;1;2;1;1478880
128;1;8;1;46;1;79857728
2048;1024;256;512;2;2;18446744073709551615
2048;512;128;1;23;23;42001184
2048;512;128;512;23;1;18446744073709551615
2048;256;128;4;2;1;1631904
2048;1024;128;1024;2;23;18446744073709551615
256;512;1;512;23;4094;146863008
2048;2048;128;1024;2;2;18446744073709551615
4096;512;128;1;2;2;993216
2048;512;64;1;23;2;1625024
2048;512;128;1;1;1;1588608
2048;512;256;1;1;2;1183392
512;256;512;128;1;89;18446744073709551615
128;16;128;2;2;23;12107776
2048;512;128;1;2;2;993856
2048;512;512;1;2;23;18446744073709551615
2048;512;64;2;2;1;1438272
1;1;1;1;2047;46;11099234816
32;64;8;16;23;178;21459968
4;512;1;1;1;46;60012000
64;1;2;1;1;23;174583040
512;1024;128;1024;2;2;18446744073709551615
2048;512;128;1;2;46;51520800
4096;2048;512;1024;2;46;18446744073709551615
4096;512;128;1;2;1;1406112
128;256;64;1;2;89;42657344
256;16;4;1;2;89;27264416
2048;4;128;1;2;2;1768608
256;64;1;2;2;46;34730304
2048;256;256;2;2;2;1159520
1024;512;128;512;23;2;18446744073709551615
2048;512;128;2;2;1;1467424
2048;1024;128;128;2;2;18446744073709551615
2048;512;128;256;23;2;18446744073709551615
2048;512;256;1;4094;2;6531648
128;512;128;2;2;2;1417120
2048;512;128;32;2;2;18446744073709551615
2048;512;128;16;2;2;18446744073709551615
2048;512;128;1;89;2;1633504
2048;512;128;256;178;2;18446744073709551615
2048;512;1;1;2;2047;86731104
2048;64;128;1;2;2;1575296
2048;512;2;1;2;2;19696960
2048;512;128;1;4094;2;6546688
256;512;128;1;2;2047;50070112
2048;512;128;256;89;2;18446744073709551615
256;512;128;1;2;2;1262976
2048;1;128;1;2;2;4178144
2048;512;32;32;2047;2;9073696
2048;512;128;1;23;46;57069248
512;512;128;1;2;2;1092448
256;512;256;512;2;2;18446744073709551615
2048;1;128;1;2;2;4194336
1;512;1;1;2;2;43584576
16;2048;1;8;46;23;14427584
128;64;128;1;23;4094;170557632
8;64;4;2;2047;89;1166693728
64;8;2;2;178;178;79852448
512;512;128;512;2;2;18446744073709551615
2048;512;128;512;1;2;18446744073709551615
512;512;128;1;1;2;1216064
256;8;32;4;1;23;13640480
8;1;4;1;46;2;1393491456
4096;512;128;2;1;2;1228704
1;512;1;1;1;2;43706048
2048;2048;64;1;2;23;5332320
2048;512;128;1;2047;2;3739712
2048;512;128;1;2;4094;75868128
8;512;8;1;2;2;5668320
32;8;2;8;23;23;83517248
4096;2;16;2;23;23;68435200
256;128;128;2;2047;46;153318496
4;1;4;1;46;23;3728773376
1024;512;128;1;2;1;1419904
2048;256;256;2;1;2;1538752
2048;512;1024;128;1;23;18446744073709551615
512;256;256;2;2;2;1249824
2048;1024;128;1024;1;2;18446744073709551615
64;16;2;4;23;23;19600224
2048;128;128;4;2;1;1690304
1024;512;128;2;2;2;1016512
128;1;8;1;2;1;95149664
4;512;2;1;2;89;37916064
2048;512;128;1;178;2;1745056
4096;128;128;4;2;2;1238272
4096;512;128;512;2;1;18446744073709551615
64;8;4;8;1;178;135696256
8;2;8;1;4094;2;1429600640
512;512;8;256;4094;1;18446744073709551615
1;512;1;256;89;46;546037088
128;128;128;1;2;46;49888768
512;128;32;4;2;2;1633376
2048;64;128;8;2;2;1385376
2048;128;128;4;1;2;1508768
1024;512;128;256;2;2;18446744073709551615
1024;256;128;2;23;2;1618688
2048;512;512;1;2;46;34648096
2048;512;64;1;2;1;1511744
512;512;32;2;2;2;1118848
1024;512;64;1;23;23;38965088
2048;512;64;1;1;46;31982368
4096;256;128;4;2;2;1169600
1024;1024;256;1;1;2;1080192
2048;512;1024;1;2;2;1536800
2048;128;1;4;23;1;23581600
256;16;64;2;2;23;6527200
64;32;4;2;2;2;8294528
128;16;1;4;23;23;22880736
256;16;1;2;2;46;39595744
512;1024;64;1024;2;23;18446744073709551615
2048;256;512;2;2;2;1403264
2048;512;128;1;23;1;2413760
2048;512;128;4;2;2;1074336
2048;1;128;1;2;2;4192416
2048;512;4;1;2;2;9949376
2048;512;128;1;2;178;31632384
2048;256;128;2;1;23;27618528
2048;4096;256;1024;2;2;18446744073709551615
2048;256;512;4;2;2;18446744073709551615
4096;32;128;16;2;2;18446744073709551615
1;4096;1;8;2;4094;15032288
2048;32;16;4;23;178;39927872
4;1024;1;256;178;2;213023104
2;4;2;1;2;1;1261327136
2048;512;32;1;1;2;2257568
1;512;1;1;2;2;43633120
256;32;256;2;2;46;15944032
128;64;128;2;2;46;30862752
4096;512;128;1;46;2;1502464
1;4096;1;1024;2;1;46424416
2048;512;128;2;23;23;39672864
2048;256;128;2;23;2;1582304
2048;4;1;2;2;2;20640384
32;128;1;2;2;1;30692128
64;1;8;1;23;1;247406240
1024;256;512;8;2;2047;18446744073709551615
2048;32;64;8;46;1;2210144
2048;256;128;1;1;2;1376032
4096;1024;128;1024;2;2;18446744073709551615
64;64;1;2;2;2;19364352
4096;512;128;1;2;23;5330176
128;8;128;2;2;1;12578432
2048;4096;128;1024;2;2;18446744073709551615
128;1;16;1;23;46;213577888
32;1024;2;128;2047;2;198705088
128;1024;16;64;4094;23;225641728
16;256;2;256;89;1;34050400
2048;512;64;1;1;2;1338656
128;16;128;2;2;2;3844768
2048;512;128;1;1;2;1150176
2048;32;128;16;2;46;18446744073709551615
2048;256;128;256;2;2;18446744073709551615
128;128;32;128;1;23;18446744073709551615
2048;1024;512;1024;2;2;18446744073709551615
128;32;1;2;23;23;37647424
2048;512;128;256;2;23;18446744073709551615
4096;4096;256;1024;46;2;18446744073709551615
256;16;128;2;2;23;12124448
128;32;1;2;2;2;19423744
256;32;256;2;2;23;18446744073709551615
128;32;128;2;2;2;2144128
512;512;32;1;2;1;2217696
2048;2;128;1;2;2;2160224
2048;128;1;4;2;2;11248768
32;4;32;2;2;23;132128608
8;1;2;1;23;1;1914456928
8;8;2;2;1;1;193257408
1024;16;4;16;1;178;67796064
64;8;64;8;2;23;18446744073709551615
8;4096;4;1024;2;2;18446744073709551615
128;32;128;2;2;23;12106816
256;32;128;2;2;23;9098112
256;1;2;1;89;2;46789248
2048;1;1;1;178;46;134229024
32;32;32;2;2;23;16566496
2048;4;128;2;2;2;1594624
64;32;64;2;2;23;8593216
32;1;2;1;23;178;555053056
4;512;1;1;1;1;58456800
64;1;16;1;1;23;265109472
128;32;32;2;1;23;8454880
128;32;64;2;2;23;8290912
16;2048;1;8;1;23;9245344
512;64;128;8;23;23;40407168
512;4;64;4;46;23;37661664
128;32;32;2;2;89;21783616
128;32;1;2;2;23;32663904
16;512;4;1;2;2;8991136
2048;32;32;16;2;2;1565280
64;1;2;1;1;178;540408864
4096;2;16;2;46;23;68870592
256;1;128;1;2047;46;288844352
4;8;2;1;4094;23;3390211552
2048;512;128;1;2;1;1422048
2048;512;8;1;2;2;5078432
2048;32;128;16;2;2;18446744073709551615
1;1;1;1;1;178;10727197728
8;32;8;1;89;2;63288576
512;4096;256;256;4094;23;18446744073709551615
1024;512;64;256;89;46;18446744073709551615
32;512;2;1;2;2;17610784
2048;4096;1;1;2;2;56929824
2048;512;1;1;2;2;39004096
1;4096;1;8;2;89;17997536
2048;256;16;4;23;178;38365664
32;64;8;4;4094;2;360162912
2048;1;1;1;2;1;61486624
2048;512;128;1;2;2047;54596128
64;512;1;1;2;2;34434880
64;64;8;32;23;1;6945504
1024;2048;1;16;2;178;12371392
2048;1;128;1;46;1;5636064
64;1;16;1;2047;23;338726880
32;1024;2;128;178;2;28420992
512;1024;16;64;2047;23;68151168
1;128;1;128;1;1;166203648
32;32;32;16;178;1;18257056
2048;1;128;1;2;89;606258880
2048;8;128;4;2;2;1491296
8;1;2;1;2;1;1373539104
1024;16;512;1;178;178;84390944
512;4;1;1;89;2;55750880
2048;256;1;4;178;2;16564672
32;512;8;1;23;1;12873728
16;512;1;8;178;1;37638112
64;512;2;1;1;23;31622080
16;1024;1;8;23;23;13838144
2048;1;64;1;2;2;4198144
2048;512;128;1;4094;1;6008736
32;64;2;16;178;23;38459136
1;8;1;8;46;23;2129698496
1;8;1;2;2047;178;6009528384
64;32;8;16;23;89;24108480
1;512;1;1;2;46;73476800
1024;512;128;1;1;2;1114816
8;128;1;2;2047;46;805867360
1;8;1;8;4094;46;11593783392
64;8;4;8;1;1;36278848
64;32;1;2;89;2;33388512
512;2048;128;256;2;2;18446744073709551615
2048;256;128;2;2;46;49077568
1;4096;1;256;46;1;259596736
1;8;1;1;89;46;1515592640
1;128;1;8;1;2;82968448
2048;1024;16;4;4094;23;112580160
4;1024;1;1;2047;23;1548890944
2048;1;1;1;2;1;61556288
64;128;32;2;23;1;3633888
1024;1024;1;16;2;178;12975840
2048;32;128;16;2;1;18446744073709551615
256;32;64;32;46;1;18446744073709551615
128;1;1;1;2047;2;89688448
256;1024;128;128;178;2;18446744073709551615
512;64;16;64;2047;23;68144640
2048;512;1;1;2;2;39002336
16;256;1;128;1;1;6377664
32;32;1;16;178;1;23143264
8;2;2;2;1;1;776144608
1024;16;4;16;178;178;96362752
2048;512;1024;2;46;2;18446744073709551615
64;128;1;32;89;2;24263488
2048;256;1;1;178;2;55471360
4;4;1;2;23;1;939906624
1;512;1;8;178;1;588160448
1;64;1;8;2;2;157194496
128;512;128;1;2;178;28926944
2048;1024;128;1024;2;2;18446744073709551615
4;512;4;1;1;1;18343840
16;2048;1;64;1;23;45491680
32;64;4;8;178;23;35397312
512;128;64;8;46;46;50379296
512;256;128;1;2;2;1282240
64;8;2;2;1;178;73757728
64;2048;8;1;1;2;5036928
1024;128;128;4;2;2;1269056
2048;512;256;1;2;46;47181824
2048;2048;128;1024;1;2;18446744073709551615
2048;512;64;1;2;23;5210912
512;512;128;1;2;1;1476384
1;512;1;1;23;2;65693728
256;256;128;1;2;2;1569504
4096;2048;128;512;46;2;18446744073709551615
1;1024;1;1024;2;1;93299808
2048;512;64;512;23;2;18446744073709551615
2048;2048;256;1024;46;2;18446744073709551615
2048;2048;256;256;2;2;18446744073709551615
2048;1024;128;1;2;2;961504
256;512;128;1;2;23;4932384
1024;1024;128;1;2;23;5016384
2048;2048;128;512;2;2;18446744073709551615
1;512;1;2;46;2;114468288
2048;1024;128;1024;23;2;18446744073709551615
2048;1024;8;1024;1;2;18446744073709551615
2048;256;128;4;2;2;1174560
2048;1024;128;1;1;1;1590720
1024;1024;128;1;2;2;965280
2048;1024;64;1;2;2;1131712
4096;1024;128;1;1;2;1197728
256;1024;128;1024;2;2;18446744073709551615
2048;1024;128;512;2;23;18446744073709551615
4096;4096;128;1;2;2;1248000
1;1024;1;1;2;1;54085088
4096;1024;512;1;2;2;1140736
2048;256;128;4;23;2;1610688
2048;1024;128;1;1;2;1129920
2048;4096;128;256;1;2;18446744073709551615
2048;1024;128;1;2;1;1431744
2048;1024;128;256;2;23;18446744073709551615
512;1024;128;1;2;2;998080
2048;512;128;2;1;2;1172736
2048;1024;32;1;2;1;2396704
4096;1024;128;1;2;2;1005632
1;1024;1;1;2;2;34736672
2048;1024;128;1;2;23;5164128
2048;2048;64;1;2;2;1062752
4096;256;128;4;23;2;2444992
1024;256;128;4;1;2;1431328
2048;2048;128;1;2;2;979328
2048;1024;64;1;46;2;1548192
4096;1024;128;1;23;2;1642560
4096;512;64;2;2;2;998624
2048;1;128;1;23;1;8582432
2048;256;128;4;2;23;18446744073709551615
2048;1024;32;1;2;2;1552928
2048;1024;512;1;2;2;1051168
1024;2048;128;1;2;2;957728
4096;2048;128;1;2;23;5714336
1;1;1;1;46;2;9199919968
1024;2048;64;1024;2;2;18446744073709551615
2048;2048;256;1;2;2;992960
1024;1024;128;1;2;1;1416960
2048;2048;512;512;2;23;18446744073709551615
512;2048;128;1;2;23;4894080
1024;2048;128;1;2;1;1422304
1024;1024;64;1;2;2;1048320
1024;2048;256;1;2;2;967456
1024;2048;32;1;1;2;1747360
1024;1;128;1;2;2;8035168
256;2048;128;512;2;23;18446744073709551615
4096;2048;64;1;1;23;11133088
1024;1;128;1;46;2;11945344
1024;2048;128;1;1;1;1596320
1024;2048;128;512;2;46;18446744073709551615
1024;2048;128;1024;1;2;18446744073709551615
256;4096;128;1;2;2;1000800
1024;2048;64;1;2;23;5129728
1024;2048;128;1;1;2;1026016
1024;4096;256;1;2;2;1011136
512;512;128;2;2;1;1548896
512;2048;128;1024;2;2;18446744073709551615
1024;4096;128;1024;1;2;18446744073709551615
1024;2048;64;1;2;1;1493632
64;4096;1;1;2;2;34918048
1024;2048;64;1;2;2;1118208
1024;4096;128;1024;1;23;18446744073709551615
512;2048;64;1;2;1;1477024
256;2048;256;1;1;2;1082944
1024;2048;128;512;2;2;18446744073709551615
128;1024;128;1;2;2;1255648
1024;256;128;2;2;2;1204288
1024;2048;128;1;23;1;2457792
64;2048;64;1024;2;2;18446744073709551615
1024;4096;128;1;2;23;5167328
512;2048;256;1;2;2;992288
1024;2048;128;1;23;2;1603104
1024;2048;128;1;2;23;5041632
1024;256;128;4;2;2;1189984
1024;2048;512;1024;1;2;18446744073709551615
1024;4096;128;1;2;1;1466368
4096;2048;128;1;2;2;1064448
2048;2048;128;1;2;23;5267200
1024;2048;128;1;1;23;20473344
1024;4096;16;1;2;2;3087488
1024;4096;128;1;1;2;1039456
1024;1024;128;1;1;2;1057888
256;2048;128;1;2;2;1004224
1024;1;128;1;2;1;15473280
128;2048;128;1;2;2;1172000
1024;2048;512;1;2;2;1045824
512;2048;128;1;2;2;966912
1024;2048;64;1;23;2;1677760
256;1024;128;1;23;2;1799936
2048;2048;256;1;2;23;8260224
1024;1;64;1;2;23;93168128
512;1;256;1;2;2;15243200
512;2048;512;1;2;23;18446744073709551615
1024;4096;128;1;2;2;994624
1024;512;512;2;2;2;1307680
256;2048;128;512;2;2;18446744073709551615
1024;1;256;1;2;2;7920992
512;2048;128;1;23;2;1679168
1024;1024;256;1;2;2;988480
1024;1;128;1;2;23;93218656
1024;2048;512;1024;2;2;18446744073709551615
1024;1024;256;512;2;1;18446744073709551615
1024;2048;256;1;1;23;18054528
2048;4096;128;1;2;2;1069696
512;4096;128;1;2;2;985152
256;128;128;8;2;23;18446744073709551615
512;2048;128;1;1;2;1022432
1024;2048;128;128;2;2;18446744073709551615
1024;2048;128;1;1;2;1031392
1024;1;128;1;2;1;15303648
2048;2048;1024;1;178;2;1869984
2048;2048;128;1;1;2;1126560
1024;2048;32;1;46;2;2268320
128;4096;128;1;4094;2;94999392
32;2048;2;1;2;2;17426528
1024;2048;8;1;2;2;5221280
1024;4096;128;1;2;1;1465408
256;2048;128;1;2;23;4871200
1024;2048;128;1;2;1;1417344
32;2048;2;8;2;2;3504416
64;2048;4;1;2;2;8854368
1024;2048;128;16;2;178;18446744073709551615
1024;1;128;1;2;4094;10512532704
1024;64;128;16;2;2;18446744073709551615
32;1024;2;1;2;2;17405728
256;1;4;1;2047;46;163097856
4;8;2;1;23;23;427628480
256;8;1;8;1;1;15047680
2;32;2;2;89;2;251306912
256;2048;32;1024;23;23;18446744073709551615
2048;4096;128;1;2;1;1537696
512;4096;2;256;1;1;7845440
1;512;1;256;89;4094;499397344
4096;4096;8;8;2;4094;16252192
2048;1;16;1;23;46;213654304
4;8;2;8;4094;2;2706684032
1024;2048;1;1;2;2;40512736
16;2048;4;1;2;1;14738496
4096;2;128;2;23;2;3675456
64;2048;1;1;2;2;34588192
16;1024;8;256;178;2;18446744073709551615
2048;1;1024;1;2;1;11873600
64;128;32;2;1;1;2543456
1024;2048;1;16;1;178;7253728
1024;2048;2;1;2;2;20394080
1024;2048;128;1;2;2047;46747488
128;512;64;512;178;1;18446744073709551615
128;128;32;2;2047;2;48721728
32;1024;2;128;1;2;11671552
512;1024;16;64;1;23;24643520
1024;2048;128;1;178;2;2091840
1024;2048;128;1;2;89;36254464
1024;2048;128;4;2;2;1038784
8;2048;8;1;2;2;4593024
128;64;128;2;1;2;1815200
1024;2048;16;1;2;2;2710016
16;512;1;128;1;2;19942944
32;32;1;16;178;1;23097728
1024;2048;4;1;2;2;10272512
2;8;2;4;1;1;751695424
1024;1;1;1;23;1;87576672
64;256;1;32;89;2;24790560
2048;256;1;4;178;1;17523616
32;1;32;1;23;1;534798784
4096;256;1;8;178;89;19116288
1024;2048;128;8;2;2;1636096
1024;2048;128;1;2047;2;6870144
1024;2048;128;1;4094;2;11887712
1024;128;128;64;2;2;18446744073709551615
2048;2048;128;1;23;2;1637408
1024;2048;128;1;2;46;42737216
4;1;1;1;23;1;3459826336
16;2048;1;16;1;1;5596960
1024;2048;1;1;2;2;40507744
1024;2048;256;512;2;2;18446744073709551615
1024;2048;128;256;2;2;18446744073709551615
1024;2;128;1;2;2;3937664
1024;16;128;2;2;2;1517984
32;64;2;8;23;1;13050816
512;4;64;4;89;23;37840064
64;8;2;2;2047;178;300068608
64;4096;8;1;1;2;5052352
1024;2048;4;1;2;1;16280064
2;2048;2;1;2;4094;56981600
1024;4;128;4;2;2;2144704
256;512;128;4;2047;46;154179520
4;8;1;4;23;23;468780576
256;1;4;1;1;1;55377440
64;32;1;32;89;2;16255424
1;1;1;1;2;2;7047006400
64;4096;16;256;1;1;18446744073709551615
512;1;64;1;89;1;32736224
4;4096;2;8;2;4094;14790240
2048;2048;16;4;23;89;60551968
4;1024;1;256;4094;1;2373721568
2048;1;32;1;2;1;9323168
64;16;32;8;1;1;13810720
1024;32;1;16;1;178;24257728
2048;32;1;8;46;178;26652512
1024;512;128;1;2;2;1018816
1024;2048;1;1;2;178;67758496
512;128;32;2;89;2;1792416
32;1024;2;128;1;2047;13238240
512;32;16;32;1;1;4115712
8;256;1;128;1;1;11567968
32;1;32;1;178;1;345549440
8;8;1;1;1;1;175269824
1024;1;4;1;1;178;649910912
64;128;16;32;1;2;2191840
1024;2048;128;1;89;2;1776096
1024;64;1;16;2;2;4477792
128;2048;4;1;2;2;8926880
32;256;1;4;1;2;11242880
32;64;8;8;1;1;7800000
4096;256;1;16;46;89;39758976
4;512;1;128;1;1;11792576
16;16;8;16;1;1;53409184
32;64;2;8;46;23;15888192
512;4;64;4;46;1;6196064
64;8;1;2;46;178;78434176
1024;256;128;8;2;2;1370432
1024;4;128;1;2;1;3927808
1;2048;1;128;1;2;9489408
64;2048;32;1;1;46;23263296
256;16;128;4;2047;46;153555328
2048;8;16;1;23;23;15154144
8;8;2;8;1;1;233986720
512;32;128;32;89;1;18446744073709551615
128;4096;8;256;2;1;18446744073709551615
512;1;64;1;89;23;133902720
4;4096;2;64;2047;4094;5392624768
1024;2048;128;1;178;1;2030656
2;2;2;2;2;2;1808103552
1024;2048;128;512;2;2047;18446744073709551615
1024;2048;128;2;2;2;963808
128;16;16;4;23;178;77881088
64;1024;8;256;178;2;18446744073709551615
1;1;1;1;1;1;9257000512
256;1024;4;512;1;1;18446744073709551615
2;2048;2;256;2;2;7364896
1024;32;128;32;1;2;18446744073709551615
32;2048;4;16;1;178;29479616
2048;32;64;8;2;1;2101760
512;128;512;2;1;2;1587072
32;1024;2;16;1;46;17303360
32;32;16;32;1;1;16134176
1024;2048;128;1;2;4094;70901504
1024;2048;128;1;2;178;28394016
16;256;16;128;1;1;18446744073709551615
8;32;8;16;178;1;68746944
4096;8;1;1;2047;1;85454368
1024;1;4;1;1;23;62154304
1024;2048;64;1;4094;2;11887552
1024;2048;1024;1;2;2;1579744
512;2048;2;32;1;1;2292832
32;256;32;16;1;2;1647008
32;64;8;4;1;1;7602016
4096;2048;1;8;178;89;19197344
1;512;1;128;1;1;41632736
16;4;1;2;1;1;192401824
64;64;1;8;1;23;11459424
512;4;32;4;46;1;5794880
1024;256;128;64;2;2;18446744073709551615
128;8;128;8;2;2;10229184
64;8;4;2;1;178;89717440
64;4;4;1;1;2;30967744
32;128;2;4;46;46;14126720
16;8;16;1;23;23;168769024
1024;2048;256;1024;2;2;18446744073709551615
1024;8;512;8;1;1;18446744073709551615
64;32;1;32;89;1;24713056
512;1024;2;256;1;1;17945888
64;1;32;1;89;1;261390336
4;32;2;8;2;1;117146656
1024;8;128;2;2;2;1799872
1024;4;1;4;2;2;10952896
2048;2048;32;4;23;178;40188160
4;512;1;256;1;2;9554272
2048;2;32;1;2;1;4788928
512;128;32;2;1;1;2265408
1024;1;512;1;2;2;8278752
1024;32;1;16;1;1;6008864
2048;32;64;8;2047;1;4488416
512;1024;512;512;1;178;18446744073709551615
32;1024;16;128;1;23;18446744073709551615
1024;32;16;32;1;1;4461792
16;256;4;128;1;1;6123936
4;32;4;8;1;1;120915424
4096;8;1;1;1;1;103765248
1024;2048;128;16;2;2;18446744073709551615
512;2048;128;1;2;89;35854496
1024;1;4;1;1;1;31360608
64;128;1;1;1;2;37431744
32;4096;32;16;1;2;1266816
64;64;4;4;1;4094;184919680
1024;2048;128;1;46;2;1614944
64;2048;1;64;2;2;21139328
1024;2048;32;1;2;2;1476416
4096;32;8;8;178;89;30466560
4;512;1;128;89;1;147669056
16;2048;1;16;1;1;5575872
64;1;1;1;178;23;207224896
1024;2048;1;1;2;1;62774592
1024;64;1024;16;2;2;18446744073709551615
32;4;2;4;46;1;107169184
1;64;1;32;1;178;359706432
64;1;8;1;1;2;126105504
32;128;2;1;46;2;28621696
1024;2048;16;16;2;2;997440
1024;2048;128;64;46;2;18446744073709551615
2048;8;16;1;23;46;29668992
256;1;1;1;1;1;93730112
64;32;1;16;1;1;8613152
512;4096;1;256;1;1;10852704
1024;2048;128;64;2;4094;18446744073709551615
1024;2048;128;32;2;2;18446744073709551615
1024;2048;128;32;2;23;18446744073709551615
1;2048;1;1;2;2;34724800
1024;4096;512;1024;1;2;18446744073709551615
1024;2048;64;1024;1;2;18446744073709551615
1024;2048;512;1;2;1;1488160
256;2048;128;1024;2;23;18446744073709551615
1024;4096;64;1;2;2;1187648
1024;2048;128;1024;2;23;18446744073709551615
1024;2048;128;1024;1;1;18446744073709551615
512;2048;32;1;2;2;1564576
1024;2048;64;1024;23;2;18446744073709551615
1024;1024;128;1;23;2;1601184
2048;2048;64;256;2;2;18446744073709551615
2048;1;128;1;1;2;6785440
512;2048;64;1;2;2;1061408
512;2048;128;1;2;46;43405472
256;4096;128;512;2;2;18446744073709551615
1024;256;128;4;2;1;1692288
128;1;128;1;2;23;183711520
1024;2048;32;1;46;23;27156608
1;1024;1;1;23;2;65508896
4096;2048;128;1;2;1;1461984
1024;2048;128;1024;2;1;18446744073709551615
1024;2048;256;1;2;1;1429760
1024;1;128;1;1;2;14887136
4096;2048;64;1;1;2;1555232
1024;2048;128;1024;46;2;18446744073709551615
1024;512;128;2;46;2;1673344
256;4096;16;1;2;1;4152352
1024;2048;16;1;23;46;23714880
1024;4096;128;1;46;2;1644256
1024;128;128;8;2;23;18446744073709551615
1;2048;1;1024;2;23;18446744073709551615
1024;512;32;2;2;2;1085824
2048;1024;256;1;2;2;969600
256;2048;128;1;1;2;1048480
1024;2048;512;1;23;2;1602560
1024;32;128;32;2;2;18446744073709551615
1024;1;128;1;2;2047;7028900768
256;1;128;1;2;2;29592480
1024;32;128;32;89;46;18446744073709551615
1024;16;4;2;2;2;5293760
1024;2048;512;8;2;2;18446744073709551615
2048;2048;256;1;23;2;1612032
1024;2048;128;32;2;1;18446744073709551615
1024;2048;8;32;89;2;5235104
512;1;64;1;89;2;24641632
4;4096;2;1;2;4094;67207104
1;256;1;4;23;178;75965216
4;4;1;4;1;2;558137152
2048;2;32;1;1;1;6108032
1024;512;64;2;2;23;5100704
512;32;32;1;1;1;2883840
1024;32;1;4;4094;1;63191552
2048;32;1;8;2;1;9723520
512;2048;512;512;1;2;18446744073709551615
1024;2;128;2;89;2;6798688
2;2048;2;64;2;23;10337760
1024;2048;32;1;1;2;1735392
128;1024;128;1;1;2;1346304
512;32;16;32;1;1;4138880
1024;2048;64;1;1;2;1120576
16;256;1;128;1;2;4968608
1;2048;1;1;2047;2;5023302528
1024;2048;1;1;2;89;73072736
32;32;32;1;178;1;15385536
4096;8;1;1;1;1;103684320
256;1;4;1;1;1;55303584
64;128;16;32;1;2;2223168
32;4096;32;1;1;2;1610304
1024;1024;128;4;2;2;1039168
1024;128;128;8;2;2;1358848
1024;2048;128;1;89;4094;237023040
1024;256;128;1;2;2;1169184
1024;32;128;32;23;2;18446744073709551615
32;256;1;1;1;1;60104160
4;16;1;2;178;1;220098272
4;512;1;128;1;1;11749216
16;16;16;16;1;1;56261440
64;256;1;2;1;23;32032672
512;256;32;1;46;1;2247872
256;8;2;2;1;178;73672416
32;2048;32;1;1;2;1598112
1;2048;1;1;46;2;118262656
32;1;32;1;46;46;825696928
16;4096;16;1;23;23;9766976
256;2048;128;1;23;23;40981248
1;2048;1;1;2;23;59945088
1024;2048;128;1;46;2047;90733600
1;16;1;2;1;1;643495424
512;32;1;32;1;1;33448064
512;16;2;8;1;1;8582944
512;1;64;1;89;178;951534848
4;4096;2;8;23;4094;79892384
2048;256;1;4;23;23;19848896
128;1;8;1;46;2;89968704
2048;2;1024;2;2;1;18446744073709551615
1024;2048;2;8;2;2;3592544
512;128;2;2;2;1;15745728
1024;32;1;2;1;1;34125408
2048;32;128;8;2;1;1936512
512;4096;1;512;1;2;8605824
128;4096;128;1;1;2;1039904
512;32;16;2;1;1;4209408
16;256;1;4;1;1;17269504
32;32;32;1;1;1;12447616
4096;8;1;8;1;1;15008384
1024;1024;128;32;2;89;18446744073709551615
1024;1;128;1;1;1;18050976
128;8;8;2;1;2;9484320
32;4096;32;16;1;1;1654720
1024;64;512;4;1;1;18446744073709551615
4096;256;1;8;1;89;13446208
4;512;1;64;1;1;11519008
16;2048;1;16;1;2;4294112
64;128;1;4;1;1;17254784
1024;2048;128;1;2;2;951584
1024;128;128;1;2;2;1379520
1024;16;128;1;2;4094;665822944
1024;2048;128;32;23;4094;18446744073709551615
1024;2048;4;1;2;2;10271584
1;2048;1;32;2;2;10197856
1024;2048;64;1;2;2;1120896
1024;2048;128;1;2;46;41720704
1024;2048;128;8;2047;2;6857216
1024;4096;128;1;1;2;1046272
1024;2048;128;1;2;1;1425312
16;2048;4;1;4094;2;699119168
1024;2048;8;1;2;2;5230528
1024;2048;128;16;2;1;18446744073709551615
1024;2048;128;1;89;2;1740096
1024;2048;128;128;2;89;18446744073709551615
1024;2048;128;1;4094;2;11879552
1024;2048;128;1;2047;2;6879872
1024;2048;128;256;178;2;18446744073709551615
1024;2048;16;1;2;2;2718304
1024;2048;8;8;2;2;1354208
2048;2048;32;1;89;2;2479392
1024;2048;128;1;178;2;2078176
1024;4096;128;1;2;2;997216
2048;2048;128;1;2;2;973280
1024;2048;1024;1;2;2047;542379328
1024;2048;128;1;2;178;28237312
1024;2048;32;1;2;2;1493632
1024;64;128;1;2;2;1645632
1024;256;512;1;2;2;1237056
1;2048;1;1;2;2;34739712
1024;2048;2;512;178;2;30651936
256;2048;4;128;2;2;5323808
1024;2048;128;1;2;2047;47425472
1024;2048;128;1;1;2;1031072
1024;2048;128;128;2;4094;18446744073709551615
1024;2048;16;1;178;2;4301344
64;2048;1;1;2;2;34589216
1024;2048;128;1;23;2;1613600
1024;2048;4;1;2;23;18692224
1024;2048;128;1;2;1;1423712
1024;2048;8;256;2;23;18446744073709551615
1024;2048;1024;1;2;2;1587136
32;2048;2;1;2;2;17436384
8;2048;8;64;2;2;3792800
1024;2048;128;1;2;23;5019904
1024;2048;2;1;2;2;20398720
1024;2048;128;2;2;89;34249120
1024;1;128;1;2;2;7631968
1024;256;128;1;89;178;24598304
1;2048;1;256;2;2;13202496
1024;512;128;1;2;1;1434144
1024;64;128;1;23;2;1695424
256;2048;128;1;2;2;1002528
1024;4;128;1;2;2;2040992
1024;2048;512;1;2;2;1043840
1024;2048;1024;1;2;1;2025376
2;2048;2;1;2;2;17547040
1024;2048;128;256;2;178;18446744073709551615
1024;2048;128;1;1;2;1025152
1024;2048;128;1;2047;46;144478720
1024;2;128;1;2;2;3940032
8;2048;8;1;2;2;4595968
1024;8;128;1;2;2;1708160
1024;256;1024;1;2;2;1330720
16;2048;4;1;2;2;8910720
64;2048;8;1;2;178;12799968
1024;2048;128;1;2;89;36370976
1024;2048;128;1;46;1;1913664
16;2048;1;1024;2;2;37112704
1024;2048;128;1;46;2;1624352
1024;2048;8;1;2;4094;63448192
1024;1024;128;1;178;2;2079840
32;2048;2;1;2;89;36947136
512;256;32;1;178;1;2446880
256;4;2;4;1;178;167846528
32;64;32;16;1;2;4662976
32;128;32;4;1;46;11041632
1024;128;16;1;2;2;2541088
128;1024;128;1;2;2;1252768
8;2048;8;16;2;2;4023936
512;4096;16;1;23;23;9175968
256;8;1;8;1;2047;1063965056
64;32;16;32;1;1;8401248
4;4096;4;32;4094;2;2785787328
1;1;1;1;89;2;9099936992
4;2;2;2;2;2;910888032
1024;16;128;1;2;2;1669280
4;512;2;8;2047;4094;5332683936
2048;32;1;32;46;89;20382176
4;1;1;1;1;2;1733381568
1024;2;32;1;1;1;9064448
512;64;32;4;1;1;3495488
1024;8;1;1;1;1;64781376
256;32;128;8;1;1;2776992
32;128;32;8;1;1;3661696
1024;2048;1;1;2;178;67732320
1024;2048;128;512;2047;2;18446744073709551615
128;4096;128;1;2;2;1163168
1024;32;16;2;1;1;3871776
16;256;1;128;1;1;6352352
32;1024;8;64;1;1;5371200
4096;8;1;4;1;1;27891040
128;2048;128;1;2;2;1150912
1024;4096;1;1;1;1;71189632
16;512;2;32;1;89;21802272
32;1;32;1;1;2;265183424
32;64;8;32;1;1;8241408
4096;32;1;8;1;89;15334048
1024;2048;1;1;2;2;40504128
4;1024;4;64;1;1;4687776
8;2048;1;1;1;2;36482688
32;64;1;8;1;178;11337088
512;256;32;128;46;1;18446744073709551615
1024;2048;128;1;2;4094;70562304
512;2048;64;1;89;2;1772128
256;8;1;2;1;178;73082880
32;2048;32;32;1;1;1936832
64;128;16;4;1;46;23833792
16;4096;8;1;23;23;14340832
128;8;2;8;1;23;23896704
64;32;16;32;1;1;8388064
128;4096;8;256;1;1;18446744073709551615
4;1;1;1;2047;2;2621965920
4;16;2;2;2;4094;723279712
128;256;1;4;23;23;19767680
2048;512;8;256;1;2;18446744073709551615
2048;128;32;128;2;89;18446744073709551615
1024;64;128;1;2;2047;133065376
4096;128;32;1;1;1;3823360
16;32;1;16;2;1;33273728
64;1;1;1;46;1;159418176
128;128;2;2;1;2;10777888
1024;2048;128;8;1;2;1660512
512;2048;512;1;2;2;1036480
1024;2048;8;256;2;2;18446744073709551615
2048;2048;256;1;2;2;978400
1024;2048;256;1;2;23;7841728
128;2048;128;1;1;2;1099392
128;1024;1;1;1;1;59989696
1024;4096;32;4;23;2;1658784
512;2048;128;1;1;2;1006688
1024;2048;256;1;2;2;961056
2048;2048;128;4;2;1;1555424
1024;2048;128;2;2;23;7838816
2048;2048;32;1;2;2;1600288
1024;2048;64;2;23;1;2448224
1024;1;64;1;2;2;8029376
1024;1;64;1;2;2;8006560
1024;2048;64;4;2;2;958400
1024;1024;128;1;1;2;1041216
1024;1;128;1;1;2;14824640
1024;1;128;1;2;2;7611744
2048;1024;128;1;2;2;944384
1024;1024;128;1;23;2;1604736
1024;1024;128;2;2;23;7708864
2048;1024;512;1;23;1;2464928
2048;1024;128;1;1;2;1115872
512;1024;128;1;2;2;997632
512;256;128;1;2;2;1269344
256;1024;128;1;2;2;1124544
1;1024;1;1;2;1;54038208
4096;1024;64;1;2;23;5524640
1024;512;512;1;2;2;1074496
2048;1024;256;1;1;23;23781568
2048;1024;128;4;2;23;18446744073709551615
4096;256;32;1;1;2;2427904
2048;1024;128;1;2;1;1416192
2048;1024;128;1;1;1;1576512
1;1024;1;1;23;2;65629312
1;1024;1;1;1;2;36954080
2048;1024;128;4;2;2;1044288
4096;1024;128;8;2;2;1679232
2048;256;128;1;2;2;1110528
1;1024;1;1;2;2;34728736
2048;1024;128;1;2;23;5160224
2048;1024;64;4;2;2;972480
4096;2048;128;1;2;1;1460576
2048;1024;128;1;23;23;41315616
2048;128;128;1;1;2;1793120
2048;1024;256;1;2;2;967232
1;1024;1;1;2;23;60831936
4096;512;128;4;1;2;1368544
2048;1;128;1;2;2;4181568
256;1024;128;1;23;2;1889024
512;1024;128;4;1;2;1184672
2048;1024;64;1;23;2;1666080
2048;1024;32;1;2;2;1536992
2048;256;128;1;1;1;1687648
2048;512;1024;1;2;2;1536384
1;1024;1;1;2;2;34721152
2048;1024;128;1;23;2;1583456
2048;1024;256;2;2;2;1045248
4096;1024;64;1;2;2;1110528
2048;1024;256;2;1;2;1250688
2048;512;64;1;2;2;1062816
2048;1024;128;2;1;2;1144192
2048;256;64;1;23;1;2421568
2048;2048;128;1;1;46;36539040
2048;256;128;1;1;2;1372128
2048;512;512;1;2;2;1044928
1;64;1;1;2;2;129278880
2048;1024;128;1;2;46;46351104
2048;512;256;1;1;2;1179328
2048;2048;128;1;2;23;5249728
2048;2048;128;2;23;23;40083136
2048;512;128;1;23;2;1580384
4096;1024;128;1;2;2;997024
1024;1024;128;1;1;23;28104224
512;1024;128;2;23;2;1708160
2048;2048;64;2;2;2;964736
4096;512;128;1;2;2;987616
1024;1024;128;1;2;2;951648
2048;1024;64;1;2;1;1508480
2048;256;128;2;2;2;1143456
1;1024;1;1;2;2;34718240
1024;1024;128;2;23;2;1606208
2048;4096;128;1;2;2;1054368
1;256;1;1;2;2;59858432
2048;1024;64;1;2;2;1117408
2048;4096;64;1;2;2;1228384
128;4096;128;1;1;89;24956832
1;32;1;32;1;1;662348416
16;256;1;2;1;1;32497184
512;1024;2;64;1;1;15053536
2048;1024;512;2;2;2;1625344
2048;1024;128;4;1;2;1254752
2048;1024;512;1;2;23;18446744073709551615
4096;16;1;2;178;1;33016864
1024;1;64;1;1;1;18112864
64;1;16;1;1;2;124256416
2;4096;2;16;1;1;6626912
32;4096;2;512;1;1;22807744
32;256;1;8;1;89;12540544
4;1;4;1;1;1;2936008608
16;4096;16;32;1;2;1508448
256;64;16;8;1;178;17121664
512;64;1;2;46;1;32145920
256;8;1;1;1;178;77781568
32;16;32;2;1;2;16666368
2048;1024;512;1;23;2;1610816
1;1024;1;1;23;2;65646240
2048;4096;32;1;2;23;6082624
32;1;32;1;1;46;806937856
512;16;16;1;23;23;9744416
256;8;1;4;1;1;20621824
8;32;1;32;1;1;90366400
16;4096;2;256;1;1;15879520
64;1;64;1;1;2;136764736
4;1024;4;8;2;4094;14455712
128;256;8;4;23;23;35015232
4;512;2;2;1;2;12455296
2048;2;32;2;2;1;4827744
512;16;8;16;1;1;4778432
256;32;1;16;1;2;5189408
2048;1024;128;2;2;2;971072
2048;2048;256;8;1;2;18446744073709551615
4096;1024;256;1;2;2;1025344
2048;32;128;8;2047;1;8399584
512;128;2;8;1;2;3861440
128;2048;16;1;1;2;2665248
8;4096;2;2;1;1;16363232
512;256;1;1;1;2;39175488
32;1024;2;16;1;1;4275200
4096;64;1;16;1;1;8607680
1024;4096;128;1;1;1;1592160
16;128;2;32;4094;2;717455712
32;2048;32;16;46;2;5412224
32;1;32;1;1;1;398409280
32;256;1;8;2;1;9197824
4096;1024;128;4;23;2;1642368
2048;1024;128;1;46;2;1494240
2048;1024;32;2;2;2;1137472
4;1024;4;64;1;23;5651776
16;4096;16;32;23;2;6214400
128;4;1;2;89;2;45559040
512;4;32;1;1;1;7570144
16;1024;1;1;1;178;60280768
1;2048;1;1;1;2;36833280
32;128;1;4;2;46;19768512
512;4096;16;32;23;23;46967296
256;8;1;8;1;46;21130176
64;128;16;8;1;178;10320832
512;1;2;1;4094;1;45290368
512;1;256;1;89;2;26932160
4;1024;1;8;2;1;11314560
128;256;128;128;89;23;18446744073709551615
4;64;1;2;1;1;51913408
2048;1;16;1;2;1;9710016
512;128;1;2;1;1;33255264
256;32;1;1;1;2;38818784
1024;32;1;8;2;1;9523232
512;128;2;2;1;2;11203904
128;4096;1;1;1;2;38161600
1024;32;16;2;1;2;1971232
16;16;1;4;1;89;63247392
32;1024;2;1;1;1;30095552
4;64;1;16;1;1;64362432
2048;1024;128;2;1;1;1601152
2048;1024;64;1;2;23;5208224
1024;4096;128;16;1;1;18446744073709551615
64;1024;16;8;1;2;2298976
32;4096;32;16;89;2;10477088
32;4;8;1;1;1;94156608
2048;1024;256;1;2;23;7955392
16;1024;4;8;2;89;30270560
2048;1024;128;1;2;1;1417664
2048;1024;128;1;2;4094;70507872
128;1024;128;1;2;89;41363840
2048;32;128;2;89;2;1659712
2048;1024;8;1;2;2;5439424
16;64;4;1;2;2;15059616
2048;1024;2;1;2;1;33253024
2048;1;128;1;2;2;4175072
2048;1024;128;64;2;2;18446744073709551615
2048;1024;128;1;1;2;1117344
2048;1024;64;1;1;2;1401248
2048;4;128;1;2;2;1778912
2048;1024;128;1;2;178;29362976
64;1;1;1;2;2;128108064
2048;1024;128;1;89;46;34771104
2048;1024;128;16;2;2;18446744073709551615
2048;1;128;1;2;2;4197568
2048;1024;128;8;2;4094;138073920
64;2;1;1;2;2;53190720
2048;512;256;1;2;2;986848
16;1024;4;2;2;2;5041184
2048;1024;128;1;2;2047;52145120
2048;1024;2;256;2;2;5378176
2048;1024;128;1;4094;2;6543424
1;1024;1;1;1;2;36924800
8;1024;8;1;2;2;4635808
2048;128;128;1;2;2;1346080
1;1024;1;1;2;2;34711680
2048;32;128;1;2;2;1707456
2048;1024;128;1;89;2;1605280
2048;1024;4;1;2;178;23738912
2048;32;128;1;2;4094;351650592
2048;1024;32;1;2;89;30611072
2048;1024;128;1;178;2;1731616
2048;1024;2;1;2;2;21289568
32;1024;1;1;2;2;34384128
2048;1024;128;1;4094;2047;7072926400
2048;1024;1;1;2;2;42306208
2048;4096;16;16;2;2;1062976
2048;1024;128;1;1;178;28159072
2048;32;128;16;2;2;18446744073709551615
2048;1024;16;8;2;2;973376
2048;16;128;1;2;2;1715424
2048;1;128;1;2;178;980551168
128;1024;128;1;2;4094;67256480
2048;1024;16;1;2;2;2819808
2048;1024;128;32;2;2;18446744073709551615
2048;1024;128;1;1;46;42840000
2048;8;128;1;2;2;1753056
2048;1024;256;16;2;2;18446744073709551615
2;1024;2;1;1;2;19151200
128;1024;128;128;2;2;18446744073709551615
2048;1024;1;1;23;2;62327392
2048;1024;128;512;2;2;18446744073709551615
2048;1;256;1;2;2;4178528
2048;2;128;1;2;23;46615104
1;16;1;1;2;2;513364544
2048;1024;1;1024;2;2;14805024
2048;1024;1;1;2;178;69199808
2048;1024;128;1;46;2;1490464
2048;256;128;1;2;1;1434048
2048;32;128;1;2;46;20427968
2048;4;128;1;2;2047;1752723552
1;1024;1;1;2;2;34721568
2048;8;128;2;2;2;1549312
64;1024;1;1;2;2;34475136
2048;2;128;1;2;2;2158528
2048;1024;128;1;2047;4094;4815133184
2048;8;512;1;2;2;1755168
2048;1024;128;1024;2;89;18446744073709551615
2048;1024;1024;1;2;2;1534432
2048;1024;128;1;2047;2;3741120
2048;1024;2;32;2;2;3011040
2048;4096;128;1;2;2047;46290720
2048;1024;1;1;46;2;60163008
2048;1024;512;1;2;2;1044000
2048;1024;512;1;89;2;1642272
2048;1024;128;64;1;2;18446744073709551615
2048;2048;128;2;23;2;1609888
2048;1024;128;1;46;89;43910112
2048;1024;128;16;4094;2;18446744073709551615
4096;1024;128;1;2;1;1410688
1;1024;1;1;4094;2;10399310304
2048;1024;1024;1024;2;2;18446744073709551615
2048;1024;128;8;2;23;18446744073709551615
8;1024;8;1;4094;2;1429647328
2048;1024;4;1;2;2;10716800
2048;2;128;1;2;2047;3546224672
2048;1024;1;1;2;2;42308928
16;256;4;1;2;2;9160448
2048;2;1;1;2;2;37804864
2048;1024;128;1;2;89;38863424
1024;1024;128;1;1;23;26906208
128;1024;128;1;1;2;1367872
256;1024;128;1;46;2;2168864
16;256;4;1;2;178;25298048
32;1024;2;1;2;2;17388704
8;1024;8;1;2;178;12840192
128;1024;1;1;23;2;56642368
2048;1024;16;4;1;2;1471328
2048;1024;256;1;4094;2;6540544
2048;32;1;1;178;2;54333984
4096;1024;1024;1;2;2;1683136
2048;1024;4;1;4094;1;18425984
256;1024;128;1;2;1;1443744
2048;1024;128;1;89;2;1611808
2048;1024;1024;1;178;2;1831520
1;1024;1;1;2;2;34720224
2048;256;128;4;2;2;1151840
16;1024;4;1;46;2;17538432
2048;1;128;1;2047;2;6073408
32;1024;2;1;23;2;29517504
2;1024;2;128;2;2;7609472
2048;1024;512;1;46;2;1585824
2048;1024;128;8;2;2;1639680
32;256;2;8;2;1;6386816
4;1024;4;128;1;1;5172992
16;4096;16;32;89;2;21518208
4;64;1;1;1;178;86957280
4096;1024;128;1;2;1;1410368
2048;128;128;1;46;2;1500704
2048;256;32;1;46;23;24737888
16;4096;1;1;1;178;60104576
32;2048;1;1;46;2;55769088
4096;128;64;1;1;46;42414208
2048;1024;256;1;2;46;41944416
16;1024;4;1;2;2;8921312
512;2;8;1;23;23;49722464
256;8;1;8;1;1;15023136
64;32;8;32;1;1;8757280
512;4096;4;256;1;2;2219488
2048;2;2;2;2;2047;3801352352
512;2048;128;1;2;2047;51095872
512;1;64;1;178;46;289263296
4;1024;1;256;2;1;22371296
128;64;1;16;23;23;32055648
4;8;1;4;2;2;265534464
2048;1024;128;2;23;1;2420640
2048;256;64;1;2;2;1105536
2048;512;128;1;1;1;1578976
2048;4096;128;1;23;2;1730048
2048;1024;256;1;2;1;1447904
2048;1024;128;2;2;89;37065664
2048;1024;256;1;23;2;1595520
2048;512;128;1;1;2;1145056
1024;256;128;1;2;23;5063168
512;2048;128;1;2;23;4889376
4096;1024;128;2;2;23;8455872
2048;1024;128;2;46;2;1549408
2048;256;64;2;2;1;1461984
2048;512;128;1;2;1;1410656
1024;512;64;1;2;2;1062400
2048;2048;64;1;2;2;1043488
1024;1024;128;8;2;2;1487936
4096;128;256;1;2;2;1330560
1024;1024;128;1;2;1;1402720
2048;1024;128;1;1;23;23682464
2048;2048;128;2;1;46;31354048
2048;8;32;4;2;1;2461696
256;128;32;1;1;1;2438496
256;1;1;1;1;2;59365216
2048;1;1;1;2;1;61505632
4096;2048;128;1;1;2;1227328
1024;1024;256;1;2;2;973600
512;1;512;1;1;2;23947872
128;4096;16;1;1;2;2695328
1;32;1;32;1;2;584201888
16;256;1;128;1;2;4915008
32;1024;1;16;1;1;5649344
4096;512;1;2;1;1;55379776
1024;4096;1;1;1;1;71180192
1;128;1;32;1;2;146471264
8;4096;8;1;1;2;5038848
4;64;1;4;1;1;52792320
256;4096;4;256;2;1;8560736
512;1024;256;64;1;46;18446744073709551615
16;4096;1;32;1;23;11217952
2048;1024;512;4;2;2;18446744073709551615
32;64;1;8;1;1;14713216
512;256;32;4;46;89;44882784
64;4096;1;2;1;178;32556992
32;2048;32;1;1;1;2259904
32;128;32;8;1;46;14610976
512;4096;2;1;2;23;33727680
1024;8;1;2;23;46;38189856
64;32;32;32;89;1;17136736
512;4096;512;4;1;2;18446744073709551615
512;256;64;4;1;2047;46178400
2;1024;1;8;2;89;17393952
128;32;64;32;23;23;18446744073709551615
2048;2048;64;1;23;1;2553568
4096;1024;128;4;2;2;1133792
4;512;1;1;1;2;36983904
2048;8;32;4;1;2;1802240
512;1;32;1;1;1;30287104
256;128;1;16;1;2;4404544
8;128;8;2;2;23;12724736
256;128;64;2;1;2;2165536
256;4096;128;1;1;2;1006944
4096;32;16;2;1;2;2723392
16;1;1;1;1;2;447656448
32;1024;16;16;23;1;4744192
4096;64;512;16;1;1;18446744073709551615
1024;4096;1;1;4094;46;134091584
64;128;16;128;1;2047;18446744073709551615
64;4096;16;16;1;2;1438880
32;64;8;4;46;1;10620672
32;256;2;128;2;1;18056896
4;1024;1;64;1;1;6224992
16;4096;16;16;1;2;1527520
8;64;1;8;2047;178;804259808
512;1;32;1;46;1;21814848
1;4096;1;2;1;178;31751936
32;128;32;8;1;2;2383904
32;128;1;1;1;46;61634048
512;2048;16;1;23;23;9201472
256;2;1;1;1;1;72526304
64;32;16;32;1;1;8416160
512;2;1;1;1;1;63618944
512;256;1;4;1;2;11764032
4;2048;1;8;2;1;9511616
128;4096;1;1;2;23;58341312
4096;1024;128;1;23;2;1624896
2048;512;64;1;2;23;5219584
4;512;1;256;1;46;12169792
2048;8;1;4;1;1;18845184
4;128;1;128;1;1;43588928
256;512;1;16;1;178;7477920
2048;32;8;32;178;1;6858528
2048;512;64;2;2;2;990720
1024;2048;64;1;46;1;1981184
512;128;1;2;1;2;21623200
256;4;128;4;1;2;10762592
4096;32;1;8;1;2;9981024
16;256;1;128;1;2;5097120
2048;1024;32;4;2;1;1416384
4096;512;1024;1;2;2;1390784
32;1024;2;4;46;1;11442368
2048;4096;256;1;2;23;8734624
8;64;1;16;1;1;34083744
128;1024;32;1;2;2;1504864
2048;2;128;1;4094;2;5970848
2;8;2;4;2;2;518959968
1024;32;64;32;178;1;18446744073709551615
64;128;1;32;1;2;18134080
1;1024;1;1;1;1;57693536
32;4096;32;16;1;23;33024352
1;64;1;1;1;1;156659840
32;256;2;8;2;2;5229088
1024;1024;64;1;2;2;1034976
4;1024;1;1;1;1;58325408
256;4096;1;32;2;2;4533600
32;64;1;8;1;23;14000192
16;1;1;1;46;1;589524352
2048;1024;128;1024;89;2;18446744073709551615
2048;1;128;1;2;2;4192480
1;4096;1;2;1;2;20537248
1024;2048;1;1;1;1;70496704
32;128;32;4;1;46;10998592
512;4096;16;64;23;1;3511936
2048;1024;32;4;2;2;955584
256;8;1;8;1;2;10569184
64;32;4;32;1;89;18544224
512;4096;1;1;1;1;66992864
512;256;1;8;1;2;6893568
4;2048;1;16;2;1;14466976
128;256;1;4;178;1;18846432
1;4;1;4;1;2;2221158432
2048;8;8;4;46;2;3663648
2048;4096;256;2;2;2;1135712
2048;256;64;2;2;2;1146528
2048;4096;128;1;1;2;1138560
1;1024;1;2;2;1;33669984
512;128;32;8;178;1;2232448
256;128;1;1;1;46;61862304
2048;128;1;2;1;1;35808480
512;128;512;8;1;2;18446744073709551615
512;256;128;2;2;2;1268192
256;4096;128;256;1;2;18446744073709551615
1;32;1;2;1;2;251037408
16;256;1;128;4094;2;688790112
128;2048;2;16;1;1;3434624
4096;1024;128;2;1;2;1262560
1;1024;1;1;23;1;98068032
1024;1024;512;2;46;2;1712864
16;64;1;16;1;1;17051296
1024;4096;64;1;1;1;1651136
1;128;1;64;1;2;146415456
32;4096;32;16;1;2;1255904
1024;1024;256;1;1;2;1080896
2048;1024;1024;2;46;46;18446744073709551615
2048;1024;256;1;1;2;1158560
32;64;16;4;1;1;7082400
32;256;8;4;2;2;3769024
4;1024;4;64;1;1;4766368
4096;4096;1;1;1;2;97556608
2048;512;128;1;2;23;5146912
2048;1024;128;2;2;23;7971232
1024;1024;128;1;46;2;1620064
2048;512;128;1;23;23;41728640
2048;512;128;1;2;46;51118496
512;4096;1;1;2;2;40072608
2048;1024;512;1;1;23;15446080
2048;2048;256;1;23;2;1617536
1024;256;256;1;1;2;1546368
4096;1024;128;2;2;2;1022848
2048;1024;64;1;46;2;1537248
2048;256;128;2;1;1;1737664
4096;2048;128;1;2;2;1053088
2048;256;32;1;1;2;2240224
512;1024;256;4;2;2;1261696
2048;1024;32;4;1;1;1575680
4096;1024;32;1;23;2;2476192
2048;1024;256;4;2;23;18446744073709551615
2048;1024;64;1;23;1;2457184
64;1024;1;16;2;2;4133088
2048;1024;512;1;2;89;26421216
2048;1024;128;4;178;2;1835136
2048;1024;4;8;2;2;1932928
2048;1024;128;64;1;2;18446744073709551615
2048;4;128;2;2;4094;2690161312
2048;1024;128;1;4094;2;6528128
2048;1024;1024;1;2;23;18446744073709551615
2;1024;2;1;2;2;17522560
2048;64;128;8;2;2;1378880
2048;2048;128;1;46;1;1923232
256;1024;128;1;2;46;47995616
2048;1024;128;1;89;1;2454944
2048;128;128;16;2;178;18446744073709551615
2048;4;128;1;2047;2;3173600
2048;128;128;1;2047;2;3719200
2048;4;128;1;1;2;1810016
2048;1024;128;1;23;4094;79358336
2048;1024;128;1;23;89;61391360
2048;4;128;1;1;4094;2351874240
2048;1;128;1;2;2;4194336
64;1024;16;16;2;2;2103488
2048;1024;128;256;1;2;18446744073709551615
32;1024;2;1;2047;2;180473184
2048;2048;128;1;2;1;1440992
2048;1024;1;256;2;2;10091744
4;1024;2;4;2;2;6590336
1;16;1;1;2;2;516821440
512;1024;64;1;2;2;1047872
128;1024;128;256;2;2;18446744073709551615
2048;1024;128;512;89;2;18446744073709551615
2048;8;128;2;1;2;1827104
