GLOBAL_SIZE_0;GLOBAL_SIZE_1;LOCAL_SIZE_0;LOCAL_SIZE_1;v_TP_41;v_TP_42;cost
512;32;2;2;2;46;21858048
2048;512;2;256;1;2;372450016
1;32;1;8;2047;1;1643562752
1024;1;512;1;89;89;157449504
4096;4096;64;32;1;46;18446744073709551615
128;1;4;1;178;4094;3766131584
8;16;8;1;23;178;164000128
2;4;2;4;1;1;24908251232
512;32;2;4;2;89;24691296
2048;32;1024;2;2;46;18446744073709551615
512;32;2;4;2;46;23667552
64;32;16;2;2;46;11922720
128;32;8;2;2;89;11251008
64;32;16;4;2;46;23237664
128;32;4;8;1;46;37310976
64;32;16;2;2;23;16422336
128;32;8;2;1;89;21202368
64;32;8;4;2;89;21434688
256;32;4;2;1;178;25088064
128;32;4;2;2;89;16769536
128;32;8;2;23;89;11259104
256;32;4;4;2;89;13749216
256;32;4;2;2;46;14047840
64;32;16;2;2;89;11962272
1;8;1;1;2047;2;8972671232
256;64;16;32;1;89;45748800
4;16;1;1;1;46;223993856
2048;4096;256;32;46;178;18446744073709551615
128;8;8;2;2;89;22369344
128;64;8;4;1;89;21337216
128;8;8;2;2;46;23491520
128;16;2;2;2;89;24808480
1;32;1;2;2;89;466441856
128;32;8;8;2;89;21983296
128;8;16;8;2;89;92951456
128;2;8;2;2;89;91620288
128;32;8;2;46;46;10217056
256;32;4;2;2;178;13034048
128;32;4;1;2;89;24167680
1024;128;1;2;46;46;40249120
128;16;8;2;89;46;12185664
64;32;16;2;46;46;12543712
128;32;8;2;46;23;10609920
128;32;8;2;46;89;9896864
128;32;8;4;46;46;7212000
64;32;16;2;46;23;16861408
128;32;4;2;89;46;14159328
256;32;4;4;46;46;8100512
128;32;8;4;46;2;32970720
128;16;8;4;89;46;13408448
128;32;4;4;46;46;9833376
128;64;8;4;46;46;6063136
128;128;8;4;23;46;4735296
256;16;4;16;89;46;8545056
128;64;8;2;23;46;8310336
256;128;4;4;89;46;7160768
64;128;16;4;23;46;3900640
128;64;8;4;23;46;6192960
128;256;8;2;23;46;7252000
128;64;4;4;23;46;8626816
64;128;16;4;2;46;6390752
64;128;8;4;23;46;5801088
32;128;32;4;23;46;9381760
64;128;16;4;46;46;3930848
32;128;32;2;23;46;8382912
128;128;8;2;23;46;7428320
128;32;4;8;46;46;6923328
64;128;16;4;89;46;4610016
64;1024;16;4;23;89;2722080
64;128;16;8;23;46;3865568
4;128;4;32;23;46;57062240
64;1024;16;8;46;2047;2760224
64;1024;8;4;23;89;4227200
64;512;8;4;23;89;4281184
32;1024;32;4;1;178;5562912
64;1024;16;4;23;46;2960896
64;128;16;4;23;89;3719552
128;1024;8;4;46;178;5106144
128;1024;8;4;46;89;4232800
128;512;8;4;23;89;4142880
16;512;2;4;23;89;12789312
64;2048;16;4;23;89;2749088
64;1024;16;16;2;89;8293792
64;1024;16;4;46;89;3311200
64;1024;16;4;2;89;4123168
128;1024;8;4;23;89;4119200
64;4096;16;8;23;89;2417216
128;1024;4;4;23;89;6969600
64;1;16;1;23;89;358253216
64;4096;16;8;23;46;2668352
64;4096;16;4;23;89;2753568
256;4096;4;8;23;89;4220128
32;4096;16;8;23;2047;2291360
64;4096;8;32;23;89;3340224
64;4096;16;16;46;89;2442080
64;1;16;1;46;89;357217632
128;4096;4;8;2;2047;12028864
32;1;16;1;23;2047;588862400
64;4096;8;8;23;2047;3849216
32;1024;8;8;23;178;5212832
32;4096;16;2;89;2047;7380800
4;4096;2;8;23;2047;8089184
32;1;16;1;46;2047;584610432
32;1;32;1;23;2047;597155456
32;1024;8;4;23;2047;4677056
32;256;8;8;23;2047;5925824
32;4096;32;8;23;2047;1922496
32;2048;16;16;2;2047;4812256
32;4096;32;32;23;2047;2708704
32;4096;16;8;23;178;2860800
32;2048;32;4;23;2047;2543072
32;512;16;8;23;2047;2129728
16;4096;2;8;23;2047;8655584
32;4096;32;8;2;2047;2468192
128;4096;8;8;23;2047;3708192
32;4096;16;4;46;2047;3059008
4;1024;4;8;23;2047;8054816
32;4096;32;8;46;2047;2407392
32;1;32;1;23;2047;592515776
8;4096;8;8;23;2047;5176032
32;1;32;1;2;2047;605751680
16;4096;2;4;23;2047;15196640
32;4096;32;8;2;89;3925312
32;4096;8;8;23;2047;4331072
4;4096;2;8;46;2047;7869408
16;1024;1;1;23;2047;97064832
32;4096;32;4;23;2047;2695712
16;4096;2;8;2;2047;21119456
128;4096;16;1;2;1;119420064
2048;16;1;8;2;4094;3469305312
2;1024;2;1024;23;89;18446744073709551615
32;4096;32;16;23;2047;1984320
16;4096;2;32;23;2047;9084032
4;1;4;1;23;2047;3996090688
16;1024;2;8;23;2047;8321472
16;4096;1;4;23;2047;27013376
32;4096;32;8;23;178;2542368
4;4096;4;8;23;2047;5546464
32;4096;16;8;2;2047;3644992
32;4096;32;16;2;2047;5695328
16;4096;2;16;23;178;6027968
32;1;32;1;46;2047;592522624
32;2048;32;16;23;2047;1962432
128;1024;8;2;23;2047;8673280
32;512;32;8;23;2047;1827168
32;512;16;2;23;2047;4301696
256;512;4;8;23;2047;6833728
32;512;32;8;2;2047;4585440
32;512;32;8;46;2047;2191776
32;1024;32;8;46;2047;2322592
128;512;2;8;23;2047;12977760
64;512;16;8;23;2047;2225760
32;512;32;8;2;89;6055232
32;512;32;2;23;2047;2569760
32;512;8;8;23;2047;4558208
4;512;4;4;23;2047;14045280
8;512;8;8;23;2047;6362304
16;512;2;4;23;2047;15883872
32;256;32;8;23;2047;2899872
16;256;2;8;23;2047;20902432
16;256;1;8;23;2047;39344576
32;256;32;4;23;2047;2892416
32;512;32;8;23;4094;1900352
16;64;2;8;23;178;19903072
32;256;32;8;23;1;130364864
32;512;32;64;23;178;18446744073709551615
32;512;32;8;23;89;2683008
32;512;32;2;46;2047;3643424
32;512;32;16;23;2047;2294144
16;512;16;4;23;2047;4088480
8;1024;8;8;23;2047;5856640
32;1024;32;8;23;2047;1907264
32;2048;32;8;23;2047;1873024
128;8;128;1;46;4094;20832256
1;4;1;2;1;89;6613980960
1024;128;128;8;46;89;6041568
8;8;1;4;89;2047;963897408
32;1024;8;8;23;1;27443904
32;512;32;4;23;2047;2295168
32;1024;16;8;23;4094;3005984
128;2048;8;8;46;2047;3855968
32;512;32;8;23;178;2367520
32;128;32;4;23;2047;5321792
32;512;8;8;23;4094;6547904
32;512;32;8;1;2047;9066752
1;512;1;8;23;2047;36691040
8;16;8;8;23;2047;165827712
32;512;2;8;4094;4094;1070438720
256;128;4;8;23;4094;41597056
32;512;32;4;46;2047;2158272
32;128;32;8;2;2047;18168416
32;512;8;4;23;2047;4739456
64;512;16;4;23;2047;2579200
16;1024;1;8;23;2047;17105664
1;1;1;1;23;1;16737833888
32;512;8;16;23;4094;8109120
128;512;8;4;23;4094;8827040
32;2048;16;8;23;2047;2296320
32;512;16;32;46;2047;2468832
1024;8;32;1;23;4094;78684384
64;512;8;8;23;2047;4157024
1;1;1;1;2047;1;19998200864
2;2048;1;128;2047;178;54073216
512;32;8;1;2047;2047;584662432
128;8;1;1;1;89;87276832
32;256;32;8;2;2047;9144416
2;512;2;8;23;2047;19551648
8;64;8;8;2;2047;147844992
32;512;32;8;23;1;97130016
32;512;32;8;46;178;2963712
16;512;2;8;23;2047;11809376
16;8;16;8;89;4094;153285440
32;64;32;8;23;2047;10528224
32;1;8;1;23;2047;1166420768
32;512;32;8;1;1;370832768
32;512;32;4;23;178;2894720
32;512;16;8;23;178;2627424
1;256;1;1;2047;178;6442521728
32;256;16;32;23;2047;3928576
32;512;32;4;89;2047;3544416
32;256;32;16;23;2047;3922848
1024;256;32;1;23;178;3714976
16;512;1;4;2047;1;195370592
256;32;4;16;4094;2;16859072
8;1;1;1;178;178;1673086976
1024;64;8;16;89;2047;22678688
32;512;32;4;23;4094;2337376
128;1;1;1;1;4094;13288170368
1024;512;1;4;178;1;31066752
32;512;1;2;23;2047;53839648
32;512;32;8;23;2;52364512
32;64;32;8;1;2047;73478816
32;512;32;8;4094;178;88909440
32;512;32;32;23;2047;4052736
4;512;4;8;23;2047;11392000
32;1;32;1;1;2047;598715104
32;512;32;8;2047;2047;38971296
32;512;32;8;23;1;97211072
32;512;32;8;89;2047;2145120
32;16;4;1;23;2047;143293120
32;512;32;8;2;1;188827520
32;512;16;16;23;2047;2436416
32;512;16;8;23;1;50371232
128;8;128;4;89;4094;22044192
16;1024;2;8;23;4094;14900096
64;512;16;8;23;178;2697824
128;512;8;8;23;178;4519680
32;512;32;64;23;1;18446744073709551615
1;128;1;4;4094;4094;4035879424
32;1024;16;8;23;2047;2236736
4;256;4;4;23;2047;20706880
32;1024;32;2;23;2047;2570240
512;32;4;2;23;4094;146368256
32;1;4;1;1;2;1737290016
4;2048;2;1;178;2;268054432
32;512;16;8;89;4094;4092064
64;512;4;8;23;178;5026400
64;512;4;8;23;2047;6562560
32;512;32;128;46;2047;18446744073709551615
32;512;32;256;23;2047;18446744073709551615
512;512;2;256;23;2047;117055456
64;512;2;8;23;2047;12242336
1;128;1;1;178;1;915838528
32;512;16;8;1;4094;17899040
32;32;16;4;46;2047;21911200
8;4;1;4;1;23;1747178304
1;64;1;64;178;23;450400288
1;512;1;2;2;4094;59137216
256;1;8;1;178;1;725917312
32;512;4;8;23;2047;6487840
4;1024;2;8;23;178;8422272
32;512;32;8;1;2047;9074656
32;512;32;8;23;46;3909440
1024;128;16;8;23;4094;11087840
64;256;2;2;178;4094;165888768
128;256;8;8;23;4094;11377280
128;128;8;8;23;2047;11490176
512;64;8;64;46;4094;57959808
2;2;2;1;2;89;3364193728
4;1024;1;1;89;89;90208416
2048;16;128;2;2047;4094;40090272
1024;1;16;1;4094;178;56754336
32;1024;32;8;23;4094;1751232
32;512;32;16;23;4094;2351680
128;1024;8;8;23;4094;5563776
32;2048;32;8;23;1;96300704
32;1024;32;16;23;178;2740800
32;1024;32;8;23;1;102896640
128;1024;8;32;23;4094;4988032
32;256;32;8;23;4094;2970400
32;4096;16;8;23;4094;3264352
32;1024;32;32;23;4094;2440224
32;1024;32;8;46;4094;1674464
32;1024;16;8;2;4094;4755040
16;1024;2;4;46;4094;29960224
32;2048;32;8;46;2047;2315584
32;512;32;8;89;4094;2141856
32;128;32;8;46;2047;5626240
32;1024;16;8;46;4094;2698848
32;256;16;8;89;4094;7387328
4;1024;4;2;46;2047;27144448
128;256;8;4;46;4094;15211008
32;1024;32;32;46;4094;2388544
64;256;16;4;46;2047;4008256
32;4096;32;8;89;2047;2439168
32;1024;32;8;178;4094;3639840
32;1024;32;16;46;2047;1948672
32;4096;32;4;46;4094;2685952
16;4096;2;8;46;1;21145184
32;1024;32;8;46;178;3092032
32;1024;32;8;89;4094;2142304
128;1024;2;8;46;4094;18199264
32;512;32;8;89;1;110688544
16;1024;2;8;46;4094;14245152
32;2048;32;8;46;178;3160864
32;1024;32;8;89;1;110681600
32;2048;32;8;46;4094;1645024
8;1024;8;4;46;4094;8175232
32;2048;32;4;23;178;3217888
32;4096;32;8;23;4094;1821056
32;2048;32;4;46;4094;2751072
32;2048;32;16;46;4094;1712000
16;4096;2;8;46;4094;17383328
32;2048;32;8;89;4094;2143552
32;1;32;1;46;4094;608426144
128;2048;8;8;46;1;25087776
128;2048;8;8;46;4094;5199584
2;2048;2;32;46;4094;10458784
64;2048;16;4;46;4094;5622528
16;2048;2;8;46;4094;15523616
64;1024;8;8;89;4094;8680416
32;2048;16;8;46;2047;2692000
64;1;8;1;89;4094;2316631392
64;2048;16;4;89;4094;8188320
8;2048;8;8;46;1;41435680
32;2048;16;16;46;4094;2486528
32;2048;32;8;46;1;95453472
32;2048;16;8;46;4094;3061152
32;1;16;1;46;4094;1175915008
64;2048;16;8;46;4094;3316224
32;4096;32;8;46;1;97252736
64;1024;16;8;2;1;80869024
32;1024;8;8;46;4094;5760288
64;2048;16;32;46;4094;2517408
16;2048;2;8;46;1;21192256
32;2048;8;8;178;4094;15327904
32;2048;32;32;46;4094;1996512
8;1024;8;8;46;4094;6340352
16;2048;2;8;23;4094;9107584
64;2048;16;32;2;1;255408352
32;2048;32;4;46;2047;2755424
16;2048;1;8;46;2047;16595712
32;4096;32;8;46;4094;2144064
32;512;32;8;46;4094;2223104
16;4096;1;16;46;4094;17616544
32;2048;32;8;23;4094;1732320
64;2048;16;8;23;4094;3006432
32;1;16;1;46;178;670718400
32;2048;8;8;46;4094;5609280
64;4096;16;8;46;4094;3219616
64;2048;8;2;46;4094;17004192
32;4096;32;32;46;2047;2753728
16;4096;2;8;46;2047;9617248
16;2048;2;8;178;4094;49965504
32;1;8;1;46;1;5150019072
4;2048;2;4;46;1;40521088
32;2048;32;32;46;2047;2746688
16;2048;2;8;89;4094;33481024
32;2048;32;4;23;4094;2327200
32;1;16;1;46;1;9629465280
32;512;32;4;46;4094;2143968
128;4096;8;8;46;4094;5576160
32;1;32;1;46;1;18674743296
32;1024;32;8;2;4094;4629184
32;2048;32;8;89;1;110802560
4;2048;4;8;23;1;22032416
8;2048;8;8;46;4094;6373120
4;2048;4;8;46;4094;7336800
64;2048;4;8;46;4094;9077568
16;2048;1;4;46;2047;30206720
32;2048;32;8;178;4094;3639456
32;2048;8;8;46;2047;4057184
256;2048;4;8;46;4094;9896640
32;2048;16;8;46;1;51700672
32;2048;16;8;89;178;3691360
32;2048;16;8;23;1;53533088
32;2048;32;8;2;4094;2465280
64;1024;16;8;89;178;3369056
16;2048;16;8;46;4094;2809568
16;2048;2;16;46;4094;8761024
32;4096;32;2;46;2047;4067808
32;1;32;1;23;4094;608426208
4;2048;4;4;89;1;122102080
32;256;32;16;46;4094;3304480
32;4096;32;2;89;1;264148256
32;2048;16;32;46;4094;2531648
8;2048;4;8;46;2047;5113376
8;2048;4;8;89;4094;13906304
8;1;8;1;2;4094;2273592640
32;2048;16;2;46;4094;8330560
64;2048;16;8;178;4094;7390912
64;1;16;1;23;4094;1179913120
8;2048;8;4;46;4094;8179712
32;2048;32;16;46;1;95834752
256;2048;4;16;23;4094;7358496
4;2048;1;4;46;4094;56965184
16;4096;1;8;23;4094;17488960
128;2048;8;2;46;4094;16010432
32;2048;32;8;89;178;2780448
32;1024;32;4;46;4094;2136288
32;1024;16;8;46;1;47999040
32;1;8;1;46;4094;2321049632
16;2048;2;8;46;2047;9460928
64;2048;16;4;46;1;59626592
32;2048;32;32;23;4094;2059232
32;512;32;8;89;178;2789632
64;4096;16;8;2;4094;3849856
32;1;16;1;178;4094;1194763392
64;2048;16;16;2;4094;5085504
64;2048;8;16;46;2047;4304704
4;2048;2;8;46;1;22504768
32;256;32;8;46;4094;2969408
32;2048;4;8;46;4094;9078080
128;1024;8;2;46;4094;16276992
8;1024;8;8;46;178;5832992
32;1024;16;4;46;4094;4061344
64;512;16;8;46;4094;4196096
128;2048;2;2;46;4094;63696832
512;8;16;1;178;2047;77095136
256;64;16;64;46;4094;33370432
512;32;64;32;46;4094;18446744073709551615
1024;128;16;16;46;4094;11326560
1024;128;16;32;46;4094;15103488
4;1;4;1;2;4094;3738436512
128;2048;4;8;46;4094;9491488
16;2048;16;8;89;4094;4057376
32;2048;32;16;46;89;2960928
256;2048;2;8;46;4094;16349088
64;2048;16;8;46;1;49170944
64;4096;16;16;46;4094;2869760
32;512;16;8;89;4094;4078880
16;512;1;8;46;4094;51489312
32;1024;32;16;46;4094;1798400
32;2048;32;8;178;1;158713984
32;1;32;1;46;4094;607703360
32;1024;32;32;46;2047;3067872
32;512;16;8;46;1;53963712
1024;4096;1;8;46;2047;17957952
4;2048;4;8;23;4094;5966880
16;4096;1;16;23;4094;12585472
32;2048;32;2;46;2047;4097408
32;2048;32;64;46;4094;18446744073709551615
32;4096;8;8;46;4094;5568224
32;4096;32;4;46;2047;2737696
32;4096;32;4;89;1;177016640
64;32;32;16;1;89;190877088
128;64;1;16;1;2;134087232
2;128;1;32;23;2047;122669120
2;32;2;8;46;89;314002144
16;2048;2;2;46;4094;63467872
32;512;32;8;46;1;105377824
16;1024;2;32;2;4094;123305184
32;4096;32;2;46;4094;4230688
8;1024;8;8;23;4094;7156288
4;2048;2;8;46;4094;13763744
16;2048;2;2;46;1;72912832
32;1024;32;8;46;1;95557856
2048;4;1;2;2;2047;1854926048
32;32;16;8;2047;1;770240192
1;1;1;1;2047;2047;12889080160
256;32;16;32;1;89;91624096
1024;32;32;16;23;4094;28382528
512;1024;16;4;23;1;49134624
128;2048;8;8;23;4094;4942592
16;512;2;8;46;4094;25977792
32;2048;32;64;89;2047;18446744073709551615
32;2048;32;16;23;4094;1868576
512;2048;1;4;46;4094;57181568
1;16;1;1;1;46;832618560
2048;1024;16;32;46;178;2350464
128;8;8;1;46;2047;157381280
512;512;4;8;46;4094;17101568
32;4096;32;32;46;4094;1986080
512;2;16;1;178;178;30220992
8;2048;8;4;46;1;69352960
512;16;16;2;89;2047;41287360
16;2048;1;8;46;4094;31103616
1;1;1;1;1;89;12921441344
1024;16;128;2;46;89;4968064
8;8;1;1;89;178;226375360
2;2048;1;128;1;89;420160128
1024;256;8;8;46;4094;12163456
1024;64;32;16;23;4094;14482144
512;128;16;32;46;4094;15021280
1024;512;16;8;23;1;49132032
32;2048;32;8;89;2047;2130816
32;2048;16;16;2;178;7769472
32;4096;32;8;23;1;96333408
32;2048;32;2;23;4094;2940256
512;32;8;1;2047;2047;581046752
128;256;1;16;1;89;84130976
2;256;2;1;23;178;44845184
32;2048;16;8;178;4094;7341120
4096;2048;1;8;2047;4094;1071520160
32;128;32;32;46;4094;8517920
32;2048;32;8;46;4094;1671584
32;2048;32;256;46;4094;18446744073709551615
1;2048;1;8;46;4094;25353504
32;2048;32;8;46;1;95494400
2048;2048;1024;8;46;4094;18446744073709551615
128;256;8;8;46;2047;5884224
1024;2048;1;64;89;4094;25787904
4;2048;4;8;46;2047;7753152
32;1024;32;2;46;4094;3681248
1024;8;16;4;178;178;7974656
2048;2048;1;8;46;4094;31326048
16;2;2;2;46;4094;3812940064
1024;1;16;1;4094;46;31278848
64;2048;16;2;89;4094;15766016
16;2048;2;4;46;4094;31923328
4096;16;16;4;46;4094;77056352
32;2048;32;1;46;4094;7433376
64;512;8;4;2047;2;231121952
1;32;1;16;4094;2;1578846464
2;1;1;1;89;178;6675371904
32;32;4;1;46;2;94030912
1024;32;16;32;89;2047;23119904
1024;64;16;32;89;2047;11704256
8;2048;8;8;46;1;41350304
32;2048;32;1024;4094;46;18446744073709551615
32;2048;32;64;46;89;18446744073709551615
1024;32;32;32;89;2047;13313024
1024;32;16;1;89;2047;25862208
1;2048;1;8;46;2;32702048
1;2048;1;1;89;2;347212384
1024;32;16;8;89;2047;21130080
32;512;16;8;4094;4094;155167840
8;4;1;4;2047;23;523573120
2048;64;1;64;178;23;31370656
1024;32;16;16;89;2047;21572192
32;8;2;8;46;4094;1111523360
32;1;32;1;46;4094;607711232
32;1;32;1;23;4094;607706080
32;2048;32;8;4094;4094;78019104
1024;32;16;1;178;2047;26903104
1024;16;32;2;178;2047;20102752
1024;16;16;2;178;2047;40922720
1;1;1;1;89;1;17131487616
2;2;2;1;2;89;3363455712
4;1024;1;256;89;23;20505504
8;16;1;2;89;4094;1005448896
16;1024;1;8;46;178;13679968
2;32;2;16;2;89;1880115776
128;16;4;16;1;2047;2097247200
2;128;2;32;23;178;117542336
32;1;32;1;46;4094;608408576
32;4096;8;4;46;4094;10245280
64;2048;8;8;23;2047;3764992
32;512;16;4;46;1;51957408
32;1024;16;8;89;4094;4094784
32;4096;32;8;89;1;119643776
32;2048;32;2;46;4094;4242176
8;2048;8;8;23;2047;4956864
32;2048;2;32;89;4094;8521664
8;2048;8;8;89;4094;7882848
128;2048;8;16;46;4094;4649600
32;512;32;16;46;4094;1962176
32;1;16;1;46;4094;1175897472
64;2048;16;8;23;2047;2296320
8;2048;8;2;46;1;121543488
8;2048;8;8;23;4094;6317952
128;1024;8;8;89;4094;9113088
32;1024;32;64;46;4094;18446744073709551615
128;2048;4;8;46;1;18303584
16;4096;16;64;89;4094;2528736
32;2048;16;8;89;1;64198912
16;256;2;8;46;4094;38274432
64;2048;16;8;46;2047;2794656
128;1024;8;32;46;4094;5712544
64;2048;8;4;46;4094;9156000
32;256;32;64;23;4094;18446744073709551615
32;2048;16;16;89;2047;2571488
32;2048;4;2;46;4094;33115840
32;2048;1;8;46;4094;31020672
32;2048;1;8;46;2;15137984
64;2048;16;8;2;4094;5039552
32;2048;32;8;46;2;63454048
32;4096;16;8;46;4094;3198912
64;2048;4;8;46;1;18700032
32;4096;32;8;178;2047;3976768
256;32;32;16;46;89;4643680
2048;4;1;2;2;178;165963808
32;32;32;8;2047;1;1616046432
256;8;16;1;2047;1;742756224
32;2048;16;1;178;4094;52237216
32;2048;16;256;178;4094;18446744073709551615
32;8;32;8;46;4094;81277536
32;2048;32;512;46;4094;18446744073709551615
16;2048;8;8;46;1;26280480
32;512;32;32;46;1;159899232
8;4096;8;8;46;2047;5110528
128;512;2;8;23;4094;21680768
8;64;1;32;1;89;884536704
4;128;1;1;1;46;86615904
2048;1024;16;1;178;178;7897120
128;8;128;1;46;1;2515603648
2;2048;2;8;46;4094;12764704
32;1024;32;4;23;4094;1909152
128;1;8;1;23;1;1456029248
64;4;16;2;1;46;182140256
1;16;1;4;46;89;1071442720
8;8;1;1;89;178;226549952
1;2048;1;1;2047;178;6442640128
512;2048;2;8;46;2047;10197184
64;2048;16;4;46;2047;3158272
8;1024;8;16;46;1;38484960
32;2048;32;1;46;4094;7434592
32;2048;32;8;46;23;6807776
32;32;32;8;46;4094;21177376
32;4096;32;16;46;4094;1675712
512;4;8;1;178;2047;304180800
128;128;8;16;23;89;4450016
1;256;1;1;46;178;151272096
1;4096;1;4;2047;1;3049486432
32;4;32;1;46;4094;157255232
32;2048;8;8;89;4094;8808096
32;512;32;2;46;4094;3697088
32;2048;8;8;46;1;31019616
128;2048;4;8;89;4094;17233216
32;2048;32;2;89;4094;7154720
128;2048;8;8;89;4094;8703680
32;1;32;1;46;4094;608416384
64;512;8;8;46;4094;8007296
32;2048;16;8;23;4094;3100064
64;2048;8;8;46;2047;3901440
32;1;32;1;46;4094;613632416
16;1024;2;8;89;4094;26790336
32;2048;32;32;89;1;103569376
128;1;8;1;46;4094;2316650784
16;2048;2;4;46;1;39593920
8;32;4;16;89;2;229667680
1;1;1;1;23;46;12863818688
256;32;4;1;1;1;131195808
4;8;2;1;178;2;780525504
32;2048;16;16;46;1;51701120
32;2048;16;8;46;178;3472192
32;1;32;1;46;1;18550382976
32;16;32;8;46;46;70720672
32;2048;2;256;46;4094;29686112
32;1;32;1;4094;4094;596106336
32;2048;32;4;46;1;116846080
4096;512;2;8;89;4094;29114720
8;4;1;4;2047;178;520241088
2048;64;1;2;2;23;43449216
256;1;8;1;178;2047;1166410848
512;2048;2;512;46;4094;56513920
32;2048;32;16;89;4094;1684192
16;256;2;1;2;23;41617664
4;8;2;1;23;23;491142240
2048;16;64;2;2047;4094;75416512
64;32;32;16;4094;89;26045408
128;1024;8;8;46;4094;5392576
16;2048;2;8;23;1;18491904
32;2;32;2;46;4094;303842272
32;2048;2;8;46;4094;17464704
32;128;32;8;1;4094;37151136
32;1;32;1;89;4094;607653888
1;64;1;1;1;2;278550112
2;128;2;1;23;178;81734880
256;32;4;1;46;1;122806528
2048;1024;1;16;2;178;44638464
8;2048;8;8;4094;4094;318746240
32;2048;8;2;2047;4094;606327360
32;2048;32;8;2047;4094;39323328
32;32;1;4;2047;89;87699296
256;4;1;1;46;1;117012256
256;64;8;32;1;89;56524288
1024;128;512;1;2;46;17334336
32;2048;32;256;46;1;18446744073709551615
128;2048;8;8;178;4094;15182048
32;2048;32;8;46;89;3493856
128;2048;8;16;46;2047;3973312
2048;1024;256;32;46;178;18446744073709551615
128;64;128;16;46;4094;18446744073709551615
64;128;16;128;1;46;18446744073709551615
1024;16;128;2;46;23;13171584
16;4096;1;2;23;4094;66889248
32;64;32;2;46;4094;10474880
32;1;32;1;46;1;18550427424
2;2048;2;16;46;4094;7816896
1;256;1;32;46;4094;133005184
2;2048;2;16;2047;4094;315460800
32;64;32;32;46;4094;16320832
4;2048;4;8;46;2;21263616
1;2048;1;8;46;4094;25327008
32;2048;32;2;178;4094;13467840
32;128;32;8;23;4094;5610720
32;4;8;1;46;4094;599688960
32;2;8;1;46;4094;1173983168
32;2048;32;8;1;4094;4699520
4;2048;4;8;1;4094;31488992
32;4096;1;8;46;46;12587008
1;2048;1;8;46;1;35793312
4096;2048;1;8;46;4094;33876640
32;1;4;1;46;4094;3813514912
4096;8;1;2;46;4094;1894707392
2048;2048;512;8;46;4094;18446744073709551615
32;512;32;8;46;4094;2239104
2;128;2;8;46;4094;75894528
2;2;2;2;46;4094;3670144320
32;2048;4;2;89;178;14013024
16;2048;4;8;46;4094;8320928
32;2048;32;256;46;89;18446744073709551615
32;2048;32;1024;46;4094;18446744073709551615
32;2048;32;1024;1;4094;18446744073709551615
32;2;32;1;46;1;9366753920
32;2048;16;8;46;4094;2878656
32;2;32;2;46;89;360742048
8;2048;8;64;46;4094;5253216
32;1;32;1;46;23;1214440992
32;2048;32;8;1;23;20568992
32;2048;16;4;1;4094;10252672
32;8;32;8;1;4094;601051200
2;2048;1;8;1;4094;116512672
32;128;32;8;46;4094;5678144
32;2048;2;8;46;4094;18296672
32;64;32;8;46;4094;11108768
1;1;1;1;46;4094;13823824864
32;2048;2;8;1;89;40512544
32;2048;32;512;46;46;18446744073709551615
32;2048;8;8;4094;4094;319828992
1;2;1;2;46;4094;7358437600
32;2048;16;8;1;4094;9040224
4096;2048;1;8;178;4094;103116320
32;2048;32;128;1;4094;18446744073709551615
32;1;2;1;46;4094;6791951072
16;2048;2;8;1;1;138256864
8;2;1;1;89;178;860021408
2;8;1;8;2047;178;1142875936
512;128;8;64;178;2047;12800608
128;128;8;16;2;89;11083232
32;8;32;8;46;2047;79631168
32;2048;32;8;4094;2;1725950624
32;64;8;8;89;23;13457408
1024;2048;512;8;46;4094;18446744073709551615
64;256;32;1;23;178;4434944
8;1024;4;4;2047;4094;538740192
256;16;4;16;2;2;121542848
8;1;1;1;178;178;1704224768
32;4;4;1;46;4094;985649984
4096;32;4;1;1;2;73108448
1;32;1;1;178;2;782406656
32;512;32;2;1;4094;4814400
8;8;1;1;2047;178;859907392
2048;1;256;1;178;23;155563040
256;1;8;1;89;1;729017312
16;4096;2;32;2;1;81808448
512;256;2;8;46;4094;41796960
32;2048;32;64;46;1;18446744073709551615
4;64;1;2;89;23;86170336
2048;16;8;2;2047;46;8540608
64;1;1;1;4094;89;274560832
128;64;1;16;1;46;88935904
32;2048;1;1;89;4094;334742496
2;128;2;1;46;178;80182560
256;32;2;16;46;1;16240384
1;1024;1;16;2;2047;111951040
32;128;8;4;2047;89;93609536
32;64;1;16;46;1;15547136
2;64;1;1;1;89;110987072
32;16;32;16;46;4094;44434976
1024;128;4;1;2;46;22585696
1;16;1;1;46;2047;884983264
128;128;16;16;46;4094;11389600
64;4;16;2;1;46;180722528
4;16;2;1;178;89;307421504
8;8;2;1;89;2;413251936
2;2048;1;128;1;178;436098176
512;1;8;1;1;2047;1166565056
32;2048;16;16;46;23;4198624
32;2048;32;8;1;1;283823744
1024;2048;1;8;46;89;12956992
128;128;8;2;23;89;7361280
1024;256;32;4;23;23;5392320
32;512;16;4;2047;1;1543434848
1;32;1;16;2047;2;797252128
4;2048;4;8;46;178;8158272
32;2048;32;8;46;46;4855872
8;1;8;1;2047;178;2455384960
4096;32;32;1;1;2;72104576
4;64;2;1;178;2;268305024
32;512;1;2;1;4094;116381376
64;2048;16;2;46;4094;9590112
1;2048;1;8;178;4094;96750432
2048;2048;32;8;89;4094;2855776
8;2048;1;4;2047;178;260344192
2048;64;1;64;178;23;31694592
256;1;4;1;178;1;377335360
16;256;2;8;2;23;34507008
4;1;1;1;46;4094;13817072608
128;512;8;8;46;1;25374720
2;1024;2;1;89;23;167246272
1;16;1;4;2047;46;1999872704
1024;32;32;32;4094;89;2815520
128;64;1;16;1;23;90930720
32;2048;32;16;46;2047;2032608
512;2048;2;8;46;4094;18204000
32;2048;4;8;46;4094;9037088
32;8;1;8;1;4094;13265468032
2;64;2;1;46;178;158842112
256;128;4;4;46;89;7233312
2048;1024;1;16;23;2047;17006080
32;32;16;4;89;89;23735520
4;2048;1;16;46;4094;17224704
2048;2048;1;8;46;46;13566400
1024;2048;1;8;46;178;13433952
