b3f4969b5eac5ef76b04f1fa21cf514a33c5b1988304ecf6a1be8f4ed1101894.cl -> 1891456 (512;4096;16;16;23;46;1891456)
80ea1af9dba5b07bf2b8b5a11fa1bd671981347e38bb105386661e85d778fbe4.cl -> 1645024 (32;2048;32;8;46;4094;1645024)
1b1065b5a02c7918d9b5ef3d07d3e5913dc3339f05449991c8ca0c9de13c3c2f.cl -> 994720 (2048;4096;128;2;994720)
599404971fc64ea79b51ff34b705b8aa1550b9fb9aed1f748e919bc6b6f2dc76.cl -> 944384 (2048;1024;128;1;2;2;944384)
