GLOBAL_SIZE_0;GLOBAL_SIZE_1;LOCAL_SIZE_0;LOCAL_SIZE_1;cost
4096;2;2;1;89625333
128;64;2;1;78581778
4;1;2;1;7568709333
256;4;128;4;18446744073709551615
8;8;2;4;539450667
128;64;2;1;78588297
2;256;1;2;85374223
2048;16;32;1;7386815
2048;16;128;1;6206519
2048;16;32;2;6077778
2048;32;32;1;7425778
2048;64;8;1;20377630
256;32;16;4;7669037
256;16;64;2;11746074
1024;128;32;2;6121333
2048;16;32;4;6286815
2048;8;64;2;3611555
2048;2;32;2;12160000
2048;2;128;2;12080148
2048;32;64;2;5959111
2048;4;64;2;6349482
2048;8;64;4;3576148
4096;8;256;4;18446744073709551615
4096;8;64;4;5420444
4096;1;64;1;12730667
2048;8;64;1;3582074
4096;512;1;4;49142519
1;1024;1;32;41878519
1024;128;256;16;18446744073709551615
4096;1;128;1;12722518
2048;4;64;1;11715407
1024;8;64;8;18446744073709551615
4096;8;64;1;8107852
1;8;1;8;3525511111
512;128;8;4;12593481
8192;8;32;4;6286074
2048;64;64;2;6269185
2048;16;64;4;5524149
1;4;1;2;6558223259
2048;8;64;2;3593630
128;8;2;4;44810371
1;8;1;4;3378337333
512;8;256;4;18446744073709551615
4096;8;32;4;6073482
2048;32;32;4;6317333
16;128;2;4;27288445
1024;8;128;8;18446744073709551615
2048;2;128;1;11968296
2048;4;128;4;18446744073709551615
1;2;1;2;13332189926
32;8;2;1;161371260
16;128;1;4;67641185
8192;128;4;4;19989629
64;64;64;8;18446744073709551615
4096;16;128;4;18446744073709551615
512;2;64;1;43635111
512;32;32;16;18446744073709551615
512;16;64;2;6506074
1024;64;16;2;8295704
128;64;64;2;6058519
8192;8;64;4;5851407
1024;8;64;4;5967556
2048;64;64;4;5653334
2048;8;32;8;3605333
2048;8;256;4;18446744073709551615
2048;8;2;4;53979704
2048;8;16;4;3669185
2048;8;128;4;18446744073709551615
512;2;32;2;43226963
8192;2048;8;256;18446744073709551615
8192;16;32;8;6246963
1024;2048;1;16;50236296
4096;8;128;4;18446744073709551615
8192;16;64;4;5776445
1024;8;256;4;18446744073709551615
2048;8;64;8;18446744073709551615
512;32;32;1;6654222
8192;1;64;1;7825037
512;8;64;1;20828000
1024;8;128;4;18446744073709551615
512;32;32;2;8591259
2048;512;64;4;6663704
256;8;64;4;33370667
1;8;1;8;3543587556
256;32;64;2;6014519
512;32;64;2;4785777
512;64;32;2;6154963
256;64;64;8;18446744073709551615
2048;16;128;4;18446744073709551615
512;8;64;4;10992445
512;32;1;4;79874963
4096;64;1;1;154933482
512;1;64;1;85435408
128;8;64;2;43848148
2048;2;64;1;12029926
4096;4;32;4;3977185
8;8;1;4;541797778
2048;2048;64;4;4140149
2048;8;8;4;14821778
256;64;64;1;5045630
64;128;16;8;7297778
2048;4;1;1;194203111
64;2;2;2;331745037
64;64;2;2;46811407
2048;8;64;1;3570814
2048;16;64;2;5893481
2048;4;64;2;6310667
2048;8;32;1;7219407
4096;8;32;1;7935555
2048;8;64;2;3599259
8192;1;32;1;14912000
2048;8;128;1;6447408
2048;16;16;16;16597037
8192;8;256;1;9083407
512;1;64;1;97777629
8192;8;64;1;6507259
1024;8;64;1;5967852
2048;8;64;4;3575556
1024;8;256;2;18446744073709551615
2048;32;64;16;18446744073709551615
2048;4;128;2;6180148
2048;16;64;16;18446744073709551615
1;4;1;2;6544989333
512;64;64;2;6304444
1024;8;32;1;6082815
2048;64;64;16;18446744073709551615
8192;64;64;16;18446744073709551615
2048;256;64;16;18446744073709551615
256;64;64;2;5030667
32;2048;4;4;23970371
32;64;2;1;80821333
512;128;32;16;18446744073709551615
4096;4;64;4;3932593
2048;8;16;1;11890519
1;8;1;1;3207257630
2048;16;128;16;18446744073709551615
4096;8;64;1;5903407
512;8;64;8;18446744073709551615
8192;8;32;1;7878667
2048;1;64;1;23675111
512;16;32;16;18446744073709551615
4096;64;128;16;18446744073709551615
2048;16;64;1;5470074
128;8;64;1;42417333
2048;4;64;4;6375407
1024;8;8;1;21456741
2048;64;128;32;18446744073709551615
2048;8;32;8;3627259
2048;8;16;2;8126815
1024;8;16;1;10651555
2048;2;64;1;12304889
4096;2;64;1;7109333
2048;8;32;2;3608593
1024;1;64;1;45052445
512;2;64;2;44380297
2048;32;64;8;18446744073709551615
1024;4;64;2;11414223
2048;8;128;2;3601186
512;32;64;16;18446744073709551615
8192;8;128;1;6281630
4096;8;64;2;6092000
2048;1;64;1;36198963
64;8;64;1;84940148
4096;64;64;16;18446744073709551615
1;512;1;64;127221333
64;256;2;16;44054519
8;2048;2;1;77796888
32;512;1;256;127126223
4096;8;128;1;5760741
1024;32;64;16;18446744073709551615
512;8;32;1;10894223
2048;4096;64;16;18446744073709551615
2048;4;32;4;6235851
128;8192;2;32;45450518
128;1;8;1;327815555
256;8;1;1;158851111
4096;2;128;2;7014815
2048;2;128;1;12007111
32;8;1;1;166607556
4096;8;256;1;6091704
1;8;1;1;3189908592
256;4;16;4;42456000
1;1024;1;32;41848000
1024;128;32;16;18446744073709551615
1024;16;64;16;18446744073709551615
2048;16;32;16;18446744073709551615
2048;8;1;1;172687703
1;8;1;1;3180701037
8;8;4;1;530910963
16;8;2;1;318506666
8192;1;256;1;7908889
512;8;1;1;157235259
16;128;2;4;27258222
8192;128;2;1;77722370
4096;8;64;8;18446744073709551615
512;2;64;1;43644000
2048;8192;64;16;18446744073709551615
512;2;32;1;43083555
8;2048;8;256;18446744073709551615
1;16;1;8;1766319555
2;8;1;1;1792106222
4096;4;32;2;3989037
512;8;64;4;11038667
8192;8;64;8;18446744073709551615
2048;8;128;8;18446744073709551615
2048;1024;64;64;18446744073709551615
2048;512;64;16;18446744073709551615
256;128;1;4;54738815
4096;2048;1;128;282312741
512;512;64;2;6319259
128;4096;1;1;154708889
64;8;64;2;85790074
2048;32;64;32;18446744073709551615
1;8;1;8;3495744000
2048;128;16;8;7824148
16;4;1;1;639523407
1;2;1;2;13211934815
32;1;2;1;1291327259
2048;512;256;16;18446744073709551615
2048;2;32;1;11795408
1024;32;64;32;18446744073709551615
32;64;2;16;25336444
8192;128;1;16;116225333
1;1;1;1;25822842963
128;256;2;128;59862519
8192;32;64;16;18446744073709551615
8192;8;64;2;6435111
2048;1024;64;16;18446744073709551615
2048;8;64;8;18446744073709551615
2048;4;32;2;6273481
1;2048;1;1;155870667
32;512;8;256;18446744073709551615
128;8192;32;32;18446744073709551615
128;16;8;2;21270815
2048;32;128;16;18446744073709551615
256;8;64;1;21529186
4096;8;64;4;5539111
2048;2;64;2;12191259
2048;8;128;4;18446744073709551615
2048;1024;64;128;18446744073709551615
256;64;1;2;90539556
4096;2;128;2;7054074
1;8;1;1;3232157037
4;32;2;4;243777037
2048;16;64;8;18446744073709551615
128;512;64;16;18446744073709551615
2048;8;64;1;3600888
2048;1024;64;1;5538519
4096;4;64;2;3978815
16;1024;16;32;18446744073709551615
1024;128;16;16;7785629
8192;1;1;1;159500000
512;512;1;16;72686963
2048;4;64;1;6357777
2048;8;256;1;3639408
128;8;4;1;42761185
2048;1;8;1;23118815
8;8;1;1;545960592
4096;8;1;1;252150222
2048;8;8;1;20877185
2;8;1;1;1794265037
128;8;64;2;43675555
2048;8192;256;16;18446744073709551615
2048;8;4;1;40291111
2048;2048;64;16;18446744073709551615
128;8;64;8;18446744073709551615
2048;2;64;1;12263556
2048;2;1;1;158490519
1;8;1;2;3302407259
2048;8;1;1;162462815
2048;8;1;8;181356889
32;32;1;16;49242370
2048;64;2;16;50959704
2048;8;2;1;79347112
1;64;1;16;497517334
2;8;1;8;1859997186
2048;128;64;16;18446744073709551615
128;8;64;2;42892148
2048;8;32;2;3602074
2048;1024;32;128;18446744073709551615
512;8;1;1;157402814
32;4;4;2;328036741
2048;8;8;2;15366074
2;32;1;16;504375408
2048;8;1;1;167861926
2048;512;1;8;57125481
2048;256;128;16;18446744073709551615
16;16;2;8;171361482
1;8;1;1;3195178074
2048;1;64;1;23084741
2;8;1;1;1793809185
1;8;1;1;3248336740
2048;8;1;8;176118963
4;2048;1;16;62540741
32;512;1;16;76168445
64;8;64;4;85321185
2048;2048;64;32;18446744073709551615
4;8;1;1;944825481
2048;1;64;1;23564000
4;8;2;1;948140445
16;1;2;1;2559324296
2048;4;64;4;6364444
2;512;1;4;47935852
1;8;1;1;3209959407
512;8;16;1;11250963
2048;8;256;8;18446744073709551615
2048;16;256;16;18446744073709551615
2048;1;64;1;23572741
1;1;1;1;26206003408
2048;8;1;4;147864592
32;4096;1;16;74589185
2048;8;1;8;176764445
8;8;4;4;539051260
2;8;1;1;1793663555
4096;2048;64;16;18446744073709551615
64;4096;64;16;18446744073709551615
128;8;64;4;42963704
64;8;4;1;81876445
128;2048;64;16;18446744073709551615
2048;4096;64;1;3095704
4096;4096;64;1;2718963
1;4096;1;1;154645334
2048;4096;64;1;3045778
2048;4096;64;32;18446744073709551615
4096;4096;64;128;18446744073709551615
1;4096;1;1;154655703
1024;4096;64;1;4962963
4096;4096;64;64;18446744073709551615
4096;4096;64;32;18446744073709551615
4096;512;64;1;6093778
4096;4096;16;4;5062222
4096;1;64;1;12725630
4096;4096;32;1;5040592
4096;4096;1;1;155044296
4096;4096;1;1;155047408
4096;4096;64;4;2740000
4096;1024;64;1;5863408
4096;256;64;1;6127408
4096;4096;64;8;18446744073709551615
32;4096;1;1;154699704
16;4096;2;1;91243704
4096;8;64;2;6313481
4096;4096;16;1;9825037
1;4096;1;1;154624741
4096;64;64;1;6089037
4096;2048;64;1;4425778
128;4096;2;1;77503408
4096;64;64;4;5663555
4096;1024;32;1;7038370
1;1;1;1;26201585482
4096;4;64;1;3990519
8;4096;4;1;39072741
4;4096;1;2;90033482
4096;2;64;2;6994963
4;4096;1;1;155042074
4096;4096;128;1;3627704
4096;4096;256;1;2745481
4096;4096;4;1;39032593
2;4096;1;4;49936148
4096;4096;64;2;3861778
4096;4096;64;256;18446744073709551615
512;4096;64;1;5774519
4096;1;64;1;12762519
4096;2048;64;128;18446744073709551615
4096;1;64;1;12755111
4096;128;64;2;6372000
32;4096;4;1;38948148
1;4096;1;1;154648444
4096;1;64;1;12757333
4096;4096;2;4;26906667
4096;32;64;8;18446744073709551615
1;4096;1;4;58224000
4096;2048;128;1;4866370
4096;2;64;1;6969037
4096;8192;64;1;2801778
2;4096;1;1;149011703
8192;4096;64;1;2874074
256;4096;64;1;5972889
4096;4096;64;1;2724000
4096;4096;8;1;19559112
4096;4096;64;16;18446744073709551615
1024;1;64;1;44255111
4096;512;4;1;38957185
1024;1024;64;1;6008740
256;4096;256;1;5685185
4096;256;64;64;18446744073709551615
4096;4096;2;1;77699407
64;4096;64;32;18446744073709551615
4096;16;64;16;18446744073709551615
4;4096;4;1;39539111
4096;32;128;8;18446744073709551615
4096;2;256;2;18446744073709551615
128;4096;64;1;6302371
4096;64;16;4;8094222
2048;128;64;2;6335259
4096;256;64;256;18446744073709551615
32;8;1;2;163847555
1024;4096;64;32;18446744073709551615
1;128;1;4;208629926
64;4096;64;4;5591704
512;2;4;1;43080889
512;1;8;1;84250223
4096;1024;16;1;20401926
4096;8192;128;1;5402222
4096;4096;16;128;18446744073709551615
8;512;4;1;53399556
8192;16;16;8;8593778
1024;1;1;1;166032444
256;128;1;1;154916889
4096;64;1;4;105374963
4096;8;64;2;6212740
4096;4096;256;1;2745481
1024;8192;64;1;3942222
512;512;128;2;5716741
2048;8;16;2;8274222
64;512;1;8;68277778
1;4096;1;1;154672592
8192;2;1;2;215061482
64;2;4;2;332032000
4096;2048;256;4;18446744073709551615
256;64;128;8;18446744073709551615
1024;4096;64;256;18446744073709551615
4096;4096;32;256;18446744073709551615
1;128;1;16;247444000
4096;512;64;128;18446744073709551615
32;512;8;8;13331259
1;256;1;16;123832889
8;32;2;1;144257777
32;512;32;1;6546518
64;4096;64;1;6040592
2048;1024;32;1;6081482
128;8192;2;1;77496148
128;16;4;16;25141926
256;64;64;2;5136000
4096;1;256;1;12849630
4096;4096;128;4;18446744073709551615
8192;2048;64;1;5357926
2048;4096;128;1;5632296
8;256;4;128;18446744073709551615
4;4096;4;1;52611260
4096;8;1;2;272619408
4096;256;64;8;18446744073709551615
16;64;16;4;42103852
4096;4096;4;4;11498074
4096;16;128;4;18446744073709551615
1;8;1;1;3200842667
256;128;16;1;10946074
32;1024;4;32;23484000
2048;8192;64;1;2678519
8192;8192;64;1;2999556
512;8192;64;128;18446744073709551615
1024;4096;64;128;18446744073709551615
2048;8192;64;256;18446744073709551615
2048;2048;64;1;4735111
2048;8192;256;1;2748741
4096;8192;32;1;5090518
2048;4096;64;256;18446744073709551615
2048;1;8;1;23034371
2048;8192;32;1;5006667
2048;512;64;1;5850074
2048;8192;128;128;18446744073709551615
2048;1;64;1;23069778
1;8192;1;1;154089185
2048;8192;128;1;3497777
2048;8192;1;1;154999704
512;2048;64;1;5961482
2048;8192;16;256;18446744073709551615
512;8192;64;1;3789185
4096;8192;256;1;2827111
2048;8192;32;64;18446744073709551615
8192;1;64;1;14887556
2048;1;128;1;35710666
2048;8192;64;64;18446744073709551615
1024;2048;64;1;5825482
1024;1;64;1;44122370
2048;8192;64;128;18446744073709551615
2048;1;32;1;22708000
2048;4096;8;128;18446744073709551615
256;8192;64;1;5497926
128;1;32;1;329556149
512;1;64;1;86479407
2048;8192;16;1;9822222
512;1;64;1;85868445
1;8192;1;1;154069777
4096;8192;64;256;18446744073709551615
2048;1;32;1;22510222
1024;8192;128;1;4521926
8192;8192;16;1;9972889
2048;4096;256;256;18446744073709551615
512;8192;128;1;5328741
4096;1;128;1;12662519
1;2048;1;1;156936444
1024;8192;128;256;18446744073709551615
2048;2048;128;1;5482222
4096;8192;64;128;18446744073709551615
1024;4096;32;1;4936741
1024;8192;256;1;3801482
2048;8192;32;256;18446744073709551615
4096;1;32;1;22582963
4096;2048;32;1;10398962
2048;8192;32;128;18446744073709551615
2048;2048;32;1;10313630
2048;1;64;1;35453481
1024;8192;32;1;4997777
512;8192;32;1;4945481
512;8192;32;256;18446744073709551615
4096;8192;32;256;18446744073709551615
1;8192;1;1;154067852
4096;8192;16;1;9839556
2048;1;64;1;23060296
8192;1024;64;128;18446744073709551615
2048;2048;64;256;18446744073709551615
2048;2048;16;1;9749481
2048;2048;64;128;18446744073709551615
256;8192;64;128;18446744073709551615
8192;1;128;1;7851852
512;2048;16;1;9879556
1024;4096;128;256;18446744073709551615
8192;8192;256;1;2973629
256;2048;64;1;6256296
1024;4096;128;1;5285185
2048;4096;32;1;5005333
8192;8192;32;1;5149778
8192;4096;64;256;18446744073709551615
2048;8192;128;256;18446744073709551615
1024;8192;64;128;18446744073709551615
128;8192;64;1;6064148
512;8192;64;256;18446744073709551615
1;8192;1;256;312453481
256;8192;64;256;18446744073709551615
8192;8192;64;256;18446744073709551615
1;8192;1;256;290993186
2048;8192;256;256;18446744073709551615
2048;4096;64;128;18446744073709551615
1024;8192;8;128;18446744073709551615
1024;1;16;1;43326667
8192;1;64;1;7866963
1;512;1;32;79350963
16;128;1;4;67906222
1024;8192;64;256;18446744073709551615
2048;1024;32;256;18446744073709551615
64;4096;1;4;49183408
4;2;4;1;3839486519
1;256;1;1;170802519
8192;128;64;8;18446744073709551615
8192;4096;8;1;19606074
512;1024;64;1;6210666
32;8192;1;1;154682667
2048;8192;4;1;39025778
1024;32;1;16;124999555
256;128;8;4;12717926
64;64;1;4;69628593
512;512;128;128;18446744073709551615
2048;256;64;64;18446744073709551615
8192;8192;128;1;2994666
2048;64;64;4;5658370
2048;8192;128;16;18446744073709551615
512;4096;64;256;18446744073709551615
128;8192;128;1;6173481
2048;8192;256;128;18446744073709551615
512;8192;16;256;18446744073709551615
512;4096;32;256;18446744073709551615
1;8192;1;1;154330222
1024;2048;64;256;18446744073709551615
1024;1;128;1;43851555
2048;1;128;1;22978518
512;2048;32;1;6493185
4096;8192;16;128;18446744073709551615
256;1;64;1;183157037
256;1;64;1;170998519
2048;256;16;1;10982074
1;128;1;8;217939852
8192;8192;128;256;18446744073709551615
2048;1;8;1;23171111
4096;1;64;1;12955408
4096;8192;1;1;155183704
256;4;1;1;162448889
4096;1;256;1;12745482
4;8192;1;1;154824592
1;2048;1;4;58381778
1024;2048;64;128;18446744073709551615
32;8192;1;8;63763259
8192;8192;128;128;18446744073709551615
1;512;1;256;468696296
8192;4096;32;1;5112148
32;2;2;1;647244741
32;128;8;16;12452889
64;512;8;1;20150074
64;256;2;128;49053630
8192;2048;128;1;4212592
2048;1;16;1;22306074
2048;1;16;1;22315704
2048;16;64;16;18446744073709551615
256;1024;64;1;6266074
1024;1;16;1;43363852
2048;2048;32;128;18446744073709551615
8192;4096;128;1;2886963
4096;8192;8;256;18446744073709551615
2048;1;128;1;23017185
1;8192;1;128;353932148
256;8192;256;1;5545334
1024;1;64;1;44268148
256;4096;32;1;5210519
2048;4096;128;256;18446744073709551615
512;4096;16;1;9742815
1024;8192;16;1;9815408
1024;2048;128;1;5789037
8192;1;64;1;7875852
4096;2048;256;1;4869333
256;8192;128;256;18446744073709551615
8192;1;64;1;7835852
512;1;128;1;85447111
2048;1024;256;1;5833038
512;1;64;1;86336000
2048;4096;8;1;19555259
1024;1;256;1;43566370
2048;4096;16;1;9820889
2048;4096;32;128;18446744073709551615
256;2048;256;1;5754222
256;4096;16;1;9745630
2048;4096;32;256;18446744073709551615
1;4096;1;1;155198519
8;2048;2;4;41105482
32;512;8;1;20600593
1024;8192;1;32;45484148
128;1;8;1;327430222
2048;8192;1;256;268053185
2048;2048;32;256;18446744073709551615
2048;8192;64;8;18446744073709551615
64;8192;64;1;6001778
2048;8192;64;32;18446744073709551615
2048;1;256;1;23170370
1024;64;64;2;6234666
32;2;2;2;653796593
1;512;1;1;159211852
512;8192;128;256;18446744073709551615
128;8192;1;1;154705333
8192;4096;64;128;18446744073709551615
256;8;16;1;21878963
128;1024;4;32;23755556
1024;1;16;1;43433037
8192;1;4;1;40286074
2048;1;64;1;23044000
2048;32;64;8;18446744073709551615
2048;4;64;1;6315408
2048;1024;128;1;5957333
2048;8192;8;1;19553185
4096;8192;128;256;18446744073709551615
512;512;1;64;170821482
256;128;2;64;49757482
64;4096;1;64;145652000
512;128;4;1;39240297
512;256;64;1;6196000
2048;8192;2;1;77685926
1024;8192;64;2;4563704
512;4096;32;1;4999260
256;8192;128;1;5775852
256;2048;64;128;18446744073709551615
512;1;8;1;84595852
512;16;32;8;6605037
1024;1;1;1;165638074
256;32;8;4;8186519
2048;1;256;1;23237185
512;512;128;1;6220444
2048;8192;64;1;2684149
2048;4;64;4;6225481
64;64;1;1;157053481
256;512;128;2;5848889
2048;512;16;2;7753926
128;128;1;2;90541185
2048;1;16;1;22284296
16;8192;2;2;44979259
1024;256;64;1;6067407
8;128;4;2;50386519
256;4;64;1;42663852
4096;64;256;32;18446744073709551615
32;2048;1;256;156460000
32;64;4;16;23727260
2048;8192;1;1;155007703
2048;8192;64;2;3654667
1024;1;64;1;44600000
512;8192;256;1;5077186
1024;8192;256;256;18446744073709551615
2048;256;64;256;18446744073709551615
256;8192;256;256;18446744073709551615
512;1;32;1;86992445
2048;512;128;1;6159408
1;1;1;1;25945996889
4096;2048;64;256;18446744073709551615
2048;2048;256;1;5209778
2048;1024;128;256;18446744073709551615
256;8192;1;1;154745037
1024;8192;32;256;18446744073709551615
4096;8192;16;256;18446744073709551615
32;128;2;16;16605333
1;512;1;1;159192889
32;64;1;4;69347259
64;256;2;1;78143852
2048;2048;128;256;18446744073709551615
512;2048;32;8;4977926
32;512;32;4;4712297
8192;8192;1;1;157387259
1;16;1;2;1627263852
2048;2;32;2;12205334
256;64;8;2;13987556
4096;128;128;128;18446744073709551615
32;256;1;64;75851556
128;128;16;2;8627555
2048;8192;16;64;18446744073709551615
32;256;4;1;39822666
64;128;16;1;10311704
4096;1;64;1;12986666
1024;512;1;16;74201925
2;8192;1;1;145517778
16;2;2;1;1291844592
64;4096;1;4;49192741
512;1;4;1;84574074
512;1;8;1;84470518
1;1024;1;1;158075704
8192;32;32;1;7690074
64;512;1;16;72878519
256;4096;1;8;37602222
64;512;8;1;19896296
4096;1;128;1;12761482
8;8192;4;1;38954222
1;512;1;2;90668445
4096;8;16;2;9282963
8;1;4;1;4313495704
256;4;16;1;43702667
8;2048;4;8;18624741
256;8192;32;1;4947112
8192;8192;32;256;18446744073709551615
2048;512;64;64;18446744073709551615
4096;2048;64;64;18446744073709551615
256;4096;128;256;18446744073709551615
2048;512;128;256;18446744073709551615
8192;1024;64;1;6060148
8192;8192;256;256;18446744073709551615
2048;1024;16;1;9841481
1024;1;32;1;44159111
1024;8192;16;256;18446744073709551615
4;256;4;2;36523259
256;2048;32;32;18446744073709551615
32;64;1;16;40385630
32;128;8;16;12218370
8192;1;32;1;7755852
32;32;8;8;42828889
4096;256;256;16;18446744073709551615
1;2048;1;8;47641630
512;4;256;4;18446744073709551615
1024;4096;16;1;9747407
256;8192;32;256;18446744073709551615
512;4096;256;1;5371407
2048;16;64;4;5608148
2048;8192;64;4;2683556
128;8192;128;32;18446744073709551615
2048;4096;8;1;19552296
256;64;1;2;90401629
4096;128;128;8;18446744073709551615
1;4096;1;256;174205037
2048;1024;64;256;18446744073709551615
512;8192;1;1;154789778
512;512;64;1;6308593
512;2048;64;128;18446744073709551615
2048;8192;1;4;49156000
1;1;1;1;25947549037
1;8192;1;1;154334963
1;1;1;1;26325836593
32;1;1;1;1287183852
512;128;16;128;18446744073709551615
32;1;2;1;1291016148
2048;128;16;16;7905778
128;8192;64;1;5924149
32;1;32;1;1332731555
256;512;1;16;70441482
16;128;8;1;23302074
64;4096;64;8;18446744073709551615
1;1;1;1;25827043704
2048;8192;16;128;18446744073709551615
8192;2048;1;1;155281778
1;1024;1;1;158117038
1;2048;1;1;155818222
1024;1024;64;256;18446744073709551615
2048;2048;32;64;18446744073709551615
1024;4096;32;256;18446744073709551615
256;2048;64;256;18446744073709551615
8192;2048;256;1;2845334
256;128;4;1;39366370
4096;8192;64;8;18446744073709551615
2048;8192;2;32;27367259
128;8192;64;8;18446744073709551615
2048;8192;256;32;18446744073709551615
2048;1;2;1;81232000
512;512;8;1;19848592
1;16;1;8;1765162223
128;2048;1;16;69674519
256;512;8;64;18446744073709551615
1;4;1;1;6370615555
512;1;256;1;86056740
2048;2048;16;256;18446744073709551615
512;2048;128;1;6119259
8192;4096;64;64;18446744073709551615
4096;512;256;1;6184593
128;512;128;2;5786074
4096;512;16;2;7703407
1024;2048;256;1;5634519
2048;256;64;1;6004000
8192;1;16;1;10233333
64;128;1;8;68905186
128;4;64;1;84432000
4096;8;256;2;18446744073709551615
1;2048;1;16;117746370
2;8192;1;64;249531556
512;64;8;16;12538074
32;512;8;16;12820445
32;512;2;8;37637037
64;1;2;1;647734815
16;16;2;16;192553186
2048;8192;1;2;89936741
64;2048;32;8;6189777
16;512;1;1;155264888
128;1024;128;1;6496296
32;4096;8;1;19660593
8192;1;16;1;10181481
4096;1024;128;1;5753185
1024;1;128;1;43708741
4096;2048;16;1;9828000
8192;8192;1;1;157366519
2048;1;32;1;22607704
8192;1;256;1;7829481
128;2;1;2;169824000
8192;8192;32;128;18446744073709551615
256;64;64;4;3990074
256;2;128;2;86852148
4096;256;1;1;158182963
128;8192;16;32;18446744073709551615
32;1;1;1;1287150963
128;2048;32;1;7206815
1024;32;16;16;7873333
8192;1;64;1;7953481
16;1;1;1;2555530074
16;128;8;64;18446744073709551615
16;8192;2;1;77673185
2048;8192;1;8;31005037
64;128;64;4;6253333
512;64;4;1;39604148
512;512;8;128;18446744073709551615
8192;16;1;8;164873481
1024;2048;256;16;18446744073709551615
256;32;8;1;20860000
32;512;4;1;39310815
512;512;128;1;6294519
8192;8192;8;1;19825333
2048;4096;256;1;2731703
4096;8192;256;256;18446744073709551615
8192;8192;64;64;18446744073709551615
4;8192;1;1;154861778
1;8192;1;8;60962963
1;8192;1;1;154109333
1;512;1;1;159201777
2048;512;1;1;154915852
2048;128;2;2;45123703
2048;8192;1;128;125775111
1024;2048;32;1;5968000
4096;8192;128;128;18446744073709551615
1024;8192;32;128;18446744073709551615
8192;512;64;1;6236889
1;2048;1;256;168715407
1024;8192;16;128;18446744073709551615
256;512;16;2;8547111
64;128;16;32;18446744073709551615
256;4;8;1;43118963
1;1;1;1;25960509481
512;1024;64;256;18446744073709551615
512;8192;16;1;9743259
2048;8192;128;64;18446744073709551615
32;8;4;4;166096296
512;64;8;4;12825778
32;128;16;16;11086222
32;512;1;8;70147407
1;1024;1;1;158148593
1024;4;1;1;158233630
8192;8192;1;4;49251111
32;1024;2;1;77976148
256;512;64;1;6309926
128;8192;64;256;18446744073709551615
4096;512;128;1;6122223
2048;4096;4;1;39021481
2;64;1;4;231279852
2048;128;128;2;5785630
8192;128;64;1;6436592
4;8192;1;1;154862074
2048;8192;2;4;40209037
4;4096;1;1;154938815
256;64;8;4;13002370
1024;1024;16;256;18446744073709551615
2048;1024;1;1;154929334
4096;4096;128;256;18446744073709551615
2048;4096;64;64;18446744073709551615
512;2048;8;1;19556592
4096;1;32;1;12555407
1;1024;1;1;158073037
4096;2;128;1;7034370
32;128;1;64;53775259
128;128;2;4;40805777
32;4;4;1;325051408
1024;1;128;1;43895556
1024;128;1;16;91006963
8192;4096;256;64;18446744073709551615
256;128;64;16;18446744073709551615
16;32;2;1;97907408
1;8192;1;256;340031259
64;1;8;1;650798222
256;128;256;1;5860741
512;512;8;16;12251111
8;16;1;8;278617482
2048;2048;128;128;18446744073709551615
1024;1024;1;16;64385926
256;32;8;32;9781630
4096;512;256;16;18446744073709551615
512;1;128;1;84804592
8192;1;32;1;7741926
1;1;1;1;25826302518
8192;8192;256;128;18446744073709551615
2048;4096;8;256;18446744073709551615
32;8192;1;16;74285482
4;512;1;1;156765778
8192;8192;64;128;18446744073709551615
1024;1;32;1;44429185
4096;2048;128;256;18446744073709551615
2048;1;4;1;40285925
256;8192;64;16;18446744073709551615
4096;1;16;1;12857481
1024;256;128;1;6358074
2048;1;1;1;161313630
32;512;16;2;9803555
64;8;16;8;98979556
256;4;256;1;42984741
4096;2;256;2;18446744073709551615
8192;8192;4;1;39532296
32;2048;4;64;23782370
32;64;8;16;23095260
32;128;16;32;18446744073709551615
1;1;1;1;26201598074
64;256;4;4;22546666
512;128;1;8;72550815
2;512;2;16;32769925
512;8;32;2;11550518
