GLOBAL_SIZE_0;GLOBAL_SIZE_1;LOCAL_SIZE_0;LOCAL_SIZE_1;v_TP_41;v_TP_42;cost
1;8;1;4;39;7;4268039259
512;128;128;2;91;546;78976740
1;1;1;1;15;14;73867963408
1;4;1;4;15;585;13358168297
512;128;128;1;91;546;78930666
8;128;8;2;91;546;101148593
512;128;256;2;4095;546;18446744073709551615
512;1;128;1;91;546;3893774370
512;128;128;1;105;546;90273185
256;512;128;1;30;585;113578222
512;128;128;1;65;546;85124593
512;128;128;2;91;390;81446074
512;64;128;64;91;546;18446744073709551615
512;128;128;1;63;546;85731408
512;128;128;1;105;630;103857037
512;512;128;256;91;546;18446744073709551615
512;128;128;1;2730;546;1312587260
512;128;4;1;91;546;132129630
512;128;128;16;91;546;18446744073709551615
512;4;128;4;91;546;18446744073709551615
16;4;1;2;195;35;690258371
64;32;16;8;21;1170;318184297
4;8;2;4;1;585;1861142370
1024;2048;256;1;117;42;65361778
2048;8192;256;64;14;315;18446744073709551615
64;64;8;4;13;3;17375704
32;1;1;1;1;90;1269701926
1024;512;32;2;3;234;92656296
512;256;8;16;4095;8190;21556964889
256;32;64;4;15;1170;303009778
512;2;1;1;126;3;277668000
1;1;1;1;78;15;37121053926
128;2048;32;4;117;45;55716297
1;256;1;64;130;2;1779558370
1024;4;16;4;5;182;340465926
256;512;8;8;78;63;89025926
2;128;2;128;4095;6;9347980000
8;1;8;1;14;315;8918107851
64;16;32;4;234;182;124891260
1;4096;1;8;30;273;206718074
64;8;4;4;30;3;114725778
32;128;8;4;14;3;17505629
256;64;8;4;26;3;12862519
128;64;8;1;26;3;23670667
256;64;8;16;26;3;14177777
256;512;8;4;26;3;10491111
256;64;8;2;2;3;12430963
256;64;8;4;9;3;10439408
256;64;8;4;18;3;10871852
256;16;4;4;21;3;18330223
1024;64;8;4;18;3;8872296
256;32;8;4;10;3;11146667
8192;64;8;4;26;3;8687852
1024;64;16;4;18;3;7174815
1024;64;8;4;10;3;8983111
2048;256;8;4;18;3;7409333
1024;64;16;4;63;3;15271556
1024;64;16;4;10;3;13961482
1024;64;16;4;18;7;25756148
1024;64;8;4;21;3;9361925
1024;64;16;4;15;3;7278222
1024;64;4;2;7;2;26296444
1024;8;16;4;18;3;7722963
8192;128;16;4;42;13;55821926
1024;64;16;4;21;9;30922815
512;64;8;4;18;3;9406518
1024;256;16;4;18;2;7427407
4096;64;16;4;18;2;7023704
4096;16;16;4;18;2;7382222
4096;256;16;4;18;2;6907259
8192;64;8;4;21;2;11060592
4096;64;64;4;21;7;15472593
8192;256;16;4;18;2;6884000
4096;128;16;4;18;2;6917926
4096;512;8;4;18;2;7313037
4096;256;16;4;13;2;7065630
1;128;1;16;18;2;655040889
4096;128;16;4;21;1;8609778
8192;256;16;4;35;9;14022223
8192;128;16;16;35;2;8413185
8192;64;16;2;18;14;50116148
8192;256;32;4;18;6;9421333
2048;256;16;4;13;14;47108445
4096;256;16;4;18;3;6194666
8192;256;16;4;18;6;8852592
8192;256;32;2;18;2;5453481
8192;64;8;16;18;2;15448000
8192;256;32;2;18;10;31036296
8192;256;64;2;6;2;5369630
1;256;1;2;18;6;215525037
8192;256;64;2;9;2;5379556
8192;512;64;2;6;2;5168592
8192;256;128;2;6;5;7563704
8192;256;64;2;6;5;7534370
1;512;1;2;6;2;193993926
2048;64;64;1;3;2;4040297
8192;2048;64;4;18;2;8244000
2048;512;64;2;6;2;7698963
2048;128;64;1;2;2;8791555
8192;64;64;1;3;2;8328000
1024;64;64;1;6;6;17502815
2048;64;64;1;3;1;12296445
4096;64;64;1;3;2;8330963
2048;128;64;2;3;2;8296148
1024;64;64;1;10;5;14155407
2048;64;64;1;7;2;7806815
2048;64;64;2;5;3;8177629
512;32;128;1;5;13;40987556
512;64;64;1;3;2;4198371
2048;64;64;1;7;14;36382075
1024;64;32;1;3;2;7010963
1024;128;64;1;3;2;4019111
256;32;32;1;3;7;9734815
1024;128;128;1;3;2;4075556
1024;128;64;1;14;14;41666666
8192;256;64;1;3;5;7968296
1024;128;64;1;3;3;3889926
1024;64;64;1;3;6;14175704
1024;256;64;1;3;3;3765185
1024;256;64;1;3;10;20117630
1024;128;32;1;3;3;6922518
1024;256;64;4;2;3;4166815
1024;1024;64;1;3;13;24584148
1024;256;64;1;2;3;4375852
512;1024;64;1;3;3;3702963
512;512;64;1;3;3;3759260
512;256;32;1;3;6;7784000
512;1024;128;1;3;1;5762075
2048;1024;64;2;3;5;7141630
2048;1024;64;1;7;6;9306667
512;1024;32;2;3;3;3821037
512;1024;64;1;2;7;12949777
1024;512;64;1;6;3;4884297
64;1024;64;1;3;3;7632444
512;2048;64;2;3;3;7653482
256;1024;64;1;2;3;7054963
512;2048;64;1;3;1;12059704
512;128;32;1;5;5;12994963
512;1024;64;2;3;3;7517185
512;2048;8;1;3;3;39125926
1024;1024;64;1;7;1;5807407
512;1024;64;1;3;5;7714815
128;4096;64;1;3;3;3847852
2048;1024;64;1;1;3;5112148
512;1024;64;1;6;3;4968445
64;2048;64;1;6;6;16414222
64;512;64;1;3;3;4698815
512;1024;64;2;3;1;5756741
2048;512;64;1;2;2;4200889
512;1024;64;1;2;5;5349482
256;1024;64;1;7;1;6011112
512;512;64;8;3;7;18446744073709551615
512;2048;64;1;5;3;4884445
1024;1024;64;8;3;3;18446744073709551615
512;1024;64;1;3;6;10328445
512;1024;32;1;3;9;11043259
256;256;64;1;3;7;17477185
512;1024;64;2;1;2;5806814
512;1024;64;1;6;15;32126371
512;1024;64;1;2;3;4013778
512;512;64;1;3;1;5782666
512;1024;32;1;1;3;6460593
1024;512;64;4;13;3;4849333
128;8192;1;1;78;273;233566370
1024;256;8;32;234;30;105654074
32;2048;8;2;315;63;76826370
512;1024;256;1;4095;546;1966519407
2048;1024;64;1;7;3;4743556
512;1024;64;1;1;15;54054519
512;1024;64;1;3;2;3998222
512;256;64;1;9;13;33354963
512;4096;64;1;2;3;3560149
256;1024;64;1;3;3;3695111
512;1;256;1;2;3;73603111
512;4096;64;1;10;3;4834815
512;512;64;2;2;3;4257925
512;4096;128;1;2;13;24366519
512;1024;32;1;2;21;50462963
512;4096;256;1;2;5;5236444
2048;8192;64;1;1;3;4047704
512;4096;64;1;2;1;5303407
512;1;64;1;2;7;88292592
512;4096;64;1;5;3;4824444
512;4096;128;1;2;5;5698667
128;4096;64;2;2;3;4062815
512;4096;128;1;2;3;3841481
512;4096;32;4;2;3;3770667
8192;8192;128;2;9;1;7884592
512;4096;64;1;7;3;6733777
512;4096;1;1;2;3;194083111
512;32;16;1;2;3;12717778
512;4096;64;1;2;117;84859407
512;4096;64;1;2;5;5225333
512;4096;64;1;2;13;21256741
512;4096;64;1;6;6;7850519
1024;4096;64;1;9;3;4725185
2048;1;64;1;2;3;23853629
512;4096;64;1;9;7;9891260
512;1;64;1;2;1;116127852
512;4096;64;1;9;3;4810815
512;2048;64;4;3;1;5780889
512;8192;64;1;5;3;4970371
1;1;1;1;455;910;51153719852
2;1;1;1;910;273;26804758963
64;1024;16;8;90;130;71184148
64;64;64;1;9;546;73007407
512;1;64;1;2;3;72019111
128;4096;64;1;2;3;3906371
512;8192;256;1;2;3;3784592
512;1;16;1;2;3;70245481
512;4096;128;1;7;7;9581333
512;4096;64;1;6;3;4859556
512;8192;64;1;2;3;3598518
128;4096;64;1;9;3;6592444
1024;8192;64;1;2;3;3761037
512;4096;64;2;2;3;3604296
512;2048;64;1;6;5;6927704
128;4096;1;1;2;3;176955111
4096;4096;64;1;2;7;9466518
1024;4096;64;1;3;3;3724148
1;1;1;1;1;13;30215311704
1024;4096;64;1;2;6;8463852
512;1;64;1;2;6;81379259
512;4096;64;1;2;2;4181482
8192;4096;8;1;630;78;81896000
2048;2048;256;128;630;7;18446744073709551615
64;8;32;4;42;90;132024148
1024;8;64;8;117;7;18446744073709551615
512;4096;64;2;9;6;8249481
4096;4096;64;1;9;3;5067407
512;4096;64;2;3;3;3790815
128;4096;128;1;5;3;6297926
2048;16;4;8;63;273;166324444
512;4096;64;1;273;3;6485037
512;4096;64;1;30;3;5450815
512;4096;256;1;2;6;8213037
512;2048;64;1;2;5;5315408
512;4096;256;1;2;3;3734667
8;16;1;1;1;15;478506223
64;4096;64;1;2;3;4353629
128;1;64;1;9;10;327188445
512;1024;128;1;2;7;16248000
512;4096;64;1;3;6;12610667
512;4096;128;1;2;7;14882518
512;8192;64;1;2;10;21208889
32;64;4;4;30;63;55705186
512;4096;32;1;2;6;7400741
512;4096;64;1;2;14;21933926
2048;4096;64;1;14;3;4924889
1024;4096;64;1;5;3;4713185
512;8192;128;4;3;3;18446744073709551615
512;2048;64;1;9;3;4898222
512;4096;64;1;3;3;3691111
8192;1;1;1;14;2730;17656356296
512;4096;64;1;315;3;6898815
512;4096;4;1;2;3;46064000
512;4096;32;16;2;3;18446744073709551615
2048;4096;1;32;1638;18;55731704
512;128;1;1;7;4095;610096741
1;32;1;32;1170;21;7053555111
1;512;1;2;15;14;502796445
512;512;128;1;2;3;4095852
64;4096;64;2;3;3;4716593
512;512;64;1;6;3;5216148
64;16;16;4;117;65;100643259
1024;4096;64;1;2;10;12680148
512;2048;2;1;2730;1;305636741
1024;4096;64;1;2;3;3561037
256;4096;64;4;2;3;3600889
1024;4096;32;1;2;3;6109778
256;512;4;2;315;26;80590963
512;4096;64;1;910;3;12047556
1024;4096;64;1;2;390;73753482
512;2;128;1;2;3;36434074
512;4096;64;1;10;2;5665037
512;4096;256;1;6;3;5019112
256;4096;64;1;7;3;5247111
512;8192;64;1;9;2;5675556
4;8;2;1;1;585;1856761334
1024;64;256;64;117;42;18446744073709551615
2048;8192;64;64;14;1;18446744073709551615
64;8192;4;4;13;3;15814519
128;1;64;1;315;1;839940000
1024;2048;32;4;2;3;3817333
4096;4096;64;1;5;3;4964296
512;512;64;1;1;3;6074371
128;2048;2;2;91;130;65636148
256;4096;128;1;6;18;62718666
512;4096;16;1;1;3;11339704
1024;2048;64;1;5;3;4706222
512;8192;128;1;13;3;4932741
512;4096;32;1;2;9;9381926
512;2048;64;1;2;3;3623408
1;1;1;1;819;1;107394710963
512;4096;32;1;2;3;6048000
512;4096;64;32;2;3;18446744073709551615
512;512;64;256;2;3;18446744073709551615
512;4096;64;2;2;6;8189630
512;4096;64;2;1;3;4665037
512;64;4;8;90;126;56769037
1024;2048;64;1;2;3;3626075
256;4096;64;1;2;3;3570815
32;8;1;8;30;5;286978815
1024;64;32;2;3;35;58399259
512;16;8;16;4095;8190;21546707555
256;1;64;1;15;1170;8283116148
2;256;1;1;42;234;338821185
512;2048;128;1;2;10;16712149
128;4096;64;1;6;6;12066815
512;4096;64;1;2;18;41220445
512;256;8;16;195;42;49682222
256;4096;64;1;2;10;14224148
2048;4096;64;4;2;3;3951851
512;4096;64;1;21;3;5115111
512;4096;1;2;2;3;92883259
512;4096;64;256;2;3;18446744073709551615
512;128;32;1;2;3;6321482
512;4;64;1;2;3;18729482
512;1;1;1;117;65;396724296
32;1024;1;1;3;3;196404741
512;4096;16;1;2;5;11330666
512;2048;32;1;2;3;6055260
512;4096;64;2;9;1;5625037
512;8192;64;2;2;3;3648148
128;64;8;4;117;65;86038963
512;2;1;1;1170;3;276880000
128;1;8;1;78;15;366625185
8;2048;2;1;117;195;197968000
512;4096;64;1;1;3;4364149
32;4096;1;1;2;3;175827259
128;4096;1;4;117;65;65002815
512;4096;32;1;2;1;10594222
128;1024;2;4;117;65;39420593
512;16;64;1;2;3;7497037
512;4096;128;256;2;3;18446744073709551615
32;512;4;16;15;315;193315112
512;4096;128;2;7;3;4658223
1;1;1;1;70;2;47869359852
1;4;1;2;5;182;11897803852
256;1;8;1;78;63;310083556
2;128;2;128;234;1;2393264444
256;4096;64;2;2;3;3629778
512;256;64;1;7;3;5536741
128;512;4;4;195;42;35253630
512;1;64;1;13;35;283830518
2048;32;1;16;15;105;48356000
8192;4096;64;1;2;3;3856297
2048;4096;64;1;2;3;3605777
512;4096;64;8;2;3;18446744073709551615
512;128;2;8;45;90;29864741
512;4096;64;1;1;1;5527259
512;1024;64;1;14;3;4905037
1024;4;16;2;91;15;26482074
128;1;64;1;21;315;2543788592
64;1;32;1;234;182;1218203111
64;4096;16;8;30;117;117852148
1;1;1;1;455;910;51153502371
4096;1;64;1;91;1;27459112
2048;2048;64;1;2;3;3584741
1024;4096;64;1;9;18;65448445
512;2048;64;1;6;13;23545333
64;512;4;8;117;5;30419556
512;8;64;1;2;3;10122371
512;4096;64;1;2;315;80784889
512;8;64;1;117;3;13953185
512;2048;64;1;2;9;18098814
512;2048;64;1;1;3;5303555
128;256;4;8;105;18;78448296
512;4096;64;1;13;3;4910074
512;1;128;1;2;3;77352296
512;16;8;16;70;42;30429778
512;32;8;8;126;30;104596445
512;64;8;8;105;35;62746667
512;32;16;16;126;30;90531407
512;8192;64;1;2;6;8394963
2;1024;1;2;910;390;3010717778
2;1024;1;64;3;130;130237482
64;64;1;1;9;546;250563555
8192;4096;16;1;630;105;67444445
512;4096;64;1;13;126;75331555
4;4096;1;1;234;3;579305334
512;1024;1;1;2;3;177424444
1024;2048;32;1;2;3;6078666
512;4096;64;1;6;2;5523852
512;2048;32;4;2;9;15099260
512;4096;64;1;9;5;7108592
512;1;64;1;9;3;97659703
256;1;64;1;2;7;149791556
512;4096;128;1;6;3;4624889
128;16;8;8;63;35;30335259
512;16;8;16;91;63;68305481
1024;4096;256;1;2;3;3856148
512;4096;16;1;2;3;11540296
2048;2;256;2;630;45;18446744073709551615
64;512;32;4;1;90;44597630
1024;8;1;2;117;7;102964741
128;4096;2;32;1638;18;74427408
512;4096;1;1;7;3;180116593
512;4096;64;1;2;105;56529185
512;4096;64;16;126;3;18446744073709551615
4096;1;64;1;2;3;13436889
512;4;8;1;45;42;81197777
512;4096;64;2;2;5;5209926
512;4096;64;1;2;6;13392593
512;4096;128;1;2;1;11130074
128;4096;64;2;2;1;11269185
512;1024;64;1;1;3;8696000
512;4096;16;1;2;7;21388445
512;8192;32;2;2;3;7342963
512;4096;32;4;7;3;8294963
2048;8192;64;2;2;3;7989037
256;1;128;1;1;6;154294815
128;8192;64;1;2;3;3991112
512;4096;32;1;7;3;5923408
512;4096;64;1;1;13;21334074
512;2048;64;2;2;2;4201926
256;8192;64;1;5;3;5237926
512;512;64;1;2;14;29714371
1024;512;64;1;2;3;4099407
256;4096;64;1;1;3;4441778
512;8192;32;1;9;3;5815556
512;4096;64;1;2;9;13142815
1024;1024;32;4;2;18;55346667
256;4096;128;1;2;7;11285482
512;4096;64;1;1;2;4952000
256;2048;32;1;2;7;8089334
512;8;8;2;70;39;49934222
512;4;2;2;35;42;83094667
256;4096;128;1;6;2;6016741
512;1024;64;1;6;1;5514666
512;4096;64;1;13;1;5751407
512;8;4;1;63;39;96703851
512;4096;64;1;2;21;45825481
512;8;16;1;78;26;46407259
512;8;16;1;90;30;48655704
512;8;16;2;90;26;50744741
512;16;16;16;105;26;81414519
512;4096;64;4;2;3;3611111
512;4096;64;32;1365;3;18446744073709551615
32;4096;2;1;2;3;88070222
512;4096;1;1;2;117;200937037
512;1;1;1;7;4095;26294022518
1;512;1;32;1170;21;7055152889
1;512;1;2;15;3;220401037
16;4;2;4;1;1;1126221481
512;4096;1;1;2;3;180772444
512;4096;64;1;1170;3;15466667
512;8;16;1;91;35;37909926
512;16;16;16;117;21;79648445
4096;4096;64;1;2;117;85216296
512;4096;64;1;2;91;71161778
512;2;16;1;78;26;85351260
128;4096;32;1;2;9;14697778
4096;4096;64;1;1;14;29457926
512;4096;128;1;1;3;4446963
2048;1;64;1;5;7;30220000
1024;2048;256;1;117;130;85676889
2048;16;256;2;14;315;18446744073709551615
64;1;4;1;39;3;759186815
64;8;64;8;30;5;18446744073709551615
8192;64;32;2;3;35;58822371
1;16;1;16;1;8190;2663193630
256;32;64;4;15;91;53907556
512;1024;1;256;1170;3;83664889
128;64;8;4;78;105;40325185
128;2048;4;4;117;45;37410074
512;4;64;1;585;3;30923407
8;4096;4;1;2;3;44835704
1;4096;1;1;2;3;177456445
8192;4096;64;1;2;819;83752444
1;256;1;64;1;91;344998963
1024;4;16;2;5;182;328469333
256;256;1;8;78;63;39515111
256;8;32;8;195;1;59908889
512;4096;64;16;2;273;18446744073709551615
512;4;4;1;2;3;51576148
512;4096;64;1;2;3;3560889
16;64;2;1;21;90;162306519
128;16;32;4;234;182;124612593
64;4096;16;8;30;1;26919704
1;1;1;1;1;910;50672361037
512;4096;32;128;2;3;18446744073709551615
512;4096;2;1;2;3;90488000
2;8;1;2;1638;390;5403561333
8192;1024;16;8;90;1;10273186
256;64;64;1;9;546;85756148
256;4096;16;1;630;65;56213630
512;4096;64;128;2;6;18446744073709551615
2;4096;1;1;2;3;176623703
2048;2048;256;1;630;7;10846370
64;512;32;16;234;90;18446744073709551615
8192;32;1;32;117;7;96950074
2048;4096;1;1;1638;18;193551556
4096;4096;64;256;2;3;18446744073709551615
512;4096;16;1;630;3;24957185
512;128;1;16;7;15;44364593
1;1;1;1;234;21;46738492741
256;512;2;1;1;3;87596888
16;512;2;1;1;1;156939408
512;1;64;1;2;3;72154370
512;4096;64;1;819;3;10839852
1024;2048;32;1;117;42;29008889
4;8192;4;64;14;2;115722963
512;8192;4;4;13;3;12101185
32;8;1;8;45;45;167066074
512;4096;64;1;2;35;33390074
512;4096;64;1;35;3;7289778
512;4096;64;64;2;13;18446744073709551615
512;1;64;1;70;3;106967704
1024;64;16;1;3;45;27607407
4096;1;8;1;1;35;170467259
256;32;64;4;1;91;42409037
512;1024;1;256;15;3;357268000
32;4096;4;1;2;3;44585482
512;4096;1;1;2;1638;300516149
512;4096;64;32;2;234;18446744073709551615
128;64;8;4;45;105;39163407
64;2048;4;4;117;1;98455407
2;256;2;64;117;91;614113037
1024;4;16;2;195;182;342182667
512;32;64;1;2;3;4524740
512;32;64;1;2;35;46907852
256;32;64;8;315;63;18446744073709551615
2048;2;32;1;195;1;26359852
16;32;2;1;10;90;159815852
2048;128;32;4;234;182;106888888
512;4096;64;1;30;63;53178222
512;4096;64;64;2;3;18446744073709551615
2;4096;2;1;2;3;89279555
64;4096;16;8;30;455;170549926
1;1;1;1;1;630;50702768297
2;8192;1;1;910;390;2982124148
8192;4;16;1;90;1;32214518
1024;4096;8;1;2;3;23219259
512;256;64;1;2;3;4511851
512;4096;64;1;2;45;40696000
64;64;32;1;5;546;70183260
256;1024;16;32;630;2;18446744073709551615
2048;1;256;1;630;7;37805630
64;512;4;4;9;90;40853333
512;4096;64;1;1365;3;17773185
512;2;64;1;2;3;36177185
512;128;64;1;2;3;4490815
512;4096;128;1;3;3;4028593
1024;4096;64;1;2;2;4177926
512;2048;64;1;2;10;13644000
512;4096;64;1;3;1;5777778
512;8192;64;1;2;13;21142667
512;512;1;1;2;585;222336297
512;8192;64;1;2;30;34781185
512;256;128;1;2;3;4417185
256;2048;64;2;1;7;7572889
512;4096;64;1;5;5;6759407
512;1;64;1;6;6;80286371
512;8192;32;1;2;3;12900445
512;2048;16;1;2;3;22117333
512;4096;64;1;2;15;33347555
2;32;2;32;117;195;1445863260
8;4096;2;32;1638;18;996619260
128;128;2;128;7;15;192383704
1;32;1;32;1;1;2003610815
256;4096;1;1;1;63;224557630
16;512;16;1;1;1;26471408
1024;4096;32;1;1;1;9393185
4;8192;4;64;234;2;619744592
512;1;64;1;2;13;130866963
256;4096;64;1;5;6;8873482
2048;8192;64;1;2;3;3845778
512;4096;64;1;2;10;13238519
256;4096;64;1;3;7;9277926
256;4096;64;1;5;3;5325185
2048;8192;32;1;2;3;6668889
512;1;64;1;3;3;76535555
512;1;4;1;13;7;93673185
32;8;4;8;45;42;187298519
1024;64;8;1;3;45;30808889
4096;1;8;1;1;1;53654074
2048;4096;2;1;5;3;94744593
512;4096;64;1;65;3;6672889
32;4096;1;1;2;234;199854963
256;4096;128;1;2;5;5174222
1024;4096;32;1;2;7;7181333
512;8192;64;1;1;3;4146815
256;32;64;1;1;91;49658815
512;1024;1;256;1170;1;233790518
1;64;1;4;45;1;1505691556
4096;4096;64;2;2;35;33331556
128;4096;64;1;2;9;21896445
512;4096;64;1;2;630;72874074
2048;4096;64;1;2;1;5457334
256;4096;64;1;2;6;8429333
512;1024;32;1;5;3;5905038
1024;4096;64;1;1;3;4186666
512;4096;64;4;2;117;84680593
256;4;64;2;2;3;36628889
128;2048;4;2;1;45;29144741
1;256;1;64;126;390;1475516445
1024;4;64;2;10;182;385529334
256;256;1;1;78;63;233062666
8192;512;32;1;910;1;19341186
512;4096;64;1;126;3;7297186
32;32;2;1;10;234;212215556
512;8192;16;2;2;3;6034815
256;4096;64;1;6;5;7737334
512;128;32;4;3;182;92069630
64;4096;16;8;1;1;9257630
1;32;1;1;1;910;1583640889
2;8192;1;1;4095;26;11526005482
8192;1024;4;2;90;70;38039111
64;64;32;1;5;63;37492297
512;4096;32;1;2;5;6491555
2048;4096;64;1;10;3;4859111
512;4096;64;1;7;5;7048000
8192;4096;64;256;2;3;18446744073709551615
512;4096;64;16;2;3;18446744073709551615
256;1;32;1;2;3;129977185
256;8192;64;1;2;3;3576592
512;4096;32;1;5;3;5900445
256;512;16;1;21;65;45363407
1;2048;1;1;1;630;219587259
64;512;4;1;9;90;77506519
8192;32;1;32;1;7;31310222
1;4096;1;32;1638;18;7809942223
1;128;1;16;7;130;533303556
64;1024;4;32;1;1;25788296
256;1024;128;1;3;3;3785629
512;4096;1;1;2;182;207946519
512;4096;8;1;2;234;46781185
512;4096;32;1;2;130;66416297
1;4096;1;1;2;3;177450963
512;512;64;16;2;182;18446744073709551615
512;4096;64;2;7;3;4905630
2048;512;1;1;1;1;301212741
1024;4096;32;1;1;35;17489629
1;4;1;1;234;70;10208498815
512;4096;128;1;2;6;7683555
32;8192;4;4;13;13;69195259
32;8;1;1;45;26;290050963
512;1024;64;4;910;3;12145778
512;2048;16;16;630;3;8620296
2048;64;1;1;1;45;216063703
1;1;1;1;70;1638;52230269777
256;32;2;1;1;1;156921037
512;128;1;1;1170;3;268508296
64;4096;64;1;7;3;7743852
512;2048;128;1;2;3;3879408
256;4096;64;1;2;9;16121926
1024;4096;256;1;6;3;4396000
128;64;64;1;45;1;19459111
16;2048;4;4;1;1;27346815
1;4096;1;1;2;3;177488296
4;4096;2;1;8190;3;12291218815
32;256;16;64;15;91;18446744073709551615
2;4096;1;2;5;182;124887111
1;256;1;8;78;14;381103259
8192;16;32;1;910;234;248696889
256;4096;64;1;1;7;7454815
64;4096;1;1;2;3;176261926
16;32;16;1;10;18;210845185
512;8192;32;4;3;455;123718815
512;4096;64;1;2;1170;108167556
64;1;16;1;1;1;1070543407
512;4096;64;1;2;1365;125309037
512;4096;64;1;234;3;8156444
128;32;4;1;1;910;859949925
2;8192;1;1;910;1;5980697038
8;1024;1;8;90;42;68867556
64;64;32;1;18;10;32549630
256;512;16;1;1;65;95039852
512;128;1;1;1638;3;269484889
16;64;8;1;630;7;168548444
