GLOBAL_SIZE_0;GLOBAL_SIZE_1;LOCAL_SIZE_0;LOCAL_SIZE_1;cost
4;8;2;1;1436597989
16;8;1;1;716799103
1;1;1;1;27640821333
32;64;32;8;573014482
1;64;1;16;1344510251
256;64;32;1;492451926
128;128;1;1;242474710
32;128;16;8;538790644
128;128;1;128;1586971215
128;8;1;1;638667628
128;1;1;1;673242641
128;64;128;1;510980509
1;2;1;2;13531828020
1;16;1;8;1934145920
128;128;4;128;18446744073709551615
128;128;2;1;291312583
128;64;1;2;320116095
128;1;4;1;648251480
16;32;8;1;845158500
8;64;4;1;884210751
8;4;2;1;1407352625
32;16;16;1;807962106
2;4;1;1;3325274804
128;1;2;1;694228402
256;8;64;4;595492588
1;128;1;8;905261159
16;8;16;2;732173738
2;2;2;1;6676273360
128;32;8;8;557930520
128;128;1;32;773914347
128;128;1;2;271726010
128;128;1;8;479312436
128;128;2;1;292925250
256;128;2;128;834651993
1;128;1;1;714843809
32;1;1;1;1407698418
128;2;2;2;720384543
4;4;2;2;1679996861
64;8;4;1;749247979
1;8;1;4;3321161293
16;128;1;1;254390466
256;128;1;1;242081711
128;128;8;1;480208894
256;2;32;2;631541471
256;128;1;8;414348472
256;128;64;128;18446744073709551615
64;128;1;1;244602258
8;16;1;8;745625100
256;1;1;1;407606343
32;128;1;1;248315708
1;128;1;1;708369310
2;128;1;2;1047169085
256;128;1;32;492898179
256;4;1;4;983349879
2;8;1;1;1731192084
256;1;1;1;416444426
256;256;1;256;1482171015
1;256;1;8;1246211677
256;256;2;16;333347181
256;128;8;32;430789126
128;4;2;2;657323390
256;256;2;256;18446744073709551615
256;128;2;1;276026087
256;32;1;4;510167885
1;128;1;128;1707893184
256;64;1;1;245877341
256;128;1;2;241240050
256;128;1;128;1295204547
256;64;1;4;460135504
256;1;1;1;382086256
64;128;1;2;305689178
256;128;2;2;390029090
256;64;2;4;445694475
1;32;1;8;1442585255
256;64;2;2;441480502
256;256;1;1;238868837
1;256;1;1;720107267
1;256;1;256;1708306205
64;1;1;1;1362635285
256;256;2;1;253282294
256;1;1;1;433369627
1;256;1;128;1710792690
256;1;2;1;633960429
256;64;1;2;277191756
128;256;2;128;783166695
256;256;4;1;419278014
256;1;2;1;632905008
1;256;1;1;721164133
128;1;1;1;672735067
128;256;1;1;237971044
32;256;1;1;244704132
128;1;2;1;653712342
128;1;1;1;646573377
64;1;2;1;1169357736
64;256;1;1;241250043
64;256;4;1;482228916
128;256;2;1;271467467
1;1;1;1;27640894610
128;256;1;128;1252549156
32;256;2;1;300176462
128;256;1;256;1831241424
64;1;1;1;1395825843
64;256;2;1;286147470
32;256;1;64;1349088477
64;256;1;64;1018459595
128;256;4;1;441261967
64;256;1;256;1669991903
64;256;1;128;1428314428
32;1;1;1;1365233045
64;128;2;2;477876637
32;128;1;2;323887583
128;256;2;256;18446744073709551615
128;64;2;4;489203584
16;64;1;4;640354421
128;128;2;2;439951182
128;64;1;4;518794847
32;1;2;1;1393680097
128;256;1;64;720851835
128;1;2;1;683415735
32;256;1;256;1938623549
64;64;1;4;551422592
128;32;1;8;812200344
128;32;1;4;558174965
16;256;2;256;18446744073709551615
128;64;1;1;246799503
128;1;1;1;663311140
64;256;2;256;18446744073709551615
256;256;1;128;821856525
128;1;4;1;664899875
1;256;1;256;1707883642
128;64;8;16;514613131
1;1;1;1;27640674610
1;256;1;1;719575756
16;256;1;1;249103051
128;256;1;8;406984710
2;256;2;4;1373518042
4;1;1;1;6833717986
1;2;1;1;13537956189
1;16;1;1;1947640211
128;4;4;2;667130805
128;256;4;256;18446744073709551615
1;256;1;256;1708659238
1;128;1;2;903341180
64;256;2;128;895597463
16;1;4;1;1731995481
128;128;4;2;473580752
1;128;1;2;907826639
1;2;1;2;13531159210
128;128;2;128;963735094
128;1;2;1;653446375
128;128;1;64;1239766341
1;64;1;4;1341134669
256;4;4;4;930364152
256;32;32;32;18446744073709551615
128;16;8;2;581652796
128;8;4;2;621703845
64;32;16;32;18446744073709551615
32;256;4;1;504260087
128;128;1;4;450868432
64;1;16;1;1170805697
16;1;2;1;1835197334
32;256;2;32;726079842
4;64;2;16;969955625
128;128;2;2;435529345
128;1;1;1;667764347
128;256;2;32;408944762
128;256;1;2;242179797
128;64;1;64;1500878895
1;256;1;1;722455845
16;2;4;2;1393512682
128;256;2;1;272357879
2;256;1;1;292016879
64;32;1;8;895145390
128;256;128;1;447438085
128;64;64;4;525123465
128;256;64;1;441961183
256;256;64;1;415891257
128;256;1;4;388890933
128;256;1;1;238491298
128;256;16;256;18446744073709551615
128;256;32;1;442331755
128;4;1;1;759024209
128;16;1;16;1438451357
128;2;1;2;695758086
128;256;1;32;498563334
1;1;1;1;27640980917
4;32;4;2;764572647
1;128;1;4;903721786
128;4;128;1;706076059
128;256;8;1;442609267
64;1;4;1;1191602289
128;1;4;1;689884275
64;1;4;1;1163158951
128;1;4;1;641860273
16;1;1;1;1777269569
64;128;4;2;495586545
32;128;2;2;517798335
8;256;1;1;252688586
128;256;1;1;237933502
128;256;8;2;441787768
16;256;1;1;248621501
32;2;1;1;1443276574
128;256;128;1;443687181
128;256;32;1;441245792
32;256;1;1;244445005
128;256;64;1;447685333
128;8;1;1;652434764
128;32;1;1;292767837
64;256;1;2;266750083
128;256;2;1;272123842
1;128;1;1;706656841
256;256;4;1;418390304
1;32;1;32;1395800492
256;256;1;1;239081756
128;128;1;2;272036761
128;1;1;1;656308709
64;128;1;4;487672726
256;128;1;1;242066629
64;256;1;1;240534675
256;32;4;32;674953335
128;1;1;1;672313100
128;256;2;1;272365467
2;256;1;1;300590376
256;256;2;1;254186214
128;256;2;2;390436432
64;128;2;2;477930552
64;1;1;1;1393268142
128;128;1;1;242593296
32;32;1;32;1420838502
128;64;1;1;247291375
128;256;4;2;421044673
1;256;1;1;720647513
128;2;8;1;764250678
128;256;16;1;441085168
1;32;1;32;1419453280
64;32;4;32;1050440865
1;8;1;1;3321413080
1;128;1;128;1705854083
64;128;1;1;244802633
64;64;1;1;250119583
128;128;2;1;291391959
256;128;2;1;274675169
1;32;1;32;1409334352
32;1;1;1;1398497833
128;256;2;4;384849132
1;256;1;1;720464750
8;64;1;1;328072259
128;32;4;32;889747468
1;1;1;1;27640875125
1;32;1;8;1424325222
8;64;2;1;723103105
2;1;2;1;13608067442
128;1;2;1;669788929
8;256;1;1;253274545
256;256;1;2;209648758
256;256;2;2;343370344
256;256;1;4;328333633
256;256;4;2;371383761
1;64;1;2;1342713616
256;1;1;1;420992880
256;128;1;2;241187254
256;256;1;16;394268343
256;1;1;1;377536292
1;256;1;2;1244747344
1;128;1;2;905603917
1;8;1;8;3321450724
1;8;1;1;3321765080
128;2;8;1;764090525
128;32;1;8;788998487
256;64;1;2;277201711
256;1;1;1;444204638
128;2;16;2;732004479
4;256;2;2;925012314
64;8;16;1;790304193
1;8;1;2;3320750918
256;128;2;2;390703797
1;256;1;4;1243780405
256;128;1;4;391751594
1;1;1;1;27640463235
256;256;2;8;336124633
256;128;1;16;449271626
128;16;2;2;579159630
64;256;4;4;471164936
128;256;4;4;412175505
256;64;1;8;484404976
4;1;2;1;6843327666
1;2;1;1;13538331125
1;1;1;1;27640526402
64;1;4;1;1155842779
16;1;4;1;1699980875
32;256;2;8;485741016
4;64;1;64;962076222
1;64;1;16;1341528170
32;256;1;2;281875258
256;128;8;2;440783417
256;8;1;2;838687186
256;256;32;2;418909140
64;256;2;2;430053058
256;64;32;32;18446744073709551615
128;128;1;16;539190269
128;8;2;1;825786641
4;2;1;2;3362397803
256;1;2;1;633824358
256;256;1;8;348502757
256;1;1;1;431908131
16;256;1;2;311432632
4;256;1;2;555818315
256;128;256;2;18446744073709551615
2;256;1;2;775047896
256;256;64;2;417051295
256;256;16;2;409782847
256;8;1;1;459449222
256;256;256;2;18446744073709551615
1;256;1;32;1246289091
8;256;8;2;580804022
256;256;1;64;470348003
2;256;2;32;1375582641
256;256;8;2;384732930
256;16;1;2;563852271
256;32;1;2;335391969
256;32;4;2;504082545
256;256;32;16;18446744073709551615
256;1;8;1;634270464
16;1;4;1;1717084613
256;4;1;2;1026981339
256;16;1;1;300015254
1;1;1;1;27640190500
1;128;1;16;904267436
128;16;1;1;426458334
1;32;1;1;1407443220
32;256;2;2;468651754
256;256;1;32;410347929
8;64;2;1;703997066
2;1;1;1;13621139895
1;1;1;1;27640790417
16;8;1;2;718229102
256;256;128;2;409600301
2;256;1;2;750196385
256;32;1;2;338096501
1;2;1;2;13531329939
256;32;8;8;519583548
1;2;1;2;13531541064
4;1;1;1;6846708632
4;8;4;1;1407089128
1;64;1;8;1342124551
1;256;1;16;1243428581
256;64;8;16;489692765
2;16;1;2;1452795591
8;256;4;2;583453018
128;4;1;2;1015205782
256;2;1;2;733251317
256;32;1;2;339662425
256;256;128;8;18446744073709551615
8;256;1;2;339004252
8;128;1;2;455930307
256;256;1;2;209405670
256;4;1;4;995397542
8;256;2;128;1091986777
256;1;1;1;413874085
256;256;1;4;329918253
128;256;2;2;387654674
1;256;1;1;717722846
256;4;1;2;1056208173
256;256;1;1;238769377
16;256;16;2;527543294
256;128;1;2;241547298
256;4;1;1;697410793
1;256;1;2;1244148167
256;8;1;2;828353190
256;256;1;64;465493430
256;256;1;128;820071232
256;256;1;32;406998917
256;1;1;1;402136424
256;256;8;32;354940173
256;64;1;2;277495375
4;64;1;2;962442598
256;8;1;2;865080260
256;256;1;256;1482513835
256;256;128;32;18446744073709551615
256;256;1;1;238992087
32;256;8;1;511243186
256;16;1;2;556727009
8;256;2;2;582333761
2;256;2;2;1380406514
8;256;2;1;326568546
256;32;16;2;519191676
256;256;1;8;349015091
32;64;1;2;531050336
256;4;32;2;646470560
256;8;1;2;816085068
256;32;1;32;1293168484
256;8;16;2;588938971
1;256;1;8;1244872178
256;4;8;2;673664725
128;256;128;2;441438592
256;32;32;2;519261926
256;16;1;4;575922016
256;4;2;2;957446498
64;256;4;2;458799799
256;128;32;64;18446744073709551615
32;1;32;1;1398778800
256;16;256;2;18446744073709551615
256;256;256;256;18446744073709551615
256;256;1;16;394255467
16;256;8;2;529275639
256;256;8;256;18446744073709551615
256;1;1;1;397484598
8;256;1;2;337692053
256;8;1;1;491449265
64;1;4;1;1176690069
1;256;1;2;1244448043
256;1;16;1;637014379
256;1;32;1;623360228
4;256;1;2;569790605
32;256;8;2;490390558
256;1;1;1;434482254
256;64;2;2;440608931
4;256;1;128;1244723883
256;16;1;8;833160152
2;256;1;2;753586801
1;256;1;2;1245678009
256;2;32;2;638124929
256;4;256;2;18446744073709551615
256;128;8;2;447799890
256;1;1;1;410316963
32;1;8;1;1408713382
256;2;1;2;744127683
8;2;2;2;1792887341
32;8;8;2;790340635
256;8;1;1;460161140
256;16;2;2;538635808
256;1;1;1;372652917
128;16;2;4;709115445
64;1;4;1;1184665489
4;1;1;1;6837211653
64;16;4;2;630959671
256;16;1;1;285547554
256;128;1;8;416191795
4;2;1;2;3362266352
2;256;2;16;1381851971
1;4;1;2;6722997560
2;1;1;1;13620651719
64;8;4;2;876087145
128;1;1;1;669737933
1;1;1;1;27640752959
1;256;1;1;722998710
32;128;8;8;552225503
64;64;8;4;550407048
256;1;1;1;358104333
1;1;1;1;27640152527
256;8;32;4;587121307
256;1;128;1;675695583
128;256;1;2;240931959
4;32;4;16;760398585
8;1;2;1;3398244576
1;128;1;8;905978953
4;64;2;1;973415798
256;256;256;8;18446744073709551615
256;128;1;1;241993920
1;256;1;2;1245425354
1;256;1;2;1242673689
256;1;256;1;673291167
256;256;256;1;413239758
1;2;1;1;13538181836
1;1;1;1;27640764152
4;128;1;1;280283545
128;1;1;1;674447835
1;256;1;4;1244997612
256;128;1;4;391248341
256;1;256;1;676706504
16;32;1;1;490886560
1;1;1;1;27640291694
4;1;2;1;6847230321
1;128;1;128;1709133044
256;2;16;2;633261768
1;64;1;2;1336500959
1;1;1;1;27640573943
128;256;2;16;384070089
2;256;2;1;756685761
64;8;32;2;869911404
1;1;1;1;27640589985
2;128;2;8;1044217785
1;2;1;1;13538291022
4;256;2;16;1020738295
64;8;32;1;807662835
2;64;2;8;803441209
256;256;2;64;376954212
1;128;1;32;905827821
128;16;8;1;579610677
16;256;4;4;516525391
4;1;1;1;6840618333
1;2;1;2;13531772167
2;1;1;1;13620580458
1;1;1;1;27640282526
256;1;1;1;403588005
1;8;1;2;3320448138
1;1;1;1;27640642985
32;1;1;1;1381394401
16;64;8;4;628109057
4;32;1;1;654953395
256;64;1;1;245742091
1;1;1;1;27641102833
128;64;128;16;18446744073709551615
256;1;64;1;614004631
4;256;1;4;925871258
256;256;32;128;18446744073709551615
256;64;1;8;488889393
8;2;1;2;1714994756
1;1;1;1;27640656401
4;128;1;1;294884718
256;64;1;1;245965800
256;256;16;128;18446744073709551615
1;8;1;2;3321264915
1;256;1;2;1243954024
256;256;64;8;18446744073709551615
1;2;1;2;13531343228
32;64;8;2;567018260
1;2;1;2;13530328875
4;2;1;1;3363105030
256;256;4;256;18446744073709551615
1;256;1;2;1245542344
256;4;1;2;1014845338
128;256;32;2;449724102
256;256;256;16;18446744073709551615
256;256;64;32;18446744073709551615
256;64;1;32;841676965
256;2;128;2;666215084
4;128;1;2;721647885
4;8;1;2;1405863367
256;64;128;2;495856390
256;256;128;128;18446744073709551615
256;64;1;2;278472758
256;256;128;16;18446744073709551615
64;8;2;2;877528376
1;256;1;2;1241679322
64;32;2;2;572047803
8;256;2;256;18446744073709551615
256;16;4;2;548613674
16;256;16;2;525125837
1;256;1;1;722624097
256;256;32;32;18446744073709551615
8;256;1;2;331760805
2;256;2;2;1381896346
2;1;2;1;13608059384
1;16;1;2;1922603144
256;256;2;4;335510128
128;256;16;2;447780886
256;256;128;256;18446744073709551615
16;16;16;16;705741980
256;256;32;4;424517681
256;256;64;256;18446744073709551615
256;256;8;64;18446744073709551615
2;256;2;256;18446744073709551615
64;256;4;1;476090227
256;64;64;2;493696670
128;1;2;1;661012761
256;1;4;1;617665677
128;64;2;1;316093084
256;2;1;2;753234321
64;256;1;32;720294357
1;128;1;64;905667108
8;2;2;1;1719635326
1;1;1;1;27640691818
4;128;1;1;286623672
4;64;1;2;957933200
1;4;1;1;6723255072
256;32;8;1;518853007
128;4;2;2;703527465
4;256;1;16;1096435759
256;4;1;1;717767734
64;256;16;2;483489306
16;32;16;2;853582612
4;4;1;2;1803782175
8;16;2;2;753188003
1;256;1;2;1247059551
32;256;8;4;492104336
256;32;2;2;489110684
256;256;16;64;18446744073709551615
128;128;2;2;436819050
64;128;4;2;502631961
256;64;256;1;494647631
256;256;256;4;18446744073709551615
128;64;2;2;491165927
256;128;1;1;242375251
256;1;1;1;401381759
2;2;2;2;6676750638
4;256;2;256;18446744073709551615
64;1;4;1;1170075043
1;32;1;8;1420946011
64;256;1;16;531069293
1;128;1;16;904224988
128;1;2;1;662123793
64;256;4;1;475307334
4;1;1;1;6842117875
1;2;1;2;13530859564
2;16;1;4;1447152688
1;8;1;2;3320724848
256;32;1;2;337710922
128;16;1;16;1431583060
8;256;2;8;581507430
64;64;8;1;549874179
256;32;64;1;526320842
1;128;1;128;1706813640
128;16;1;8;1048718567
8;64;8;8;883053566
1;2;1;2;13530159522
32;1;1;1;1398118301
4;128;1;8;1217311493
128;64;1;32;1253953774
16;256;8;2;523790923
4;32;4;1;738515546
1;128;1;2;906152901
2;1;2;1;13608149125
2;128;1;8;1029496325
1;8;1;2;3320217489
2;1;1;1;13620752067
256;32;1;1;257447843
1;2;1;2;13531071311
4;128;2;2;1121664168
64;32;4;16;988810251
2;64;2;1;808339800
256;1;2;1;641980472
8;128;2;32;872830073
128;16;32;1;578506471
128;256;2;4;386133418
4;8;1;2;1400255908
128;1;2;1;671250056
128;256;2;32;407960552
32;128;8;2;526844267
1;2;1;2;13531327961
1;1;1;1;27640583360
128;8;2;2;644163805
4;16;1;16;1296050381
1;256;1;4;1249526605
32;256;8;32;541223097
32;256;8;8;502664144
64;1;8;1;1174438545
256;1;64;1;600631591
8;64;4;4;903029883
16;16;16;2;819864280
1;256;1;8;1248474323
16;256;16;4;524999498
4;1;1;1;6846747321
128;128;64;1;480271468
128;128;128;1;478508424
1;2;1;2;13531367688
8;1;1;1;3399622625
8;256;2;1;327635221
256;2;1;1;584433268
128;16;64;1;578316849
16;32;1;8;1016524869
8;1;2;1;3404886033
2;1;2;1;13608301250
1;128;1;2;902712861
16;8;16;1;736008280
1;32;1;8;1401860716
256;4;64;2;630814714
256;1;128;1;672780015
256;1;128;1;673622317
1;1;1;1;27641010443
1;32;1;8;1449797339
1;2;1;2;13531748792
4;256;2;32;1122496314
64;256;4;16;487429017
256;32;1;8;624274093
64;64;8;2;532980308
8;8;2;2;1303898505
32;8;2;1;786480974
256;8;8;2;592005716
256;64;256;2;18446744073709551615
128;16;2;1;611325844
64;256;8;4;473435101
4;1;1;1;6835608000
1;2;1;1;13538815292
2;1;1;1;13620966734
128;32;2;8;677761500
128;8;128;8;18446744073709551615
32;32;2;8;944154761
64;64;64;1;543301720
256;256;128;4;18446744073709551615
2;32;1;1;1340469848
1;256;1;128;1709504224
1;64;1;64;1332732833
2;128;2;1;1020903008
1;2;1;2;13531912252
32;1;1;1;1428942655
1;1;1;1;27640680402
128;8;1;2;943563181
64;256;2;2;427600255
128;256;2;8;383206292
1;8;1;1;3321966707
8;64;2;1;723231727
256;1;1;1;399216058
4;128;1;1;297366551
1;128;1;2;904217718
128;8;1;2;969165294
8;2;8;2;1743289206
1;32;1;8;1436865492
4;2;4;2;3360873030
4;64;2;2;942059478
64;1;64;1;1181236189
64;64;16;2;540040304
128;256;8;16;417767875
128;8;8;2;619035961
2;16;2;1;1452052216
128;256;32;4;451893557
4;8;1;1;1454273886
1;1;1;1;27640587625
2;256;1;128;1670709389
1;8;1;2;3320339540
128;8;1;1;619633683
32;1;2;1;1379206973
64;1;64;1;1200608317
256;1;64;1;609004678
1;64;1;1;1376884677
128;128;4;1;489490877
128;64;16;1;510675303
256;2;128;2;650123798
16;2;1;1;1399023792
4;128;1;2;745524605
1;16;1;2;1875792000
4;32;1;1;654566901
8;1;2;1;3395826675
256;16;1;16;1260410286
16;128;16;1;559492098
16;1;1;1;1726511095
64;1;4;1;1176614084
256;2;1;1;559927086
1;64;1;8;1338176349
4;256;4;2;832462270
64;1;4;1;1176961485
64;1;8;1;1179767424
256;64;2;16;496926172
256;128;1;32;499216835
128;1;16;1;675015387
1;256;1;2;1242478426
256;8;1;1;468248883
128;32;1;2;501564417
256;16;128;2;556664520
8;1;2;1;3390371289
64;1;2;1;1169998265
128;256;2;64;564806933
4;8;1;2;1423902083
1;16;1;16;1910001042
1;1;1;1;27640812152
1;1;1;1;27641404042
128;1;1;1;648735140
32;256;2;1;300476842
64;2;64;1;757015482
256;1;32;1;608732508
256;128;64;4;448779766
256;64;1;4;463744801
32;32;1;4;907578264
128;128;2;1;291648052
256;2;1;1;571247720
1;2;1;2;13530810667
4;1;1;1;6846236070
4;128;2;1;729249527
128;16;32;1;580423186
16;1;1;1;1703443043
4;64;1;1;383445922
64;128;64;1;509658419
16;8;1;8;772507772
8;2;8;2;1738250962
256;2;1;2;732182083
32;32;8;16;897224265
256;2;128;2;644965801
16;256;16;16;527849136
8;256;2;16;773335772
8;32;8;8;858995464
256;256;2;32;331899180
64;1;8;1;1188912602
1;16;1;1;1914458473
128;256;128;128;18446744073709551615
4;128;4;2;1090280000
1;2;1;1;13537765586
128;1;64;1;664705378
1;8;1;2;3321054210
128;8;1;4;1079007926
32;256;2;64;798122316
64;64;64;32;18446744073709551615
256;256;16;32;18446744073709551615
256;32;64;2;524666792
32;64;8;4;568255885
1;4;1;2;6723306959
16;256;16;1;534772845
8;1;2;1;3374381485
256;8;4;2;590053052
1;256;1;64;1243337447
256;2;1;1;561545927
256;2;1;1;556007676
4;4;1;2;1839978799
1;256;1;2;1247107521
256;256;32;8;416177885
256;256;2;128;614312052
8;256;2;4;579206252
8;8;2;2;1310544455
32;256;8;256;18446744073709551615
256;64;4;2;469474308
64;256;32;2;479225389
256;256;8;16;350945013
32;256;1;2;282376176
32;32;8;2;628730397
1;256;1;128;1709405399
128;256;32;64;18446744073709551615
256;8;2;1;698317056
256;1;1;1;439059513
1;1;1;1;27640373401
1;256;1;2;1244224259
256;8;8;2;587673007
256;16;1;1;285939589
1;256;1;256;1707944971
256;4;1;4;1009613208
256;1;1;1;427573969
128;256;2;64;557355973
256;256;64;128;18446744073709551615
256;32;1;1;257087302
256;64;1;64;1175220105
256;256;256;128;18446744073709551615
256;8;256;2;18446744073709551615
8;256;4;2;585724104
32;128;1;4;520876837
32;64;8;1;571822803
128;128;32;2;487388935
128;128;2;64;802859443
128;128;1;2;272026383
1;2;1;2;13531896292
4;1;1;1;6842446625
4;32;1;1;656896292
128;2;1;1;613476467
16;32;1;16;1219108720
64;64;4;1;542554717
256;1;1;1;393590716
4;4;1;1;1798231334
256;32;256;1;518394501
1;128;1;8;904999814
64;8;1;2;890196977
64;2;1;2;722276378
1;128;1;1;709573277
128;2;128;2;677461337
4;256;4;1;823712468
8;256;8;1;579334228
64;64;8;16;560423422
2;256;2;32;1378768541
256;128;8;1;452312975
128;1;32;1;654032088
1;128;1;4;901349863
2;16;2;2;1442542471
16;256;4;2;524566263
32;32;2;2;636535045
16;128;16;2;557339333
4;1;4;1;6844228631
1;2;1;2;13530764292
1;1;1;1;27641240610
256;8;1;8;1016001179
