35622553abbd754935e35576576fb6667b70f7e0f61d39cc87345be8d01577cb.cl -> 325916886 (256;256;4;64;325916886)
e305dc8c106494363f61d906f829d3d5608c7cc1aa3aba22673f0667f61ca600.cl -> 209405670 (256;256;1;2;209405670)
a79f2f235e48f8172bbae1dce2b974c78ed0f95160e16895b29251c19f683984.cl -> 70310668 (256;256;8;2;4;8;70310668)
5968624e9fbb8733b8d8eaec3e412ad19e73877e43749f1368fc208df009e4b8.cl -> 70019918 (8;256;256;1;1;4;70019918)
