1e668e77b840aa9fa6c98c56a7c2b50c804b04b87dd797cd457ebb1bae95dc73.cl -> 6711040 (512;8192;32;4;6;91;6711040)
e43d66b78426a5e911e0f818e2395cc993e10eab30f60e15c1de54332734377c.cl -> 5581664 (256;8192;128;2;1;4095;5581664)
13bd7157213399b3e8f3a56f93303df8593ddf93be70fa9d3b826af43c65ec45.cl -> 3702016 (4096;8192;128;2;3702016)
56606dbe9003e1c33dc9235f5c029f72a167c147abae14580c8b8bf36b60f0ce.cl -> 3617568 (4096;4096;128;1;2;2;3617568)
