GLOBAL_SIZE_0;GLOBAL_SIZE_1;GLOBAL_SIZE_2;LOCAL_SIZE_0;LOCAL_SIZE_1;LOCAL_SIZE_2;cost
32;256;4;16;32;2;43070304
16;1;8;2;1;1;589518304
2;64;4;2;1;4;172071456
64;16;4;64;2;2;36971424
2;256;128;1;128;16;18446744073709551615
256;512;1;256;4;1;21654496
32;16;4;1;1;4;396729376
256;64;32;256;32;16;18446744073709551615
256;512;1;256;8;1;18446744073709551615
256;512;2;128;4;2;18898240
256;512;2;256;4;2;18446744073709551615
256;256;1;256;4;1;29587392
256;512;1;128;4;1;28473120
128;1;2;64;1;2;492030208
1;512;2;1;4;2;85442624
256;512;4;128;4;1;37641568
16;128;16;4;2;4;66148896
256;4;64;128;1;1;48284160
4;128;64;4;1;4;35981600
256;512;2;128;2;2;27481120
64;512;2;64;4;1;46833952
256;512;2;128;8;1;22264448
512;512;2;64;8;2;19663424
8;1;2;1;1;1;4495376576
256;1;32;4;1;8;125397184
16;4;32;8;1;1;79692736
1;64;4;1;8;2;416779776
256;16;2;128;4;2;38088096
512;512;2;128;4;2;19379424
256;512;2;1;128;2;586291552
8;64;8;8;4;4;32818848
256;256;2;128;4;2;20985536
512;256;2;128;4;1;24205120
1;4;1;1;2;1;16547954752
1;128;64;1;32;2;340266976
1;2;16;1;1;2;2073281376
2;256;64;1;128;8;348369728
128;16;4;64;16;4;18446744073709551615
256;512;2;128;4;1;35248736
256;512;2;128;16;1;18446744073709551615
256;512;2;128;1;2;36825376
64;256;4;64;64;4;18446744073709551615
32;256;8;32;32;4;18446744073709551615
256;64;8;256;64;2;18446744073709551615
64;256;4;32;64;2;18446744073709551615
256;512;2;128;4;1;34957216
2;512;2;1;4;2;98656960
256;512;2;256;4;1;24861312
256;512;2;128;4;2;19029632
256;256;1;128;16;1;18446744073709551615
256;256;2;128;8;2;18446744073709551615
256;128;2;128;4;2;25136544
1;128;128;1;4;1;91655168
256;32;8;128;1;1;50199584
16;32;1;1;16;1;251700992
16;128;16;16;2;4;33229312
128;128;2;128;64;2;18446744073709551615
32;512;16;32;32;8;18446744073709551615
256;512;2;128;4;1;35211008
256;512;4;128;4;2;22466752
512;512;2;64;4;1;19521248
256;512;2;128;8;2;18446744073709551615
256;64;1;256;32;1;18446744073709551615
1;256;256;1;2;1;166057280
8;512;2;2;4;2;60114432
32;64;32;8;2;16;73908224
128;128;2;128;32;2;18446744073709551615
2;512;2;2;4;2;54312128
256;512;2;8;4;2;73930432
128;1;16;128;1;16;18446744073709551615
32;2;1;2;1;1;1312651872
256;2;32;1;1;8;433325280
64;512;2;2;1;2;126418336
128;512;8;128;32;8;18446744073709551615
128;512;1;64;4;1;45213280
256;512;2;256;16;2;18446744073709551615
256;256;2;128;16;2;18446744073709551615
128;64;1;128;32;1;18446744073709551615
128;512;2;128;4;2;21014176
256;2;2;128;1;1;162565536
16;512;2;4;4;2;72388128
256;512;4;128;4;1;37680160
256;512;2;64;2;2;34657856
256;1;2;128;1;2;324482912
1;512;2;1;16;2;148528224
2;4;256;2;1;1;173938784
16;1;512;8;1;4;58784352
1;256;32;1;16;2;225759840
1;4;4;1;4;2;5258655840
256;512;2;1;4;2;84253216
256;2;2;128;1;2;161059808
256;1;2;64;1;2;323991648
256;512;32;128;4;2;18533600
256;512;32;128;4;8;18446744073709551615
256;512;32;128;4;1;23591008
256;512;32;1;4;2;81870880
256;128;1;128;4;1;44076064
256;1;32;128;1;2;31645728
256;512;2;128;16;2;18446744073709551615
4;512;32;2;64;2;166359264
256;512;1;128;4;1;28328768
256;256;32;128;4;2;20267456
256;512;32;2;4;2;44486912
256;1;512;128;1;2;34671392
256;2;32;128;1;2;45140800
256;1;32;128;1;2;31491392
16;512;32;4;4;2;68134368
256;512;512;128;256;2;18446744073709551615
256;512;32;128;16;1;18446744073709551615
256;512;32;128;1;2;17026752
256;512;32;128;128;32;18446744073709551615
1;512;32;1;4;2;59683712
256;1;32;128;1;2;31540384
256;512;32;128;64;2;18446744073709551615
256;8;32;128;4;2;26841376
256;512;1;128;1;1;42002976
256;512;1;128;8;1;19016416
256;512;32;2;1;2;136265568
256;512;1;128;64;1;18446744073709551615
256;512;32;128;32;2;18446744073709551615
256;512;32;128;1;1;24281280
4;512;32;2;1;2;100752800
256;64;4;2;8;2;207398560
256;512;32;4;1;32;126140128
256;512;32;2;1;2;136213088
256;128;32;128;4;2;21624512
256;512;32;128;1;2;16996160
256;512;32;128;1;1;24175264
256;1;32;128;1;2;30970368
256;512;16;128;1;2;24436288
256;512;32;128;1;2;17069632
256;512;32;128;1;4;15696608
256;512;4;128;1;4;31953120
256;512;32;2;1;4;73859232
256;512;32;128;4;4;18446744073709551615
1;512;32;1;1;4;92221344
32;512;32;2;1;4;59700000
256;8;32;128;1;4;43492736
4;512;32;2;1;1;182382976
256;512;512;128;1;256;18446744073709551615
512;512;32;128;1;4;14103264
256;8;32;1;1;4;206967232
256;512;32;128;1;4;15705824
256;512;32;128;16;2;18446744073709551615
512;512;4;128;512;4;18446744073709551615
512;512;2;128;1;1;21284640
512;512;32;256;2;4;18446744073709551615
512;512;32;128;1;4;14101696
16;4;32;4;2;4;62556320
512;512;32;4;1;4;61427392
512;512;512;128;1;256;18446744073709551615
512;512;32;8;1;4;32734272
16;512;32;4;256;4;18446744073709551615
512;512;32;512;1;4;18446744073709551615
512;64;32;128;8;4;18446744073709551615
512;512;32;128;1;16;18446744073709551615
512;16;32;128;1;4;25442592
512;512;1;128;1;1;17907904
1;512;32;1;1;4;92195040
256;512;32;128;1;4;15709216
512;512;32;256;1;4;20992992
512;512;32;128;128;4;18446744073709551615
1;512;32;1;1;4;92292928
512;4;32;128;2;4;29711328
512;512;32;128;1;1;19749120
512;16;32;128;1;4;25703872
512;64;8;128;8;2;18446744073709551615
512;512;32;2;1;4;119313824
512;512;32;128;1;1;19702880
512;512;32;128;128;2;18446744073709551615
512;64;32;128;2;4;22835680
512;64;32;128;8;16;18446744073709551615
512;512;64;128;1;2;15901024
512;512;32;16;1;4;18803072
64;512;32;1;1;4;118204896
512;512;32;128;1;32;18446744073709551615
512;512;32;128;128;16;18446744073709551615
512;512;32;128;1;16;18446744073709551615
512;512;32;32;1;16;19985376
4;512;32;2;1;4;57608224
512;512;64;256;1;2;15940000
512;512;32;128;1;8;20993984
512;2;1;128;1;1;160365984
512;512;32;128;32;4;18446744073709551615
512;4;32;512;2;4;18446744073709551615
512;512;1;128;256;1;18446744073709551615
512;32;32;128;16;4;18446744073709551615
512;512;2;128;1;1;21058656
128;512;32;128;1;8;17339232
512;1;32;128;1;4;23565824
8;512;32;8;1;4;26135040
512;512;8;128;1;1;21084000
512;512;32;1;1;4;233397984
512;64;32;128;8;1;27024800
512;512;1;2;1;1;433864480
128;512;128;4;1;1;118108896
32;512;32;2;1;4;59552736
512;512;32;128;1;2;16095520
512;1;32;128;1;4;23184480
512;512;1;128;1;1;17670848
512;512;32;128;1;2;16084512
1;512;32;1;1;2;167030304
512;512;32;128;256;1;18446744073709551615
2;1;2;2;1;2;19606111680
4;4;8;1;4;8;1306269696
1;8;2;1;1;1;3498491008
256;64;1;1;4;1;182092576
512;512;32;128;1;8;20924992
512;512;16;128;1;2;16751072
1;512;32;1;1;8;85048032
512;512;1;4;1;1;213795680
512;512;128;128;1;1;19792000
16;512;32;4;1;4;48919200
512;2;32;128;1;4;28060960
4;1;2;2;1;1;8892154208
1;32;4;1;1;4;582935232
64;8;128;1;2;8;389039328
32;128;128;32;1;8;16363904
512;512;32;128;2;4;21067840
64;512;64;64;1;2;29171872
128;512;32;2;512;4;18446744073709551615
16;512;32;4;1;4;48594752
512;512;32;1;1;4;233456640
16;16;16;16;2;2;29022816
512;256;1;256;256;1;18446744073709551615
2;128;512;2;1;256;18446744073709551615
8;1;1;1;1;1;9056980928
512;512;32;32;32;4;18446744073709551615
1;512;1;1;1;1;361100000
512;1;64;128;1;1;25208576
512;256;32;128;2;16;18446744073709551615
512;512;32;64;1;2;16021568
2;512;32;2;1;4;54759456
512;512;1;128;1;1;17663424
512;512;32;128;256;16;18446744073709551615
1;512;64;1;1;2;165095040
256;1;2;4;1;2;338229408
16;1;32;8;1;4;187662368
1;128;1;1;32;1;1249051552
1;2;16;1;1;1;1740957824
512;512;32;128;1;4;14121184
512;512;32;128;512;4;18446744073709551615
128;512;64;128;1;2;17400800
512;1;16;128;1;8;30615968
256;512;32;128;256;2;18446744073709551615
512;512;32;64;1;4;13708288
512;512;32;32;1;2;18341504
512;512;16;64;512;8;18446744073709551615
512;1;32;64;1;4;21270272
512;64;32;64;8;4;18446744073709551615
256;1;32;32;1;4;32376544
1;512;32;1;1;4;92257408
512;128;32;64;4;4;21750432
512;512;64;64;1;1;22366080
512;512;128;64;1;128;18446744073709551615
256;256;32;64;2;4;23626720
512;128;128;64;4;1;19628512
1;512;8;1;1;2;167851136
512;512;16;64;1;8;19372864
512;256;32;128;2;4;20487584
512;512;32;64;512;4;18446744073709551615
512;512;128;64;256;1;18446744073709551615
512;256;16;64;2;8;21506272
512;512;16;64;256;8;18446744073709551615
256;64;32;64;8;8;18446744073709551615
512;512;16;64;1;16;21318272
512;512;16;32;1;4;17180704
512;1;64;64;1;2;22138400
256;512;32;64;1;4;15697376
256;256;32;64;1;8;29267584
512;512;64;64;1;64;18446744073709551615
512;1;32;64;1;16;34200224
512;256;32;64;2;4;17657024
512;512;32;32;1;4;13596960
512;1;32;32;1;4;24498880
128;512;16;32;1;8;38098144
512;512;16;32;1;1;31708928
512;512;32;32;1;32;25963360
1;512;64;1;1;2;165144224
256;512;32;32;1;2;16688416
256;512;32;32;1;4;15204320
512;512;32;32;1;8;15096832
512;512;64;32;1;64;18446744073709551615
1;512;32;1;1;4;92237536
1;512;32;1;1;1;299527840
512;512;64;32;1;4;14537920
512;128;32;32;1;4;21065344
512;512;64;32;1;2;19048800
1;512;32;1;1;16;233409120
512;256;32;32;2;4;18110304
512;512;32;64;256;4;18446744073709551615
512;512;32;32;512;2;18446744073709551615
1;256;32;1;2;4;58618592
256;512;32;32;512;4;18446744073709551615
256;512;64;32;1;2;15776640
512;128;32;32;2;4;19293024
128;1;32;32;1;4;34168000
1;512;16;1;1;4;92360544
512;512;32;32;512;4;18446744073709551615
512;512;256;16;1;256;18446744073709551615
1;1;32;1;1;4;2320780384
512;512;32;64;512;16;18446744073709551615
64;512;32;32;1;4;37214880
512;256;32;32;256;2;18446744073709551615
128;256;64;32;2;4;23924096
512;512;8;32;1;1;33218048
128;512;32;32;1;4;29105248
512;128;128;32;4;1;19649408
512;512;16;16;1;8;36435968
1;256;16;1;2;8;144006880
512;512;16;32;1;8;20726112
512;512;64;32;512;4;18446744073709551615
512;512;128;32;1;1;33852576
128;512;32;64;1;4;24110176
512;512;32;32;1;16;19447808
1;1;32;1;1;8;2617568320
512;512;16;32;512;8;18446744073709551615
512;512;64;64;1;2;15858560
512;512;32;16;1;16;27251712
512;512;64;64;512;4;18446744073709551615
512;256;32;32;2;16;23161216
1;512;16;1;1;4;92440544
512;1;32;4;1;4;83098720
1;512;32;1;1;8;84365056
128;512;64;32;1;2;16763584
512;512;16;64;512;16;18446744073709551615
512;1;32;32;1;4;25612064
1;512;32;1;1;16;240619776
256;512;16;32;1;8;32387744
512;256;32;32;2;8;18722144
1;512;32;1;1;4;92217920
128;1;32;64;1;4;35712000
256;512;8;32;1;1;27448672
512;512;32;64;1;16;22243744
256;1;32;32;1;4;32100320
256;512;16;32;1;16;33533664
512;1;64;32;1;2;19394624
1;512;32;1;512;4;18446744073709551615
512;512;64;8;1;8;19670304
512;256;16;32;2;4;19415488
512;1;32;16;1;4;39794048
1;512;64;1;1;64;468534016
512;1;8;32;1;1;42629920
256;512;32;8;1;8;61385376
256;1;32;16;1;4;48730368
512;512;64;32;1;1;32327104
512;1;4;16;1;4;88696768
256;512;32;16;1;4;17800672
128;512;32;128;512;16;18446744073709551615
512;128;32;16;4;8;25598112
512;512;64;8;1;1;115575040
512;1;32;32;1;2;26558944
512;256;64;16;256;1;18446744073709551615
1;512;16;1;1;8;91713024
256;512;32;8;1;4;23383808
1;1;32;1;1;8;2629596512
512;512;8;64;512;1;18446744073709551615
512;1;32;32;1;32;34623456
512;1;128;32;1;1;28048928
512;256;64;32;2;1;22768832
512;512;16;32;1;1;31722048
512;512;128;32;512;2;18446744073709551615
512;256;32;32;128;4;18446744073709551615
512;1;16;32;1;8;23941984
256;512;32;32;512;8;18446744073709551615
1;256;32;1;2;2;92783936
512;512;32;32;64;4;18446744073709551615
512;256;32;32;2;2;17688960
512;512;32;16;1;1;58304640
512;512;32;16;512;4;18446744073709551615
512;512;64;64;1;4;14599904
1;512;32;1;512;2;385402976
512;512;32;32;256;4;18446744073709551615
512;256;64;32;256;2;18446744073709551615
512;128;32;32;4;2;19429376
512;512;128;32;1;64;18446744073709551615
512;1;32;32;1;8;21682304
2;32;4;1;32;4;651396352
1;4;128;1;4;1;144754272
256;32;8;128;1;8;31003424
4;8;1;1;4;1;2768972128
1;1;8;1;1;1;6956692256
512;512;16;128;512;8;18446744073709551615
64;128;16;4;2;4;113491456
1;256;256;1;2;1;166113728
32;64;8;8;2;2;64608864
32;64;1;2;4;1;152325440
512;128;32;32;2;8;19461760
1;128;32;1;4;4;125329344
1;2;512;1;1;8;156037248
8;64;4;2;8;4;69145440
256;1;32;1;1;16;492719616
1;1;512;1;1;4;152499776
512;1;16;32;1;2;27536416
512;256;32;32;2;1;23106464
512;256;16;32;2;8;19721984
256;512;32;64;1;16;22084128
512;512;8;32;1;2;22747584
512;512;64;8;1;2;60390528
256;512;64;4;1;2;72819936
1;512;32;1;256;4;364391808
512;128;32;32;4;4;18500480
512;512;16;32;512;4;18446744073709551615
512;256;16;8;256;8;18446744073709551615
1;512;128;1;1;1;298197696
512;256;64;16;2;2;23326304
512;1;32;8;1;4;53250880
512;1;32;256;1;4;34065024
1;512;32;1;512;8;18446744073709551615
512;1;32;32;1;4;25332672
512;512;32;16;256;4;18446744073709551615
512;1;32;32;1;1;32765632
512;256;16;16;2;4;32385568
512;512;32;16;1;8;21031008
1;256;32;1;1;4;92404960
512;1;64;32;1;4;23625056
128;128;32;4;2;4;109183840
512;256;32;16;1;4;23282976
512;1;8;32;1;1;43425056
256;512;16;128;1;8;22214944
256;256;32;32;2;8;25583872
1;128;32;1;4;16;134355808
1;128;64;1;2;2;92136544
512;256;32;32;1;8;20510144
512;256;32;32;1;4;16930720
512;256;32;32;1;16;20570848
512;512;64;32;1;8;13334400
512;1;128;32;1;4;20273152
1;512;64;1;1;8;77747264
512;512;128;32;1;4;14544416
512;512;64;16;1;4;19888128
256;512;64;32;1;4;13190304
1;512;128;1;1;4;90915904
256;512;64;64;1;4;13332416
256;512;32;32;1;8;18741184
256;128;128;16;4;2;39139680
256;1;32;32;1;8;32328480
256;1;64;32;1;4;41183680
256;256;128;32;2;2;15567296
256;512;128;32;1;2;15301248
256;256;8;32;2;2;42760512
1;512;64;1;512;4;18446744073709551615
256;512;64;128;1;4;13670912
128;512;32;32;1;8;28158400
256;256;64;64;2;4;17587232
32;512;64;32;512;4;18446744073709551615
256;512;64;32;1;8;12976800
256;512;128;32;512;1;18446744073709551615
256;512;128;16;256;4;18446744073709551615
256;512;64;16;512;8;18446744073709551615
256;512;64;256;1;4;17855328
128;512;64;32;1;8;16025504
256;512;64;128;1;8;16125536
256;512;32;32;1;16;25938368
256;1;64;32;1;8;41783520
256;512;32;128;1;16;18446744073709551615
512;256;64;32;2;8;17343584
64;512;64;32;1;1;23972864
256;512;64;16;1;8;18773472
1;512;64;1;1;8;77179904
1;512;64;1;1;4;91948192
256;512;64;32;1;32;22933184
256;512;64;2;1;8;60463392
256;512;512;8;1;16;12544352
128;512;64;32;256;32;18446744073709551615
1;512;512;1;1;16;107080736
8;512;512;8;1;16;31471104
256;512;512;8;1;64;20285344
256;4;512;8;2;16;74209600
256;32;512;8;16;16;18446744073709551615
256;512;512;2;1;128;18446744073709551615
256;512;512;8;512;32;18446744073709551615
256;512;16;8;1;1;67664992
32;512;512;8;1;16;18517056
256;512;512;8;1;128;18446744073709551615
256;512;4;8;1;2;55003648
512;512;512;8;1;16;15741728
256;512;256;64;1;16;18820672
4;512;512;1;1;16;98978432
256;512;512;256;1;16;18446744073709551615
256;512;512;8;32;16;18446744073709551615
256;8;512;128;4;16;18446744073709551615
256;128;512;8;8;16;24103392
256;4;512;8;2;256;18446744073709551615
256;128;512;8;4;16;27780192
1;256;32;1;16;2;226315680
1;4;16;1;1;16;1667761536
128;1;8;128;1;2;125352608
4;4;8;1;4;8;1305889472
1;8;1;1;1;1;7006700704
256;1;1;1;1;1;712362304
256;1;2;2;1;1;378464640
1;32;4;1;8;4;1173084992
256;512;512;8;1;8;13900096
128;512;512;8;128;16;18446744073709551615
256;128;1;8;4;1;83459968
256;256;512;8;2;16;14967712
256;512;512;16;1;32;12725312
256;512;512;16;1;16;11135712
256;512;256;8;512;16;18446744073709551615
256;1;256;8;1;32;85229600
128;1;256;32;1;16;46011616
256;256;512;32;2;16;18058464
256;512;1;16;1;1;49752896
64;256;256;16;2;16;31112224
64;512;256;16;1;16;16509600
64;512;512;32;1;16;11573248
256;128;128;16;4;16;28150432
256;512;256;16;1;16;11985440
128;256;512;16;2;4;14489824
512;512;512;4;512;16;18446744073709551615
512;1;1;16;1;1;316002112
256;512;128;16;1;16;15592896
256;256;512;8;1;16;16087904
128;512;512;16;1;16;11827328
256;512;1;16;512;1;18446744073709551615
512;512;512;16;1;16;15586464
256;1;512;16;1;8;56573472
256;128;512;32;4;16;18446744073709551615
256;512;1;16;256;1;18446744073709551615
256;256;1;16;1;1;53870496
1;512;512;1;1;16;107360576
256;512;512;16;128;16;18446744073709551615
512;512;512;64;512;32;18446744073709551615
256;512;512;16;512;16;18446744073709551615
128;512;512;16;1;8;11607872
256;512;512;4;1;16;25358752
256;256;256;16;2;128;18446744073709551615
512;256;512;16;1;16;13791776
256;256;512;16;2;16;13682016
256;512;128;16;1;64;30401856
1;512;256;1;1;8;69538784
256;512;1;32;1;1;25509952
256;512;512;128;1;16;18446744073709551615
1;1;512;1;1;4;151868704
256;512;512;32;1;8;11213472
128;512;512;16;1;64;18885760
256;1;512;16;1;32;57145952
256;1;512;32;1;16;38075808
128;512;512;8;1;16;14645024
256;1;512;16;1;16;57037248
256;1;512;4;1;16;134910304
256;512;256;16;512;16;18446744073709551615
1;256;512;1;2;16;143934048
64;1;512;16;1;16;62456064
256;512;512;2;1;16;49191104
4;512;1;2;1;1;184553248
256;512;64;16;1;16;28267520
64;8;128;8;2;8;78419232
32;128;64;32;1;8;18378976
16;16;16;16;2;1;28114560
512;256;1;256;2;1;23717440
128;256;512;16;2;16;15389440
512;512;512;16;1;32;17596128
512;512;1;64;1;1;18712352
256;1;1;8;1;1;645413888
128;1;256;16;1;16;61606400
256;512;512;16;1;4;13794144
256;512;1;16;1;1;49799264
256;128;128;16;4;8;32846816
256;1;1;16;1;1;648138176
64;512;512;16;1;16;13562656
256;256;512;16;2;32;19634752
64;512;512;16;1;64;16535648
512;512;256;2;1;16;65290496
256;128;512;4;4;16;39932928
256;256;512;16;1;16;12151552
512;256;512;16;2;16;15603584
128;512;512;16;512;16;18446744073709551615
256;1;512;16;1;8;56869056
128;512;1;16;1;1;51420544
256;512;512;32;1;16;12314528
256;512;512;16;1;8;10994592
512;1;512;32;1;16;17139680
256;512;128;8;1;32;36014784
256;128;512;16;2;32;23117120
128;256;512;16;2;8;14528832
256;512;1;16;1;1;49780928
256;512;512;16;512;8;18446744073709551615
64;512;512;16;1;8;12886592
256;512;128;4;1;8;27238880
256;512;512;8;1;4;24875616
256;512;256;32;1;4;11792704
256;256;512;32;2;8;11954208
256;1;1;16;1;1;649726944
256;512;256;4;1;8;24661184
128;512;512;16;512;8;18446744073709551615
128;512;1;16;1;1;51454912
256;256;1;16;2;1;50644192
64;512;128;16;1;8;22985280
256;512;256;16;1;8;11838432
512;512;512;16;1;8;15256960
256;1;512;16;1;4;50576800
256;512;512;64;1;8;12587712
256;256;512;16;2;8;12502720
256;1;512;32;1;8;39094944
512;1;128;32;1;4;20197280
256;512;256;16;512;8;18446744073709551615
128;512;512;32;1;8;11539712
1;512;1;1;1;1;360139232
256;1;256;16;1;8;58000608
128;512;512;16;256;8;18446744073709551615
128;512;1;32;1;1;29001248
256;128;512;32;4;8;16338976
256;128;512;16;4;8;16432768
512;1;512;8;1;4;43180512
256;512;512;4;1;8;26478912
256;256;256;16;2;8;15924128
256;64;512;16;8;8;21477024
1;512;512;1;512;8;18446744073709551615
256;512;256;64;1;4;12149568
256;512;256;8;512;8;18446744073709551615
512;512;256;16;1;8;13710624
256;1;512;16;1;8;56765152
128;256;512;16;1;8;13555680
512;1;512;16;1;4;27278784
256;1;1;16;1;1;649452800
256;512;1;32;1;1;25241056
128;1;512;16;1;2;51003008
512;512;1;32;1;1;30691712
512;512;512;16;1;4;20814528
512;512;512;32;256;1;18446744073709551615
256;512;512;16;512;4;18446744073709551615
256;512;1;64;1;1;32866368
256;256;512;16;1;8;11719328
256;512;512;32;256;8;18446744073709551615
256;512;512;64;1;32;18446744073709551615
256;256;1;16;128;1;18446744073709551615
512;1;512;16;1;8;29176192
1;512;1;1;1;1;360432320
128;512;512;16;256;4;18446744073709551615
256;512;1;8;512;1;18446744073709551615
256;256;256;16;256;8;18446744073709551615
1;512;512;1;1;8;68333536
128;512;512;16;512;4;18446744073709551615
128;512;512;16;1;4;14142336
64;512;256;8;1;16;23401664
64;1;512;16;1;8;62892864
128;512;256;16;1;8;13449696
256;256;512;16;2;2;15949472
512;128;512;64;4;8;18446744073709551615
128;1;512;16;1;8;61759488
256;256;512;8;2;8;14024864
64;512;512;8;1;8;14401824
1;512;512;1;1;8;68002816
256;1;512;32;1;32;21028544
512;256;512;8;256;8;18446744073709551615
128;1;512;16;1;4;60609824
512;1;512;32;1;8;16606240
2;64;32;2;2;16;51453440
8;4;2;4;2;1;1360347968
256;1;32;2;1;1;240552320
16;4;1;8;1;1;1210434144
1;128;2;1;32;2;627043840
1;2;1;1;2;1;32515536352
1;256;1;1;128;1;629654656
1;2;128;1;1;1;464009088
256;128;512;16;4;16;20412000
256;256;1;16;256;1;18446744073709551615
64;512;512;16;512;8;18446744073709551615
256;1;512;64;1;2;39641920
256;64;8;128;64;8;18446744073709551615
16;1;1;1;1;1;4567615264
16;128;16;16;1;4;19481600
1;1;512;1;1;2;271574368
128;512;512;8;1;8;13897920
512;256;512;16;1;8;13417760
512;64;512;16;8;2;17690944
256;1;256;16;1;16;58786784
256;1;512;8;1;16;83690848
1;256;512;1;1;8;70334368
32;512;512;16;1;8;13731680
256;128;512;16;4;4;15882464
512;128;512;8;4;8;16515328
1;256;512;1;2;8;101626944
512;1;256;8;1;8;57803296
32;512;512;16;512;8;18446744073709551615
256;512;1;16;512;1;18446744073709551615
512;512;512;16;256;8;18446744073709551615
512;256;256;16;2;8;14996544
256;128;1;16;4;1;63646816
256;256;512;16;1;4;13819232
256;512;512;16;256;8;18446744073709551615
1;512;512;1;1;2;164343584
128;1;256;16;1;4;61895712
256;1;512;64;1;8;34089760
256;512;1;16;512;1;18446744073709551615
512;512;1;16;1;1;59818048
256;256;256;16;2;32;22932960
256;512;128;32;1;8;11847168
256;128;512;16;1;8;13672736
256;512;64;16;1;8;18724960
32;64;16;8;2;16;72998528
2;64;32;2;4;32;55375456
1;2;512;1;1;8;156815584
8;64;4;2;8;2;65717312
256;512;512;256;8;16;18446744073709551615
128;512;1;16;1;1;51487200
256;512;512;16;128;8;18446744073709551615
1;1;512;1;1;16;214363648
256;256;1;8;2;1;61767040
512;128;512;16;4;8;15210816
128;512;512;32;512;8;18446744073709551615
2;4;1;1;1;1;8257155392
16;64;512;8;1;2;29515296
1;256;32;1;16;2;224317824
1;4;16;1;1;16;1656031104
32;256;512;16;256;4;18446744073709551615
512;512;1;16;1;1;59723360
256;512;512;16;4;8;12479136
128;512;1;64;1;1;42919648
128;256;512;16;2;64;18446744073709551615
256;1;256;8;1;8;77739360
256;256;256;8;2;8;20968544
256;1;512;16;1;2;35579936
128;512;256;16;512;4;18446744073709551615
256;1;128;16;1;8;58466048
512;512;512;32;1;8;15306560
256;512;8;16;1;8;56449056
256;4;512;16;2;8;55112160
256;512;512;16;2;64;18446744073709551615
256;512;512;16;2;8;11365728
1;512;4;1;1;1;304798496
256;512;512;1;1;8;99611520
256;16;512;16;1;8;50758464
256;512;512;16;1;64;22999328
256;512;512;16;1;2;24501664
256;512;1;16;1;1;49934720
256;512;128;16;1;32;21338432
256;512;512;256;1;8;18446744073709551615
256;512;512;16;32;8;18446744073709551615
256;512;2;16;1;2;38015040
256;512;8;32;512;8;18446744073709551615
16;1;512;2;1;8;166588736
128;128;8;16;64;2;18446744073709551615
4;4;8;4;2;8;848735168
8;8;2;4;1;2;680637344
256;64;32;1;4;32;553383488
256;1;2;2;1;1;378558592
1;32;4;1;1;4;579454752
64;8;128;32;2;1;43971360
32;128;2;32;1;1;30528512
256;512;512;4;1;4;47279264
1;1;16;1;1;1;3469499360
256;512;512;64;4;512;18446744073709551615
256;512;256;32;1;8;11345408
256;512;256;64;1;8;12188384
1;4;1;1;2;1;16322569440
2;64;1;2;8;1;769699072
8;4;2;8;4;1;1527228160
256;1;32;8;1;32;70930016
256;1;1;16;1;1;649727552
64;512;1;16;1;1;59425248
256;512;512;4;1;2;89505344
1;32;512;1;16;8;344403232
256;1;256;16;1;32;58814272
256;512;512;8;512;8;18446744073709551615
16;16;32;8;4;16;55474112
1;8;64;1;2;2;143479040
1;2;16;1;1;1;1748631008
2;8;64;1;8;8;160748576
256;8;512;16;4;8;46136160
256;16;512;16;1;2;24175520
256;512;512;16;16;8;18446744073709551615
256;512;512;128;1;8;22567872
256;4;512;16;2;512;18446744073709551615
1;512;2;1;1;2;200713568
256;512;512;1;2;8;58766784
1;512;512;1;1;8;68436864
16;512;512;16;1;8;14467296
256;1;512;16;1;512;18446744073709551615
256;512;128;16;1;8;14460832
256;256;512;16;16;8;18446744073709551615
256;512;512;2;32;8;35810624
256;512;512;16;8;8;21663808
256;256;512;16;128;8;18446744073709551615
256;32;512;16;16;8;18446744073709551615
4;512;512;2;1;256;18446744073709551615
64;512;512;4;1;8;21444768
256;256;512;16;4;8;14108928
256;512;512;64;16;8;18446744073709551615
4;512;512;2;1;8;38682880
256;512;512;16;1;256;18446744073709551615
256;512;512;16;256;1;18446744073709551615
256;512;512;2;1;256;18446744073709551615
256;512;512;2;16;32;54604608
256;512;512;16;32;256;18446744073709551615
1;128;128;1;4;4;107288192
64;256;16;8;64;1;84921152
1;32;8;1;16;1;416077600
16;1;16;16;1;4;365761824
256;512;512;16;1;32;12743264
256;512;512;16;1;8;10947008
256;512;512;1;512;8;18446744073709551615
8;512;512;1;1;8;66149952
256;1;512;1;1;8;331194496
16;512;1;16;1;1;37439776
128;512;512;16;1;8;11581024
256;512;1;16;1;1;49726528
256;2;512;16;1;8;58021120
256;512;1;128;1;1;42019328
256;512;512;128;512;16;18446744073709551615
2;512;512;1;1;8;61194400
256;16;512;16;1;8;50918432
256;512;512;16;1;128;18446744073709551615
4;512;1;2;1;1;185257792
256;512;512;128;1;8;22560864
256;512;512;16;16;1;16283392
256;256;512;16;1;8;11753984
256;512;512;64;1;8;12561440
32;512;2;16;1;2;38118976
32;512;2;8;1;1;83860192
256;512;512;16;1;4;13760608
256;16;512;16;8;8;29219392
4;512;512;2;1;8;38762080
256;512;512;4;1;8;26477120
256;512;512;256;1;8;18446744073709551615
256;512;4;16;1;1;51141152
1;512;512;1;1;8;68423648
256;8;512;16;1;8;54799008
256;512;512;1;1;8;99610784
64;512;512;16;8;8;15913920
2;1;8;1;1;8;5904188704
256;512;512;1;32;8;76315744
256;2;64;16;1;8;61616448
256;32;512;16;1;8;40058432
128;512;128;16;1;1;33098752
256;512;16;16;1;8;53132608
64;512;512;16;1;1;32543264
256;512;1;16;1;1;49908160
256;8;512;16;1;256;18446744073709551615
16;512;512;1;256;8;18446744073709551615
256;512;8;16;1;8;56624192
256;512;512;2;1;8;50828448
128;4;512;16;1;8;59962880
32;512;512;16;1;8;13727424
256;512;64;256;1;8;18446744073709551615
32;512;32;16;8;8;27940768
256;512;64;16;1;8;18799424
256;128;512;64;16;8;18446744073709551615
256;4;512;16;1;8;58290144
256;512;512;16;1;512;18446744073709551615
512;512;512;16;1;8;15245344
256;4;512;16;1;16;59163328
256;512;512;32;1;8;11189184
256;512;256;16;1;8;11835424
8;256;512;1;1;8;84725760
256;512;32;16;1;8;39337408
256;512;512;8;1;8;13859776
64;512;32;4;1;8;114071200
256;512;512;2;1;8;50805728
256;512;512;16;8;4;12679136
256;2;512;2;1;8;199559136
256;8;512;16;1;64;53347072
256;512;512;16;1;16;11137856
4;512;512;2;1;8;38660800
256;512;512;16;1;256;18446744073709551615
1;256;64;1;32;4;392870240
32;64;512;8;2;1;38331840
1;64;32;1;4;32;82593216
1;2;512;1;1;128;18446744073709551615
256;64;2;16;1;2;58998912
256;512;512;16;1;1;45020384
8;2;4;4;1;2;1346515584
1;4;256;1;2;1;202055520
16;512;512;8;1;2;30832672
1;256;32;1;16;16;215210528
256;2;512;4;1;8;116054560
4;512;512;1;1;8;62367104
256;512;1;16;1;1;49866368
256;64;512;32;1;8;12636896
256;512;512;16;1;64;22989728
1;512;1;1;1;1;360869184
1;4;16;1;1;16;1649458560
128;1;32;2;1;4;181438144
1;2;8;1;1;8;5211072576
1;8;2;1;1;2;4153468672
512;1;512;8;1;8;54270880
512;512;512;8;1;2;77567872
256;512;1;16;1;1;49791424
256;128;512;16;1;16;14648032
64;512;512;16;1;8;12826592
256;512;1;16;2;1;36488224
256;512;1;8;1;1;75565344
2;64;1;2;32;1;949752384
256;16;2;16;16;1;64452128
8;32;4;4;1;4;93905600
1;128;128;1;32;1;315550304
512;512;64;16;1;8;14299712
16;512;512;16;1;8;14448864
1;4;512;1;1;8;187639104
256;1;512;16;1;8;56389248
32;128;512;16;1;512;18446744073709551615
256;512;512;16;64;8;18446744073709551615
256;512;1;16;1;1;49798528
256;128;512;16;1;8;13690560
1;512;512;1;1;32;212899296
256;512;512;2;4;8;22997152
1;512;512;1;32;8;367438592
256;1;512;16;1;32;57338368
256;512;512;16;1;1;45054624
256;64;512;16;4;128;18446744073709551615
256;512;128;2;1;8;51447648
64;256;512;16;64;8;18446744073709551615
256;512;16;16;2;8;48547840
512;512;512;16;1;256;18446744073709551615
256;1;512;16;1;8;56930656
256;256;128;16;1;8;24040832
128;512;512;64;1;8;11750240
256;32;1;16;1;1;70140096
256;512;2;16;1;2;37919904
256;512;512;1;1;8;99602048
256;8;512;16;2;2;45701888
4;512;512;2;1;8;38717024
1;32;512;1;1;8;75394560
256;128;512;2;32;8;67648608
256;512;512;16;16;2;13692384
1;128;256;1;1;8;73892544
256;512;4;256;1;2;31974944
256;2;512;16;1;8;58147712
256;512;512;16;1;2;24501856
8;1;512;1;1;8;245230112
256;512;512;256;1;64;18446744073709551615
512;512;512;2;1;8;82211264
256;256;512;256;1;8;18446744073709551615
256;512;2;16;4;2;55923232
1;512;512;1;1;8;66936192
32;128;128;32;16;4;18446744073709551615
16;16;16;8;1;1;70928000
512;8;1;256;4;1;59770944
2;64;4;2;64;2;245867584
64;512;512;16;32;8;18446744073709551615
2;512;512;2;1;32;94396512
256;256;128;16;2;8;25504032
8;2;2;4;2;1;2680333056
256;1;32;8;1;32;70772960
16;1;32;8;1;2;171346848
256;8;64;2;2;2;120418848
256;512;512;32;8;8;18446744073709551615
256;64;512;16;1;8;17280096
256;512;4;16;1;1;51085376
256;512;512;8;1;64;20281856
256;512;32;2;1;8;81887008
256;32;512;16;1;256;18446744073709551615
256;512;1;16;256;1;18446744073709551615
256;512;512;16;512;1;18446744073709551615
256;512;128;16;1;8;14436256
256;64;512;32;1;512;18446744073709551615
2;8;512;1;1;32;713297472
32;512;512;16;8;8;15355808
256;512;8;16;16;8;18446744073709551615
4;1;512;2;1;8;135523040
256;128;512;128;1;8;16496960
64;2;16;8;1;1;98761312
2;8;64;1;8;1;95051328
1;128;64;1;4;16;234758368
1;32;8;1;1;4;290344928
128;128;512;16;1;8;16796928
1;512;512;1;1;512;18446744073709551615
16;32;8;1;16;1;375968448
16;8;2;1;1;1;580185984
1;256;256;1;2;2;91315776
32;64;512;8;1;1;52647456
1;512;4;1;1;1;304541504
8;512;8;1;1;1;362097344
256;128;512;128;1;128;18446744073709551615
2;64;32;2;4;2;56534112
1;1;512;1;1;8;170736096
128;16;128;32;1;4;44738240
2;4;1;2;1;1;8419858656
256;128;512;16;2;8;14998400
256;512;512;4;4;8;14649088
256;512;1;16;1;1;49850848
256;1;512;16;1;4;50348704
256;256;256;16;1;8;14637792
256;512;512;8;2;8;11628832
256;1;512;32;1;8;38615872
128;512;512;16;4;16;18100992
32;512;1;16;1;1;50894848
256;512;512;8;4;16;14799872
16;64;512;8;1;4;26498336
1;256;32;1;64;16;285965856
1;4;16;1;1;16;1666105536
128;1;8;128;1;4;133305824
1;16;512;1;8;8;234924320
32;512;512;16;4;8;14169568
256;256;512;8;1;8;13400960
128;512;1;16;1;1;51559712
256;512;1;64;1;1;32727840
4;4;8;2;2;8;965861632
8;8;2;4;1;1;598595936
256;64;1;1;8;1;325513664
256;16;4;32;16;1;47923936
1;128;4;1;1;2;262344544
64;256;128;32;32;1;26363712
32;128;16;32;1;8;23084064
1;64;16;1;2;1;198558176
512;256;16;256;128;1;18446744073709551615
2;64;32;2;2;16;52400512
8;16;64;4;1;8;80425408
256;1;512;16;1;8;56869184
128;512;128;16;1;8;16772480
512;512;1;32;2;1;17138208
1;256;512;1;1;8;70092480
256;1;512;16;1;64;45555648
256;512;256;16;2;8;12602336
256;64;32;8;8;32;18446744073709551615
256;512;256;32;1;8;11329600
16;64;512;8;1;16;60249984
256;512;64;2;512;2;18446744073709551615
64;32;16;8;2;1;82967776
128;8;4;4;8;1;135890464
512;512;1;8;1;1;113723744
256;1;256;16;1;8;58587680
256;128;512;32;1;8;11644224
256;512;128;16;2;4;14855136
32;4;512;16;1;8;55370112
256;1;1;16;1;1;649305120
128;512;512;4;1;8;22667200
1;32;128;1;16;1;208396608
256;32;8;32;1;8;47879200
2;32;1;1;16;1;1839990528
16;128;16;1;1;4;111433248
128;512;128;2;1;8;52433664
256;512;1;32;4;1;38963104
1;16;256;1;1;2;167120160
32;256;64;8;2;4;65970080
2;128;64;2;16;32;169375328
1;256;256;1;256;8;18446744073709551615
256;512;512;16;16;256;18446744073709551615
256;256;512;16;256;8;18446744073709551615
256;512;512;1;1;16;94078848
128;1;512;16;1;32;61887200
256;512;1;16;1;1;49859680
256;32;512;16;1;4;17548384
128;8;1;32;4;1;125384352
4;8;256;1;8;1;67834624
32;64;1;4;1;1;157203264
1;64;32;1;16;16;89088640
512;1;1;128;1;1;315771584
512;512;1;16;1;1;59752160
256;512;64;16;1;1;38393120
256;256;64;16;256;8;18446744073709551615
1;4;16;1;2;2;1153914752
256;1;8;128;1;2;81572288
8;4;8;2;2;8;497045824
8;8;2;4;4;2;822957920
1;512;1;1;1;1;360615904
2;64;8;2;4;1;85062816
2;32;4;2;8;1;383292864
8;512;1;4;4;1;61336928
64;32;128;32;32;1;30504864
128;512;512;2;1;8;42405344
256;512;2;16;1;1;51715104
32;512;512;16;1;512;18446744073709551615
8;512;64;1;16;32;404565440
256;512;8;1;256;8;18446744073709551615
256;512;512;128;1;4;13202144
16;512;512;4;1;8;21625440
256;512;8;16;1;4;53901792
512;512;512;16;1;64;33157504
32;512;512;16;1;256;18446744073709551615
256;512;512;128;1;1;15580064
256;1;512;16;1;128;18446744073709551615
256;4;512;2;1;8;208237504
1;16;512;1;1;8;87762432
256;512;512;16;4;128;18446744073709551615
4;512;512;2;128;4;127032608
512;512;256;16;8;8;26814944
64;1;512;16;1;8;62954432
256;512;512;16;2;1;25079648
64;1;512;16;1;8;62962240
256;512;128;16;1;64;30411104
32;128;128;2;1;1;188823680
8;16;1;1;1;1;586088576
512;256;1;16;2;1;40832896
2;512;1;2;2;1;156513376
512;512;512;16;2;8;15582592
128;512;512;16;1;16;11839552
256;512;32;1;256;8;18446744073709551615
128;1;512;16;1;8;61759872
1;1;64;1;1;8;1311685376
2;1;1;2;1;1;33648500384
16;16;512;8;4;16;66215968
256;8;8;8;2;1;86883328
64;1;16;8;1;1;107966848
2;1;64;1;1;1;539901248
4;128;32;2;4;1;69993952
256;8;512;16;2;8;51199680
256;32;8;1;1;8;490322112
32;32;32;2;16;16;278172928
16;128;32;16;1;4;18493568
1;1;256;1;1;2;269798464
256;512;256;16;1;4;13880288
1;1;1;1;1;1;55886077600
2;64;32;2;4;4;49899840
1;2;512;1;1;8;154964032
1;16;128;1;1;4;110261056
4;4;256;1;1;1;352097792
256;512;512;16;4;32;18446744073709551615
256;512;512;8;1;4;24902560
16;64;512;8;1;1;49821344
1;64;32;1;16;16;88819904
8;4;16;4;2;2;184729696
256;1;8;256;1;4;91103328
256;512;512;64;1;16;22106176
256;512;512;16;2;4;11716128
256;4;1;1;2;1;361598656
8;64;8;4;16;4;43363488
2;64;8;2;4;4;120336096
256;16;4;32;1;1;41293632
256;1;512;16;1;16;56962048
8;256;1;4;4;1;60184352
64;256;128;32;32;16;18446744073709551615
1;128;128;1;1;8;75365440
16;16;16;1;2;1;203260992
256;512;512;32;1;16;12311104
256;1;512;8;1;8;75837344
256;512;16;2;1;8;122809280
1;32;1;1;1;1;1751643776
2;256;32;2;2;16;146954560
16;16;64;4;1;8;92640096
256;1;32;8;1;16;74608416
256;2;256;16;1;8;59556320
512;512;512;8;1;8;21140864
256;512;128;16;1;2;22149344
16;256;32;8;128;16;18446744073709551615
256;8;64;16;1;2;54021632
512;4;128;1;2;4;145523712
32;8;64;4;4;1;108391072
512;512;512;16;1;4;20823424
1;512;1;1;1;1;361263136
256;8;512;16;1;128;18446744073709551615
1;1;512;1;1;1;371334592
256;1;8;128;1;1;81101600
64;16;1;1;1;1;480949600
16;128;4;16;1;4;21609856
128;1;512;16;1;16;61874400
1;256;512;1;2;1;166012000
512;64;8;8;2;1;70217312
2;64;1;1;4;1;675659232
1;128;64;1;64;8;282312000
256;8;16;16;1;8;64166304
256;32;1;16;4;1;66723712
256;4;512;16;4;8;48565824
128;16;1;4;1;1;186446016
1;64;256;1;8;1;59533472
16;64;512;1;1;4;109202688
1;64;32;1;64;16;349150784
16;4;16;2;2;2;106781120
8;16;8;8;4;1;98841888
256;4;64;1;4;2;240145760
64;1;8;64;1;2;207772000
64;512;512;8;1;8;14437600
256;512;512;2;1;32;89506496
256;512;1;16;4;1;50118016
64;512;1;16;1;1;58765312
256;256;1;16;1;1;53862240
256;8;32;16;1;8;62757536
256;512;512;16;64;64;18446744073709551615
256;4;512;2;1;8;208974528
1;512;512;1;8;8;191896896
2;64;64;2;4;2;44406880
256;128;1;32;4;1;46904896
128;256;1;4;1;1;135699968
256;512;1;4;1;1;131128800
512;512;1;32;1;1;30789408
512;128;256;16;1;4;18499648
64;32;128;2;32;1;250027552
1;128;128;1;1;8;75270720
16;16;16;1;2;1;203482496
512;1;1;256;1;1;320507168
512;64;32;2;2;16;171034368
2;16;64;1;1;8;134997504
8;1;32;8;1;32;383918528
4;16;1;4;4;1;1501821952
256;16;8;16;1;8;64352320
256;256;2;16;1;1;55771776
64;32;64;8;4;8;83867936
2;8;64;2;2;1;155100960
4;8;4;1;4;1;690320672
256;512;512;16;2;16;12596832
512;1;512;16;1;4;27091840
256;32;8;128;16;8;18446744073709551615
16;32;512;1;16;16;391194272
16;1;512;16;1;1;37473056
1;256;8;1;2;4;87539616
32;64;512;2;2;32;211782592
256;256;512;16;2;8;12498240
512;512;512;32;1;4;15270240
512;512;512;2;1;4;158264480
64;512;128;16;1;32;37773440
256;512;256;32;1;16;12140192
256;1;512;16;1;2;35644320
256;512;1;32;1;1;25348320
1;64;32;1;4;4;63974368
1;256;512;1;8;1;64421952
128;1;128;1;1;4;129452608
1;64;256;1;8;1;59397600
1;64;512;1;1;1;298065952
256;512;512;64;2;8;21655904
1;128;32;1;16;16;134547904
64;4;2;64;2;1;209585344
1;32;2;1;4;2;1320033440
1;128;64;1;1;8;79636800
512;64;8;64;16;4;18446744073709551615
2;64;1;1;8;1;755695040
256;16;256;32;1;1;26998976
8;256;1;4;32;1;77233440
64;64;1;32;32;1;46301664
32;2;128;32;1;1;26178080
1;256;16;1;2;1;168732960
512;32;1;256;16;1;18446744073709551615
256;512;128;32;2;8;12575808
256;1;128;2;1;8;203323584
1;512;512;1;1;4;90516896
256;1;512;4;1;8;108366240
2;64;32;2;2;4;56930112
64;16;64;4;4;8;126835328
256;256;512;32;1;4;11923200
256;512;512;32;2;8;12181248
256;256;512;16;4;16;19232064
256;1;512;8;1;32;83662784
16;16;32;8;4;8;50891488
256;128;1;16;8;1;63322624
1;32;16;1;1;1;353428064
256;1;512;16;1;16;56636608
256;1;1;16;1;1;648297504
256;256;256;16;2;1;25490240
256;512;128;32;1;8;11831648
2;64;1;1;1;1;547187488
1;128;32;1;4;1;92097760
256;32;8;128;1;1;50099616
16;32;1;1;16;1;252195616
256;256;1;8;1;1;83220064
128;512;512;16;4;8;13142656
16;32;32;16;16;4;21685184
1;256;8;1;2;4;87558048
128;64;512;8;2;256;18446744073709551615
2;64;16;2;4;1;85880640
32;256;512;2;8;1;40972576
128;256;128;32;256;4;18446744073709551615
1;32;256;1;32;1;320339168
256;512;1;4;1;1;130951040
4;512;512;2;64;256;18446744073709551615
128;1;512;16;1;4;60501088
16;64;512;8;8;4;54895648
1;64;16;1;2;1;200135904
16;1;16;2;1;4;365834592
256;64;8;128;2;4;23803360
256;512;1;16;2;1;36608928
128;256;512;16;1;4;14974048
1;32;64;1;4;8;82084288
128;64;8;64;8;4;18446744073709551615
256;64;64;1;8;2;140781856
256;32;256;16;1;1;35147840
8;256;1;4;2;1;89321504
64;256;128;8;32;4;51527904
32;128;128;1;1;8;140760960
16;16;16;16;2;1;27879456
512;256;1;1;2;1;407607264
2;1;32;2;1;16;1886747296
8;128;64;4;1;8;79182720
1;1;16;1;1;1;3488583424
256;512;128;8;1;32;36131616
16;512;512;16;1;8;14442848
32;8;512;16;1;8;54241920
256;512;512;256;32;8;18446744073709551615
256;512;32;1;1;8;165402816
256;512;512;1;1;32;194639776
256;512;512;16;16;32;18446744073709551615
32;1;512;16;1;8;54995520
256;2;8;16;1;8;58437600
256;512;1;16;8;1;56298784
256;2;512;16;1;128;18446744073709551615
1;512;16;1;1;8;89189728
128;512;512;1;1;8;81914208
256;16;512;1;1;8;114454336
256;32;512;16;4;8;30888768
32;512;512;8;1;8;14889152
256;512;128;8;1;8;15630144
256;512;512;16;32;512;18446744073709551615
256;32;512;16;1;16;45774944
256;512;512;16;32;16;18446744073709551615
256;512;128;16;32;8;18446744073709551615
256;512;512;16;64;16;18446744073709551615
256;16;16;64;1;8;46243520
256;2;512;16;2;8;53876288
256;512;256;16;32;8;18446744073709551615
32;16;32;4;4;8;118577056
2;8;64;1;1;2;234609728
64;32;16;2;2;1;176601792
