GLOBAL_SIZE_0;GLOBAL_SIZE_1;LOCAL_SIZE_0;LOCAL_SIZE_1;v_TP_41;v_TP_42;cost
128;1024;1;1;46;4;968686560
32;1;4;1;92;4;6930659136
1024;8;2;8;23;1;162946656
64;512;2;32;4;2;218559648
4;8192;2;512;178;4094;61481984
4;2;2;2;178;2;28501145568
1;256;1;4;2047;1;11883426080
16;2048;16;1;1;178;77905312
2;8192;1;512;178;4094;176445504
4;8192;2;512;178;1;126902560
4;8192;2;256;178;356;118358016
4;1;2;1;356;178;48589275360
2;4096;1;128;8188;2;1061819456
64;16;2;16;4094;4094;3637008480
1;1;1;1;89;23;179345191936
2048;16;1;2;23;92;576135808
16;1024;2;1024;23;1;18446744073709551615
8192;4096;128;512;2047;2047;18446744073709551615
1;16;1;16;46;2;15494533856
4;8192;2;1;4094;4094;27743489280
64;8192;8;512;178;4094;18446744073709551615
4;8192;2;512;178;2047;63943456
4;8192;4;256;178;4094;35365696
8;8192;4;1024;178;4094;18446744073709551615
4;8192;2;256;92;4094;57955584
4;8192;4;256;356;4094;39885760
4;1;4;1;178;4094;47549860256
4;1;4;1;178;4094;48074320768
2;8192;2;256;356;4094;98454432
16;1;2;1;178;4094;53969079552
2;4096;2;256;178;356;53664640
2;8192;2;512;178;4094;82483776
256;1;128;1;2;4;30272167200
1024;32;4;4;2;2;315047808
4096;32;4;1;4;89;275134432
2;8;2;1;8188;4094;98387275296
4;8192;4;256;89;4094;64686208
4;8192;4;256;2;4094;2437092416
4;8192;4;512;178;4094;18446744073709551615
8;8192;8;256;178;4094;18446744073709551615
16;8192;2;256;178;4094;112683040
4;8192;4;256;92;8188;48165376
2;1;1;1;178;2047;95994761728
4;4096;4;256;178;4094;49307104
1;1;1;1;1;1;183597076512
4;1;4;1;178;4094;47504405984
4;8192;2;256;178;4094;115645536
8;16;2;4;23;23;1861522368
2048;1;8;1;178;46;165780672
16;512;16;2;2;92;66608448
1;2048;1;8;4;2;447038464
16;2;2;2;2047;1;12844173856
64;8192;1;256;178;4094;466131104
16;16;2;16;178;23;1052748160
2;1;2;1;178;4094;86861475200
4;8192;4;1024;178;4094;18446744073709551615
4;8192;4;128;178;356;54550976
256;1;1;1;2;4094;81773575968
1;1;1;1;4;178;185554320736
32;64;1;16;46;23;124332160
128;1;1;1;92;356;9326278080
8;16;1;8;92;23;1814524960
4;16;4;8;178;4094;3791801152
4;2048;4;256;178;4094;50026112
4;8192;4;256;178;1;120038880
1;8192;1;1024;178;4094;180838112
2;8192;2;1024;178;4094;18446744073709551615
4;1024;4;256;92;178;169994208
4;8192;4;256;178;1;119989312
128;4096;8;256;178;4094;18446744073709551615
512;256;2;4;1;1;1035324800
16;512;1;128;2;23;1876079968
4096;2;512;2;89;4;4236638528
1;2048;1;16;46;46;170806272
64;256;4;1;23;356;290462944
4;1;1;1;46;4094;93780100672
4;128;4;1;178;4094;1187429632
8;1;8;1;2047;1;183696356768
4;8192;4;128;92;4094;42269600
8;64;4;2;46;89;455763968
16;32;2;4;1;8188;9218991616
256;16;2;4;1;89;565338208
1;2048;1;1024;356;8188;358265536
8;1;2;1;23;1;47241849664
4;128;4;1;1;4094;384542112
8;64;1;2;92;89;699052448
4;8192;4;64;356;2047;48457120
4;8192;2;128;178;4094;162815168
2;8192;2;256;92;2047;52311776
2;1;2;1;2;1;179197777920
2;2;2;1;178;4094;54460322816
4;8192;2;256;2;92;1685856320
4096;8192;64;256;178;4094;18446744073709551615
32;1;32;1;4094;356;7138743296
128;4;1;2;1;2;1768375776
64;128;4;2;356;8188;998146784
8192;32;16;2;23;23;59346528
16;64;4;64;92;89;337035776
1;1;1;1;178;4094;187728580576
8;2048;8;256;178;4094;18446744073709551615
4;8192;4;256;92;356;58997248
8;1;2;1;23;8188;78366492576
32;8192;32;1024;178;4094;18446744073709551615
32;8192;32;256;178;4094;18446744073709551615
4;512;4;256;178;4094;180636128
8;128;1;1;92;92;1089750208
64;4096;32;2;4;2;342722208
8;16;1;2;23;178;1863991104
32;16;32;4;8188;46;2662100768
8;4096;8;1024;46;2047;18446744073709551615
4;2048;1;512;178;2047;116490208
16;2048;1;512;89;2047;190260192
8;512;2;256;178;356;83801216
8;4096;8;256;178;4094;18446744073709551615
1;8192;1;256;178;8188;200991264
2;8192;2;256;178;2047;102823392
4;8192;4;256;178;8188;31949600
2;1;2;1;178;8188;78080890080
4;8192;4;128;178;8188;51646240
8;8192;8;128;356;8188;25567968
1;8192;1;64;356;8188;155963648
4;8192;4;128;92;8188;40315456
8;2048;8;128;356;8188;25823968
16;1;2;1;356;8188;78080774208
8;8192;8;128;92;8188;26425696
8;1;8;1;356;8188;22217912192
8;8192;4;64;356;8188;41001888
8;8192;4;128;356;8188;31269376
8;8192;4;128;178;8188;51758112
8;8192;8;256;356;8188;18446744073709551615
8;4096;2;64;356;8188;73461472
8;8192;8;32;356;1;316842240
8;8192;4;128;356;4094;50437408
8;8192;8;128;356;1;213532608
64;8192;16;128;356;8188;18446744073709551615
8;4096;8;128;356;8188;25654336
32;8192;16;128;356;8188;18446744073709551615
8;8192;4;512;356;1;18446744073709551615
32;8192;32;128;2047;4094;18446744073709551615
4;1;1;1;356;8188;165100174080
8;8192;8;64;178;8188;31342816
8;8192;8;128;2047;8188;53604480
8;8192;4;32;4094;8188;745305024
8;1024;8;128;356;8188;33148736
8;8192;8;256;356;2047;18446744073709551615
8;8192;2;64;356;8188;73405280
32;8192;32;256;356;8188;18446744073709551615
8;8192;8;128;178;8188;30250848
32;8192;32;128;356;8188;18446744073709551615
8;8192;8;64;2047;8188;98701120
8;1;8;1;356;8188;21686256064
8;8192;8;256;92;8188;18446744073709551615
8;8192;8;128;4094;4094;134226976
1;1;1;1;2047;8188;157892213440
