GLOBAL_SIZE_0;GLOBAL_SIZE_1;LOCAL_SIZE_0;LOCAL_SIZE_1;v_TP_74;v_TP_75;cost
16;4096;1;128;910;90;18446744073709551615
16;2;16;2;15;5;13597111456
2;1024;2;8;21;6;70346752
256;512;4;8;546;273;18446744073709551615
2;1024;2;512;1170;6;135816704
2;64;2;1;21;6;665822048
2;1024;2;8;21;6;70402784
2;1024;2;8;819;6;644126688
256;16;32;4;90;390;18446744073709551615
128;32;32;32;117;130;18446744073709551615
128;1;8;1;1638;15;18446744073709551615
128;1;8;1;315;15;888944096
2;1024;2;8;15;6;70653088
1;1024;1;8;9;2;197184064
2;1024;2;8;18;6;68798240
2;1024;2;8;35;6;65458304
2;1024;2;16;7;21;93221760
1;1024;1;8;35;7;98530016
2;8192;1;8;35;6;79896448
2;1024;1;8;35;13;86720128
4;1024;1;8;21;6;70559104
1;1024;1;8;35;6;105944608
2;2048;2;32;35;6;50782848
2;1024;2;32;35;6;98031168
2;4096;2;32;35;6;39672064
2;2048;2;32;35;6;50797536
2;4096;2;32;35;5;43767488
1;4096;1;32;78;6;58650976
1;2048;1;32;30;7;67563264
2;4096;1;32;21;3;60928448
4;4096;1;32;35;6;58814816
1;1;1;1;35;7;59005860000
2;2048;2;32;26;6;38554272
2;4096;2;128;18;6;110399552
1;2048;1;32;42;6;114646560
4;8192;1;16;26;6;45556672
2;2048;2;16;14;7;38743392
2;4096;1;64;13;6;65002912
4;2048;1;32;42;6;67130848
2;512;1;32;26;6;159376512
4;4096;1;32;26;6;52268192
1;2048;1;16;35;6;74428992
2;1;2;1;1;6;65058899264
1;2048;1;64;26;5;135001856
4;1;4;1;39;13;20909565248
1;2048;1;32;26;3;75398272
64;8;1;1;78;630;18446744073709551615
2048;32;16;32;5;78;35831264
1024;256;1;1;630;130;18446744073709551615
1024;2;64;1;234;117;18446744073709551615
1;4;1;2;455;117;18446744073709551615
512;1024;128;2;585;35;18446744073709551615
1;512;1;4;585;8190;18446744073709551615
32;128;2;128;910;315;18446744073709551615
256;1;64;1;18;2;15913986752
128;128;32;4;910;1365;18446744073709551615
256;32;16;32;7;70;70417664
2048;16;16;2;9;117;33190976
2048;16;8;2;7;117;44925728
2048;8;64;8;9;1365;18446744073709551615
2048;32;16;32;9;70;23500352
2048;16;32;2;9;117;19612672
2048;16;32;1;9;117;29065632
2048;16;32;2;9;78;15841568
4096;16;32;2;9;117;16635104
2048;4;32;4;9;117;28588160
1;16;1;1;2;78;4427311776
2048;8;32;8;5;78;17189568
4096;16;32;1;9;78;22970848
2048;8;32;8;9;78;16994560
4096;16;32;2;1;78;33398304
2048;8;32;8;10;105;18787200
2048;16;32;2;9;91;15704000
2048;16;8;2;15;78;59436832
512;8;32;8;3;91;74598592
512;128;32;8;9;91;10318528
1;16;1;2;9;91;4033013792
2048;16;32;2;9;65;15723776
512;1024;32;1;1;91;27787872
128;128;128;8;14;105;26389024
512;128;64;4;6;90;12383008
512;128;64;8;9;45;25292096
512;128;32;8;9;126;9600672
512;128;32;8;9;70;13009920
512;128;32;8;21;195;17294688
512;128;32;8;3;91;14834752
512;64;32;16;2;126;46631904
512;128;32;8;7;182;9248032
2048;512;32;512;9;126;18446744073709551615
512;32;64;32;6;455;18446744073709551615
512;128;16;8;7;70;11529088
512;16;32;2;7;105;17429248
512;128;64;8;7;195;12072832
128;256;32;4;10;182;13758592
64;128;8;8;7;117;21009664
512;128;16;8;7;182;16248480
512;64;32;16;1;182;78828512
512;16;32;2;7;182;28714272
256;128;32;8;7;91;13090688
512;128;32;4;14;182;16000864
256;128;32;2;1;182;24099296
512;64;64;16;3;65;75373632
512;128;32;8;6;182;8167040
2048;128;32;8;7;210;9239520
512;512;16;2;10;182;50171232
128;128;16;8;7;390;34822464
512;128;128;8;9;182;19451168
2048;512;32;1;2;91;22131712
256;128;32;8;6;182;9280608
512;32;32;16;6;273;16521536
128;128;32;8;6;182;9658528
512;128;32;8;6;126;8463168
512;128;32;8;15;91;8693184
1024;128;32;8;6;182;7611072
2048;128;32;4;6;234;12829376
2048;256;32;4;6;195;11408704
1024;128;256;8;6;273;18446744073709551615
1024;32;32;32;15;182;11543008
256;512;32;2;5;182;16863872
1024;128;32;8;2;210;17470016
1024;128;32;8;6;78;9913216
1024;128;32;2;7;210;22707168
1024;128;32;8;3;390;14220480
1024;128;32;8;3;182;12360736
8192;32;32;32;9;182;17954624
1024;128;16;8;6;91;9101344
1024;128;32;8;2;182;17513984
1024;256;32;4;6;70;9373920
1024;128;16;8;6;195;13036384
2;4096;2;128;2;21;524083456
1;32;1;8;1638;819;18446744073709551615
4;2;4;2;105;130;18446744073709551615
1;32;1;1;910;390;18446744073709551615
1024;64;32;16;6;182;12782944
128;256;64;4;6;105;13505792
1024;128;32;2;6;105;12498400
1024;256;32;4;6;390;22584512
4096;128;32;8;6;315;9912256
1024;256;32;4;6;182;9900544
1024;128;32;2;6;182;16257600
512;64;32;16;6;182;15191264
1024;128;64;8;6;182;8829248
2048;128;32;8;2;91;19215040
1024;128;32;1;6;105;22891872
1024;64;32;16;6;105;15828256
128;1;1;1;1;1;2922939680
1024;128;32;8;13;315;15822208
1024;128;32;4;6;210;11515264
1024;128;32;8;7;182;9306272
1024;128;64;8;6;105;11534848
256;128;32;8;2;315;22484352
1024;128;32;8;5;182;8519264
128;128;32;8;15;182;15923968
256;256;32;4;6;182;10181088
512;1024;32;1;6;182;29370912
256;128;32;2;6;182;16732288
1024;128;32;8;6;70;10651200
1024;128;32;8;6;45;12672192
1024;8;32;8;1365;182;18446744073709551615
1024;128;32;32;6;182;21628544
128;8;1;4;1;39;376338304
1024;128;8;8;6;1170;157686656
1024;256;32;2;6;315;27970080
4096;128;32;8;7;182;8616928
1024;128;32;8;6;126;7525728
1024;256;32;4;2;182;9367776
1024;512;32;2;6;182;15780480
1024;256;32;4;5;126;8989344
1024;128;32;8;5;195;8480096
512;128;8;8;21;126;36665184
2048;128;8;4;3;182;35235104
1024;128;16;8;6;126;9634304
1024;128;64;8;6;126;9467808
1024;128;32;8;5;126;8534848
1024;128;32;8;1;126;31735104
2048;64;16;8;6;126;9809760
1024;128;32;2;6;126;12334848
1024;64;32;8;6;126;8903360
2048;16;64;2;3;126;14896352
128;32;1;1;1;65;450366752
1;1;1;1;273;70;18446744073709551615
1;32;1;2;3;105;2659156416
8;4;1;4;182;8190;18446744073709551615
1024;128;32;8;30;130;17676992
1024;256;32;2;6;126;12028768
1024;512;32;2;6;234;20666912
1024;128;32;8;6;234;8543328
256;128;32;8;1;126;46598464
1024;128;128;2;6;210;9713888
4096;128;32;8;7;126;8226080
128;1;32;1;1;1;53458518176
1024;512;16;512;1;126;18446744073709551615
1024;64;64;16;6;126;18193184
1024;128;64;8;7;126;10937024
512;64;16;16;6;126;17184224
128;2;32;2;13;10;1810426176
1024;128;32;8;10;91;8866208
1024;128;32;8;6;91;8384000
1024;128;32;8;6;117;8145344
1024;1024;32;8;9;126;7925728
8;4;1;2;78;18;1912532928
32;4;1;4;1170;10;18446744073709551615
1;512;1;256;65;21;784630464
1024;256;32;4;6;126;8286944
1024;128;32;8;7;90;9542592
1024;128;32;8;6;210;8126944
2048;128;32;8;14;126;7982496
32;1;32;1;1;1;199445990752
1024;64;32;16;6;126;13750144
2048;2048;32;1;6;126;22074080
1024;128;4;8;6;126;36163360
1024;128;128;8;6;234;12311936
1024;128;16;8;9;126;13726688
1024;128;32;8;5;117;9227744
1024;128;32;8;13;126;8097024
64;2;32;1;9;7;4926274080
2048;128;32;8;10;126;8352960
1024;64;8;16;3;126;36797952
256;256;32;4;3;234;12559296
1024;128;8;8;6;126;19256128
1024;256;32;4;6;273;14123168
1024;128;32;4;6;455;22216736
32;8;8;4;13;39;495529120
1024;64;32;16;6;42;25278272
1024;256;32;2;5;126;13027168
1024;128;32;8;15;117;8671328
1024;128;32;8;91;126;28041664
1024;128;32;8;455;126;18446744073709551615
1024;128;32;32;6;210;21138240
1024;128;32;8;6;26;16073312
256;128;32;8;6;126;10050720
1024;128;32;8;6;105;8779040
4096;32;32;32;6;126;27336672
256;128;64;8;7;126;15357536
1024;2;1;1;10;45;307184384
64;64;2;8;2;455;198046560
1;4096;1;4;70;1;354588736
1024;4096;2;8;1638;3;667664800
4096;128;32;8;6;126;7491776
1024;64;16;16;3;126;25659232
1024;256;32;4;2;45;15387968
2048;128;32;8;2;126;17375008
4096;128;32;4;6;126;8249376
512;128;128;8;6;117;20043712
2048;128;32;8;6;195;8139456
4096;256;32;4;6;126;8112096
1;128;1;8;6;126;976004896
4096;64;32;16;6;126;12651360
4096;1024;64;1;10;126;19032960
4096;512;32;2;6;126;11865920
4096;64;32;4;7;126;8905056
1;128;1;8;2;45;1741374848
4096;1024;32;1024;1;126;18446744073709551615
4096;64;2;8;6;91;33780384
4096;128;32;8;2;105;19753376
512;64;32;16;1;126;88473248
4096;128;32;8;7;42;14834976
4096;128;64;8;3;126;15072576
4096;256;64;4;6;126;8117728
1;128;1;8;6;234;616211808
1;2;1;1;7;130;28256968448
2048;512;32;2;6;126;11834560
4096;128;32;8;6;1170;35449184
4096;256;128;4;6;117;13797568
512;2;1;1;35;65;1035815808
1024;64;32;16;5;126;16104192
8192;128;32;8;10;126;8569376
1024;1024;32;1;6;130;24754848
4096;128;32;8;6;210;7602336
4096;256;32;2;6;35;17124800
8192;128;32;8;6;126;7800928
256;2;4;1;21;35;157818208
1024;8192;1024;32;630;910;18446744073709551615
16;2048;1;256;210;18;36408096
4;2;4;2;455;91;18446744073709551615
4096;256;32;4;21;126;15398016
512;64;32;16;35;126;12986848
4096;128;64;4;6;78;12455680
4096;128;1;128;6;126;245847200
512;128;256;8;6;126;18446744073709551615
4096;128;32;8;6;585;18674080
2048;2048;32;1;6;126;22057760
128;8;1;1;195;455;18446744073709551615
4096;128;32;8;6;39;14288736
4096;128;32;8;2;126;16908320
4096;64;32;16;1;126;64270528
128;2;64;1;7;9;3958875072
2048;64;32;16;6;90;13611840
4096;128;128;8;6;126;15519136
4096;64;32;16;6;195;14122144
1024;128;64;8;6;91;12668064
4096;128;32;8;6;117;7927776
4096;16;64;2;6;70;13865728
512;2;2;1;14;42;159382016
128;4;2;1;9;35;245331008
128;4;8;4;15;35;268525984
128;2;8;2;90;26;447376544
8;64;8;16;26;90;242927680
256;8;256;4;195;585;18446744073709551615
64;512;8;256;105;63;18446744073709551615
2;128;1;16;390;18;556298048
4096;128;64;8;6;126;9629120
4096;128;16;8;6;182;11486080
4096;128;32;2;6;126;12108704
4096;128;32;8;10;126;8459104
4096;128;32;1;6;126;22361056
256;128;16;4;6;126;16744320
1;128;1;8;6;4095;18446744073709551615
4096;128;32;8;9;126;8073088
4096;256;32;4;6;182;9873568
4096;256;32;4;15;91;10825856
4096;256;32;4;14;126;12604032
4096;128;32;8;5;105;9563584
4096;128;32;8;2;117;18272032
8192;128;32;8;6;234;8743328
4096;128;32;4;9;126;9688320
8192;128;32;8;6;130;8706656
4096;128;16;8;6;126;9871552
128;2;16;1;15;18;687867200
128;2;32;1;9;13;1345922176
16;1024;4;64;546;273;18446744073709551615
64;32;2;1;78;630;18446744073709551615
4096;32;128;32;3;126;18446744073709551615
4096;128;64;8;7;126;10754624
4096;128;32;8;9;182;9891456
4096;1024;32;32;6;126;23785888
2;128;2;8;6;126;511478400
4096;1;64;1;6;126;53069184
4096;4;32;1;6;10;86834048
8192;128;32;8;6;210;7936704
4096;128;32;8;1;91;34456320
128;2;1;1;70;90;3898703264
2048;32;16;32;5;126;41406432
1024;1024;1;512;630;130;18446744073709551615
1024;256;64;256;234;117;18446744073709551615
128;2;16;2;14;18;752279328
4096;128;8;8;6;126;19246752
4096;512;32;2;6;210;17888512
1;256;1;4;10;126;365545152
8192;256;32;4;26;126;19358176
4096;256;32;4;6;234;12700576
128;2;2;2;35;65;478009568
4096;128;64;8;6;195;9265536
4096;128;32;4;5;126;9034240
8192;256;32;4;6;126;8347904
128;2;4;2;26;42;322704000
4096;128;32;4;6;21;17208448
4096;128;1;8;6;126;126731776
4096;1024;4;1;6;126;122896896
8;2;1;1;455;2;6178243040
512;256;128;2;585;35;18446744073709551615
1;128;1;4;585;1;2617654336
32;128;32;128;910;315;18446744073709551615
128;2;1;1;39;90;1404874400
4096;128;32;8;6;70;10360128
4096;32;32;16;6;195;14393824
4096;128;8;4;3;130;29784096
128;2;8;1;18;26;410636576
4096;128;32;4;7;126;8841984
512;128;64;8;21;126;9415904
4096;32;32;32;6;210;28009696
2048;256;32;4;7;126;9001984
4096;128;64;8;6;546;11261504
4096;64;32;16;39;126;10229056
4096;256;8;256;45;126;18446744073709551615
128;2;1;1;1;63;659645120
4096;128;8;8;1638;126;18446744073709551615
128;128;32;8;6;126;9870784
128;2;8;2;45;30;403896480
4096;128;32;8;6;105;8642976
1024;128;32;4;14;45;10005216
2;4096;2;128;2;1638;1333973856
1;32;1;4;1638;39;18446744073709551615
512;8192;32;16;105;130;18446744073709551615
1;32;1;32;910;390;18446744073709551615
128;2;1;1;18;63;611173760
2048;128;256;8;6;126;18446744073709551615
4096;256;16;4;6;126;15116896
4096;128;32;64;6;234;18446744073709551615
4096;128;32;8;130;126;18446744073709551615
4096;128;32;8;195;30;41672096
128;2;8;1;18;30;344888832
1;256;1;4;1;126;895007776
4096;32;256;32;6;126;18446744073709551615
4096;256;16;2;6;126;24547616
128;2;1;1;1;42;453445312
4096;4096;16;1;6;126;42282912
4096;64;8;16;6;126;19686496
1024;128;32;8;2;126;17130432
128;2;8;2;30;35;429648544
1;1;1;1;273;70;18446744073709551615
1;16;1;4;3;105;5838275520
8;16;8;1;182;8190;18446744073709551615
512;128;32;8;2;126;19670624
4096;64;32;16;9;126;9446080
8192;128;32;8;18;126;10350432
512;2;4;1;18;39;127979008
128;4;4;2;14;35;166652160
128;4;8;4;18;35;252078976
128;2;4;1;26;39;293050720
4096;128;32;8;6;35;15905120
4096;128;32;8;6;78;9586176
4096;128;2;2;6;126;140703840
512;128;64;8;2;126;23458688
2048;512;32;1;6;126;22048032
4096;128;32;8;5;126;8303168
4096;128;128;4;6;126;12701984
1024;128;32;8;6;1170;33574976
256;1024;32;8;9;126;8048448
8;64;1;1;78;18;643429472
32;2048;1;32;1170;1;172441920
1;32;1;4;2730;21;18446744073709551615
4096;128;64;8;1;126;37320128
4096;32;16;32;6;105;30864672
2048;64;32;16;6;126;11855712
128;2;8;1;21;35;373052320
128;2;8;2;35;35;437056128
4096;128;32;8;6;5;80508096
4096;128;64;8;5;45;22624032
8192;128;32;8;13;126;7951776
4096;32;32;32;1;126;142682112
4096;128;32;8;6;182;7188800
4096;512;32;2;7;182;19375264
4096;32;32;32;6;182;25885088
1;128;1;8;13;182;724022880
4096;128;32;8;7;210;9395616
8192;128;32;8;30;182;15388128
4096;128;64;8;6;182;8668992
4096;256;32;4;6;130;9167392
2048;128;32;8;6;105;8877472
8192;128;128;4;6;182;11826912
4096;128;16;8;5;105;9584672
2048;256;32;2;6;90;9752256
2048;64;32;16;15;105;9951520
4096;32;32;32;2;234;87846272
4096;1024;32;1;13;105;37339616
4096;128;32;8;6;90;8377216
4096;128;32;8;10;117;8204064
4096;128;128;8;6;182;14046816
1;128;1;8;6;182;774918816
4096;64;32;16;6;182;12858400
8192;128;32;8;63;90;16827680
4096;128;16;4;6;70;12423328
4096;128;64;8;6;390;9187776
4096;128;32;8;1;182;30911744
1024;128;32;4;6;130;9410240
8192;128;32;8;2;182;17693120
1024;256;128;4;13;70;19215808
2048;128;32;8;6;182;7030528
2048;128;64;8;6;126;9566944
2048;64;32;16;6;182;12852576
512;128;32;4;30;195;57530176
2048;128;32;8;26;91;10311552
4096;64;32;16;3;315;20366624
2048;128;64;8;6;182;8814976
2048;128;32;8;6;273;9074272
2048;128;8;8;6;182;18225120
2048;128;32;128;6;234;18446744073709551615
2048;128;8;8;6;195;24436128
4096;2048;64;1024;6;182;18446744073709551615
2048;128;32;8;13;182;9537600
2048;128;32;4;6;182;9698560
2048;128;32;8;3;390;14367616
2048;128;4;8;6;210;35618752
2048;128;64;8;13;126;8793600
2048;128;16;8;6;195;13038464
2048;128;32;4;6;105;9005632
2048;32;16;8;6;182;12524928
1024;256;4;4;6;182;53743488
2048;256;64;4;6;182;7563776
2048;64;64;16;6;182;14466560
2048;32;64;32;6;182;18446744073709551615
2048;128;64;8;7;182;10092512
2048;128;16;8;15;182;26193280
2048;128;32;8;21;65;9961248
2048;128;8;8;6;390;46371872
4096;128;32;4;7;455;36665792
4096;128;32;4;7;182;11596032
2048;64;32;16;13;130;8463264
2048;128;4;8;6;182;36017760
2048;128;64;4;6;273;9537952
2048;256;16;4;2;182;16262304
2048;128;32;8;1;182;29674080
256;128;32;4;5;182;13419008
256;128;64;4;6;126;11424928
2048;128;32;8;15;182;13298432
2048;1024;32;1;6;182;29644960
4096;128;32;8;6;195;8218656
2048;128;32;8;5;182;7835456
2048;128;128;8;6;182;14173536
2048;64;32;8;1;182;32956256
8192;1024;16;1;6;182;56199328
2048;512;32;1;6;182;29839424
2048;128;16;8;6;182;11091168
2048;128;16;4;6;210;22880288
4096;256;32;4;5;182;10476256
2048;16;32;2;6;182;18166240
2048;32;32;32;6;130;31129056
4096;64;8;16;6;182;21092160
2048;128;16;8;7;182;14693728
512;128;32;8;2;90;20923168
1024;64;32;16;9;182;9489312
8192;128;32;8;6;182;7493184
1024;256;32;2;7;182;19331808
2048;128;32;8;6;455;13029248
1024;32;32;8;6;182;10368736
2048;128;8;8;5;182;21249088
2048;256;16;4;1;182;27438912
128;2;1;1;9;35;481067680
4;128;4;8;6;182;227423072
128;2;8;2;26;35;426251232
2048;128;32;4;1;234;16859904
128;2;1;1;15;35;464438784
512;64;2;8;2;455;199780384
2048;4096;2;128;70;1;37257216
1;4096;1;8;117;3;180413248
2048;2048;32;1;6;182;30097504
2048;4;32;4;546;182;18446744073709551615
2048;8;32;8;6;182;12112064
8;128;2;2;6;182;186899168
128;256;32;4;234;182;18446744073709551615
1;128;1;8;6;70;785040640
16;128;1;8;6;182;148509152
2048;2;1;2;1365;182;18446744073709551615
2048;128;16;8;5;30;12649504
32;128;32;8;6;630;26597024
2048;128;32;8;6;910;35186016
2048;8192;32;2;6;182;16315136
8;128;2;8;630;182;18446744073709551615
2048;512;32;2;6;182;15656864
2048;128;256;8;315;182;18446744073709551615
2048;128;32;8;6;7;58198656
2048;128;2;8;6;182;64161824
2048;512;16;2;6;182;32952736
2048;128;32;8;91;182;18446744073709551615
2048;128;32;8;819;182;18446744073709551615
2048;128;512;8;6;182;18446744073709551615
2048;128;32;8;6;182;6982496
2048;128;8;8;6;630;66241120
1;128;1;8;6;182;776102400
2048;2048;32;8;6;182;7077376
2048;128;32;8;6;10;40790656
2048;128;32;64;6;182;18446744073709551615
2048;128;32;64;6;390;18446744073709551615
2048;2;32;1;6;182;34014848
2048;16;32;8;6;182;7700800
256;128;16;8;6;273;17249664
2048;32;8;8;6;182;20536800
2048;128;32;8;6;546;18767488
2048;2048;32;8;21;182;16122720
2;128;2;8;6;182;407421408
8192;128;32;4;6;182;10215264
2048;256;32;8;6;182;6966144
2048;128;8;8;6;182;18211904
2048;256;32;8;6;315;9505376
2048;256;32;256;6;182;18446744073709551615
2048;64;32;8;6;182;7707712
2048;4;32;1;6;91;29048352
2048;256;2;8;6;182;63700704
2048;256;32;2;6;182;15726592
4;256;2;8;195;182;18446744073709551615
2048;128;32;8;13;390;16371552
2048;4;32;1;6;182;34788704
2048;256;32;256;585;182;18446744073709551615
2048;256;32;8;6;3;134225856
64;256;32;8;6;455;14293536
2;1;2;1;6;182;30758344192
2048;256;256;8;90;130;18446744073709551615
1;256;1;8;6;78;421175584
2048;256;32;16;6;182;11428832
512;32;32;8;6;182;9479136
2048;256;32;1;6;182;29985792
2048;256;32;8;546;182;18446744073709551615
2048;256;32;2;6;182;15765184
128;256;32;256;65;182;18446744073709551615
2048;256;32;8;6;90;8306176
2048;4;32;1;6;182;34876064
8;256;8;128;6;182;834513120
2048;256;1;8;6;182;120032960
2048;2;256;2;6;546;38710496
8;256;4;8;6;182;58814528
2048;256;32;32;6;182;22174336
2048;2048;32;2;6;182;15632640
2048;256;32;8;210;182;18446744073709551615
1024;256;32;8;6;130;8032544
1024;256;32;8;6;182;7218976
2048;2;32;2;6;26;47567200
4;256;4;8;6;182;113746464
2048;256;32;8;6;7;57633056
512;256;32;8;6;3;135793920
2048;256;32;1;6;315;54921664
2048;256;64;8;1638;182;18446744073709551615
1;8;1;8;6;182;12287080224
2048;256;32;8;1;182;29548480
2048;8;32;8;117;4095;18446744073709551615
2048;4096;32;8;6;182;7025792
2048;256;32;8;3;182;11191424
2048;1;32;1;6;2;1152635360
2048;256;128;8;6;182;14034208
32;256;16;8;6;182;17187264
2048;256;32;8;6;13;31243616
2048;256;32;8;7;182;8474560
2;32;2;8;6;455;1385247008
2048;256;32;8;70;910;18446744073709551615
32;1;32;1;6;182;2973849024
2048;2;32;2;6;182;33584448
2048;256;32;8;13;182;9461888
2048;256;32;8;4095;182;18446744073709551615
2048;64;32;8;35;182;30612416
2048;128;32;4;6;182;9691584
2048;256;32;1;1170;65;18446744073709551615
2048;1;32;1;6;182;64350080
2048;512;32;8;6;182;6923712
2048;512;32;8;6;14;27989312
2048;512;4;8;6;182;35716736
2048;512;32;8;6;1170;33244512
8192;512;32;512;6;182;18446744073709551615
2048;512;32;8;2730;182;18446744073709551615
2048;512;32;8;26;182;16897536
256;512;32;128;6;182;18446744073709551615
2048;512;2;8;6;182;63507872
2048;512;32;8;2;182;15862176
2048;512;32;1;6;78;19533728
2048;512;128;64;6;182;18446744073709551615
2048;1;32;1;6;90;71825152
2048;512;1;8;117;182;18446744073709551615
2048;256;32;8;130;910;18446744073709551615
2048;512;32;8;65;182;18446744073709551615
2048;512;32;8;6;546;17758400
2048;512;32;64;6;26;18446744073709551615
2048;512;4;8;63;182;226586368
2048;512;32;8;6;630;16942976
2048;512;32;128;6;182;18446744073709551615
4096;512;32;4;6;1638;18446744073709551615
2048;8;32;8;6;1365;65563296
2048;512;32;8;6;105;8323040
2048;512;16;8;6;182;10999296
2048;512;32;8;6;1365;32025216
2048;512;32;256;6;182;18446744073709551615
2048;512;1;8;30;182;390492544
8;512;4;8;18;182;103521504
8;512;2;8;6;182;75008512
2048;512;1024;8;6;182;18446744073709551615
2048;512;32;8;63;182;28591168
2048;512;32;8;819;182;18446744073709551615
2048;512;32;8;6;1638;18446744073709551615
2048;512;32;8;1;182;29476224
2048;512;32;8;6;126;7139872
2048;512;32;16;6;182;11398976
8192;512;32;8;6;182;7303808
2048;64;32;2;6;182;15775936
2048;512;32;512;130;182;18446744073709551615
2048;512;32;8;195;18;26554912
2048;512;1024;128;1365;182;18446744073709551615
8;512;2;8;45;182;409925536
2048;512;1024;64;6;182;18446744073709551615
8;512;2;8;6;455;153349280
2048;64;256;8;6;10;18446744073709551615
32;512;32;8;6;182;9250656
2048;512;1;8;6;182;119214432
128;256;32;8;910;1638;18446744073709551615
2048;512;32;8;6;42;13099040
32;512;32;8;91;182;18446744073709551615
2048;512;32;8;3;70;16307360
1024;8192;128;32;630;315;18446744073709551615
16;2048;1;1;210;18;2072072704
512;64;4;4;455;1;289975616
32;64;32;16;1;90;778198208
2048;256;32;8;14;182;8932384
2048;512;64;8;10;182;8981280
8192;512;64;8;6;105;11574624
1;2048;1;64;195;585;18446744073709551615
1;4096;1;256;105;105;120356384
2;4;1;4;390;1;16730878240
256;512;4;8;546;273;18446744073709551615
2048;512;32;8;13;182;9480928
8192;512;32;8;10;455;21469728
2048;512;32;8;6;315;9459712
2048;512;16;8;2;182;16722336
2048;512;32;512;6;182;18446744073709551615
128;512;32;8;6;182;7745920
2048;2;32;1;6;182;33962016
2048;512;32;8;6;90;8136448
2048;4096;32;8;6;234;7895264
2048;512;32;8;9;182;9182272
2048;512;32;8;21;182;16135200
2048;1024;32;8;7;182;8647744
2048;512;32;8;6;117;7618944
4096;512;32;8;3;273;11012480
1024;512;32;8;13;210;11839520
1;512;1;8;6;182;198228512
1024;512;16;4;6;105;13014816
1024;512;32;4;6;182;9730400
2048;512;128;8;6;182;13771200
2048;2048;32;8;6;273;8628672
2048;128;64;8;6;182;8833696
2048;512;64;8;6;182;8478848
2048;256;8;4;6;182;33066528
2048;512;32;4;6;234;12393280
1024;512;32;8;6;182;6987584
2048;512;64;8;3;182;13524192
1024;64;32;8;6;195;9645280
2048;128;64;8;18;182;9305280
2048;1024;64;4;6;70;13257536
2048;512;32;8;6;70;10050528
2048;256;32;16;7;182;10147968
2048;4096;32;4;6;182;9544576
2048;256;4;1;6;182;164106432
2048;512;32;32;14;182;10875328
512;512;32;8;6;182;7004480
2048;512;64;8;5;182;9665152
2048;1024;32;8;13;182;9424320
4096;512;8;16;6;182;18723744
2048;2048;64;8;5;130;12368352
2048;512;32;32;13;234;11359264
2048;512;32;8;1;210;29054656
2048;512;4;8;1;182;77984544
256;512;64;8;14;182;7481568
2048;512;32;8;7;182;8407552
2048;1;128;1;78;630;18446744073709551615
2048;8;16;8;819;78;18446744073709551615
1024;256;1;1;13;130;672520928
1024;1024;64;256;234;1170;18446744073709551615
32;128;32;1;455;2;3441021536
512;1024;128;512;585;35;18446744073709551615
1;128;1;8;105;1;1212000160
512;2048;128;1024;910;1170;18446744073709551615
2048;512;32;32;3;182;41871072
8192;128;32;2;6;70;12168800
2048;256;8;32;6;182;21401632
2048;128;32;8;9;390;22833824
2048;2048;32;16;6;182;11287936
2048;1024;32;8;15;182;13004128
2048;512;32;32;6;182;22067584
4096;512;32;8;6;182;7030336
2048;512;16;4;2;182;16104544
512;512;64;8;6;182;8521856
4096;2048;64;8;13;630;17043744
2048;2048;32;8;6;390;12574144
2048;512;64;16;1;182;68631488
8192;512;32;8;1;105;38819648
4096;2048;32;8;6;117;7684960
4096;512;128;8;3;182;21829472
2048;256;8;8;6;91;13241920
2048;64;32;8;6;117;8364672
4096;512;32;8;6;117;7747456
8192;512;32;8;6;130;8420608
2048;1024;32;8;6;234;7923456
1024;4096;128;8;9;182;15814304
2048;512;32;32;13;182;11527584
2048;1024;64;2;10;126;10354528
2048;256;32;8;6;117;7737056
1024;512;32;8;5;182;7816800
8192;512;64;8;10;182;9198144
2048;512;32;16;6;234;11363488
2048;512;32;16;5;234;13367328
4096;128;32;8;6;182;7163712
2048;512;32;8;3;130;12863712
2048;512;32;4;2;182;9197056
2048;512;4;8;9;182;54919680
512;512;32;16;6;130;13256832
2048;512;32;16;6;195;11850880
512;512;32;8;5;117;8796576
2048;256;4;8;6;182;35811264
128;128;32;8;1;182;44719584
2048;1024;32;64;6;182;18446744073709551615
2048;512;32;8;5;90;9099872
1;512;1;8;6;130;158885824
2048;512;16;8;6;585;38302240
8192;512;16;64;6;182;49505888
2048;2048;32;8;6;234;7961152
1024;512;32;16;6;182;11256128
2048;512;8;8;6;182;18177408
8192;512;32;16;6;182;12378816
8192;512;32;8;6;195;8131488
2048;128;32;8;7;182;8565440
2048;256;32;8;1;182;29524544
8192;2048;16;8;6;182;11933120
8192;512;32;8;7;195;10328160
2048;128;16;8;10;130;15532544
2048;64;32;16;6;105;14233632
2048;512;128;2;13;182;13719744
2048;512;32;4;26;182;28142528
2048;1024;32;32;6;182;21988512
4096;1024;32;8;6;182;6981920
2048;128;32;8;9;182;9781920
8192;512;16;8;6;182;11881984
2048;512;32;8;2;210;15618528
2048;512;64;8;2;182;18471200
2048;2048;32;8;1;182;29133984
256;256;32;8;18;390;33744640
2048;2048;64;8;6;195;8902464
4096;512;16;8;3;182;15058976
1024;1024;32;8;6;182;6846336
2048;512;32;8;6;78;9191264
4096;512;32;16;1;210;59428928
2048;1024;32;8;6;182;6830880
2048;1024;32;8;10;182;9731648
2048;1024;32;8;6;117;7549568
4096;1024;32;8;6;630;17628896
8192;1024;32;4;9;182;12769280
4096;1024;32;8;1;70;42982176
2048;1024;32;8;6;130;7812416
1024;2048;16;8;3;182;14222368
2048;1024;32;8;21;182;16122432
4096;1024;64;8;2;182;18817888
2048;1024;32;4;6;182;9730720
2048;1024;16;4;6;182;19708384
2048;1024;32;4;1;126;15798048
2048;1024;16;8;9;182;16615072
1024;1024;32;8;7;182;8526560
2048;2048;32;4;6;182;9584416
4096;512;32;16;6;182;11724416
2048;1024;128;8;6;182;13747712
512;1024;32;8;6;182;6889984
2048;1024;16;8;6;195;12298752
2048;8192;32;8;6;210;7176480
2048;1024;32;8;6;63;9388704
1024;1024;8;16;6;182;17873120
1024;1024;32;8;2;182;15643264
2048;1024;64;4;6;182;7361344
2048;2048;32;8;6;630;17110048
512;1024;32;8;10;182;9741344
1024;1024;16;8;13;182;18380800
8192;1024;128;8;6;117;17325120
2048;1024;32;8;6;455;12326272
8192;1024;32;8;6;91;8260544
256;1024;16;8;6;210;12255872
2048;1024;64;1;3;182;13226688
2048;512;16;32;6;117;23862528
2048;1024;32;8;1;105;35376736
2048;128;64;4;6;105;9989248
2048;1024;32;8;1;182;29324896
2048;1024;1024;8;3;126;18446744073709551615
2048;1024;16;16;6;117;12362240
1;256;1;8;13;182;361584320
2048;1024;16;8;6;65;8576768
1024;512;8;32;6;182;19017888
2048;4096;32;16;3;182;20985088
512;4096;32;8;6;182;6568640
2048;1024;32;32;13;91;13652704
2048;1024;32;16;6;182;11340000
2048;1024;32;8;6;630;16955616
512;4096;32;8;3;182;10728032
512;4096;32;8;6;195;7314016
512;4096;16;8;1;182;26602752
512;4096;4;4;6;182;53047392
1024;4096;32;8;1;130;33539584
64;4096;32;16;6;182;11147264
512;4096;32;16;6;182;11074848
512;1024;16;1;6;182;53546176
512;8192;8;8;45;182;104380992
64;8192;32;8;6;117;7367520
512;8192;32;8;6;182;6612224
512;4096;16;32;6;130;22903360
512;4096;32;8;9;273;11864640
512;1024;16;4;2;273;23710016
128;4096;32;8;6;105;8068896
256;4096;32;8;2;182;15348992
2048;4096;32;8;6;273;8467488
64;2048;32;4;6;210;10958336
512;4096;128;8;6;70;25770624
512;8192;32;1;6;585;106002496
512;4096;32;8;21;182;15923424
512;1;32;1;6;105;232664832
512;4096;32;8;9;182;9001376
512;4096;32;8;13;182;9286976
512;4096;32;8;18;182;12460608
1024;8192;32;8;6;70;9580160
512;4096;32;32;3;210;39528384
512;4096;32;8;6;210;6957888
128;4096;32;8;9;182;9121888
512;4096;32;4;13;117;12162144
512;4096;16;16;6;182;11529536
512;4096;32;1;9;455;102485888
2048;4096;16;8;6;182;10910592
256;4096;64;8;5;182;9289056
4096;4096;32;4;6;182;9913280
512;2048;32;8;6;182;6747072
512;8192;8;16;2;78;28545696
256;4096;32;8;6;182;6566944
128;4096;32;8;5;182;7443936
512;4096;128;4;6;90;15942336
512;4096;32;8;7;182;8291520
256;4096;128;8;6;182;13536256
128;8192;32;8;6;90;7792064
256;4096;64;8;7;182;9387264
256;8192;32;2;7;182;18958208
2048;4096;64;4;6;210;7862272
256;4096;32;8;21;182;15948768
256;8192;32;8;2;273;14349856
256;4096;16;8;1;117;28718336
256;4096;32;32;6;182;21153760
256;4096;32;4;10;273;20346528
256;1;32;1;6;117;419547680
256;2048;32;8;6;210;7119008
256;4096;32;8;6;70;9756736
256;4096;32;8;6;126;6812832
512;4096;32;32;6;182;21191552
512;4096;32;4;15;105;12960896
256;4096;64;16;6;182;13632064
256;4096;32;32;1;195;117906944
64;4096;32;8;6;126;7030720
256;4096;32;8;6;910;32312320
256;4096;64;16;6;126;15036512
256;4096;64;8;6;182;8087520
256;4096;32;64;6;182;18446744073709551615
256;4096;32;2;6;455;36680160
256;4096;128;8;1;182;50002944
256;8192;32;8;6;182;6476448
256;8192;32;2;6;182;15500640
256;1;32;1;6;182;397671392
256;8192;16;8;6;182;10619680
256;8192;32;8;2;65;23358432
256;8192;32;2;2;130;12217568
256;8192;32;8;10;182;9519648
256;8192;16;8;6;273;15792480
256;8192;16;1;6;182;54005792
512;8192;32;16;6;182;10984928
256;8192;32;8;6;234;7533280
64;8192;32;8;14;182;8960896
256;512;32;4;6;182;9895648
256;8192;32;8;5;182;7251744
512;8192;32;16;6;234;10847680
256;1;32;1;6;455;465816288
256;8192;4;16;6;182;34938880
256;8192;32;8;6;273;8130976
256;1;32;1;6;234;433245536
512;1;32;1;6;117;232428000
256;8192;32;32;9;182;14822752
512;8192;32;8;1;130;32704512
2;4096;2;128;10;21;149998560
1;32;1;8;1638;819;18446744073709551615
4;2;4;2;6;234;8530136384
1;32;1;1;195;390;18446744073709551615
2048;8192;32;8;10;182;9673280
64;4096;32;2;2;182;10652160
256;8192;2;8;6;210;58745184
256;1;32;1;6;234;434322400
256;8192;128;32;6;210;18446744073709551615
256;4096;4;8;6;182;34266368
256;4096;32;4;6;35;13454272
256;8192;32;8;6;390;12103008
256;2048;32;16;6;182;11192064
256;8192;64;8;14;182;7166624
128;8192;32;4;6;126;7697376
256;8192;32;4;6;315;16389888
256;8192;32;8;6;105;7868160
256;8192;64;8;3;130;17064992
256;8192;32;8;6;130;7517440
256;8192;32;8;3;182;10527872
1;1;1;1;273;70;18446744073709551615
1;32;1;32;3;105;17264063872
8;512;1;32;182;30;213544448
1;1;1;1;9;2730;18446744073709551615
128;8192;32;8;18;195;13209280
1024;4096;32;8;6;182;6628736
1024;1;16;1;1;182;162478528
512;8192;32;8;14;182;8732384
256;8192;32;8;6;117;7178560
256;8192;32;16;5;390;11850848
256;8192;128;8;6;182;13463552
256;8192;32;8;18;182;12477280
256;1;32;1;2;546;451832224
1024;8192;32;8;6;315;9496512
128;4096;32;8;6;130;7709920
256;8192;32;8;6;210;6901536
2048;2048;32;8;3;182;11140768
256;8192;16;8;5;182;11247360
64;64;64;16;78;18;178999040
32;2048;1;32;78;1;110208000
1;512;1;256;65;1170;18446744073709551615
64;64;2;2;2;195;117029600
256;8192;32;8;6;126;6650784
2048;8192;32;8;6;182;6888224
128;8192;32;8;7;182;8059552
2048;1;32;1;6;182;64405856
64;8192;32;8;6;182;6647648
256;8192;16;8;6;91;7426720
256;1;128;1;6;182;612705696
256;8192;32;8;6;90;7657504
256;8192;64;32;7;182;18446744073709551615
256;8192;32;16;6;182;10903616
256;1;32;1;18;182;367756064
256;1;8;1;6;182;439015520
512;8192;32;4;6;130;8717536
256;4096;32;8;3;390;12238432
128;1;32;1;7;182;777445952
256;8192;16;8;3;126;11156544
512;1;32;1;5;182;203132448
256;8192;32;8;9;182;8995616
256;4096;32;16;6;126;11429184
256;8192;32;4;6;182;9441152
256;8192;32;8;1;182;27974304
128;8192;32;8;3;91;12259648
256;8192;32;16;6;273;10306880
256;8192;32;8;6;91;7554880
256;8192;32;8;13;130;8188576
128;8192;64;8;6;195;8644544
256;4096;32;32;6;273;19961536
64;1024;64;8;6;182;9508992
256;4096;32;8;9;105;9198880
128;2048;8;8;6;182;17680960
256;8192;32;8;2;45;26048992
128;512;32;8;13;182;9719232
256;8192;64;32;13;182;18446744073709551615
32;8192;32;8;6;182;6842880
256;1;32;1;70;273;18446744073709551615
256;4096;2;128;70;1;94550176
16;4096;2;8;117;3;59903392
1024;8192;64;1;630;910;18446744073709551615
16;2048;1;256;210;195;18446744073709551615
256;8192;8;8;6;182;17114240
256;8192;64;16;6;105;18060896
1024;8192;32;8;5;182;7386528
256;8192;32;8;13;91;7062432
256;8192;32;8;6;585;16786176
64;8192;32;2;6;182;15696864
2048;8192;32;32;6;182;21947264
256;1024;32;8;6;63;9532128
512;8192;64;8;5;182;9167328
512;4096;32;8;10;182;9519488
256;1;32;1;21;182;365827616
256;1;16;1;6;182;372862944
256;4096;16;8;6;63;7909920
512;64;2;4;630;1;425779968
128;64;1;2;26;90;541110528
256;8;32;4;195;42;140498816
1;4096;1;1;105;130;18446744073709551615
2048;4096;64;8;9;455;13409216
256;8192;8;8;1;182;45080768
256;8192;32;8;6;315;9250784
128;8192;8;8;13;182;30524288
256;8192;64;4;6;182;7127392
256;8192;32;32;6;182;21020416
256;2048;8;8;6;182;17521888
256;8192;4;1;6;39;94262912
256;2;32;1;6;182;200433536
256;1;32;1;14;8190;18446744073709551615
256;8192;32;8;2;182;15100480
64;8192;32;8;6;130;7719200
256;512;32;8;6;182;7137792
256;8192;32;8;6;10;39106560
256;8192;32;8;6;35;14983648
256;8192;32;1;6;182;29599360
32;8192;2;8;6;182;60569184
256;1;32;1;6;182;400962752
256;16;32;8;8190;7;18446744073709551615
256;1024;2;8;91;1365;18446744073709551615
256;8192;32;8;6;18;21949504
256;8192;32;16;6;234;10775232
2048;8192;4;8;1170;1170;18446744073709551615
256;8192;32;8;4095;182;18446744073709551615
64;2048;32;32;6;182;21465088
256;2;32;2;6;182;201697440
256;8192;32;8;6;7;56195680
256;8192;32;1;6;182;29591424
256;8192;1;8;6;182;114408768
256;8192;32;8;35;182;30231552
2;8192;2;2;6;182;159095328
2;2048;1;64;390;18;196831744
256;512;4;8;18;273;128343456
64;4;1;2;78;630;18446744073709551615
2048;32;1;2;5;78;193989856
1024;32;64;8;13;130;14374848
1024;2;4;1;234;117;18446744073709551615
2048;128;32;1;455;2;778405984
512;64;1;2;585;35;18446744073709551615
128;8192;32;8;2;1170;45713600
128;8192;32;8;10;182;9525440
256;1;32;1;5;210;390339040
256;128;32;8;6;182;9312800
512;8192;4;8;1;182;71744576
1;8192;1;8;6;182;120112160
256;8192;32;64;6;182;18446744073709551615
1;128;1;8;105;1;1206525536
32;128;2;128;90;315;18446744073709551615
256;8192;32;8;7;210;8969344
256;4096;32;8;6;390;12162560
32;2048;32;8;9;182;10580544
512;1024;16;8;6;182;10818560
256;8192;64;8;6;182;8036608
1;4096;1;128;10;21;227338400
1;1024;1;8;819;819;18446744073709551615
256;8192;64;2;2;182;7378880
256;8192;128;8;9;90;23331616
128;1;32;1;6;130;898490784
256;8192;32;4;3;182;9696000
4;2;4;2;6;1;60236950688
4096;32;512;16;10;390;18446744073709551615
256;16;32;8;182;182;18446744073709551615
1;8192;1;8;6;182;120031648
64;8192;16;8;9;182;16415584
256;1;32;1;6;105;461544032
256;4096;32;8;10;182;9530688
256;8192;32;128;6;182;18446744073709551615
1;1;1;1;42;70;50261780320
256;8192;32;512;6;13;18446744073709551615
256;8192;32;4;5;182;9951456
1;32;1;2;3;105;2671194912
8;512;1;8;182;30;436379872
1024;8192;32;8;9;126;7634176
256;8192;32;16;6;195;11362240
256;1;32;1;6;65;579946176
1024;8192;32;8;6;182;6683776
64;1024;64;1;585;18;985133312
32;2048;1;32;18;1170;18446744073709551615
1;512;1;256;65;21;784615552
4;4;2;2;2;195;4661117408
2048;4096;2;128;70;126;89660480
16;4096;2;4;117;3;102135712
1024;2;1024;2;78;910;18446744073709551615
1;2048;1;512;910;18;18446744073709551615
256;64;32;8;6;182;9713152
256;8192;128;8;6;585;7928416
512;64;4;4;455;455;18446744073709551615
8;8192;8;16;26;630;18446744073709551615
256;8;32;4;195;1;1731696704
8192;4096;2;1;105;1;651350368
1024;8192;32;8;2;182;15261568
64;1;32;1;26;182;1375174848
256;8192;8;4;7;182;39158848
256;1024;64;8;6;182;8332928
2;256;2;64;390;18;247090048
1;512;1;2;8190;273;18446744073709551615
16;8;4;1;26;630;18446744073709551615
2048;2048;8;1;5;78;55115712
256;8192;32;8;7;78;9786560
32;4096;16;8;7;182;14428992
256;8192;8;8;13;105;21172736
256;8192;32;32;5;182;24949344
256;4096;32;8;1;234;28236960
128;8192;8;8;6;585;75496160
256;8192;32;2;6;315;27472736
128;8192;8;8;6;182;17210944
128;8192;64;2;6;182;9473504
256;8192;32;16;13;182;6660704
512;8192;16;8;6;130;9032960
256;4096;64;8;10;182;8813600
1024;8192;32;8;13;182;9319296
256;8192;16;8;10;126;13576096
1024;8192;32;8;3;182;10731904
256;8192;32;16;15;91;8902592
128;8192;32;2;3;182;14612704
512;4096;64;8;6;182;8110048
256;8192;16;2;1;195;35270272
64;8192;32;8;6;78;9040160
256;1;32;1;1;91;715448416
256;8192;32;16;2;182;29471648
2048;8192;32;8;3;182;10948640
64;8192;32;32;1;182;112640480
256;8192;32;16;6;585;16816288
128;8192;32;8;6;455;11825184
256;2048;16;16;6;78;11303744
512;8192;32;2;6;182;15621024
256;8192;16;32;2;182;61706528
256;8192;32;8;15;182;12614752
128;8192;32;8;6;630;16442656
128;8192;64;16;6;210;14178432
128;1;32;1;6;182;792111040
128;1;8;1;6;182;690991136
64;8192;32;16;6;182;10948160
1024;8192;32;8;6;105;7947552
256;8192;32;8;6;910;32364384
1024;8192;64;8;30;182;9975296
256;8192;32;2;6;90;9371296
256;1;4;1;6;182;375589024
1024;8192;32;4;6;390;22604160
512;8192;16;8;5;130;9837472
128;4096;32;8;6;117;7394656
256;8192;32;1024;6;182;18446744073709551615
16;128;1;8;6;182;148714560
256;8192;32;8;105;182;18446744073709551615
256;2;4;2;21;182;381337600
256;4;32;1;6;182;101185568
256;8192;2;8;6;182;61084000
256;8192;256;8;6;182;18446744073709551615
256;8192;32;8;8190;182;18446744073709551615
32;8192;32;32;6;182;21156000
256;256;32;8;6;182;7737248
256;8192;32;8;315;182;18446744073709551615
256;8192;32;8;42;182;30098560
256;2048;32;8;6;18;22285696
256;8192;64;8;585;182;18446744073709551615
256;256;32;8;6;234;8907392
256;8192;32;8;26;182;16752992
256;8192;128;8;6;45;38712448
256;8192;32;1;315;182;18446744073709551615
256;8192;32;128;1170;182;18446744073709551615
512;8192;4;8;6;182;34679968
256;8192;32;8;182;182;18446744073709551615
256;8192;32;8;1365;42;18446744073709551615
8;8192;8;8;6;182;18866752
16;8192;1;8;6;78;64393568
256;8192;32;8;10;6;65859680
256;8192;32;8;6;1638;18446744073709551615
256;8192;16;128;6;182;18446744073709551615
256;8192;32;8;6;63;9079616
256;8192;1;8;15;182;287827744
256;8192;32;8;234;315;18446744073709551615
256;8192;32;8;210;182;18446744073709551615
256;8192;32;8;585;182;18446744073709551615
1;8192;1;8;6;182;119930016
256;2048;32;8;6;182;6745952
256;1;32;1;6;182;397579552
256;8192;4;8;6;182;34274848
256;8192;32;8;6;13;30248704
256;8192;1;8;6;182;114399616
256;4;32;1;10;182;95027808
256;8192;2;8;6;182;61058368
256;8192;32;8;2730;182;18446744073709551615
256;8192;32;8;126;182;18446744073709551615
256;8192;32;8;126;78;34567232
256;8192;1;32;6;182;114211392
4;8192;4;128;6;182;112314848
256;4096;32;128;6;182;18446744073709551615
1;8192;1;8;6;182;119995200
16;8192;1;8;6;182;113068736
256;16;1;8;6;182;137129280
256;1;32;1;6;126;410382848
256;8192;128;4;6;182;11330944
1024;32;128;8;13;130;25936320
1024;1;64;1;130;117;18446744073709551615
2048;256;32;256;455;390;18446744073709551615
512;1;128;1;585;5;6102624256
8192;32;32;8;6;182;8219744
256;8192;32;8;455;182;18446744073709551615
4;8192;4;8;6;91;20444256
512;8192;32;8;6;65;10232640
128;8192;32;8;6;182;6541696
256;8192;32;16;3;182;20267776
64;8192;32;8;10;630;37389472
256;8192;64;16;13;182;9103808
64;8192;32;8;18;182;12760704
256;8192;8;8;6;70;10894400
256;8192;32;16;9;117;9152960
256;1024;16;8;3;182;14555840
256;8192;128;8;6;195;12860256
256;8192;32;8;14;117;7384736
256;1024;16;8;9;182;16599456
256;8192;64;8;39;182;18149632
32;8192;32;16;6;182;11086496
64;8192;32;8;10;182;9682624
256;1024;32;8;6;195;7782976
128;8192;32;8;2;182;15187008
256;8192;32;32;6;210;20738656
256;8192;32;8;3;315;10532256
256;8192;32;8;7;182;8164576
256;8192;64;2;6;182;9294080
256;8192;32;8;9;210;10156160
256;1;32;1;2;90;546832192
128;1;16;1;7;630;767961024
128;2048;64;8;6;182;8234496
256;8192;128;16;6;182;18446744073709551615
1024;1;32;1;6;182;127709664
256;8192;64;8;5;105;12388768
256;8192;32;32;1;182;112305280
256;8192;32;8;1;390;26033120
256;8192;32;8;2;126;15508704
256;8192;64;4;18;182;11947456
4096;1;16;1;6;182;119108704
256;8192;128;8;5;182;15103872
256;4096;32;16;6;182;11048224
128;1;32;1;35;182;718109088
256;1;32;1;6;195;451439232
64;8192;16;16;6;182;11490304
256;8192;16;8;6;130;8955872
128;8192;16;8;6;126;8643072
256;8192;32;8;6;195;7249856
1024;2048;32;8;6;182;6827968
256;8192;2;8;6;90;27114080
1024;128;16;8;105;1;130909312
32;128;32;128;3;315;18446744073709551615
2;2048;2;128;10;18;294475488
1;32;1;16;1638;819;18446744073709551615
4;2;2;2;1;234;18527366688
1;32;1;16;910;195;18446744073709551615
256;8192;32;8;7;91;8503488
256;8192;32;256;6;182;18446744073709551615
256;8192;32;8;117;182;18446744073709551615
1;1;1;1;14;819;18446744073709551615
1;64;1;4;3;105;1463942944
8;512;1;32;182;70;18446744073709551615
1;8192;1;1;546;126;18446744073709551615
64;1;64;1;78;90;2086846208
4096;2048;64;1024;78;1;18446744073709551615
1;512;1;256;65;5;902541184
64;64;2;4;2;195;107172384
256;8192;32;8;14;182;8670048
256;8192;32;16;9;78;11110048
128;1;32;1;26;182;718765408
1024;4096;32;8;9;210;10176896
256;8192;8;8;7;182;24085408
256;8192;32;16;6;70;16232448
256;1;32;1;6;42;661410688
8;4096;2;128;70;1;135686304
16;64;2;64;117;91;107945504
4;8192;2;32;105;910;18446744073709551615
16;8;2;1;210;315;18446744073709551615
512;64;4;4;455;90;18446744073709551615
8;64;1;16;26;90;214033344
1024;8;32;4;195;42;91462208
1;4096;1;128;1;105;1644732512
2048;8192;32;4;1;182;14828224
256;1;32;1;6;273;387501696
256;8192;32;4;6;91;6883552
256;8192;32;4;9;910;60197504
256;8192;32;8;45;130;32646816
2;8192;2;8;6;182;64131936
256;32;2;8;6;182;71515264
256;8192;64;16;3;182;24235616
256;8192;32;8;1;63;38189600
256;8192;32;2;9;182;20945312
16;512;2;64;390;195;18446744073709551615
2048;512;4;32;182;273;18446744073709551615
2;8;2;1;78;630;18446744073709551615
2048;32;16;32;30;35;13970976
1024;1;32;1;6;182;128267424
128;8192;32;4;10;117;9489504
256;2;32;2;1638;182;18446744073709551615
256;8192;32;8;6;1170;31921216
256;8192;32;4;1;182;14363584
256;8192;32;8;2;390;15370880
128;1;32;1;6;390;806877120
1024;128;64;2;13;1;356854624
1024;2;64;1;234;35;319684384
2048;128;32;1;455;630;18446744073709551615
512;1;128;1;585;455;18446744073709551615
1024;128;16;4;105;1;160690560
16;128;4;128;910;10;66371008
2;4096;1;64;10;819;522902176
1;32;1;32;1;819;44889176864
512;8192;32;8;1;234;27913952
256;4096;32;8;5;91;8645952
256;1;256;1;9;182;763427872
256;8192;32;8;6;8190;18446744073709551615
16;32;2;1;6;234;466124544
1;32;1;1;910;390;18446744073709551615
32;512;16;128;42;630;18446744073709551615
1;64;1;4;90;1;2035030432
8;8;1;8;182;1;2480558080
1024;1;32;1;9;126;126740672
64;64;8;2;78;18;87448736
256;2048;1;1;78;1;652465984
256;4096;32;8;7;182;8157728
2048;8192;128;8;6;182;13920224
256;8192;32;8;6;5;78363712
256;8192;2;8;45;182;408634272
256;32;32;8;6;182;17252736
1;512;1;256;65;1;1438183456
64;64;2;4;1;195;161147328
2048;4096;2;128;30;585;18446744073709551615
16;4096;2;1;117;90;2119276288
256;8192;32;8;6;819;32223200
512;8192;32;8;35;182;30484992
256;8192;32;8;91;182;18446744073709551615
1024;1;32;1;6;117;134033216
64;8192;16;8;10;182;18791392
256;8192;32;8;3;126;10845728
256;8192;32;8;90;182;18446744073709551615
256;8192;32;128;6;1638;18446744073709551615
1024;8192;32;256;1;182;18446744073709551615
1024;256;1024;32;630;910;18446744073709551615
16;2048;4;512;210;18;18446744073709551615
1;64;1;1;455;1;7523568032
128;1;16;1;630;90;18446744073709551615
256;8192;32;8;35;273;29036736
256;8192;32;8;6;78;8697792
256;1;32;1;10;210;362449856
1024;8;32;8;195;42;56059232
2;4096;1;256;105;1;66745760
2;2048;1;32;42;18;55779840
256;512;2;128;18;273;106111072
1024;4;4;1;78;1;542635200
2048;1024;16;1;2;35;51092672
1024;32;64;32;13;45;18446744073709551615
16;2;2;1;1;35;3143726816
256;8192;32;512;455;42;18446744073709551615
256;8192;16;8;6;63;7863616
1;128;1;1;455;2;5538490624
2;1;2;1;585;5;45089934528
512;4096;256;1;13;1;1115867296
16;1;4;1;910;21;18446744073709551615
64;2048;32;8;9;182;9617280
2;256;2;128;819;30;18446744073709551615
1;2;1;1;1;105;39922785280
1;8;1;1;6;234;7361995200
128;32;1;1;910;390;18446744073709551615
1;1;1;1;1;70;86002906080
1;64;1;4;105;105;1842399392
8;512;1;32;182;1;86092992
128;8192;32;8;182;182;18446744073709551615
1;8192;1;8;6;455;248390592
256;8192;32;64;6;21;18446744073709551615
1024;8192;16;8;9;130;12930464
64;64;8;2;630;18;18446744073709551615
32;2048;1;32;1;1;888532096
1;512;1;256;195;21;280445472
128;8192;32;16;6;182;10910304
64;8192;64;4;9;182;8618624
64;64;2;4;2;195;106685792
2048;4;2;1;70;1;638729152
2;4096;2;8;45;3;75092768
1024;8192;512;32;9;910;18446744073709551615
16;8192;1;256;210;18;36009888
512;64;4;4;819;65;18446744073709551615
2048;1024;16;4;6;90;11366688
1;8;1;8;195;42;8194141184
1024;4;1024;1;105;1;27049721760
