GLOBAL_SIZE_0;GLOBAL_SIZE_1;LOCAL_SIZE_0;LOCAL_SIZE_1;cost
64;4096;4;8;236095675
1;4096;1;2;686505230
4096;4096;8;1;352266470
8;128;4;64;1596850135
64;4096;2;8;312587971
8;4096;4;16;323122751
64;2048;2;8;432237516
64;1;4;1;1958760238
4;512;1;2;556664981
64;1;2;1;1889933208
1;1;1;1;69519817916
16;2;16;1;3152726526
64;4096;4;32;282414720
4;4096;4;8;298431928
1;4096;1;8;748821417
64;4096;4;64;276336716
16;1024;2;1;390498343
256;4;8;4;2559111056
1024;1024;1;8;534629313
2;512;2;8;461490682
1;1;1;1;69520089791
64;4096;4;4;231732916
16;512;4;4;350209848
64;1024;2;2;293859512
64;1;8;1;1904985335
64;4096;4;2;233113462
32;4096;4;4;247990006
64;2048;4;4;254264169
64;2048;4;8;276115959
256;4096;4;4;220409967
512;4096;2;4;224802300
512;4096;8;1;246400002
512;1024;4;4;247335256
256;4096;4;2;222612917
256;1;4;1;536923598
128;1;4;1;1077337875
1024;4096;4;4;237205753
512;4096;4;4;226895004
256;512;4;4;305374963
256;1;8;1;547557472
256;4096;16;4;225880084
256;1024;4;2;248295551
256;4096;4;8;230889298
128;1;8;1;1083051743
256;2048;2;4;227983960
256;4096;8;4;224807626
256;4096;4;1;237611049
256;2048;8;4;231357340
256;4096;2;2;227079260
4;1024;4;4;306338923
256;1024;4;4;253439833
256;2048;4;8;252849754
128;4096;4;4;220855585
512;1;16;1;1995477999
128;4096;8;4;219989049
256;4096;1;4;227270708
128;4096;16;4;224310006
128;2048;8;1;251757918
128;1;8;1;1100977171
128;4096;4;2;224184255
128;4096;8;8;228023838
32;4096;8;2;245631259
128;4096;8;2;226520339
1024;4096;8;4;234018298
128;2048;8;4;236267794
16;2048;8;4;250287926
128;2048;8;16;247790255
4;16;2;8;1266831586
512;128;256;32;18446744073709551615
128;2;8;2;482199924
4;4096;1;4;299080423
16;4096;8;4;221245338
128;1024;8;4;249916167
1024;2048;8;4;222169583
64;2048;8;4;235214339
16;2048;16;8;245262425
32;2048;4;4;260302133
16;2048;16;4;252098044
8;64;8;16;1662104958
2048;4;8;4;3891718926
4096;4;32;2;376250258
256;4096;4;256;18446744073709551615
2048;256;128;1;279869544
64;4096;8;16;225297711
128;1024;8;16;254800128
256;1;8;1;513143338
128;1;8;1;1058198777
256;4096;8;64;18446744073709551615
2048;1;8;1;3382125000
512;4096;8;4;214966550
64;4096;16;4;227890381
128;1;8;1;1057413325
64;2048;16;4;240797584
512;2048;4;8;237253510
512;1024;8;4;229159633
512;4096;16;8;210904462
512;1024;16;8;235891422
512;4096;16;4;213532086
512;1;64;1;2128832918
256;4096;16;8;207578375
256;4096;32;8;209267547
256;1024;16;16;247288800
64;4096;32;8;234685794
256;256;16;8;495315133
256;2048;16;4;219832750
128;4096;16;8;205878835
128;2048;16;8;230474839
128;4096;32;8;216429793
16;4096;1;8;957881201
128;4096;16;16;210270003
128;4096;16;32;18446744073709551615
128;1;16;1;1287698442
64;1;16;1;2022441459
128;2048;16;4;233941091
64;512;16;8;309148677
128;1024;16;8;252901128
128;1024;32;8;263931795
64;4096;16;16;227282545
64;4096;16;8;224036708
128;4096;4;8;223152543
512;4096;32;8;214446461
128;1;32;1;1051109356
256;4096;16;2;214177041
128;4096;64;8;18446744073709551615
256;4096;8;8;209907626
128;1;8;1;1092134337
128;1;16;1;1066998953
32;4096;32;8;240383256
128;4096;32;16;18446744073709551615
32;2048;16;8;252438927
4;4096;4;8;298314884
256;1;16;1;559415856
32;1;16;1;3519507308
256;1;16;1;626446468
64;4096;64;8;18446744073709551615
32;4096;16;8;238687713
128;4096;8;32;219591795
64;4096;16;2;231251958
512;2048;16;16;214479128
64;4096;8;8;222798460
128;4096;16;64;18446744073709551615
32;4096;16;32;18446744073709551615
1024;4096;8;8;224998463
1024;4096;16;4;221565042
2048;4096;16;4;243448420
128;1024;32;4;251246136
128;2048;8;8;234677209
256;2048;16;8;213132384
128;2048;16;32;18446744073709551615
128;512;16;4;303405251
128;2048;16;16;230455919
512;1;16;1;2081091478
128;1024;16;16;258376750
128;4096;16;2;211452375
128;4096;2;8;250845925
128;4096;32;4;209301425
128;4096;8;16;217215881
32;1;16;1;3290005393
64;1;16;1;2587497816
32;4096;16;16;239234918
256;256;8;2;375897760
8;4096;2;16;459503675
128;4096;64;4;215661670
256;4096;32;2;213536500
64;4096;8;4;219333673
8;4096;1;8;957109587
512;4096;8;16;221897751
128;1;32;1;1313690229
128;1024;4;8;305542046
128;1;64;1;1085789360
8;4096;8;8;241071218
32;4096;16;4;242264841
32;1;16;1;3148580041
512;4096;64;8;18446744073709551615
128;1;16;1;1114992704
128;512;16;2;301031137
4;4096;1;16;384798468
32;4096;8;8;231737587
256;1;16;1;522836265
1024;4096;16;8;218144048
128;512;16;8;300268470
256;512;16;16;290962210
128;4096;1;8;579623555
128;2048;64;8;18446744073709551615
1024;4096;64;8;18446744073709551615
64;4096;16;32;18446744073709551615
128;2048;16;2;248301591
256;1024;16;32;18446744073709551615
64;1;16;1;1836750951
64;1;2;1;1714769792
256;1024;16;8;255636135
1024;4096;32;8;233216964
32;4096;1;16;977138585
256;2048;16;16;231860504
256;1;64;1;525451635
128;1024;64;16;18446744073709551615
256;2048;8;32;237202000
256;4096;16;16;221860334
256;2048;8;8;238014293
16;1;1;1;6073479837
1024;4096;16;16;229384046
256;4096;16;32;18446744073709551615
128;4096;4;16;231484379
256;1;32;1;588348889
512;2048;8;8;223088418
512;4096;16;32;18446744073709551615
128;1024;16;4;258529960
64;1024;1;2;384315099
4096;8;4;1;436675625
4;256;1;8;706857591
8;1;8;1;10461441882
64;1;8;1;1896237947
64;1;32;1;2086069993
32;2048;8;8;258193091
256;512;32;8;298967468
1024;4096;128;8;18446744073709551615
16;256;8;16;749430354
1;4096;1;8;748325980
128;4096;16;1;216086212
32;1024;8;16;268885501
256;1;4;1;520262334
32;1;8;1;3224955778
512;2048;16;8;214336545
32;2048;8;16;240608711
32;512;8;64;18446744073709551615
1;1024;1;128;867166211
16;512;8;64;18446744073709551615
1024;2;2;2;3263994883
32;2048;32;32;18446744073709551615
128;4096;16;1;221196004
128;4096;2;4;213340251
128;2048;32;8;245960588
2048;4096;16;8;245831298
128;2;16;2;514312961
128;4096;16;128;18446744073709551615
1024;1;16;1;2963161327
128;1024;8;8;265512129
128;1;32;1;1125198313
512;2048;32;8;227000502
1024;4096;16;2;230874208
1;16;1;16;4287967220
512;32;1;32;4413331010
2;4096;2;1;566664219
1;256;1;1;1146818780
32;2048;4;32;303328175
1;2048;1;8;795231067
64;4096;4;4;218388339
256;4096;128;128;18446744073709551615
4096;512;16;1;358832085
4096;1;8;1;906156344
512;1;2;1;523920377
1;32;1;2;3178586503
1;128;1;64;1374897209
1;128;1;4;1369385631
1024;1024;1;16;689391842
1;512;1;8;942558939
1;128;1;32;1366681368
8;128;8;32;1423484316
512;4;16;1;2691148478
2048;32;1;32;4473828747
512;32;1;16;4120286265
256;32;1;1;800617317
512;16;1;1;857829423
256;64;1;32;3961954383
1024;32;256;2;18446744073709551615
512;32;256;32;18446744073709551615
64;32;4;32;3098381437
256;32;256;32;18446744073709551615
512;32;128;32;18446744073709551615
512;32;128;2;2723456209
1024;64;1;16;3728158477
512;32;1;2;429640669
512;128;128;32;18446744073709551615
512;64;1;32;3967840958
512;128;1;16;2675783279
512;128;256;8;18446744073709551615
256;4096;4;64;259557426
64;256;8;1;472424851
64;1024;2;1;380779419
16;4096;4;16;277996754
512;32;64;32;18446744073709551615
512;128;1;32;3163075000
256;32;1;32;4310834747
1024;32;1;32;4473969085
512;4;1;4;3508111375
256;64;1;16;3676528515
256;32;128;32;18446744073709551615
1024;32;1;16;4322103015
256;32;1;2;405788797
256;32;128;1;2655680098
512;32;1;1;824034598
128;32;2;32;3103673167
128;32;2;8;2721490257
256;16;1;2;403762254
256;64;1;8;3081727115
2048;64;1;16;3657786278
128;256;2;32;1546712227
64;32;4;16;2933316364
256;64;1;1;799085016
256;32;256;8;18446744073709551615
256;16;1;1;833199119
256;32;1;8;3728329397
256;32;256;1;2713957940
128;32;128;32;18446744073709551615
256;64;128;32;18446744073709551615
32;4;8;4;924861763
256;128;1;32;3197972216
256;256;1;32;2242371086
256;8;1;1;862807015
1024;32;1;1;871844282
32;32;8;32;1516469937
128;32;32;32;18446744073709551615
256;8;1;2;452549392
1024;32;256;1;2600066875
128;64;128;32;18446744073709551615
4;256;1;256;1476239879
8;1;8;1;10461626542
32;512;8;1;348539301
1;1024;1;128;867167367
256;16;256;1;2927555152
1;32;1;8;3269588506
256;4096;1;32;542360436
256;1;1;1;745461527
32;32;4;16;2419973635
128;32;1;32;3911822095
32;32;4;32;2626261338
256;8;256;2;18446744073709551615
32;8;8;2;521051726
128;16;2;1;476291549
16;512;1;64;1954090114
256;8;2;8;2526001480
2;16;1;16;2220001412
8;4096;1;2;379442084
128;32;2;16;3114167639
256;32;1;16;4150461256
16;16;16;1;477375512
256;1;2;1;539134340
256;32;1;4;3354010399
256;32;256;16;18446744073709551615
1024;4;1;4;4168265229
512;32;64;1;2654433571
512;1;16;1;2223507509
2;4096;1;1;1071185828
1;1024;1;1;1153462721
32;2048;16;2;257946959
256;64;1;64;3978750079
256;2;1;1;766059610
256;16;128;1;3148559774
4096;32;1;32;2796385498
256;4;1;4;2493865084
256;32;64;1;2706556375
256;256;256;32;18446744073709551615
256;64;256;32;18446744073709551615
256;32;128;8;18446744073709551615
256;32;32;32;18446744073709551615
2;32;2;32;2449482485
1;128;1;1;2370939822
64;32;1;32;3557818681
64;64;4;32;2748667458
64;4;4;1;543509885
128;32;2;1;456739836
256;128;1;128;3727507803
1;2048;1;8;794760976
64;256;4;4;1020472833
64;4096;1;128;1202761758
128;512;16;16;301674970
1024;64;1;32;4019599833
256;128;1;8;1964379696
256;8;1;8;3636386788
256;128;1;16;2732885581
1;64;1;32;2645922397
512;16;1;2;473636141
256;32;64;32;18446744073709551615
8;32;2;32;1383821106
256;32;1;32;4386754198
128;128;1;32;3171607236
1;1;1;1;69519804396
32;1;2;1;3272384136
4;2048;4;2;302684085
1;32;1;1;5022203085
64;32;4;2;2168282097
256;32;2;32;3486699726
256;32;1;8;3712403440
256;16;1;16;4269193708
64;16;2;1;511773219
128;128;2;32;2404835733
128;64;2;32;2943166591
256;256;1;64;2662578360
32;32;8;16;2060485919
256;4;1;4;2650421075
512;8;1;2;463265301
16;32;8;32;892678767
16;32;16;32;18446744073709551615
1024;16;256;1;3101613666
64;64;4;64;3037367078
128;16;2;16;3189277125
128;16;2;2;2652228554
1;8;1;2;8429160625
256;16;1;8;3927917824
64;16;4;1;2574909315
256;128;1;64;3481563040
1024;32;256;32;18446744073709551615
256;16;128;2;3089301409
1024;32;128;32;18446744073709551615
256;8;1;4;3592968267
128;4;1;4;2130991553
1024;16;1;1;889864260
128;8;2;2;2696297599
512;128;256;64;18446744073709551615
128;32;1;16;3609178308
128;64;2;64;3002220416
32;32;2;32;2289685155
256;2;1;2;924344604
512;16;1;16;4459170667
2048;64;256;32;18446744073709551615
256;16;256;16;18446744073709551615
512;64;256;32;18446744073709551615
64;256;4;32;1491061544
256;8;256;1;3142312166
512;64;1;64;4079050558
256;4;1;2;1337019055
2048;256;1;32;1980987629
256;512;1;32;1416901012
256;2;1;2;717538184
1;512;1;4;941390453
1024;1024;1;2;391099714
2;16;2;8;2220141565
1;128;1;32;1361788395
64;128;4;32;2016393624
64;32;2;32;3006960500
256;32;256;2;18446744073709551615
256;128;256;32;18446744073709551615
128;64;1;8;3022614798
128;64;1;32;3803560833
64;4;1;4;530470718
128;32;2;2;2569706279
256;32;1;4;3292929024
256;32;4;32;3620918683
256;1024;1;32;984703514
256;2048;1;32;696720750
1;32;1;32;3171324611
256;64;2;32;3152323577
32;32;8;4;2093457954
512;64;1;2;448819429
256;128;256;8;18446744073709551615
2048;256;256;32;18446744073709551615
512;32;1;8;3853502642
64;64;2;32;2716142357
1;128;1;32;1360852163
4;4;4;2;4307484433
256;64;4;64;3332462209
512;1;128;1;2286475399
64;1024;4;1;271759300
512;4096;4;16;235214676
4096;256;2;8;491234384
8;1;8;1;10461915417
32;512;4;16;589613050
1;1024;1;2;722087762
16;1;1;1;7087348841
16;8;2;8;937100636
2;4096;1;1;1070956533
1;1;1;1;69520156272
1;32;1;32;3164609542
2;512;2;1;564736125
1;256;1;1;1156903470
32;2048;2;8;583765259
4096;2048;1;8;345285005
64;4096;64;32;18446744073709551615
4;4;2;2;4283589250
4;4;1;2;4290080233
16;4;2;2;1754225052
2;2;2;1;16981179249
4;4;4;1;4305661189
4;1;4;1;17614212483
4;4;2;1;4293881645
4;2;4;2;8552383754
4;1;4;1;17614207026
2;4;2;1;8500779459
4;16;4;16;1171211629
4;4;1;1;4296983858
4;4;1;4;4281793190
4;32;1;8;1188203045
4;4;4;4;4305641625
1;16;1;4;4248405364
2;4;1;2;8491460374
4;2;1;2;8537059772
2;4;1;1;8492986353
4;1;1;1;17618888400
