GLOBAL_SIZE_0;GLOBAL_SIZE_1;LOCAL_SIZE_0;LOCAL_SIZE_1;v_TP_64;v_TP_65;cost
128;32;32;1;31;66;2305513324
1;2048;1;8;2046;682;12804729908
32;16;32;1;341;1;1078211289
16;1024;16;2;1;124;1382973959
8;1;4;1;132;66;10612849634
64;16;32;2;341;1;3251421167
128;16;8;2;1364;1023;6578269274
8;16;2;1;341;11;2344715403
32;16;32;1;4092;66;4986606707
256;16;32;1;341;1;1166058362
2048;16;32;1;341;1;2122773718
32;16;32;1;1;1;2453453857
32;16;32;1;682;66;1151560559
32;16;32;16;4092;22;18446744073709551615
32;16;32;1;4092;372;7096618037
32;16;32;8;4092;66;4990391375
32;16;2;1;4092;66;5001307625
32;8;32;1;1023;66;2504426979
1024;16;32;4;4092;66;4984800164
32;16;32;1;22;66;1463814955
1024;512;1;4;1;66;467299680
1024;16;32;4;682;66;1169023208
1024;16;32;1;4092;33;5056564880
1024;2048;32;4;4092;66;2508273690
1024;512;1;4;1;66;466251061
1024;32;1;4;1;66;475450183
1024;512;1;4;22;66;707179142
1024;512;32;4;4092;66;2512654872
1024;512;1;1;4;66;1487078940
1024;512;1;4;682;66;1054819508
1;512;1;4;1;66;2065444936
1024;512;1;4;1;1;410155180
128;64;32;4;1;1;3840925236
1024;512;1;4;1;1;410581844
1024;512;1;4;1;2046;766588007
1024;512;64;4;31;1;5380563865
128;512;1;4;1;1;2859139715
1024;512;1;4;1;12;410598888
1024;512;32;4;1;341;649321754
1024;512;16;4;1;1;1517996963
4;32;1;4;93;1;1819768511
256;512;1;4;1;1;1762203602
1024;8;64;4;1;1;1616077670
1024;512;1;4;22;1;3381151026
1024;512;1;1;1;1;1354111323
1024;128;1;4;1;1;423497626
1024;512;1;256;372;1;2603609367
1024;8;256;2;1;1;18446744073709551615
1;128;1;4;341;186;3745856031
128;64;2;64;132;31;869524846
128;1;16;1;11;1023;2103677458
512;512;4;4;4092;1;2088535493
1024;512;64;4;1;12;664930777
1024;512;1;256;1;1;341693631
1024;512;1;16;22;1;1633834204
1024;512;1;64;132;1;2664113487
1024;512;1;64;1;1;361470001
1024;512;1;256;1;2;388629965
1024;128;1;128;1;1;350844797
1024;16;1;8;6;1;1380139973
1024;512;32;256;1;1;18446744073709551615
1024;1024;1;256;1;1;343459292
1024;256;8;256;341;1;18446744073709551615
1024;512;1;8;1;1;375082849
2048;2048;1;256;1;1;367086876
1024;512;1;256;1;11;427330596
1024;512;1;256;1023;33;1125191672
16;512;1;256;124;1;1533832347
1024;256;1;256;1;1;345223722
4096;4;16;4;1023;1364;6498102438
8;4;1;4;44;11;3557241477
1024;512;1;256;1;1;341425717
1024;8;1;1;1;2;1603797125
1024;512;1;256;1;1;343313712
1024;512;32;256;1;1;18446744073709551615
1024;512;1;2;12;1;1052799103
1024;512;1;256;1;682;876214693
1024;512;1;256;22;1;409094211
1024;512;1;256;186;1;1730264526
1024;512;1;256;11;1;346553051
32;512;16;256;66;1;18446744073709551615
256;512;1;256;1;1;372210922
16;512;1;128;1;341;737857064
64;512;1;256;31;1;673273255
1024;1024;1;256;1;1;343052461
1;4;1;1;6;1364;25884906125
128;512;1;4;4;62;662398184
16;128;1;1;44;341;2022389382
1024;512;2;256;1;1;18446744073709551615
1;16;1;8;1;682;13395236949
1;4;1;1;4092;1364;25882109037
1;2048;1;8;6;1364;25851958792
1;1;1;1;6;1364;79021734709
1024;1024;1;8;1;62;503583001
1;2048;1;256;6;1364;25847599368
1;2;1;2;6;1364;52155151875
1;512;1;8;6;1364;25828248034
1024;1;1;1;11;31;2146984327
1;1024;1;8;1;1364;27058758084
1;512;1;8;6;1364;25849819625
4;4096;2;8;6;1364;6596367441
1;512;1;8;341;1364;25933977830
1;512;1;8;6;1364;25834050667
1;512;1;8;44;1364;25861640958
1;256;1;8;6;1364;25850899743
256;1024;64;8;11;372;18446744073709551615
1;512;1;8;6;1364;25824261660
1;512;1;8;6;1364;25832065708
4;256;4;8;186;1364;7080677382
1;512;1;8;124;1364;25928806414
1;2;1;2;6;1364;52153681964
1;512;1;8;62;341;6446968269
1;512;1;8;6;1364;25840549541
1;512;1;8;1023;1364;25890533787
256;512;4;16;6;1364;805778803
1;32;1;8;6;1364;25850643452
1;512;1;8;66;1364;25892046537
1;512;1;8;6;11;1128038278
1;512;1;8;6;1364;25834263451
1;512;1;8;6;11;1111685889
1;512;1;8;4;1364;25830276076
1;4096;1;8;6;2046;39926056289
2;512;1;8;6;1364;12847102077
512;512;4;8;6;62;673027690
1;512;1;64;2;1364;25825886083
4;512;4;8;6;1364;6606575600
2048;64;256;8;3;186;18446744073709551615
1;8;1;4;3;1023;19631645609
1024;64;128;8;6;186;18446744073709551615
512;32;64;1;22;682;2287455363
1;64;1;8;6;1364;25835361208
1;64;1;8;2;1364;25814786992
1;512;1;8;2046;1364;25888889791
1;4;1;1;186;1364;25949098458
1;2048;1;8;2;1364;25820598209
128;512;4;8;2;1364;729144088
1;64;1;32;2;1364;25823146909
1;32;1;8;124;1364;25891219662
1;64;1;64;2;1364;25820434584
512;64;8;8;2;1364;700136183
1;1;1;1;341;1364;79064826127
