GLOBAL_SIZE_0;GLOBAL_SIZE_1;LOCAL_SIZE_0;LOCAL_SIZE_1;cost
64;512;2;4;8004928
256;1;16;1;54313472
32;64;2;1;27379968
512;512;512;256;18446744073709551615
64;4096;2;4;7881984
64;512;16;4;2824672
64;512;1;4;15438464
64;128;2;4;8478688
512;1024;1;64;21880288
1024;1;1;1;59216992
1;2;1;2;5605935744
256;1024;128;64;18446744073709551615
64;512;16;1;3926400
64;256;64;4;2397248
1;512;1;4;22496704
64;512;2;4;7967744
64;1;64;1;196696672
64;256;16;4;3496096
4;256;1;4;24293120
128;256;64;4;2236192
128;256;2;4;8046496
128;256;64;32;18446744073709551615
128;1;8;1;98832576
32;256;1;256;53532128
128;256;32;4;2507392
128;2048;64;4;1460608
128;256;64;64;18446744073709551615
128;128;64;4;2336128
128;2048;64;128;18446744073709551615
2;2048;1;1;51062208
128;2048;4;4;4164480
2;2048;1;4;14845664
256;2048;64;4;1310560
128;16;64;4;6494720
128;1;64;1;101888480
1;2048;1;4;17643680
256;2048;64;32;18446744073709551615
256;16;64;4;3735360
2;512;1;4;24094592
16;2048;2;4;7854848
256;8;64;2;6805824
256;4;64;4;13341888
256;2048;256;4;1505600
128;2048;64;512;18446744073709551615
4096;1;32;1;5454240
1;1024;1;4;23705728
32;2048;2;8;4793088
256;2048;32;4;1275744
256;1024;64;8;1723552
512;2048;64;4;1309760
64;2048;64;4;1747872
512;2048;32;4;1328032
1024;2048;16;4;1492224
256;2048;64;8;1409248
64;2048;32;4;1982784
256;1024;32;16;1846784
256;1024;64;4;1534688
256;1024;32;4;1478976
256;512;32;4;2275744
256;2048;8;128;2594720
256;64;8;4;3561536
256;4;16;4;15114336
128;2048;32;4;1410368
256;2048;8;4;2447136
256;2048;1;1;55645920
4;2048;4;4;5465344
256;2048;128;4;1322784
256;2048;32;512;18446744073709551615
8;2048;2;4;7798336
256;2048;32;1;2152672
256;64;32;4;2438688
128;2048;32;8;1573504
256;2048;32;2;1332480
256;2048;128;2;1260320
1024;2048;64;4;1230048
1024;2048;32;2;1366112
1024;512;16;4;1723616
512;2048;16;4;1429184
4096;2048;64;2;1502208
2048;2048;64;16;2225568
2048;2048;32;4;1150592
1024;2048;128;16;18446744073709551615
2048;4096;64;4;1222144
2048;4096;32;4;1176448
2048;1;32;1;11621856
2048;512;16;4;1663712
4096;1024;32;16;1713696
1024;2048;32;8;1299360
4096;4096;32;4;1677120
2048;2048;32;8;1193920
4096;4096;32;2;2250528
2048;2048;32;2;1426144
2048;2048;16;4;1494368
4096;2048;32;4;1580096
2048;2048;8;4;2746144
2048;2048;2;4;10202528
2048;2048;32;64;18446744073709551615
2048;512;32;4;1346560
2048;2048;64;4;1201824
256;1024;128;1;1361632
8;1024;1;2;28690976
16;256;16;2;3342048
1024;512;1;1;59636576
1;16;1;4;775999104
1;2048;1;2;26640704
2048;2048;512;4;18446744073709551615
2048;2048;32;1;2576448
2048;2048;128;4;1402176
2048;2048;32;512;18446744073709551615
2048;32;32;2;1909312
2048;128;32;4;1787104
2048;2048;32;256;18446744073709551615
2048;4;32;4;3124352
2048;1024;32;4;1193792
2048;8;32;4;2956448
2048;2048;256;4;2249248
2;4096;2;4;7967232
1024;2048;32;4;1166816
2048;2048;1;4;20172704
2048;256;32;4;1638304
2048;512;32;128;18446744073709551615
2048;2048;1;4;20174528
2048;2048;32;128;18446744073709551615
2048;2048;32;32;2253120
2048;32;2;4;9317344
16;2048;2;4;7854016
2048;2048;2;8;5648640
2048;2048;32;1;2570624
1;2048;1;4;17624992
1;1;1;1;10413965728
2048;2048;32;16;1447200
64;16;32;4;12122368
1;2048;1;256;11276640
4096;8;4;4;7005984
4096;2048;16;4;2122496
2048;4096;16;4;1539104
2048;4096;32;16;1317248
2048;2048;8;1;9536800
512;1024;64;4;1360704
4096;512;32;4;1614560
2048;2048;16;8;1197184
2048;256;64;4;1662208
2048;64;64;4;2156864
1;2048;1;4;17668032
2048;2048;2;16;3409920
128;1024;1;128;62692000
2048;4096;8;1;10465888
2048;1;64;1;11615200
2048;2048;4;4;5233952
2048;2;32;1;5914912
4;4;2;4;784332000
128;4096;32;1024;18446744073709551615
64;2;2;1;90785504
32;2048;32;128;18446744073709551615
512;128;2;32;18107648
512;2048;32;128;18446744073709551615
2048;1;512;1;11779104
2;2048;2;64;5704960
2048;1;32;1;11603072
128;128;1;1;54121120
512;64;2;64;23402176
32;2048;32;4;1586752
2048;1;1024;1;12347264
2048;2048;1;32;8203936
2048;32;8;4;3610912
8;256;2;4;12394208
2048;1;8;1;18709792
2048;1024;64;4;1290688
2048;32;32;4;2668352
4;2048;1;4;15117728
2048;2048;32;1024;18446744073709551615
1024;256;32;4;1894624
16;2048;1;4;15383136
1024;256;1;4;16739680
2;2048;2;4;9423264
8;128;2;4;12215648
2048;16;32;1;2810016
2048;1024;512;4;18446744073709551615
2048;1024;32;512;18446744073709551615
16;8;1;4;97862624
1024;1;8;1;17392096
256;2048;32;8;1361280
2048;1024;32;8;1341376
2048;64;32;4;2442112
4096;4096;2;1;66277888
1;1;1;1;10264540672
8;2;8;2;800865120
2;16;2;8;448978880
2048;512;1;4;18598240
1024;128;2;32;15232896
2048;1024;16;4;1586304
4096;16;8;1;13310496
128;2048;128;4;1522720
1;128;1;1;78563904
8;32;1;8;56505952
4096;128;512;1;1899616
1024;2;1024;1;9699072
1;2048;1;4;17660832
1024;128;4;16;7616576
2048;16;1;4;18137312
1;1;1;1;10662721664
1024;512;32;1;2298112
256;4096;32;4;1196256
1024;2048;128;4;1329568
2048;1024;8;8;1767296
1024;1024;512;1;1335008
64;2;4;2;108055872
4;256;4;16;15088800
1;128;1;4;98623616
2048;2048;1024;4;18446744073709551615
2048;2048;4;8;2941344
2048;2048;1;1;72565120
2048;16;512;4;18446744073709551615
2048;2048;256;1;1235808
1;2048;1;32;10998944
2048;128;2;4;9253600
1;16;1;1;687856576
2048;4;8;4;5378656
2;2048;1;4;14853792
2048;128;4;16;2482080
1;2048;1;4;17652864
512;1024;1;512;67081472
512;2048;32;256;18446744073709551615
4;2048;4;512;18446744073709551615
64;4;32;2;48783840
2;2048;2;256;5943200
4;256;2;128;17094496
1024;4;1024;1;4935936
1024;2048;32;16;1354592
4096;32;8;4;4197536
64;2048;64;1;1458048
1;16;1;2;699749120
8;2048;2;8;4612640
512;4096;4;32;1997056
2048;4096;32;8;1219328
4;2048;2;4;7771232
512;1;1;1;67676320
1024;64;512;16;18446744073709551615
64;64;1;4;15447616
256;1;16;1;53917408
1;64;1;1;174943072
4096;128;8;8;2454432
4096;512;32;1;3585280
4096;2048;32;8;1614432
2048;1;4;1;24761664
4096;2048;8;4;4073408
1024;2048;16;8;1343456
2048;256;4;16;2251808
512;1;1;1;67822976
2048;2048;2;64;4645568
2048;2048;16;1;4869024
2048;2048;8;2;5082304
1;1;1;1;10413781216
1;16;1;16;1051034144
4096;1;32;1;5458528
16;1024;2;512;14105728
4096;256;8;16;1856384
2048;2048;4;16;1807232
64;2048;2;4;7876160
2048;512;4;16;2156992
2048;16;4;4;5300032
2048;4096;4;16;1794976
128;2048;32;128;18446744073709551615
2048;2048;16;256;18446744073709551615
2048;2;32;2;5909376
2048;16;8;4;4309504
4;2048;4;2;7646816
4;2048;4;4;5454720
1024;2048;512;4;18446744073709551615
4096;1;32;1;5463008
1;2048;1;4;17607872
4;2;4;1;1422631008
2048;128;1;4;18037312
2048;1;32;1;11607552
2048;8;128;8;2878176
2048;16;32;8;2512960
1024;2048;32;256;18446744073709551615
4096;2048;32;32;2914496
4;2048;1;4;15120288
1;512;1;4;22513056
2048;64;512;4;18446744073709551615
1024;2048;1024;4;18446744073709551615
32;4;32;4;97393600
2048;4096;4;4;5710528
16;2048;1;32;23178624
256;16;32;4;3560096
32;2048;2;4;7892576
2048;8;32;8;2273056
2048;2048;4;1;18669504
2048;1;32;1;11608032
2;2048;2;4;9428256
2048;512;512;4;18446744073709551615
1;2048;1;16;8670720
4;1;4;1;2961646080
128;2048;16;4;1653792
2048;16;32;4;2776000
2048;2048;1;512;16574144
2048;2048;8;1024;18446744073709551615
1;2048;1;4;17613664
2048;64;32;1;2645184
16;64;1;4;24460448
32;2048;1;8;8715712
128;1024;128;2;1768352
4;1024;2;2;14446496
16;256;16;32;3474752
1;512;1;4;22467040
32;128;32;1;3216896
4;1;2;1;2704840896
512;4096;32;1024;18446744073709551615
1024;4096;4;32;1572000
1024;2;32;1;8747040
512;1;1;1;67527968
2048;128;512;128;18446744073709551615
128;2048;32;2;1449568
4096;1024;8;16;1816000
1;512;1;64;43539168
32;2048;1;1;53072032
256;1;16;1;55370176
1024;2048;1;4;17733664
4096;2048;8;16;1701568
2048;64;1;2;33779200
2;8;2;4;775773920
1;8;1;8;1768730560
2048;1;1;1;64591616
8;32;2;8;56940416
4096;8;512;1;2031648
2048;16;32;4;2667744
2048;2048;1;8;11040928
16;2048;16;4;1791776
1024;1;1024;1;19198400
1024;1024;32;128;18446744073709551615
64;1;4;1;186715936
4;256;4;16;15097408
128;2048;32;512;18446744073709551615
2048;1024;8;4;2666528
2048;4096;2;1;40856448
2048;64;32;64;18446744073709551615
2048;2;32;1;5889536
64;4;2;2;53422432
2;8;2;1;632274304
4;512;2;128;8720896
1024;1;1024;1;19195328
256;2048;2;4;8107200
2048;4;1024;4;18446744073709551615
2048;1;256;1;11645152
1;64;1;16;262600960
1;512;1;4;22486560
256;4;16;2;15075424
32;64;2;8;8611968
1024;2048;1;1;62951744
2048;32;32;8;2409984
1024;4096;16;4;1449952
1;1;1;1;10278495264
32;16;1;8;27059008
1;1;1;1;10416305760
64;1024;2;512;25903456
2048;1;32;1;11613056
2048;2048;256;128;18446744073709551615
2048;2048;64;128;18446744073709551615
2048;2048;8;16;1345024
16;2048;1;1;53206240
4096;4096;32;8;1690976
32;2048;2;1;26999392
1;1;1;1;10283198656
4;1024;1;2;28274688
1024;256;1;2;31397600
32;1024;32;1;2201472
4;1;2;1;2627591264
128;4096;8;1024;18446744073709551615
1;512;1;1;61185216
512;2048;32;1;2235520
512;1024;64;1;1361696
2048;2048;256;2;1412512
2048;1024;32;16;1454208
4096;2048;64;4;1598400
512;2048;1;1;58094112
256;128;16;16;3162208
8;2;8;2;776319584
2048;1;16;1;11884128
1;1;1;1;10653762400
8;1;2;1;1381106304
2048;4096;512;256;18446744073709551615
1024;2;2;1;30674464
2048;512;128;2;1304928
2048;512;32;16;1415200
4;1024;1;64;6550240
128;2;4;2;55300896
4;256;4;1;22501184
256;4;32;2;13612448
1024;4096;32;4;1130912
128;4;128;4;26371968
1;512;1;128;43815392
128;4096;16;4;1474816
256;4096;16;4;1440576
4096;4096;128;8;3324288
512;1;32;1;30273984
1024;4096;8;4;2584416
1024;4096;4;4;4874944
1024;1024;32;4;1243520
1024;1;32;1;18016608
1024;1;64;1;18255808
1024;1;256;1;17389408
1024;4096;32;8;1157472
1024;4096;32;16;1379616
128;1;32;1;99104672
1024;4096;64;4;1169632
2048;4096;256;8;18446744073709551615
2048;1;32;1;11610848
512;4096;32;2;1559584
512;4096;32;1;2273760
1024;4096;16;2;2482432
1024;4096;32;1;2408864
2048;4096;32;2;1506688
1024;4096;32;2;1385056
256;4096;32;2;1394848
1024;1;32;1;18016448
512;4096;128;4;1330464
512;4096;64;4;1231360
2048;4096;8;2;5480032
512;4096;32;4;1163712
512;4096;128;8;1863904
1024;4;1024;1;4960448
1;64;1;16;265431456
1024;512;1;4;16867552
4;4;2;2;712241664
128;4096;64;8;1376736
32;32;1;8;13610816
1;1;1;1;10641177536
32;16;1;4;24159136
8;1;1;1;1377343744
16;2048;2;512;11474176
32;2048;16;8;2595680
256;1024;128;1;1368320
64;1024;2;2;14529248
16;1;16;1;768690560
32;64;32;1;6128288
64;1024;2;1;27062752
128;4;32;4;24523168
1024;1024;64;8;1410496
1;4;1;1;2590765728
32;1;1;1;338529504
256;128;16;4;2356416
8;2;1;1;689140864
16;1;2;1;683901920
8;1;8;1;1449555232
4096;4096;1;256;10987872
1;1;1;1;10282110240
1024;2048;64;2;1169216
4;1;1;1;2637791968
128;2;8;2;55445184
4;256;2;16;17792448
256;1;32;1;55487072
1024;4096;128;4;1355648
256;2048;128;128;18446744073709551615
2;512;2;128;16687648
1024;4;32;4;4526464
1;64;1;16;265009600
1024;1024;32;2;1380576
64;512;2;64;20138304
16;4;2;1;181767168
32;64;32;8;6222048
1;1;1;1;10258387872
1024;4096;8;8;1627392
1024;4096;16;16;1237184
8;32;1;4;50762880
4096;1;32;1;5459008
16;256;2;4;9402208
32;32;16;8;13733312
256;4096;32;8;1287520
256;1024;32;1024;18446744073709551615
1024;512;32;2;1409120
1024;4096;32;64;18446744073709551615
256;8;32;4;6800640
128;2;32;2;50818272
1024;4096;256;4;2152992
1024;4096;32;32;2186048
64;4096;32;4;1402752
1;4096;1;4;14426272
1024;32;32;4;2751136
1;16;1;4;782706432
64;2048;16;2;2383616
8;256;2;2;17281376
512;512;1;1;56295616
64;1024;16;1;3835392
1024;4096;1;4;18765280
2;4096;2;64;6377792
1024;64;512;4;18446744073709551615
1;4096;1;4;14432256
1;8;1;4;1548384736
1024;1;32;1;17893856
256;64;32;16;2213408
1;1;1;1;10663963648
32;2048;1;2;28384512
256;1;1;1;87853440
4096;4096;32;64;18446744073709551615
1024;4096;32;128;18446744073709551615
1024;4096;32;512;18446744073709551615
1024;512;32;4;1468896
1024;4096;32;1024;18446744073709551615
1024;64;32;4;2536288
1024;4096;2;4;9556448
1024;128;32;4;2509152
2;1024;2;4;12385568
32;2;4;1;188164544
2048;1;1024;1;12359968
1;1024;1;512;25997120
4096;4096;64;1;2268864
1024;2;16;1;9017120
1024;1024;1;1;60701568
128;2;1;2;46911872
1024;256;4;16;5359968
16;1;1;1;674568416
2;2048;2;256;5936384
512;4;1;4;19107168
1024;1024;64;1;1385024
1024;4096;64;32;18446744073709551615
1024;16;32;1;2958400
1024;2048;8;4;2559904
128;4096;32;8;1340416
1;64;1;8;224285824
1024;64;256;4;1830528
256;256;16;2;2655744
32;64;32;2;6135808
2;4096;2;4;7938016
512;1;1;1;67625856
1;16;1;4;768489280
4096;1;1;1;98949504
16;256;2;64;6600384
32;4096;16;1;3794656
256;1;128;1;55488672
64;1;16;1;195269440
16;256;16;256;18446744073709551615
1024;1;16;1;17534848
256;8;4;4;7981792
2048;1024;1;1;68280064
256;64;32;1;2738336
1;512;1;256;43934208
32;2048;16;2;2502560
256;128;16;2;3246240
32;16;4;4;29419072
2048;1;16;1;11887776
1;64;1;4;195436384
2;4096;2;128;6407904
1;4096;1;4;14435584
1024;128;32;64;18446744073709551615
1024;4096;32;1;2401600
32;4096;32;4;1403840
4;4096;4;4;4775456
1;64;1;4;193920736
1024;4096;8;1024;18446744073709551615
1;2;1;2;5604740192
4096;1024;256;256;18446744073709551615
1024;512;16;1;4155136
1024;2;512;2;9385632
1024;4096;512;4;18446744073709551615
4;512;4;32;7352736
128;256;1;1;53888800
8;256;4;4;6289952
2;1;1;1;5005071424
128;4096;32;4;1266848
2;2048;1;64;6235776
256;4096;2;128;9173792
4;1024;1;1;52978176
1;64;1;8;222906080
1024;8;32;4;2475008
1024;4096;1;4;18776800
1024;4096;1024;4;18446744073709551615
1024;32;32;1;2634592
1024;4096;16;1;4528832
1024;1024;16;4;1489152
2;64;1;1;80765568
256;256;1;2;29175680
32;1024;2;2;14648832
1;128;1;1;78511904
1024;16;8;4;4241216
1024;512;512;4;18446744073709551615
2048;4096;2;4;11235840
512;4096;1;4;17008832
128;512;1;4;15387968
8;4096;2;4;7794016
1024;256;32;2;1723168
8;1;2;1;1372879328
16;256;2;1;27345664
32;256;16;8;3169888
256;128;128;8;1893120
64;2048;16;2;2399360
512;2;16;2;16482080
32;1;32;1;403204288
64;1024;16;1;3842304
256;4;32;1;13418368
1;16;1;2;698971456
32;2048;2;1;27013856
2048;128;16;16;2998112
512;4096;32;16;1366752
16;4096;1;4;15218976
32;512;4;4;4302624
2048;1;128;1;11707232
1;1024;1;128;21778400
4;512;1;256;11956512
1024;32;512;4;18446744073709551615
512;1;16;1;29895136
1024;1024;1;1;60681280
128;2;1;2;46831040
1;256;1;16;66777856
256;128;32;2;1805856
1;2048;1;32;10992384
4;1024;4;16;4442880
1024;1024;256;1;1266144
1024;4096;8;64;1662560
1;64;1;16;267049792
1024;64;1;4;16594912
1;256;1;2;42031232
512;64;32;2;1879936
4096;4096;16;64;3428064
512;4096;16;1;4149664
1024;1;32;1;18154688
1024;4096;64;1;1393440
1024;512;128;4;1529440
256;1;32;1;55453184
256;1024;32;2;1399456
512;4096;16;4;1693344
1024;1;32;1;18159520
1;4096;1;16;9395104
2048;4096;16;2;2850976
2048;4096;128;1;1204160
1024;4096;128;2;1177920
1024;4096;64;16;2149632
1024;1;64;1;18089184
1;4096;1;4;14410720
256;4096;8;4;2391552
256;4096;32;1;2173664
1024;512;64;4;1501312
4096;4096;16;4;2301504
512;4096;8;4;2433952
2048;1;32;1;11613312
1024;1;128;1;18050464
256;4096;16;2;2247264
512;512;32;8;1978752
256;2048;16;1;3900384
1024;4096;64;8;1355648
512;4096;8;8;1721248
2048;1024;32;1;2531072
1024;4096;256;8;18446744073709551615
256;4096;8;8;1636576
1024;1;64;1;17948544
128;2048;32;1;2179424
128;4096;64;4;1309312
4;1;1;1;2635414528
1;512;1;128;43789344
32;64;32;4;6116992
1;256;1;64;87426208
32;2048;4;8;3066272
256;16;128;1;3585952
512;2048;16;2;2310208
16;256;8;2;6069504
32;1024;1;1;53066624
64;1024;2;1;27033056
8;64;2;2;22861696
128;512;8;64;5125696
32;1;16;1;393888608
256;4096;2;64;6834304
512;1;8;1;29075040
128;4096;32;1;2219424
1024;4096;128;8;2142752
2048;4096;128;4;1343296
1024;4096;64;2;1134880
512;1024;32;4;1322880
512;4096;32;8;1233024
512;512;32;4;1667936
256;1;32;1;54426304
1024;1;8;1;17412448
256;1;16;1;54864736
4096;4096;64;4;1682112
512;4096;128;2;1212800
512;1;16;1;29838784
512;1;64;1;30668928
1024;1;32;1;18015936
1024;4096;8;32;1384160
1024;4096;8;2;4711840
1024;1024;32;1;2298624
1024;2048;128;64;18446744073709551615
1024;4096;16;8;1171456
1024;1;128;1;18217216
512;1;32;1;30325280
256;4096;64;4;1229824
1024;1024;64;2;1241760
1;4096;1;2;26558272
4096;1;128;1;5490304
512;1024;32;8;1438336
1024;32;32;16;2258112
1024;4096;32;256;18446744073709551615
1024;32;1;4;16763744
1;4096;1;4;14423232
1;512;1;1;61436800
8;4096;1;4;15350880
1024;4;32;4;4519328
1;2;1;1;5161781024
8;4096;4;4;4131936
64;4096;1;8;8685440
1024;16;32;2;2430496
1024;1;1;1;59283936
32;512;1;4;15405440
1;1;1;1;10658291392
1;4096;1;128;8196576
4096;512;512;8;18446744073709551615
1024;512;16;2;2416160
1;1024;1;1;49005536
128;64;1;8;8885824
4;1;2;1;2709883104
1024;16;2;4;8868512
1024;2;128;1;8813600
256;128;32;64;18446744073709551615
1024;2048;2;1024;18446744073709551615
512;1;32;1;30711008
1024;1024;256;16;18446744073709551615
1;512;1;1;61862112
1024;64;1;4;16587072
256;256;8;2;4103680
512;1024;1;2;30384896
1;1;1;1;10258605856
1;512;1;256;43845984
4096;2048;16;64;2973472
16;256;1;64;6929600
32;128;16;8;4085696
256;64;4;16;8868384
1;1024;1;2;32097632
1;256;1;2;42088192
1;4096;1;256;8478880
32;1024;2;1;27021632
1;1024;1;1;49051520
4096;64;4;16;2970592
2048;512;8;64;2136288
128;2048;1;2;28952224
256;256;16;16;3081856
32;64;2;4;13632704
32;1;1;1;348801216
1024;4096;128;128;18446744073709551615
512;2048;32;8;1294656
1;4096;1;8;10583456
4;128;1;1;63581888
1024;512;16;8;1841344
1024;1024;512;1;1330592
1024;1;16;1;17541408
1024;2048;8;8;1759712
128;128;1;32;50500704
1024;256;4;4;4572672
256;256;32;2;1685728
8;64;2;2;22809248
2048;1;128;1;11650048
1024;1;64;1;18100640
256;4096;128;4;1280640
256;4096;32;128;18446744073709551615
4;1024;4;1;14263680
1;256;1;4;48748288
4;512;4;1;16929888
1024;64;1;1;58673376
1024;4096;8;16;1305408
512;4096;16;2;2336224
256;128;2;4;8174848
512;64;1;4;16109280
512;1;128;1;30077216
4096;256;1;4;26922048
512;4096;2;4;8696320
4096;2048;16;1;7560384
16;4096;2;64;13858848
32;2048;16;1;3809088
1;1024;1;1;48984672
4096;4096;8;4;4526880
1024;2048;32;1;2377568
1024;256;64;8;1899808
4096;1;16;1;10840256
1024;1024;128;2;1261728
1;4096;1;16;9472800
512;1;32;1;30331680
1024;4096;8;1;8831904
1024;4096;256;2;1363840
2048;4096;4;2;10821664
1024;1024;64;4;1298048
4096;4096;32;16;1786464
128;4096;8;4;2434144
1024;4096;128;1;1152288
1;1;1;1;10414443264
2048;4096;8;8;1611104
256;1;32;1;55472288
512;1;32;1;30123200
1;4096;1;8;10571552
2048;4096;16;16;1241376
1024;1024;32;8;1359904
1024;512;64;1;1397536
1024;2048;16;2;2440896
1024;2048;16;1;4324832
512;1024;16;1;3991616
16;1;16;1;762697408
4096;1024;1;1;105845664
512;1024;2;1;28890368
512;4096;64;1;1516608
1024;64;32;16;2322048
64;256;8;64;4938176
32;2048;1;2;28361216
1;128;1;4;98620192
2048;4096;8;4;2992448
32;512;4;1;13994976
2048;256;128;2;1703904
4096;1;256;1;5559776
64;128;4;1;14115360
2;4096;2;4;7936480
2;4096;2;8;6347040
4;128;4;4;26836608
1024;64;32;32;1704320
1024;16;32;4;2708320
1024;4096;256;16;18446744073709551615
1024;16;16;4;3779968
256;4096;32;512;18446744073709551615
128;1024;32;4;2158592
1024;512;16;16;1967808
32;1024;8;32;4342784
128;128;1;8;8859520
1024;256;256;32;18446744073709551615
512;256;32;2;1669152
2;2048;2;1;26398400
4;1024;1;16;9021408
1024;1024;128;512;18446744073709551615
4096;4096;32;32;3346432
1024;2048;32;1024;18446744073709551615
1024;16;32;2;2441568
4;1;4;1;2961858336
1;32;1;4;387846944
4096;64;256;4;2307936
1024;64;256;8;18446744073709551615
1;128;1;4;96349280
512;64;64;2;2581120
1024;8;512;4;18446744073709551615
512;256;2;256;27209120
256;512;1;32;29500928
32;2048;4;64;9576192
16;1024;1;64;40763424
16;512;16;64;2008704
256;1024;1;8;8900832
4;2048;2;16;6000896
16;256;16;1;5844064
1024;128;32;8;2197856
32;1024;32;8;1564064
64;32;16;16;7088992
64;2;32;1;96903424
256;4096;2;4;8233504
256;64;16;16;3144224
1;512;1;64;43828992
32;32;16;2;13679200
256;128;1;4;15768672
256;512;256;4;1501088
2048;256;16;1;4531360
4096;1;64;1;5474016
4096;1024;512;256;18446744073709551615
1024;1024;16;1;4209216
4;4;4;4;866310752
8;2;8;1;725617024
1024;4096;1;1;67159264
2048;32;32;32;1713984
512;64;1;8;9183744
1024;256;1;4;16740512
512;256;1;2;29849472
1;2048;1;256;11287584
4;1024;4;128;4826112
256;1024;256;1;1404384
4096;64;256;16;18446744073709551615
1024;256;32;64;18446744073709551615
1024;64;256;16;18446744073709551615
256;256;16;4;2064960
1;4096;1;512;10240352
1024;256;1;256;66531008
1;2048;1;4;17600896
2048;2048;1;64;11269696
256;256;2;64;23645568
16;64;1;64;22166176
2;4096;2;4;7930464
256;1024;1;1;54892256
512;2048;2;64;7154272
16;4096;16;2;2359904
32;128;8;8;5193344
32;1024;32;16;1577280
64;64;1;16;8891008
256;512;8;2;4078368
32;2048;8;4;2899456
256;128;4;1;14441984
512;512;256;4;1578240
2048;256;256;2;1723200
4096;1;1;1;98946240
1;1024;1;256;22069312
32;256;16;32;2997792
