GLOBAL_SIZE_0;GLOBAL_SIZE_1;LOCAL_SIZE_0;LOCAL_SIZE_1;v_TP_41;v_TP_42;cost
4096;64;1;2;2;178;47472384
4;1;4;1;89;89;6446873248
16;8;8;1;89;2047;1480059872
4;2;4;2;89;1;2552752384
256;128;32;8;1;178;18190400
128;1;4;1;89;178;808275232
32;4096;16;256;89;2047;18446744073709551615
1;32;1;16;46;2047;948829280
256;128;4;8;1;178;11120704
256;128;32;8;1;4094;110688640
256;128;32;8;2047;23;83605408
256;128;4;8;1;1;3988032
256;128;4;8;1;4094;139637664
2048;128;1;8;1;178;14090656
16;128;2;8;1;178;14361088
256;256;4;4;1;46;8548288
256;4;4;4;1;1;17879264
256;128;4;64;1;1;11842496
256;128;4;8;1;1;3979488
256;128;32;8;1;1;2767808
256;128;4;128;1;1;12608512
128;128;2;8;4094;1;94133408
256;128;32;8;2;1;2193376
256;128;32;8;1;1;2663936
256;4096;32;1;1;1;2517312
256;128;32;32;1;1;2185472
256;128;32;32;46;1;2430400
2048;128;32;1;1;1;3025888
256;128;32;16;1;1;2568640
1024;128;32;32;1;1;1930208
128;1;32;1;1;1;112446816
1024;512;32;32;1;1;1995200
512;128;32;32;1;1;1954720
1024;128;1;32;1;1;31566720
1024;128;32;32;89;1;3520800
2;128;2;32;1;2;63000064
1024;128;1024;32;1;1;18446744073709551615
1024;128;32;32;178;1;2606080
1024;128;4;32;1;1;10701536
1024;128;32;128;1;1;18446744073709551615
2;128;2;32;1;1;74788224
1024;1;32;1;1;1;19807008
1024;128;16;32;2;1;2535904
1024;128;32;32;2047;1;21904256
1024;128;32;8;1;1;2360896
1024;1;32;1;1;1;19438400
1024;256;1;1;23;2047;127536000
1;1024;1;1;23;2;75036064
32;2;8;2;89;2047;6099270656
2048;32;4;8;2047;1;18036928
1024;128;64;32;1;2;18446744073709551615
2;128;2;32;1;89;117866688
1024;128;32;32;1;89;31705472
1024;128;32;32;1;23;26995008
1;32;1;32;46;4094;832439904
1024;16;32;1;1;1;3356128
1;8;1;1;178;178;2133955552
1024;128;32;32;23;46;77296704
1024;128;8;32;178;1;7206144
1;128;1;32;1;46;203286080
1024;128;32;4;1;1;2600704
1024;128;512;32;1;1;18446744073709551615
1024;128;32;4;1;1;2564256
1024;128;32;32;1;178;31619904
1024;128;32;32;2;1;2041504
1024;4096;8;32;1;1;1698496
32;128;32;32;178;4094;701008320
128;128;32;32;1;1;2686496
16;4096;8;32;1;1;3174528
1024;4096;2;1;1;1;39440384
64;4096;1;32;1;1;16743360
512;4096;2;32;1;2;3150080
1024;512;8;32;1;1;2992992
1024;4096;8;128;1;1;2819264
1024;4096;8;32;1;1;1689792
1024;1;8;1;178;1;13194208
8;4096;8;32;1;1;3334144
1024;4096;4;32;178;89;35307392
4;4096;1;16;1;1;6288288
1024;4096;8;32;2047;1;22188832
1024;4096;8;32;1;2;1141472
1024;4096;32;32;2;1;2281824
1024;4096;8;32;89;1;7166528
1024;4096;1;2;1;178;43086912
1024;4096;8;32;89;2;5502752
512;4096;8;1;1;2;7391488
4096;4096;8;32;1;4094;12049824
1024;4096;1024;32;1;2;18446744073709551615
1024;1024;8;32;1;2;1626080
1024;4;8;4;2;178;304282336
1024;2048;8;32;1;2;1371968
64;4096;8;32;1;2;3061056
1024;4096;1;32;1;23;9609856
4096;2;8;2;1;2;7088032
1;4096;1;32;1;2;7951008
1024;4096;8;256;2;2;18446744073709551615
1024;4096;8;32;1;2047;16048992
1024;4096;1;32;1;2;4901536
1024;4096;8;64;1;2;1253632
1024;1;8;1;1;2;17036832
1024;4096;8;16;1;2;1113120
1024;4096;8;4;1;1;2949920
2048;4096;4;16;1;2;1749344
4096;4096;8;32;1;2;1548192
1024;1024;4;64;4094;2;24189504
2048;4096;16;16;1;2;1234336
1024;4096;32;16;1;2;1165248
1024;2048;4;16;1;2;1405728
2048;4096;8;16;2047;2;6794624
4096;2;4;2;2047;1;14682528
512;8;2;4;23;1;18943648
1;4;1;2;4094;23;19557819744
2;4;1;4;178;1;1582309280
2048;4096;32;16;1;1;1825824
1024;4096;2;4;1;2;8739072
512;4096;1;16;1;1;6709056
1024;4096;8;2;2047;2;7158624
1024;128;8;16;1;2;3437248
1024;4096;8;4;1;2;2316864
1024;4096;1;64;1;2;7906912
1024;1024;256;1;4094;2;12286368
8;2;2;2;23;1;1329538304
512;32;8;16;2047;1;22510432
128;512;2;2;89;2047;268050688
1024;4096;8;16;178;2047;576051456
1024;4096;8;8;1;2;1319584
1024;4096;8;1;1;2;8224512
256;4096;8;16;1;2;1433952
1;32;1;16;1;2;493264032
1024;2;8;1;1;2;14267072
16;4096;8;16;1;2;3145120
1024;4096;8;16;46;178;20761824
1024;4096;8;16;1;2047;16351584
1024;1;8;1;1;2;17109728
1024;4096;2;16;1;46;11115200
1024;1;16;1;1;2;16866176
1024;2048;8;16;1;23;18355872
1024;4096;8;16;2047;1;12109920
1024;4096;8;16;46;23;62131968
1024;512;8;16;89;2;5676224
1024;8;8;1;1;2;8176480
2;256;2;2;2;1;28629568
1024;4096;8;16;2;2;1294624
512;4096;8;16;1;2;1312608
1024;4096;8;2;1;2;4288704
1024;4096;256;16;1;2;18446744073709551615
4;4096;1;1;1;2;48795968
1024;4096;64;4;1;2;1112608
1024;4096;8;16;1;1;1656512
1024;4096;8;1024;1;2;18446744073709551615
1024;4096;8;16;1;2;1110880
1024;32;8;16;1;2;3857600
1024;1024;8;1;4094;23;131225600
1024;2;8;1;1;2;14194912
1;4096;1;16;1;2047;13029856
1024;4096;8;4;1;2;2321088
1024;256;8;16;1;2;2154048
1024;4096;8;2;1;2;4284576
1024;4096;8;16;178;2;5527232
1024;4096;8;64;1;2;1252544
1024;4096;32;16;1;2;1164640
4096;4096;8;16;1;2;1527712
1024;4096;256;64;1;2;18446744073709551615
1024;4096;64;16;1;2;1787808
1024;4096;2;16;1;2;2904096
1024;4096;8;256;1;2;18446744073709551615
1024;4096;8;16;1;4094;12035232
8;4096;2;16;1;2;3258720
2;4096;2;16;1;2;6619264
1024;4096;8;512;1;2;18446744073709551615
1024;4096;8;16;89;4094;351901376
1024;4096;8;8;1;2;1318272
1024;1;4;1;1;2;27952192
1024;4096;8;128;1;2047;10382400
1024;4096;8;1024;1;2;18446744073709551615
1024;256;8;16;1;178;21496800
1024;4096;1;32;178;2;25672384
1024;2;1024;1;1;2;9998048
1024;256;256;16;1;2;18446744073709551615
1024;4096;8;16;89;2;5667872
1024;128;8;16;1;2;3376384
8;4096;8;16;1;2;2642464
1024;4096;128;16;1;2047;18446744073709551615
1024;4096;8;16;1;46;27875712
16;4096;8;1;89;4094;313036128
1024;4096;8;16;1;1;1657600
2048;1024;8;32;1;2;1427424
1;4096;1;16;1;2;9492160
1024;4096;8;16;1;89;47013536
128;4096;8;16;1;2;1584224
2;4096;2;16;1;2;6643616
1024;4096;512;16;1;2;18446744073709551615
64;4096;8;16;1;2;2027488
16;4096;8;1;1;2;6545600
1024;4096;1;16;1;2;5624512
1024;4096;2;16;2047;2;20139808
1024;2048;8;16;1;2;1287072
1024;4096;1;1;1;2;63845856
1;4096;1;16;1;2;9504480
1024;4096;8;256;1;1;18446744073709551615
256;4096;8;16;4094;2;44627424
512;4096;16;16;1;2;1145920
1024;4096;8;16;1;1;1656096
1024;4096;8;16;46;2;5665312
1024;4096;16;16;1;4094;21138208
1024;2;64;1;1;2;8729120
256;4096;8;16;1;2;1427584
64;4096;2;16;1;2;2772032
4;4096;1;16;1;178;7452608
1024;4096;128;1;1;2;1099840
1;4096;1;64;1;2;8001600
1024;4096;4;1;1;2;16328224
1024;16;128;1;1;2;2511776
32;4096;2;1;1;2;25139968
512;4096;128;1;1;2;1091232
512;4096;128;2;23;2;1863264
512;4096;128;1;2;4094;102118400
512;4096;128;1;46;2;1849408
512;4096;128;1;23;2;1838368
512;4096;128;8;1;2;1595328
4;4096;2;64;1;2;11924032
512;4096;16;1;1;2;3787424
128;8;128;1;1;2;11415552
512;16;128;1;1;23;8912672
512;4096;128;32;1;2;18446744073709551615
256;4096;128;1;1;2;1163328
512;4096;128;128;1;2;18446744073709551615
512;1;2;1;1;2;47777824
512;4096;2;1;1;2;28633568
512;16;128;1;89;2;2073792
128;4096;128;1;1;2;1234528
512;4096;32;1;1;2;1983328
512;4096;128;256;1;2;18446744073709551615
512;4096;128;128;89;46;18446744073709551615
512;8;128;1;1;2;3531168
512;4096;128;4;1;1;1814816
512;64;128;1;1;2;2236000
512;4096;128;512;1;2;18446744073709551615
512;4096;128;256;1;1;18446744073709551615
512;4096;128;2;2047;23;84057760
2;4096;2;1;1;2;25590816
512;4096;256;1;1;2047;48699040
512;4096;128;1;1;23;13738208
512;64;128;1;23;178;24767456
512;4096;128;1;89;2;1831488
32;64;8;16;46;2047;301104896
32;1024;8;32;89;89;37436768
2048;4096;128;8;4094;23;166780992
2;1024;1;2;89;1;226467744
512;256;128;1;1;2;1875840
1;4096;1;1;1;2;49522880
512;512;128;1;1;178;31667296
512;4096;128;1;1;1;1633088
128;2048;128;1;1;2;1320512
256;2048;1;1;1;1;67089088
512;1;1;1;1;23;93660768
2048;4;128;4;89;89;215768672
1;8;1;4;178;89;2934459520
128;4;16;4;2047;1;92959200
1;4;1;4;2047;46;8189695520
512;4096;128;4;1;2;1238624
256;512;128;1;1;2;1727840
512;4096;128;1;1;1;1634272
4;1;2;1;1;2;2594317728
512;4096;128;512;1;2;18446744073709551615
512;4096;128;1024;1;2;18446744073709551615
512;4096;512;1;1;2;1318144
512;4096;128;1;1;1;1625024
512;4096;128;1;1;4094;88480512
16;4096;4;1;1;2;12723712
512;4096;256;1;1;46;25785920
1;4096;1;1;1;2;49505344
512;1;128;1;1;2;28264608
4096;4096;128;1;1;2;1403008
1;32;1;1;4094;89;20549380480
2;8;1;1;2047;178;4059411072
2;512;2;64;4094;1;5421125632
32;4;16;1;1;23;173069696
512;4096;1;1;46;2;69823552
512;1;128;1;1;2;28495680
512;64;128;2;2047;2;12557248
512;4096;1;1;89;2;69609280
512;8;16;1;1;2;6217984
512;4096;4;1;2047;2;24683168
2;4096;2;16;1;89;26972352
1;4096;1;1;2;2;37444096
512;1;128;1;1;2;28461728
512;4096;64;1;1;2;1227360
512;4096;256;1;1;2;1122144
512;4096;128;1;1;46;31331840
512;4096;128;1;1;2047;54047424
128;128;128;32;178;23;18446744073709551615
1;4;1;1;4094;2;10778340960
2048;4096;128;32;1;2;18446744073709551615
512;32;128;1;1;2;2351872
512;4;128;1;1;2;6966624
512;4096;128;32;23;2;18446744073709551615
512;16;128;1;1;2;1929248
512;4096;4;1;1;2;14556768
128;1;128;1;1;2;92996704
1;1;1;1;1;23;14917144480
512;4096;128;1;1;89;27549088
64;4096;1;1;23;2;64517024
1024;1024;2;2;46;46;23932800
1;1024;1;128;1;46;25781952
128;256;4;32;46;46;65058464
4;512;4;1;2047;23;2673939072
512;1024;128;32;1;2;18446744073709551615
512;4096;2;64;1;2;3482240
32;4096;16;1;1;2;3389248
512;4096;1;1;1;2;56371552
4096;4;8;1;4094;23;131363296
1024;2048;128;2;1;1;1689952
1024;4096;128;2;1;2;1119232
1024;4;16;1;89;89;180130048
512;4096;128;1;1;2;1092416
512;4096;2;1;1;2;28638304
2048;4;16;4;178;46;87880352
512;4096;128;1;1;2;1084992
512;64;128;1;1;2;2297952
512;1;128;1;1;2;28257376
2;32;2;32;178;2;386605504
8;4096;8;1;1;2;6600928
512;16;128;4;1;2;2255904
8;4096;2;8;1;2;4212864
512;4096;128;1;46;23;51186112
2;4096;2;1;1;2;25599488
512;4096;128;4;1;4094;138757440
512;4096;128;1;89;2;1835104
512;16;128;2;1;2;2167200
512;4096;128;1;2;2;1074272
1;1;1;1;2;2;6622856992
512;4096;2;1;2;2;21391104
512;4096;128;64;2;2;18446744073709551615
512;512;128;2;2;2;1255904
256;4096;128;1;2;2;1114784
512;4096;128;1;2;1;1489248
8;4096;8;1;2;1;9399232
512;4096;128;1;2;1;1488544
4096;4096;128;128;2;2;18446744073709551615
512;4096;128;1;46;4094;188332288
512;4096;128;32;2;2;18446744073709551615
1;4096;1;1;2;2;37369824
32;2;2;2;2;2;128389376
512;4096;128;1;2;4094;105612544
512;2;128;2;2;2;8081568
512;4096;128;256;2;2;18446744073709551615
512;4;2;4;2;2;10013920
512;4096;128;1;2047;1;22118560
512;4096;128;1024;2;2;18446744073709551615
64;4096;8;1;2;2;4891968
8;4096;8;1;2;2;4930976
512;4096;64;1;2;2;1242720
512;4096;128;1;2;2047;71330592
1;4096;1;1;2;2;37377088
512;4096;128;1;2;178;29546400
512;4096;128;1;1;2;1084192
2048;4096;8;1;23;2;11123584
512;4096;1;1;2;2;42357920
4;4;2;4;2;2;562712512
32;4096;2;1;2;2;18690752
1;8;1;8;2;2;1274854656
128;4;1;1;2047;1;169576800
512;4096;128;32;178;2;18446744073709551615
512;4096;256;1;2;1;1538048
128;4096;128;1;2;2;1204992
64;4096;1;1;2;2;37301376
256;32;4;2;1;1;10050720
8;512;1;4;23;23;33161376
128;256;64;64;23;23;18446744073709551615
4096;2;256;1;2;178;521668992
1;4096;1;1;178;2;464787008
512;4;128;4;2;2;4400544
2048;4096;128;1;2;2;1156832
512;4096;128;8;2;2;1557120
512;4;4;4;2047;2;13228416
64;4096;1;1;2;178;71920640
512;4096;256;1;2;46;38698656
128;1;16;1;1;1;115917984
512;4096;128;256;2;1;18446744073709551615
512;8;128;8;2;2;2866048
512;4096;32;1;2;2;1661696
8;4096;8;1024;2;2;18446744073709551615
512;128;128;8;2;2;1531168
512;2;16;1;4094;2;22490880
512;4096;32;4;2;2;1084832
32;4096;32;1;2;2;1654560
2048;4096;256;1;2;2;1129056
256;4;1;4;1;1;29524160
512;4096;64;1;2;2;1237440
512;32;128;32;2;2;18446744073709551615
64;4096;64;1;2;2;1376000
2048;4096;256;1;1;2;1235392
512;64;4;2;89;1;15416992
4;1;2;1;46;46;4375130784
128;4096;64;2;89;46;37349120
256;16;32;2;1;178;62934656
1;4096;1;16;2;2;8757312
512;4096;128;16;2;2;18446744073709551615
512;512;128;2;2;178;43087168
512;4;4;4;4094;2;24001312
512;16;32;2;2;2;2441824
512;1;128;1;2;2;15890880
64;4;8;1;89;1;86523488
512;4096;4;64;2;2;2724064
512;4096;128;32;1;2;18446744073709551615
256;4;8;2;178;2;13214208
512;4096;16;1;2;2;2855392
2048;4096;128;1;4094;2;6194624
2;4096;2;1;89;2;117508352
2;4096;2;1;1;2;25591232
512;2048;128;1;2;1;1485376
1;4;1;1;2047;46;7981881824
512;4096;128;1024;2;1;18446744073709551615
512;4096;128;1;2;23;6170752
512;4096;256;128;2;2;18446744073709551615
512;1;2;1;2;2;31970368
512;16;4;2;2;2047;706301760
2;1;2;1;2;2;4004905216
512;2048;128;1;2;2;1059424
1;2048;1;1;2;2;37165472
512;2;128;2;1;2047;4599785728
1;2048;1;1;2;2;37166016
4096;2048;128;1;2;2;1053760
512;256;2;4;2;2;5857888
512;1024;128;1;2;2;1090496
64;2048;1;1;2;2;36978336
4096;2048;128;32;2;2;18446744073709551615
4096;2048;1;1;2;178;93335968
4096;2048;4;1;2;2;15427648
4096;2048;128;1;46;2;1875072
4096;1024;128;1;2;23;6601280
4096;2048;128;128;2;23;18446744073709551615
4096;2048;128;1;2;89;41332832
256;2048;128;1;2;2;1106784
64;2048;1;16;2047;2;98262624
4096;1;128;1;2;2;4478784
16;2048;4;32;2;2;7797504
1;2048;1;1;1;2;49679840
1024;512;1;2;2;2;21676480
4096;2048;128;1;2;1;1483840
4096;2048;128;1;178;2;1895808
4096;2048;128;1;1;4094;77719872
4096;2048;128;64;1;2;18446744073709551615
4096;2048;1;1;2;2;60422400
4096;1;128;1;2;4094;13098597920
4096;2048;128;1;2047;178;561391520
16;2048;4;1;2;2;9567808
4096;2048;128;4;2;2;1207776
4;2048;2;1;2;2;18837888
1;2048;1;1;2;89;96590592
4096;512;128;2;4094;178;1121042656
4096;256;128;4;2;2;1331968
4096;2048;128;128;2;2;18446744073709551615
4096;2048;64;1;2;2;1232512
4096;2048;128;1;1;1;1774592
4096;512;128;2;2;2;1137056
4096;2048;128;1;2;2;1061984
4096;2048;128;32;1;2;18446744073709551615
4096;2048;128;2;2;1;1507488
4096;1;128;1;2;46;320674400
4096;2;128;2;2;2;2406656
64;1;1;1;2;2;128145152
4096;128;128;8;2;2;1513856
4096;512;128;8;2;2;1472160
4096;4096;128;1;2;2;1233568
4096;2048;128;1;1;2;1255744
4096;2048;4;8;4094;1;18020576
4096;2048;128;1;2;4094;76619232
4096;2048;128;1;89;2;1877472
4096;2048;256;1;2;2;1084224
4096;2048;128;1024;2;2;18446744073709551615
4096;1;128;1;23;2;6219360
4096;2048;1;1;2;2;60401248
4096;2048;128;256;89;2;18446744073709551615
4096;8;128;8;2;1;1995904
1;1;1;1;1;178;13462556896
32;4096;16;256;2;2047;18446744073709551615
1;32;1;16;1;89;756040960
1024;256;8;1;2047;178;445517344
16;2048;4;1;89;2;19359712
4096;2048;128;1;1;4094;75492320
4096;2048;128;512;2;2;18446744073709551615
4096;2048;256;32;46;2;18446744073709551615
4096;2048;128;1;2;1;1475936
256;1024;128;1;46;2;1762336
256;4;16;2;2047;2;24119488
1;128;1;8;2;2;80827808
4096;2048;1;1;2;1;81226112
4096;2048;128;1;1;2;1257440
32;4;2;4;1;1;125285856
4096;4;128;4;2;2;1664064
4096;2048;128;512;1;2;18446744073709551615
1;1;1;1;23;2;10489349056
32;1;16;1;89;2047;11177633248
1;32;1;8;2047;2;5872101312
1024;1024;256;1;46;2;1840096
1024;4;16;4;2047;23;84533440
4096;2048;128;8;2047;4094;6901481088
4096;2048;128;256;2;2;18446744073709551615
4096;2048;16;1;2;2;3849568
512;2048;128;1;1;1;1624672
128;4;2;4;2047;1;88784704
4096;32;128;2;2;2;1569696
2048;16;128;8;2;2;1681600
4096;1024;128;1;2;2;1058816
4096;2048;32;1;178;2;2938624
4096;2048;2;1;2;2;30527712
4096;2048;128;1;178;178;51070848
4096;2048;512;1;2;2;1185952
4096;2048;128;1;2047;2;3419648
1;2;1;2;1;1;6460866336
512;128;8;4;2047;1;23427008
1;512;1;2;89;2047;486575936
32;1024;8;512;89;89;18446744073709551615
4096;2048;128;1;2;178;26662272
4096;2048;1024;1;2;2;1923680
16;2048;4;1;2;2;9559552
2048;2048;128;1;23;2;1798144
4096;2048;128;512;2;23;18446744073709551615
1024;4096;128;1024;23;2;18446744073709551615
2048;2048;128;1;2;1;1506528
1;2048;1;1;2;2;37444064
4096;512;512;2;1;2;1754368
2048;2048;64;1;23;2;1902176
1024;2048;128;1;23;23;48494880
4096;2048;128;1;46;23;55272736
2048;2048;128;1;1;46;38697760
1024;2048;128;1024;1;2;18446744073709551615
2048;2048;128;1;2;2;1057664
4096;2048;128;1;2;23;6842112
4096;2048;64;1;23;2;2100448
1;2048;1;512;2;23;18446744073709551615
1;2048;1;1;2;2;37424192
4096;4096;512;1;2;2;1341568
1;2048;1;512;2;2;18384512
4096;4096;32;1;23;2;3678528
4096;2048;128;1;23;2;1873504
4096;512;128;2;23;2;1767264
2048;2048;128;512;2;2;18446744073709551615
4096;4096;256;1;2;2;1229600
2048;2048;128;1;23;1;3240768
1;1;1;1;2;2;8093088416
2048;2048;128;1024;23;2;18446744073709551615
1024;2048;128;1;2;2;1052544
512;2048;64;1;1;2;1209696
1024;2048;128;1;2;23;6206528
1024;4096;32;1;2;2;1756544
1024;2048;64;1;1;2;1226592
1024;2048;128;1024;2;1;18446744073709551615
1024;2048;128;1;23;2;1755200
512;2048;128;1024;2;1;18446744073709551615
1024;4096;128;1;2;2;1099200
256;2048;128;512;2;2;18446744073709551615
1;2048;1;1024;2;2;43551712
1024;2048;256;1;2;2;1061984
1024;2048;256;1024;2;2;18446744073709551615
1024;4096;256;1;2;2;1094944
1024;2048;128;1;2;1;1484992
1024;2048;128;1;2;46;40796832
1024;1;128;1;2;1;15482752
1024;1024;64;1;46;2;1830880
1024;1024;256;1;2;2;1042976
1024;2048;64;1024;2;2;18446744073709551615
1;1024;1;1;2;2;37165536
512;1024;256;1024;2;1;18446744073709551615
1024;1024;256;1;23;2;1780768
1024;256;256;4;2;2;1464832
1024;1024;256;1;1;2;1170912
512;1024;256;1;2;2;1091744
1024;1024;256;1;2;23;9164512
1024;512;128;1;2;1;1504960
2048;2048;1024;1024;2;2;18446744073709551615
1024;1024;256;1024;2;2;18446744073709551615
1024;512;128;2;2;2;1114560
1024;1024;256;1;2;1;1525376
1024;1024;64;1;23;46;56464608
256;1024;256;1;2;2;1192448
1024;1024;256;1;2;46;43632096
4096;2048;256;1;2;1;1492224
1024;1024;64;1;2;2;1159872
1024;1;256;1;2;2;8270144
1024;512;512;2;23;2;1731584
2048;1024;512;512;1;2;18446744073709551615
1024;4096;256;1;2;23;9547680
1024;1024;128;1;2;2;1026560
1024;1024;128;1;2;1;1479552
1024;4096;128;1;2;1;1524320
2048;256;128;4;2;2;1320864
1024;1024;128;1;1;2;1163456
512;1024;64;1;2;2;1147744
128;256;128;4;2;1;2146560
1024;1024;512;1;2;2;1086784
4096;512;128;2;1;2;1232864
1024;512;256;2;2;1;1674080
1024;1024;64;1;23;2;1783296
2048;2048;32;1;2;2;1741024
2048;256;128;4;2;1;1746912
128;4096;128;512;2;23;18446744073709551615
1024;4096;128;1;1;2;1101984
1024;1024;128;1024;2;2;18446744073709551615
4096;1024;128;1024;2;23;18446744073709551615
2048;1024;128;1024;2;2;18446744073709551615
1024;2048;512;1;2;1;1620448
1024;1;32;1;2;1;15392768
256;4096;128;1;1;2;1154112
256;1024;128;1;1;1;1687488
1024;1024;128;1;46;2;1797696
256;1024;128;1;2;2;1154496
1024;512;128;2;2;23;9218400
1024;1024;128;1;23;2;1756384
4096;2048;256;1;23;2;1821440
1024;512;128;1;2;23;6281760
1024;256;128;4;2;2;1286848
1024;1024;128;1;2;23;6159264
1024;1024;128;1024;2;23;18446744073709551615
256;1024;64;1;2;1;1654432
1024;512;512;2;2;2;1445440
2048;1024;256;1;2;23;9413920
512;1024;32;1024;2;2;18446744073709551615
1;256;1;4;2;2;36234336
1024;1024;32;1;46;2;2262880
256;1024;128;1;2;1;1537472
1024;1;128;1;2;2;8181504
1024;1024;32;1;1;1;2644608
256;1024;128;1;23;2;1888544
128;1024;64;1;2;1;1733088
1024;1024;128;512;2;2;18446744073709551615
512;1024;64;1024;2;2;18446744073709551615
1;1024;1;1;2;2;37159680
512;128;128;8;1;2;1765792
1024;1024;128;512;23;2;18446744073709551615
1024;1;128;1;2;1;15436416
1024;512;128;1;2;2;1074496
256;1;128;1;2;2;31510272
1024;128;128;8;2;2;1475744
2048;256;256;4;2;2;1494144
1024;512;128;2;1;2;1289152
2048;1024;64;1;2;2;1164608
1024;1024;256;1024;2;1;18446744073709551615
256;1024;128;512;2;2;18446744073709551615
2048;1024;128;1;1;2;1124736
1024;1024;32;1;2;2;1499232
4096;1024;256;1;2;2;1063232
1024;1024;512;512;2;2;18446744073709551615
512;1024;128;1;2;1;1493120
2048;1024;128;1;2;2;1041888
1024;64;128;16;2;2;18446744073709551615
1024;1024;128;256;2;2;18446744073709551615
1024;1024;64;1;1;2;1224768
512;1024;128;1;23;2;1789952
1024;1024;32;1;2;23;6385984
512;1;1;1;2;2;46625824
1024;1024;128;1;2;46;45581248
1024;256;128;4;2;23;18446744073709551615
1024;1024;16;1;2;2;2713920
512;1024;128;1024;1;1;18446744073709551615
1024;1024;32;1;1;2;2038528
2048;128;128;8;46;2;1721440
256;2048;128;1;2;23;6004256
1024;1024;64;1;2;23;6269024
1024;2048;128;256;1;2;18446744073709551615
1024;512;32;2;2;2;1139520
1024;2048;64;1;2;2;1224320
1024;512;64;2;2;2;1085632
1024;1;64;1;2;2;8181664
1024;512;64;512;2;1;18446744073709551615
1024;1024;64;1;23;23;40178752
1024;512;128;2;2;1;1584128
1024;1024;512;1;1;2;1216064
256;1024;128;1;46;1;2053280
1024;4096;128;1;23;2;1797120
1024;4096;256;1024;2;1;18446744073709551615
4096;1024;128;512;2;2;18446744073709551615
256;1024;1;1;2;2;37523808
1024;2048;128;1;46;23;54444352
1024;1024;64;1024;2;2;18446744073709551615
4096;1024;256;1;2;23;9917216
1024;2048;128;1;46;2;1818208
64;1024;1;1;2;2;36868480
1024;512;64;1;2;2;1117472
1024;1024;64;1;2;1;1613888
512;1024;256;1;1;2;1223072
1024;1024;128;1;23;23;50517216
1024;1024;128;1;1;1;1626464
2048;2048;128;1;2;23;6376512
1024;4096;512;1;2;2;1134560
4096;1024;64;1;23;2;1913184
4096;1024;128;1024;2;1;18446744073709551615
128;1024;32;1024;2;2;18446744073709551615
1024;1024;64;1024;46;1;18446744073709551615
256;2048;128;1;2;1;1490560
1024;2048;32;1;23;2;2348768
2048;1;128;1;2;1;9604000
2048;512;128;2;2;2;1105664
1024;1024;128;512;2;1;18446744073709551615
2048;1024;256;512;2;2;18446744073709551615
1024;512;32;1;2;46;27858016
1024;512;128;512;2;2;18446744073709551615
2048;1024;256;1;2;2;1045408
1024;128;512;8;2;1;18446744073709551615
512;4096;128;1024;1;23;18446744073709551615
512;1024;512;1024;2;2;18446744073709551615
512;512;128;2;23;2;1838816
4096;1024;128;1;23;2;1781920
1024;256;512;4;2;2;18446744073709551615
2048;1024;128;1024;2;23;18446744073709551615
64;1024;8;1;2;2;4908832
2048;1024;64;1;2;1;1652576
1024;1024;64;1;46;1;2111424
1024;1024;64;1;2;46;28262016
256;256;128;4;1;2;1645280
1024;2048;128;1;46;1;2068064
4096;256;128;2;1;2;1517792
1024;2048;128;1;1;2;1085248
1024;1;32;1;2;2;8193152
4096;1024;128;1024;1;2;18446744073709551615
4096;128;128;8;1;23;20540512
1024;1;128;1;23;2;11683008
1024;1024;64;1024;1;2;18446744073709551615
1024;4096;128;1024;2;2;18446744073709551615
4096;1024;32;1;2;2;1814496
2048;1024;64;1024;2;2;18446744073709551615
1024;512;256;2;2;2;1185472
1024;256;128;4;1;2;1599296
1024;1024;128;1;23;1;3288128
2048;1024;128;1;23;1;3238080
1024;1024;16;1024;2;2;18446744073709551615
4096;2048;128;256;2;1;18446744073709551615
1024;1024;512;1;1;1;1791040
512;1024;16;1;2;2;2622688
4096;1024;128;1;2;1;1425504
1024;1024;1024;1024;2;46;18446744073709551615
2048;512;128;2;2;23;9378752
1024;1024;128;256;2;1;18446744073709551615
2048;1024;128;1;23;2;1741728
128;1024;2;1;2;2;18760800
1024;256;128;2;2;2;1235040
1024;256;64;256;2;23;18446744073709551615
1024;1024;128;1;1;23;22878624
2048;512;128;2;1;2;1184032
2048;4096;128;1;1;2;1198080
1024;128;128;8;23;2;1722432
2048;4096;1;8;23;89;20200256
2;1024;1;256;89;1;367120576
4096;32;1;32;4094;89;459635072
256;1024;64;1;2047;89;399095392
1024;1024;128;1;46;1;2079072
512;1024;128;1;2;23;6110784
4096;2048;32;1;2;1;2745024
1024;1024;256;1;23;23;47538912
2048;1024;256;1;1;2;1170144
1024;1024;128;1024;2;1;18446744073709551615
1024;512;128;2;46;2;1835904
1024;4096;64;1;2;2;1314848
1;1024;1;1;2;2;37166720
1024;1024;128;1;2047;2;6368224
1024;4;128;4;178;2;3838112
2048;512;1;64;4094;1;126928896
32;4;4;1;1;23;140279680
1024;16;2;2;89;46;28038432
1;4;1;2;89;46;4547358720
1024;1024;128;1;2;2047;70828928
64;1024;1;1;23;2;64285472
2;16;2;2;2;2;242840416
2048;1024;128;512;2;1;18446744073709551615
1024;1024;128;1024;1;2;18446744073709551615
128;1024;128;1024;2;2;18446744073709551615
2048;1024;128;1024;1;2;18446744073709551615
128;1024;1;1;2;2;37057600
128;1024;1;1024;1;2;55200704
512;1024;256;1;2;1;1555264
2048;1024;16;1;2;2;2976288
128;1024;128;1;1;2;1593344
256;1024;128;1;2;23;5913696
2048;512;16;2;2;1;2851168
2048;256;128;256;2;2;18446744073709551615
1024;4096;256;1;2;1;1545952
1024;1024;128;1;1;89;37025728
4096;1024;512;1;23;1;3214848
1024;1024;1024;1;2;2;1460800
512;512;256;2;2;2;1297248
2048;1024;64;512;2;2;18446744073709551615
512;256;64;4;2;2;1428320
1024;256;64;4;2;2;1317952
128;256;8;32;46;46;62995776
1024;1024;4;1;1;2;14642912
1024;1024;128;128;2;2;18446744073709551615
1;4;1;2;2047;23;10455487936
1024;1024;512;1;23;2;1772576
2048;1024;128;1;2;23;6301504
2048;256;128;1;23;2;1745440
2048;1024;512;512;2;2;18446744073709551615
2048;4096;128;1024;23;2;18446744073709551615
1;2048;1;1;23;2;76675936
1024;1024;256;512;2;2;18446744073709551615
1024;1024;512;1;23;1;3237344
256;1024;128;1024;23;23;18446744073709551615
1024;4096;128;512;1;2;18446744073709551615
1024;512;128;2;23;2;1765632
2048;2048;64;1;1;2;1393600
256;2048;128;1;1;23;17813504
1024;1024;128;512;2;46;18446744073709551615
4096;1024;128;1;1;2;1206272
1024;512;512;2;2;1;1987264
1;1024;1;1;2;23;81857888
256;1024;1;1024;2;2;40574848
1024;4096;128;1;2;23;6337184
1024;1024;128;1024;23;23;18446744073709551615
1024;256;128;2;1;2;1620192
512;1024;256;1;2;23;9046944
2048;1024;64;1;1;1;1750944
1024;512;64;2;2;23;6459808
4096;1024;128;256;2;2;18446744073709551615
2048;1024;512;1;2;2;1080864
1024;512;128;2;1;1;1725152
1024;1024;1;1024;23;1;42607904
2048;256;128;1;2;2;1119712
1024;1024;64;256;2;2;18446744073709551615
1024;128;64;8;23;2;1793920
2048;512;128;2;2;1;1552800
512;2048;128;1024;2;23;18446744073709551615
1024;1024;512;1;2;1;1637504
1024;4096;64;1;2;1;1714176
2048;1024;128;256;2;2;18446744073709551615
1024;2048;128;1;1;23;16331680
1024;1;64;1;1;1;19597984
1024;2048;128;1;89;2;1770624
256;1024;32;1;23;1;3942240
2048;1024;64;1;2;23;6400224
1024;2048;64;512;2;2;18446744073709551615
128;1024;128;1;2;2;1301120
1024;256;128;4;23;1;3217760
2048;1024;256;1024;2;2;18446744073709551615
1024;256;128;4;2;1;1781472
1024;1024;128;1024;23;2;18446744073709551615
2048;1024;16;1;2;1;5101504
2048;2048;1024;1;2;2;1670752
1024;1024;256;1024;23;2;18446744073709551615
1024;2048;128;512;1;2;18446744073709551615
4096;1024;128;1024;2;2;18446744073709551615
128;128;128;4;2;2;1529536
256;1024;128;1;1;2;1379552
2048;1024;128;256;23;2;18446744073709551615
1024;4096;128;1;46;2;1823584
1024;128;128;2;2;2;1378048
16;32;4;1;2;1;28320800
8;4;1;4;2047;2047;5083487072
1024;2;128;2;2;2;4168608
128;256;64;4;46;23;40264512
1024;512;128;2;23;23;48909472
128;2048;64;1;2;2;1237184
1024;1024;128;2;2;2;1052384
1024;8;128;1;2;2047;1363382336
2048;1;128;1;2;2;4463136
1024;2048;256;1;1;2;1117216
1024;1024;64;1024;2;1;18446744073709551615
512;256;128;4;23;23;46894592
1024;1024;128;512;2;23;18446744073709551615
4096;2;256;1;178;2047;5824385920
16;64;4;2;89;1;31622656
4;1;2;1;46;1;2777157056
128;4096;1;2;89;178;50398336
1;1024;1;1;2;23;82253984
1024;1024;64;512;2;2;18446744073709551615
512;1024;128;1;1;2;1183584
2048;4096;256;1;2;1;1620960
512;2048;64;1;2;2;1196832
1024;512;256;1;2;23;9210816
1024;1;256;1;23;2;12578944
2048;1024;128;1;2;1;1489696
2048;512;1024;2;2;2;18446744073709551615
512;1024;256;1024;2;23;18446744073709551615
1024;512;64;2;23;2;1766336
1024;4096;128;1024;1;2;18446744073709551615
4096;1024;256;1;46;2;1775296
2048;512;32;2;2;2;1186016
4096;4096;128;512;2;2;18446744073709551615
1;4096;1;1024;2;2;43519776
4096;1024;8;1024;2;2;18446744073709551615
1024;1024;512;256;2;2;18446744073709551615
4096;1024;128;512;46;2;18446744073709551615
256;1024;128;1024;2;1;18446744073709551615
1024;2048;256;1024;2;23;18446744073709551615
2048;512;128;2;1;23;24325248
1024;1024;32;1;2;1;2598816
2048;1024;64;1;23;1;3259104
256;1024;256;1024;2;2;18446744073709551615
256;1024;256;256;2;2;18446744073709551615
512;1024;128;1;23;1;3379744
1024;2048;128;1024;2;2;18446744073709551615
2048;128;32;1;1;178;22437280
256;8;128;8;2;2047;1547717728
2048;1024;128;1;1;1;1630848
512;1024;128;1;23;23;47761728
128;512;128;2;2;2;1379904
256;1024;128;1024;1;2;18446744073709551615
1024;1;128;1;2;23;114933536
1024;1;512;1;2;2;8933536
1;512;1;1;2;2;45627840
512;1024;128;1024;2;23;18446744073709551615
1024;1024;512;1;2;23;18446744073709551615
512;1024;128;1024;2;2;18446744073709551615
512;1024;64;1;1;2;1219520
1024;512;1024;1;2;2;1475584
2048;1024;128;1024;23;1;18446744073709551615
1024;4096;32;1;2;1;2851840
256;1024;128;1024;2;2;18446744073709551615
1024;1;64;1;1;2;17401024
1024;2048;256;1;46;1;2101056
1;64;1;16;1;178;320989344
1024;1024;128;1;23;46;87758560
1;1;1;1;89;2047;21676754976
1024;1024;128;64;2;2;18446744073709551615
1024;1024;128;1;1;2;1148864
1024;8;128;8;2;2;1814752
8;1024;8;1;2;2;4916896
1;4096;1;512;2;2;18410912
1024;1024;512;1;89;2;1924448
1024;32;128;32;1;2;18446744073709551615
1024;32;128;32;2;2;18446744073709551615
1024;1024;128;32;2;2;18446744073709551615
1024;64;128;1;2;2;1603168
1024;2;128;1;2;2;4188512
1024;1024;128;1;2;2;1030912
1024;64;128;16;2;23;18446744073709551615
1024;1024;256;8;2;2;18446744073709551615
1024;1;8;1;2;2;8321792
1024;1024;128;2;2;23;9201184
1024;1024;128;512;2;1;18446744073709551615
2;1024;2;1;1;2;25777952
1024;1024;128;1;1;1;1624864
4096;1024;128;1;178;2;1883424
1;1024;1;1;2;46;72060768
1024;1024;8;1;2;46;13305216
1024;1024;128;4;2;2;1109088
1024;1024;1;1;2;2;40117472
1024;1024;8;1;2;2;5243328
1024;1024;128;128;46;2;18446744073709551615
1024;512;128;2;1;23;23575680
1;1024;1;1;2;1;62847552
1024;1024;512;1024;23;2;18446744073709551615
1024;1024;1;1;2;2;40131776
128;4096;8;16;1;89;56562400
1024;256;1;2;23;2047;68177088
1;1024;1;32;46;178;322185888
32;2;8;2;1;46;352581664
512;512;128;2;2;23;9134016
1024;1024;1024;1024;2;2;18446744073709551615
2048;1024;256;1;23;2;1746240
512;512;512;2;2;2;1447456
1024;512;128;2;46;1;2069792
512;4096;256;1;2;2;1077280
1024;512;128;2;2;46;54877696
1024;1024;128;512;1;2;18446744073709551615
1024;512;128;2;23;1;3269760
1;1024;1;1;1;2;49708128
1024;2048;512;1;2;2;1092544
256;1024;64;1024;2;2;18446744073709551615
4096;512;128;2;2;1;1438592
1024;1024;32;1;23;46;45624416
1024;2048;128;512;2;1;18446744073709551615
1024;1024;128;256;2;23;18446744073709551615
512;256;256;4;2;2;1475808
1024;256;256;4;1;2;1773600
1024;256;32;4;2;2;1293760
1024;512;64;1;2;23;6356544
1024;1024;128;1024;46;23;18446744073709551615
4096;1024;32;1;23;2;2561824
1024;256;1;2;2;2;21445152
512;256;128;4;2;2;1310336
512;512;128;1;2;2;1179040
2048;128;128;8;2;2;1511456
512;2048;128;512;2;2;18446744073709551615
1024;2048;256;1;46;2;1816032
512;512;32;2;2;2;1201152
1024;1024;32;1024;2;2;18446744073709551615
1024;2048;128;256;2;23;18446744073709551615
2048;1024;128;1024;2;1;18446744073709551615
512;1024;32;1024;23;1;18446744073709551615
512;256;32;4;2;2;1396832
4096;64;128;16;2;2;18446744073709551615
1024;1024;128;1024;23;1;18446744073709551615
1024;1024;128;1024;46;2;18446744073709551615
512;2048;256;1;2;2;1066816
2048;512;128;2;46;2;1757984
256;512;128;2;2;2;1343584
512;1024;512;1;2;23;18446744073709551615
2048;2048;512;8;4094;1;18446744073709551615
1024;1024;256;1;89;2;1931872
8;1;1;1;23;23;2533646656
512;32;8;16;2047;2;12678080
1;2048;1;1;2;2;37432032
2048;1024;128;1;2;46;49383040
128;1024;128;1;2;1;1630016
512;1024;512;512;1;2;18446744073709551615
256;1024;2;1;2;2;18984768
512;1024;128;1;1;23;24090208
1024;256;256;2;2;2;1304352
2048;256;128;1;2;1;1519872
1024;2048;32;1;2;2;1564288
2048;2048;1024;1024;1;1;18446744073709551615
1024;4096;16;1;2;2;3225920
1024;256;128;4;23;2;1766976
4096;1024;64;1;2;2;1143072
1024;2048;128;512;23;2;18446744073709551615
1024;256;128;4;1;23;23000320
1024;512;128;1;23;2;1769024
4096;512;64;2;23;2;1760960
256;1024;32;1;2;2;1462400
1;1024;1;512;2;2;23815168
512;1024;64;1;1;1;1723104
256;1024;1;1;1;2;50769696
1024;2048;256;1;23;2;1763168
2048;512;256;2;2;2;1111776
1024;4096;128;1024;2;1;18446744073709551615
1024;1;128;1;2;2;8175488
256;1024;128;512;23;2;18446744073709551615
512;512;128;2;2;1;1638688
128;512;1;2;178;2047;488640608
32;1024;1;32;4094;89;912027104
2048;4096;1;512;23;46;73563520
16;512;2;4;89;1;33692960
1024;1024;64;1;2;89;44100448
256;256;128;2;2;2;1433344
512;4096;512;1;2;2;1103456
4096;512;256;2;2;2;1147744
1024;2048;256;1;23;23;47608704
1;1024;1;1;23;2;74998240
256;64;2;1;4094;23;117901888
256;1024;64;1;2047;2;23263168
1;512;1;64;4094;1;11204231008
32;4;4;1;1;4094;3255783872
1024;512;128;512;2;23;18446744073709551615
2048;1024;64;1;1;2;1381472
1024;2048;128;1024;2;46;18446744073709551615
2048;1024;128;512;2;2;18446744073709551615
1024;1024;64;1024;23;2;18446744073709551615
1024;1024;128;512;23;23;18446744073709551615
1024;1024;1024;1;2;1;2056416
1024;1024;1;2;1;23;44395456
1;1024;1;16;46;46;264990816
128;4096;1;1;46;46;82589216
4;128;4;4;2047;23;2917789280
1024;1024;128;1;2;4094;96567136
1024;2048;1;1;2;2;41924224
512;128;128;8;2;1;2023520
1024;1024;32;1;1;23;12529088
1024;512;128;1;1;2;1207456
512;4096;64;1;2;1;1644160
1024;1024;32;1;23;2;2255744
1024;1024;512;1024;2;2;18446744073709551615
1024;1024;128;128;1;2;18446744073709551615
1024;1024;128;1;89;2;1828416
1024;1024;128;1;2;178;32138816
4;1024;2;1;23;2;38275136
1024;1024;512;1;178;2;1920704
2;1024;2;1;2;2;18814624
256;1024;64;1;23;2;1875840
1024;64;8;16;2;2;3295392
1024;1024;128;1;4094;2;11783488
1024;4096;128;1;2;2047;65994464
256;512;2;1;2;2;18872704
64;512;1;2;2;2;20457056
4096;1;4;1;46;1;17984064
8;512;1;4;1;23;22377664
1;256;1;2;46;23;236071264
1;2;1;2;2;178;7499235584
1024;1024;128;1;1;46;43414336
512;1024;256;1024;2;2;18446744073709551615
1;1024;1;1;2;1;62876128
2048;1024;128;1024;23;23;18446744073709551615
512;1024;128;256;2;2;18446744073709551615
4096;256;128;4;2;23;18446744073709551615
512;64;4;4;89;89;21193984
2048;1;128;1;46;1;6187776
1024;32;1024;32;2;2;18446744073709551615
1;1024;1;1024;2;1;139739456
512;1024;128;1;2;46;47449344
1024;1024;128;1;46;23;55558848
512;512;64;2;1;2;1400352
512;2048;128;1;1;2;1126304
1024;1024;1024;1;46;2;1725536
2048;1024;64;1024;2;23;18446744073709551615
1024;128;16;8;1;2;2077408
