GLOBAL_SIZE_0;GLOBAL_SIZE_1;LOCAL_SIZE_0;LOCAL_SIZE_1;v_TP_293;v_TP_294;cost
64;8;8;8;2047;89;65551680
4096;4096;256;4;4094;2;531386080
8;2048;1;256;89;23;18102784
4;4096;4;1;178;1;1056671456
8;2048;1;128;89;23;38856352
8;1024;4;16;89;46;6692928
1;2048;1;256;89;23;50640416
8;2048;1;256;46;1;14639488
2048;64;32;8;23;178;3010432
512;16;64;2;1;89;9851968
2;4096;1;512;89;1;27595328
1;1;1;1;1;4094;13997033312
2048;64;4;8;23;2047;60088640
2048;64;2;8;23;178;11141440
2048;64;4;8;23;178;6672320
2048;2;32;1;23;178;20871296
512;64;32;8;23;2047;7984832
2048;1024;32;1024;23;178;18446744073709551615
512;128;32;4;23;178;2972256
2048;128;32;4;23;89;2951584
2048;128;16;4;46;46;3275488
2048;128;32;4;46;89;2904992
2048;128;32;4;23;46;4253408
1024;128;32;4;23;46;4338112
1024;128;8;4;46;89;5825696
256;128;8;4;46;89;6093216
1;128;1;2;46;89;260962592
64;2;1;1;23;23;179189888
32;512;8;2;23;4094;9575584
1;128;1;4;46;46;209084032
2048;256;64;2;46;46;5964928
512;256;32;2;23;89;3336832
2048;256;32;2;46;89;3255232
2048;128;32;4;178;89;2923744
256;256;32;2;46;178;3411744
1;1;1;1;1;2;21547389664
2048;256;32;2;46;23;6215680
2048;4;1024;2;46;89;18446744073709551615
4096;64;32;8;2;89;5264384
8;8;4;1;2;1;1467128768
16;2;16;1;89;1;11194295200
16;16;8;4;1;46;361164160
4;1024;1;1;1;46;99636192
2048;128;64;4;46;89;3965728
2048;1024;32;1024;89;89;18446744073709551615
2048;128;64;2;89;89;3893152
1;512;1;1;46;89;240632640
8;8;2;2;2047;2047;1425035584
2048;128;32;8;178;89;2903936
2048;128;32;4;46;2047;4620928
1024;128;32;2;46;89;3352672
1024;64;32;16;178;89;3072352
1024;128;8;8;178;89;4402784
1024;32;32;8;178;89;3244576
1;32;1;32;178;89;1135616928
2048;128;16;8;178;89;2759200
1024;128;16;8;178;2047;11041824
2048;128;32;8;178;46;4192224
2048;256;32;4;89;46;4168448
2048;128;64;8;178;89;4076992
2048;128;16;8;178;46;2896096
1024;128;16;8;178;89;2713248
1024;512;16;2;178;89;5896960
256;32;16;32;178;89;5216896
2048;128;16;8;178;178;3069120
1024;256;32;4;2047;178;5624704
1024;128;16;4;178;89;3438240
1024;128;16;8;178;178;3017376
1024;512;16;2;178;46;5851904
4096;256;4;4;178;89;10426016
1024;128;32;8;178;89;2946592
256;64;16;16;4094;89;8530848
512;128;16;8;89;89;3083776
1024;32;16;8;178;46;3475584
1;128;1;8;178;89;284588576
2048;128;16;8;89;89;2908736
4096;512;8;256;1;46;18446744073709551615
1024;128;4;4;178;178;10762752
2048;128;32;2;178;89;3563712
1024;512;16;512;178;89;18446744073709551615
1024;128;32;4;178;89;3016928
1024;128;16;8;2047;89;3355104
1024;64;16;16;89;46;3167936
32;16;4;2;178;2047;205262880
1024;1;16;1;178;89;38454944
1024;64;4;16;178;89;5790464
32;128;16;8;178;89;11156416
256;64;16;16;178;89;3224736
4096;128;32;8;89;89;2949216
256;128;16;8;2047;89;8443200
1024;128;4;8;178;178;6746048
1024;256;32;4;178;89;3013600
1024;128;8;8;178;178;5907648
256;1024;32;64;1;46;18446744073709551615
1024;128;16;4;178;178;3549536
1024;128;16;8;178;46;2968064
128;128;32;8;178;46;5443392
1024;32;8;32;178;89;4008832
1024;128;64;8;178;23;6913792
64;32;2;1;89;2047;258113120
4096;128;16;4;178;89;3445152
1024;512;16;2;89;89;5514912
256;256;128;64;23;2047;18446744073709551615
1024;32;64;1;2;178;4085088
64;512;2;1;46;4094;119993376
512;32;16;8;89;178;3774848
8;32;4;4;4094;4094;1154852992
64;2048;8;2;89;178;10800000
512;128;2;16;4094;1;15763424
1;1;1;1;4094;89;21778515520
1024;256;16;4;178;89;3411520
1024;256;16;4;178;178;3566432
1024;128;4;8;2047;89;11427328
2048;64;64;16;178;89;5025312
4;128;2;8;178;89;74005728
1024;128;16;1;178;89;10838560
1024;32;16;32;178;89;4251072
1024;128;16;8;23;89;2766944
1024;128;16;8;89;89;2883744
1024;128;32;4;178;46;4350688
1024;128;16;8;178;23;4359328
1024;512;32;2;178;46;4885920
256;32;16;32;178;178;6391456
1024;512;16;2;178;178;5915424
512;16;64;1;23;89;7095968
256;32;128;4;89;2047;4420480
16;1;8;1;2047;89;1672632224
1;2;1;1;23;2047;10079750656
1024;128;128;8;178;178;4753408
512;128;16;8;2047;89;5816960
1024;128;8;4;178;178;6554240
1024;8;16;1;178;89;11124320
1024;64;16;16;1;89;17498080
1;128;1;8;178;89;287384832
16;128;16;8;178;89;22074048
1024;256;16;4;89;89;3250336
1024;128;16;8;4094;178;10765760
1024;128;16;2;178;89;5903616
2048;4;16;4;178;46;6229792
512;64;16;8;23;4094;21406016
16;64;1;64;178;178;50523200
2048;1024;1;8;178;89;18839840
1024;16;32;1;89;89;6291328
1024;128;32;8;178;178;2519552
1024;256;32;2;89;89;3429792
1024;128;32;4;178;178;2649216
512;128;32;8;178;178;2756384
1024;256;16;1;178;178;10754144
512;128;64;8;178;178;3030976
1024;128;32;2;89;178;3296064
1024;32;4;32;178;178;10693568
1024;128;64;8;178;178;2948640
1024;128;32;4;89;46;4272352
1024;128;32;8;178;2047;5491392
1024;128;32;8;2047;2047;28549120
512;128;16;8;178;178;3025984
2048;128;32;8;178;2047;5585120
1024;32;16;32;178;178;3455488
2048;128;32;8;178;178;2523616
1024;32;32;32;178;2047;16973024
1024;128;64;8;178;2047;3108576
1024;64;32;8;46;178;2911104
2048;64;64;2;23;178;3058720
1024;64;64;4;46;2047;4745120
1024;32;64;16;23;178;4549600
1024;128;32;2;178;178;3460384
1;1;1;1;178;178;18566916960
1024;128;32;8;178;4094;7528192
1024;16;32;1;178;178;5891168
1024;64;32;16;178;178;2915744
1024;256;32;4;178;2047;5665760
1024;256;32;4;89;178;2562336
4096;4;2;1;89;1;131905760
256;128;32;4;1;1;243878528
2;4;2;2;1;178;4090361312
16;512;4;1;1;4094;36944128
1024;64;32;8;178;178;2953472
1024;256;32;4;178;4094;7947936
512;128;16;8;178;2047;10960576
1024;128;16;8;2047;178;5689856
1024;512;128;2;2047;178;12267168
512;512;32;2;178;178;4218592
512;256;128;2;46;2047;2626304
1024;128;64;1;23;2047;3577888
1024;2048;32;1;178;178;5864480
1024;128;1;8;178;178;19301664
1024;32;32;32;178;178;3463808
1024;128;32;8;2;178;5886848
8;16;1;8;23;2047;815334784
2;2048;2;8;2047;2;1178140096
4;1;1;1;2;89;5142941024
128;512;1;2;4094;23;128582144
1024;16;32;2;2047;178;10480864
512;128;32;8;2047;89;4783168
1024;64;64;4;1;46;9232928
1024;128;64;4;4094;178;11076352
1024;32;32;32;23;178;4212448
2048;128;128;8;89;2047;3484960
1024;128;32;8;4094;178;5572096
4096;128;32;4;178;178;2685952
1024;128;32;4;46;178;2650528
1024;1024;32;1;178;23;9603232
1024;128;32;8;178;46;4287584
1024;128;32;8;178;1;102422624
128;32;4;32;4094;4094;165624512
4;4096;1;128;23;4094;35652736
2048;512;128;1;89;23;9620800
256;64;1;2;89;46;56112576
4096;128;64;8;178;89;4012800
2048;512;32;2;178;178;3440640
64;128;32;8;178;178;6189856
128;128;32;8;178;178;3614880
128;128;16;8;178;178;3799264
16;4;4;4;46;46;465569504
16;2;16;2;46;4094;644784480
1;8;1;2;4094;89;11371844608
256;256;32;8;4094;4094;80445344
16;128;1;8;2;178;91218304
1024;128;32;8;1;178;6767968
1024;128;256;8;178;178;18446744073709551615
1024;128;32;4;2047;2047;54773472
2048;64;32;16;2047;178;3373376
1024;256;32;4;178;178;2654624
1024;32;16;16;178;178;3650976
4;4096;1;1;89;1;145232800
8;8;4;4;178;1;1690383456
16;8;16;8;46;1;3030155296
16;16;4;4;1;2047;572179104
1024;256;32;4;46;178;2540128
1024;128;32;2;178;4094;14795456
2;1;2;1;23;178;9935826176
1024;128;64;8;89;178;2973408
1024;128;256;8;178;23;18446744073709551615
16;128;1;8;178;178;25291616
1024;128;32;2;178;2047;10656160
2048;256;32;4;178;178;2648832
256;128;32;4;89;178;3052608
1024;1024;1;128;1;46;100753024
32;16;16;8;4094;4094;160650176
64;1;8;1;89;178;429176608
1;128;1;16;4094;1;1886331104
256;16;128;2;178;178;12798496
256;128;32;8;178;178;3028064
1;32;1;32;178;178;1054142048
1024;32;1024;32;178;1;18446744073709551615
1024;128;2;8;178;178;10854240
1024;128;32;8;178;23;6021696
16;1;8;1;4094;89;1776435200
64;1;64;1;2047;89;652009824
1;2;1;2;23;2047;11127411520
256;2048;16;8;23;4094;3661312
256;128;8;8;178;178;5195264
1024;256;128;4;89;4094;2881440
2048;32;64;32;89;178;18446744073709551615
1024;128;32;8;46;178;2610208
4;4;4;4;178;178;1634721792
2;128;2;8;178;178;144862112
1024;128;32;8;178;2;56874240
512;128;32;2;178;178;4245376
16;64;2;64;178;46;32592000
2;1024;2;1;1;89;51887808
4096;4;1;4;1;23;99211776
256;128;32;4;1;46;9197472
512;128;32;1;89;178;5903424
1024;128;32;8;89;178;2648128
1024;1;32;1;178;178;40167936
1024;512;32;2;178;178;3457536
64;128;32;8;89;178;5161056
4096;128;32;8;178;178;2526688
4096;512;128;2;178;178;4048672
2;4;2;2;1;1;13727829184
128;512;128;128;1;4094;18446744073709551615
1;16;1;8;23;2047;1633299712
2;2048;1;8;2047;1;841030272
1024;8;32;2;178;178;5921312
4096;512;32;2;178;4094;14911040
1024;64;32;16;2047;2047;14674880
1024;128;16;8;178;4094;14841376
512;128;32;8;178;89;2975584
4;1;2;1;2047;89;5379735680
128;4;1;1;2;23;125962016
128;32;4;8;4094;4094;646200224
512;2048;16;128;23;4094;18446744073709551615
1024;32;32;16;178;23;6979808
4096;128;32;8;178;89;2896672
1024;64;32;8;89;178;3012736
512;512;128;1;89;2047;3497120
256;64;1;2;89;4094;356056256
16;4;4;4;1;46;1311560064
16;2;16;2;46;23;1380579584
1024;128;8;8;178;2047;21912416
1024;128;32;16;178;178;2635136
1024;128;32;8;1;178;6787712
4096;256;32;4;178;178;2666272
512;128;32;8;2047;178;5727360
1;8;1;2;46;89;2897676864
256;256;32;32;4094;4094;25103936
4;64;1;16;89;2047;247977952
1;8;1;1;2;1;2657275168
2048;256;32;4;178;2047;5694304
1024;64;8;16;178;178;4569408
1024;128;32;1;178;178;5847616
1024;128;1;8;178;4094;203113728
1024;128;1024;8;178;178;18446744073709551615
256;128;32;4;178;178;3591584
4096;512;32;2;89;2047;5790752
16;1;16;1;46;1;22158597952
16;16;16;1;1;46;113413152
4;1024;4;1;1;1;139700320
4;16;2;2;46;4094;533225472
1024;128;32;8;178;178;2529216
1024;1024;32;512;178;178;18446744073709551615
8;128;2;8;178;178;37898528
512;64;32;4;178;89;3230336
512;128;32;8;178;2047;5520384
64;2048;2;16;89;178;7206880
512;128;1;16;89;1;10551936
16;1;8;1;4094;89;1765885088
64;256;1;1;1;178;99805504
4096;256;32;4;89;178;2572864
1024;128;32;8;2047;89;3807488
1024;128;128;8;2047;178;7204928
1024;128;32;8;178;2047;5517312
512;128;16;8;178;89;2935904
1024;256;16;4;89;4094;8518688
1024;512;32;2;178;89;3636000
1024;128;256;8;178;2047;18446744073709551615
1;2;1;1;178;4094;7463795104
256;2048;16;8;23;89;2631968
16;64;4;64;178;1;125136800
2048;1024;128;8;178;1;216468704
1024;4096;32;1;178;178;5856064
4096;128;64;8;178;178;2891776
2048;64;32;16;178;2047;8380640
1024;2048;64;1;178;178;4582240
4096;256;1;4;1;23;97936704
64;1;32;1;1;46;640511776
2;4;2;2;1;178;4358772576
32;128;2;4;1;4094;242491776
1024;128;128;4;178;2047;3079552
1024;1024;32;1;178;178;5832672
1024;128;32;4;178;178;2653920
1024;128;32;1;178;178;5871776
1024;8;32;8;178;178;5640544
8;16;1;1;23;2047;713991008
2;2048;1;8;1;1;167227744
4;64;1;4;2;178;178707776
128;4;1;1;2;1;151830592
1024;128;32;8;89;2047;4472928
4096;128;32;8;2047;178;3411552
128;32;1;32;4094;4094;937538496
4;1;1;1;1;4094;13804040096
128;256;128;2;89;2;193247232
256;1;1;1;1;46;246827616
1024;128;32;1;2047;178;21639008
1;128;1;8;178;1;288436704
1024;4096;32;1;178;2;92585728
16;4;1;4;46;46;417977984
16;2;16;2;2;23;1484323328
1;8;1;1;46;89;2923250016
256;256;32;32;2;23;69953056
1024;2;512;2;178;178;56870528
1024;4;32;4;178;23;14109952
4;4096;1;1;89;2047;251467680
1024;32;32;32;178;1;121723456
8;2;4;1;2;1;5794834784
256;8;1;8;1;1;236518528
16;16;16;1;2;46;114441696
128;1024;1;1;1;46;98695104
1;128;1;8;178;178;284977216
1;16;1;8;2047;4094;1209259552
64;16;16;16;89;178;34220320
16;128;1;16;1;1;242088832
1024;128;1;8;2047;178;69960224
1;128;1;8;178;178;270805152
1024;128;128;8;89;178;4906592
16;1;8;1;46;89;1675360608
64;1024;1;512;1;46;369850432
1;32;1;16;1;4094;6818966592
32;2048;16;1;23;89;11188448
1024;128;32;8;178;1;102462080
1024;16;32;2;178;178;3474624
4096;128;1;2;178;46;55938816
2048;1;1;1;178;89;470094688
4096;256;1;4;1;89;98289760
16;128;1;4;1;46;102486176
512;128;32;1;178;178;7577376
1024;128;32;8;23;178;2627424
2;4;2;2;4094;178;5295793280
32;512;2;1;1;4094;57796384
8;16;1;1;1;4094;907802944
2;1;1;1;1;1;11948178176
1024;1024;1;1;178;178;121171840
4;256;4;4;178;178;73941216
1024;128;32;8;178;89;2923712
4;64;4;4;2;1;901100704
128;4;1;1;1;23;119421216
128;32;4;8;4094;4094;637969728
4096;1;1;1;23;4094;14348059008
256;128;32;8;178;1;106112224
1024;128;32;2;1;178;5350368
512;512;128;1;1;1;176597568
256;64;1;2;1;1;149635552
1;4;1;1;2047;46;10847478176
32;1024;16;256;1;4094;18446744073709551615
32;8;8;2;1;89;183170272
512;2;32;1;4094;4094;640598784
4;4096;1;1;89;178;121086240
8;8;8;1;2;2047;375095168
1024;128;1024;8;178;89;18446744073709551615
4096;128;4;8;178;23;5388992
128;8;2;8;1;1;517692544
16;8;16;1;46;46;240306528
128;1024;1;2;1;2047;96111456
32;1;4;1;4094;4094;4463402944
2048;2048;1;16;89;178;11672064
64;128;8;16;89;1;34805664
16;1;1;1;46;178;1907544512
1024;128;32;8;2047;178;3283744
1024;16;2;2;178;178;35915680
64;256;1;1;1;2047;122591840
1;1;1;1;1;4094;13662638336
64;2048;4;1;23;89;31717152
1;256;1;1;178;89;952333024
64;1;16;1;178;89;455714304
128;256;4;4;46;4094;29623904
32;4096;32;1024;1;46;18446744073709551615
2;4;1;4;1;178;8150950176
1024;128;32;64;178;178;18446744073709551615
32;128;1;8;178;178;18994976
1024;128;64;8;23;178;3020960
16;512;4;32;1;4094;259166240
8;256;4;1;23;2047;38514496
2;1;2;1;1;1;24702555616
32;64;1;4;2;178;61983808
1024;64;8;8;178;178;6557152
1024;128;64;8;178;46;6128160
1024;512;32;2;89;178;3299104
1024;512;64;2;178;178;3160960
16;8;1;8;178;178;285471520
8;4;1;1;1;23;723281728
128;32;4;32;4094;89;11057248
4;4096;1;128;23;2047;22973504
512;16;128;2;178;2047;7688448
1024;256;32;4;89;89;2889312
1024;128;32;4;2047;178;5645760
512;128;32;8;89;178;2847232
1;512;1;2;178;178;513081248
256;1;1;1;1;46;243428960
16;4096;1;1;46;46;109330816
2048;2;16;2;46;4094;644885536
32;8;8;1;1;89;106697952
128;128;32;2;178;178;5961568
512;256;32;4;46;178;2676800
2048;128;32;8;4094;178;5578368
256;512;64;2;178;178;3668704
2048;256;32;4;178;4094;7594304
1;256;1;4;178;178;264842496
1024;128;64;8;89;2047;2639872
256;128;32;2;178;178;3417344
1024;1024;32;1;178;4094;29736512
1024;128;64;8;2047;178;3991424
4096;512;32;2;178;178;3420416
1024;256;32;1;178;2047;20890080
1024;64;32;16;46;178;2919520
2048;128;32;8;4094;2047;56025312
1024;128;256;4;178;178;6200128
1024;256;32;2;178;178;3457792
512;128;32;4;178;89;3248256
256;32;32;32;178;178;5121920
1024;1024;64;1;178;178;4559616
256;32;64;32;178;178;18446744073709551615
1024;128;64;4;2047;178;6024736
256;256;32;4;178;89;3695168
4096;128;8;8;178;178;5880128
1024;128;64;8;178;89;4112032
512;128;32;4;2047;178;10662240
1024;64;16;16;89;178;3749280
1024;256;64;2;178;178;3114272
1024;128;256;2;178;178;6200640
512;256;32;4;178;178;2732416
2048;32;32;32;178;178;3459680
1024;64;32;16;178;2047;8499040
1024;512;128;2;178;178;4534528
1024;256;256;4;2047;178;9771456
1024;128;32;4;178;4094;7553248
256;128;16;8;178;2047;10951872
1024;8;32;8;2047;178;5636736
2048;128;32;8;178;4094;8214560
1024;128;32;4;2047;89;5948864
2048;128;64;8;178;178;2879520
1024;128;32;2;2047;178;10864992
2048;128;32;8;89;89;2925056
1024;2048;8;256;178;178;18446744073709551615
1024;128;32;128;178;178;18446744073709551615
256;256;32;64;89;4094;18446744073709551615
4;2048;1;1;89;178;121292736
1;8;1;1;2;2047;2965513952
32;64;8;16;46;1;110335104
1024;64;32;16;89;89;3047744
512;64;64;16;178;2047;4576288
1024;64;64;16;178;178;3632864
1024;128;16;8;89;178;3395264
2048;128;32;4;178;178;2659840
128;128;32;8;46;178;3042368
1024;128;128;8;4094;178;7014656
512;128;32;4;89;178;2754752
1024;128;8;2;89;178;10628480
1024;512;16;1;178;178;10785312
1024;256;32;4;2047;2047;54538144
1024;64;64;8;46;4094;6371680
1024;128;16;8;89;46;3052256
2048;128;32;2;89;89;3369824
1024;128;16;4;2047;178;10848032
1024;1024;16;1;178;178;10819008
1024;2048;32;256;178;178;18446744073709551615
1024;128;128;4;89;2047;2541024
1024;128;16;4;89;178;3613824
4096;128;32;4;2047;89;3584736
2048;128;32;2;46;2047;5745024
512;64;16;16;178;178;3818752
256;128;32;1;178;178;6047040
256;1024;64;1;178;178;6165248
1024;512;32;2;2047;89;11205984
1024;256;32;4;4094;178;10792960
2048;128;32;8;2047;178;3271584
256;512;16;2;178;178;7659904
1024;64;32;4;178;2047;10150016
256;64;64;16;178;178;4752576
1024;128;64;2;178;178;3129536
512;128;128;8;178;178;4796448
1024;128;16;2;178;178;5920832
4096;64;32;16;178;178;3040992
256;128;32;8;89;89;3559904
1024;128;32;8;4094;2047;56270560
1024;512;64;2;89;178;3100736
1024;4;32;4;178;178;10465312
1024;128;32;8;1;46;10015872
1024;128;512;8;178;178;18446744073709551615
16;16;16;16;2;46;1075359328
128;1;1;1;1;2047;10525664032
32;16;1;8;46;2047;832602432
8;2048;2;16;89;23;7342912
512;32;1;2;89;1;65027872
16;1;1;1;46;89;1414438304
64;256;32;1;1;178;5313408
1;32;1;16;178;4094;774434368
1024;128;256;8;178;4094;18446744073709551615
256;2048;4;8;23;89;5537408
16;64;16;16;178;178;31097600
16;1024;2;1;178;4094;360181376
128;2;4;2;46;4094;2179577696
1;128;1;1;178;178;950462080
1024;128;8;128;178;178;4846368
1024;128;32;8;2;178;5895360
1024;128;32;32;178;178;3382528
256;128;1;4;1;46;88314240
4096;1;16;1;1;178;75298656
16;512;4;1;1;89;28513696
1;1;1;1;23;1;20739215296
1024;16;32;2;46;4094;42718528
32;128;32;8;178;178;10727776
32;512;1;8;1;1;151497856
32;1;8;1;2;178;866542112
128;4;8;1;1;2047;399333216
128;32;1;32;4094;89;23870752
4;64;1;1;23;2047;199090784
512;16;128;1;89;2047;7565152
256;64;4;2;89;46;17832000
16;4096;16;1;46;46;21784032
1024;512;32;2;23;178;3034368
16;128;1;16;178;2;19408768
1024;2;32;2;178;178;20601728
16;2;16;1;46;2;7109522688
32;1024;8;2;1;89;14253248
128;256;32;32;4094;4094;25067648
256;128;128;4;178;178;5869632
512;64;64;16;178;178;3885696
4;4096;4;8;89;178;20737120
8;64;8;16;2;2047;405031040
128;64;2;16;46;46;9275072
16;16;16;2;1;46;197921952
1024;128;64;2;178;178;3097536
1;128;1;4;178;178;264705280
128;1024;1;2;1;178;84440256
32;16;8;8;4094;4094;330158336
64;2048;2;1;89;178;63941696
1;128;1;16;89;1;246568448
16;1;1;1;1;89;1422190304
64;128;32;128;2047;178;18446744073709551615
1;128;1;8;178;178;287050496
64;256;64;1;2;2047;3831200
1;128;1;4;178;4094;179478912
256;2048;16;8;23;46;2904224
256;64;4;2;178;178;18795232
1024;16;4;2;178;1;68455904
2048;1024;1;256;178;89;66800672
128;256;4;16;46;1;15356224
256;128;32;4;2047;89;16424832
4096;4;1;1;46;178;248701728
16;512;4;8;2;89;26044544
64;256;8;1;23;2047;21021088
32;512;32;8;1;178;11832000
1024;128;32;128;46;178;18446744073709551615
1024;1;32;1;2;2;522315680
32;64;1;4;1;1;178483840
128;4;1;2;1;178;382542560
128;32;4;32;4094;2;20395232
4;4096;2;128;23;2047;11526304
1024;512;1024;2;178;178;18446744073709551615
1024;4096;32;1;178;46;7856256
1024;128;1;8;1;178;104542208
64;32;1;16;89;2047;475724736
4;64;2;2;2;46;90685184
16;1;8;1;46;46;1666493152
64;2;16;2;1;2047;691115744
1024;128;1024;8;178;178;18446744073709551615
4;128;4;8;1;23;316994208
1024;128;1;4;178;178;34914976
32;1024;2;2;1;89;44980960
128;256;32;16;4094;4094;44469248
64;4096;16;8;89;178;4026816
16;32;8;2;2;2047;57260032
512;512;512;2;46;23;59948128
1024;4096;2;1;178;178;64290272
1024;2;8;2;178;178;80554304
1024;128;32;2;178;178;3400160
16;16;2;1;1;23;88467104
64;2048;1;8;1;178;85017280
32;16;1;16;4094;2;68205312
128;2048;2;16;89;178;7183072
256;128;2;16;89;1;11001440
16;1;2;1;1;89;1406605952
64;256;64;1;2;46;7299168
2;64;1;8;178;4094;304613792
256;1024;16;8;1;89;8035584
1024;2048;32;1;23;178;5142240
1;128;1;8;1;2047;1012299040
256;64;4;4;178;178;10585824
2048;64;32;8;178;4094;11046656
128;256;4;16;46;1;15475392
256;128;32;8;1;178;12708832
4096;1;8;1;1;1;177824992
