c8e0e685b7995c493dae11781b896fca39e2cd4e58fba98a3f4ec1bd32297a42.cl -> 2519552 (1024;128;32;8;178;178;2519552)
c755873cf1ad37502bd392f430ad8f140ca37f2a83e3dbc8aa3333030226fd55.cl -> 1867616 (512;4096;16;16;23;46;1867616)
1b78677663bd2dedfca1d511f2bb6b08eb5a0c873e51762fac94c9f7387371c7.cl -> 1130912 (1024;4096;32;4;1130912)
68d105507624fdc148ea9e35ef116bf024a6d0695052d39799ffbe4fd4f5f9b7.cl -> 1026560 (1024;1024;128;1;2;2;1026560)
