GLOBAL_SIZE_0;GLOBAL_SIZE_1;GLOBAL_SIZE_2;LOCAL_SIZE_0;LOCAL_SIZE_1;LOCAL_SIZE_2;TILE_0;TILE_1;TILE_2;cost
16;8;128;1;1;64;256;1;64;95491704
512;128;256;2;1;32;1;256;64;240817334
64;4;256;16;4;2;64;1;1;83141563408
256;32;16;1;1;8;2;128;128;100252741
512;512;64;8;8;2;2;1;256;29334100445
64;8;256;64;2;2;4;512;2;18446744073709551615
8;128;64;8;32;1;4;256;2;39683884740
128;4;512;8;2;16;256;1;8;6158357778
512;512;512;128;2;1;1;4;128;184639889778
16;32;64;8;8;1;2;1;128;47303825778
2;32;8;2;32;1;4;64;4;4860534222
512;1;512;8;1;2;64;64;1;86703586963
16;8;128;1;2;64;256;1;64;201519259
16;8;64;1;1;64;256;1;64;99255259
16;8;128;1;1;32;256;1;64;262912445
16;8;128;2;1;32;256;1;64;184377778
8;8;256;8;1;1;256;1;16;57135618222
8;128;128;1;16;1;4;1;64;46632530963
8;64;4;1;2;4;128;128;16;683996741
64;4;2;4;4;2;1;1;32;2445790370
16;8;128;2;1;64;256;1;64;99489778
16;8;128;1;1;64;256;1;128;123934222
16;8;128;1;1;64;128;2;64;64140148
16;8;512;1;1;64;128;1;32;336470222
16;8;32;1;1;2;128;4;64;4718923852
16;8;64;1;1;64;256;2;128;123169481
16;4;128;2;1;64;128;4;64;59252889
8;8;64;1;4;64;128;8;64;66621334
4;4;128;4;1;64;128;4;64;128378667
8;4;128;2;1;64;128;4;32;114772889
16;2;128;2;1;64;128;4;128;120517481
16;4;128;2;1;128;128;4;64;61742667
16;4;128;2;1;64;128;4;32;116229778
8;4;128;2;2;16;128;4;64;232634371
16;4;128;4;1;64;128;8;64;58233037
16;4;128;4;1;64;128;4;64;46415111
16;4;128;4;1;64;128;8;128;36330667
8;4;128;4;1;64;64;16;64;66438370
16;2;128;4;1;32;128;8;64;116820148
16;8;64;4;1;1;128;8;128;9810381333
16;4;128;2;1;64;128;8;128;63899852
64;4;128;4;1;64;128;8;128;118519407
16;4;128;4;1;32;32;16;128;62475704
16;8;128;2;1;64;64;8;128;35688444
16;4;512;4;1;64;64;8;128;259834518
32;16;128;4;1;64;128;8;128;84446370
16;2;128;4;1;64;128;8;64;65056297
16;8;128;1;1;64;32;8;128;60026519
8;8;128;2;1;64;512;8;128;131288148
16;4;128;2;1;32;64;16;128;61518815
16;8;128;2;1;64;256;8;128;93345926
32;8;128;2;1;64;64;8;128;59776148
8;8;256;2;1;64;64;2;128;56016444
32;8;64;2;2;1;64;8;128;7772776741
16;8;128;2;1;32;64;8;64;59567703
16;4;128;8;1;1;32;8;128;23557892592
16;8;128;2;1;64;8;8;256;33752593
16;8;128;2;1;128;64;8;128;20502814
16;8;128;1;2;64;64;8;256;48448000
16;8;128;2;1;128;128;8;128;27298370
16;8;128;2;1;128;16;32;128;20472000
64;8;128;2;1;2;64;8;128;5439308889
32;8;128;2;1;128;16;32;128;25683260
16;8;128;4;1;1;16;32;32;18677840592
16;8;128;1;4;1;16;32;128;19373058222
16;16;128;2;2;2;16;32;128;3932391111
4;8;128;2;1;128;16;16;128;31881333
16;8;128;8;1;4;16;4;128;1715249926
16;8;128;2;2;1;16;64;128;15631954370
16;8;64;2;2;64;32;32;256;23729333
16;16;128;2;1;1;16;4;128;20991810371
8;4;128;2;1;128;16;64;128;32554074
32;8;128;2;1;128;8;32;512;19927704
32;16;128;2;1;128;16;32;512;19742963
32;16;128;2;1;1;16;32;1;40521794815
32;32;128;2;2;1;16;32;512;22149717778
32;16;128;2;1;128;16;128;512;17852296
32;16;128;2;1;64;32;16;512;47657778
32;16;128;2;1;128;16;128;256;24477037
32;16;128;16;1;4;16;128;512;4702288000
8;16;128;2;1;128;16;256;1;6770803259
32;16;128;4;1;1;16;128;512;34331863704
64;4;128;1;1;1;16;128;512;39309971111
32;16;128;2;1;128;16;128;1;2412579852
32;16;128;2;1;128;16;256;512;17494963
32;16;128;2;1;128;32;128;512;17976889
32;4;128;2;1;1;16;256;512;21230635852
32;16;128;2;1;128;32;256;512;17444593
32;8;128;2;1;128;32;256;512;17424296
8;8;128;2;1;128;8;128;512;31194222
32;16;128;4;1;1;32;256;512;31140676444
128;8;32;2;1;2;32;256;1;18212664889
32;8;256;2;1;128;32;512;512;332016445
32;4;128;4;4;4;32;256;512;1480187703
32;8;128;2;1;64;32;256;256;31282370
8;8;128;1;1;128;128;256;512;110257778
32;8;128;2;4;2;32;256;1;23647474963
32;8;64;2;1;1;32;256;512;11012140148
32;4;128;2;1;1;32;64;512;20601739852
32;8;256;2;1;128;32;256;512;25771111
32;8;128;2;1;128;64;256;512;31174222
32;8;128;2;2;1;64;512;512;43546296148
32;8;128;2;1;128;32;1;512;25152000
32;8;128;2;1;64;32;256;512;30022074
32;16;128;2;1;64;8;512;512;689546223
32;8;128;2;1;16;32;128;512;256021037
128;8;64;2;1;1;32;256;512;11732478666
16;8;128;2;1;128;32;256;512;31115111
32;16;128;1;1;64;32;128;512;34526222
128;8;128;2;1;1;32;256;512;21984305630
32;8;128;1;1;128;16;256;512;18025333
32;8;128;1;1;128;64;256;512;56825333
32;8;128;2;1;16;32;256;512;213715852
32;8;512;1;1;128;32;256;512;60584592
32;4;128;1;1;128;32;256;512;29585334
32;16;128;2;1;32;16;128;512;67991111
16;8;128;2;1;64;16;256;512;56072741
32;8;128;1;2;128;32;128;1;4618260000
32;8;128;2;1;64;32;512;512;335885333
32;16;64;4;1;4;32;256;512;1072767704
32;8;256;2;1;128;16;256;512;26414074
32;8;128;2;1;1;32;512;512;164152038667
16;8;128;2;1;64;32;32;512;28654815
32;8;256;1;1;128;32;64;512;37433333
16;8;128;2;1;128;32;512;512;106186371
64;8;128;2;1;128;64;256;256;46652296
128;8;128;2;1;128;32;256;512;23554075
32;8;128;2;2;1;32;512;512;43457814814
32;32;32;2;2;1;32;256;512;6068164553
32;8;128;2;1;128;8;512;512;160682074
32;8;128;1;1;128;32;256;256;32461926
32;8;128;2;1;128;32;256;256;18798667
32;4;128;2;1;128;32;256;512;17913629
128;2;128;1;1;128;16;512;512;28478963
32;8;128;2;1;128;32;256;1;1899586963
8;2;64;2;2;1;32;256;512;6809190666
32;8;256;2;4;2;16;64;512;9580052000
32;8;128;2;1;128;8;512;256;194381926
32;8;128;4;1;1;64;256;1;58415569926
64;8;128;2;2;1;32;256;512;25392174666
32;8;128;2;2;1;32;256;512;26228054815
32;8;128;2;1;128;16;256;512;17634222
32;2;128;2;1;128;32;256;512;17521482
32;2;128;2;1;64;32;256;512;30099704
32;32;128;4;1;1;32;256;512;31692709037
32;2;128;2;2;1;32;256;512;12128510074
32;8;64;4;1;1;32;128;512;16097797629
32;8;128;2;2;1;32;256;512;25891061185
256;1;512;2;1;32;4;256;4;4345687704
512;8;128;2;1;128;32;256;512;23592148
32;1;512;4;1;4;2;64;4;19225815556
128;8;128;2;1;128;16;256;512;18751852
32;16;128;2;1;64;32;256;1;3169181630
32;8;128;1;1;1;32;256;512;39291249778
32;8;32;2;1;2;32;256;512;1769660593
32;8;128;2;1;1;32;256;512;21432452297
32;8;128;1;1;64;32;256;512;52463555
16;2;128;2;1;128;64;256;512;31171704
32;8;128;8;1;2;128;256;512;7224917185
32;8;128;2;2;1;8;1;512;20549754815
32;32;128;2;1;64;32;256;512;37681778
128;2;128;2;1;128;32;256;1;3707723408
32;64;128;1;2;128;16;256;1;3822086667
32;8;256;4;1;1;64;256;512;64415724148
1;1;1;1;1;1;1;32;16;48075921630
1;32;512;1;1;128;16;256;256;463023704
16;16;8;1;4;2;32;64;128;225933333
32;8;128;2;4;32;32;256;512;159710815
32;2;64;4;1;1;32;256;256;10514046815
