GLOBAL_SIZE_0;GLOBAL_SIZE_1;GLOBAL_SIZE_2;LOCAL_SIZE_0;LOCAL_SIZE_1;LOCAL_SIZE_2;TILE_0;TILE_1;TILE_2;cost
64;4;16;32;1;4;32;16;4;3767088864
512;128;1;8;1;1;128;2;1;1681658944
512;1;512;128;1;1;64;8;1;18446744073709551615
1;256;16;1;2;4;4;1;128;1352174080
512;1;1;16;1;1;64;4;128;5104737632
1;256;16;1;2;4;4;1;1;5211522592
1;2;16;1;2;4;4;1;128;54725031072
1;256;16;1;2;4;64;1;128;1347597728
512;256;16;2;2;4;64;512;128;18446744073709551615
512;1;16;4;1;1;64;1;128;24141899200
512;256;16;4;2;4;16;1;128;1270884032
1;256;16;1;2;8;64;1;128;454586784
64;256;8;32;8;1;1;1;1;52739889984
1;4;128;1;1;64;8;32;1;52707204256
8;16;16;1;2;2;256;1;128;7529603200
64;32;32;1;1;32;32;32;16;18446744073709551615
1;256;16;1;4;8;64;1;128;467097984
1;1;8;1;1;1;64;1;256;18446744073709551615
1;256;32;1;2;4;64;1;128;2357976896
1;256;16;1;2;8;64;512;128;40786886688
1;256;16;1;2;8;4;1;128;462170080
1;256;512;1;2;1;256;1;64;18446744073709551615
1;256;4;1;2;4;64;16;128;1043825376
64;256;128;4;2;4;64;1;128;9895465760
1;256;16;1;2;8;64;1;128;453200800
1;256;16;1;2;4;64;1;64;1349232864
512;256;32;1;1;4;64;1;128;2592779424
1;256;16;1;2;2;64;1;256;4613857568
1;256;16;1;2;4;64;1;128;1348055136
1;256;8;1;2;8;64;1;512;246082144
1;256;16;1;2;16;128;1;64;125836736
256;128;16;8;1;8;64;1;128;1021840320
1;256;16;1;2;16;128;1;64;125659488
1;256;16;1;2;8;256;1;64;456227744
512;256;16;8;2;16;512;1;64;63805338432
1;256;16;1;1;16;128;1;128;119212320
1;64;32;1;2;8;1;1;64;913558304
1;256;32;1;2;8;128;512;64;61245350336
1;256;4;1;2;2;128;1;32;1757892000
1;256;16;1;2;16;128;1;128;123340160
512;256;16;4;1;16;128;1;128;193731168
1;256;16;1;1;16;128;1;512;125625632
1;128;16;1;1;16;256;1;128;125150272
1;256;16;1;1;16;128;256;128;7588146368
512;256;16;4;1;16;128;512;128;48214495200
1;1;8;1;1;2;128;128;128;18446744073709551615
1;256;16;1;2;16;128;1;128;123205312
1;256;16;1;1;16;64;1;128;119510656
1;256;16;1;1;16;128;256;128;7559793344
1;128;16;1;1;16;128;1;128;123224896
1;256;16;1;1;8;128;1;128;351925760
16;256;16;16;2;8;32;1;16;1952485504
1;32;16;1;8;2;1;1;128;27435939904
256;64;1;2;4;1;16;256;512;1067953376
1;256;32;1;2;4;16;64;2;10559426720
1;256;16;1;1;16;128;1;32;124455104
512;256;16;2;1;16;128;1;128;85266592
1;1;16;1;1;16;64;1;64;14698491200
1;256;16;1;1;16;128;1;128;120033376
512;256;16;2;4;16;256;512;64;15392279200
512;256;16;2;1;16;128;1;256;83888416
512;256;16;2;1;8;128;512;128;64932067904
512;256;16;4;1;16;64;1;128;194554048
512;256;16;2;1;16;64;1;256;78844800
1;256;16;1;1;16;32;1;256;120361376
256;256;16;2;1;8;64;1;512;264588352
512;1;16;2;1;16;64;512;256;1131517856
256;256;16;2;1;16;16;1;256;75123392
512;512;8;1;1;2;32;1;512;2405175936
256;128;16;2;1;8;16;1;512;263995744
256;256;32;1;2;8;16;1;256;742686976
256;256;16;2;1;16;32;512;256;19435731104
256;128;8;2;1;2;16;1;256;1929934656
256;64;16;2;1;16;16;1;256;75504480
256;256;8;1;1;1;16;1;256;9352667904
128;32;16;2;1;16;16;1;256;76560832
256;256;16;2;2;16;16;1;256;164968000
256;256;32;2;1;8;16;1;256;531198624
256;256;16;2;1;16;8;1;256;74887296
256;256;64;2;1;2;16;1;256;15732539200
256;256;16;2;1;16;4;1;256;75449056
256;256;4;4;1;1;8;1;128;5585835104
128;256;16;2;1;16;8;1;128;71491936
128;64;32;2;1;8;8;512;512;35531932544
128;1;16;2;1;16;8;1;128;161531808
128;256;16;2;1;16;8;1;64;68270016
512;256;16;2;1;8;8;1;128;257331936
256;512;16;4;1;16;8;1;128;168502880
128;256;16;4;1;8;8;1;64;329822080
128;256;16;4;1;16;8;1;64;157496672
128;256;4;2;1;1;16;1;64;3761688576
128;256;16;2;2;16;8;1;64;150534720
64;256;16;2;1;16;4;512;64;16210371648
64;256;8;2;1;2;8;128;64;2034269568
256;128;16;2;1;8;8;1;64;255707488
128;128;16;2;1;16;8;1;128;71973856
64;256;16;2;1;16;8;1;64;66255552
128;256;8;8;1;2;2;1;32;12786321952
128;256;16;2;1;16;16;1;64;67754496
512;256;16;2;4;16;2;1;128;187112800
64;256;16;2;1;8;8;1;32;242999776
16;128;16;2;1;16;8;1;64;59263520
128;256;16;2;1;4;8;1;32;974384448
64;128;16;2;1;16;8;1;64;66247488
8;256;16;2;1;2;8;1;64;3512797728
16;64;16;2;1;16;8;512;64;4247848256
16;64;16;2;2;16;8;512;64;3755627552
16;128;16;2;4;16;4;1;64;202827008
16;128;8;2;1;2;8;1;64;1621677568
16;512;4;2;1;1;32;1;32;3462036640
8;128;16;2;1;16;1;1;16;103442208
16;128;16;4;1;8;8;1;64;198664768
1;16;128;1;16;4;4;128;8;17095936768
2;16;2;1;4;1;512;1;64;52245946880
2;1;2;2;1;1;64;256;512;18446744073709551615
8;1;8;1;1;2;32;128;128;13902763392
16;64;16;2;2;16;2;1;64;121500096
8;64;16;2;1;16;8;1;64;80273824
16;128;16;2;1;4;8;1;64;846490752
16;128;16;2;1;16;8;1;32;59590496
16;128;16;2;1;16;64;8;64;70908832
16;128;16;2;1;16;2;1;64;58603488
8;512;16;2;1;16;8;1;64;59639424
1;128;16;1;1;16;256;1;64;127114848
16;128;16;2;1;16;1;1;64;85388896
16;128;16;2;1;16;2;1;4;243579040
16;128;16;2;1;16;2;4;16;57341312
16;16;16;2;1;16;2;2;8;168720032
16;128;16;2;2;16;2;4;16;104945536
16;128;16;2;1;2;2;4;16;3410904992
16;128;16;2;1;16;2;512;2;65455240000
16;512;16;2;1;16;2;32;16;83749632
8;128;16;2;1;16;2;4;16;66614144
16;128;16;1;1;16;2;4;16;83097696
16;8;16;2;1;16;2;4;16;150489312
8;128;16;4;1;8;2;4;16;429752480
16;128;8;2;1;2;2;2;16;1602945472
16;128;16;2;1;16;1;4;256;87165376
32;128;16;2;1;16;2;4;16;57181408
16;128;16;2;1;8;2;4;16;213710720
32;128;16;2;1;16;1;4;8;166282368
32;128;64;2;1;4;2;4;2;7092152192
32;128;16;2;1;16;1;4;4;327210016
64;512;16;1;1;16;2;4;32;87979136
32;128;16;2;1;16;2;1;4;244717984
128;128;16;2;1;8;2;4;16;226136224
16;128;16;1;1;16;1;4;16;84204256
8;256;32;2;1;8;2;4;16;443613184
32;128;16;2;1;16;2;1;32;60158816
32;64;8;2;1;2;2;4;16;1538424160
32;128;16;2;1;8;1;4;16;313896160
32;128;16;1;1;16;1;4;16;84523936
64;128;8;2;1;2;4;4;16;1835043200
32;128;32;2;1;8;2;4;8;432866464
32;128;16;2;1;16;2;4;8;119186912
32;128;16;8;1;8;8;4;16;387363744
32;128;16;1;1;16;2;8;16;85283392
32;128;16;2;1;8;2;4;16;214677504
64;4;16;2;1;16;2;16;16;81691008
32;128;16;1;128;1;2;4;16;18446744073709551615
1;128;16;1;1;16;2;4;16;134684416
32;128;8;2;1;2;1;4;16;2297828224
32;128;16;2;1;16;2;8;16;58735968
32;16;16;1;1;16;2;4;16;97583584
32;128;8;2;1;2;2;4;16;1676855808
32;128;4;1;1;1;2;4;16;4631590272
32;64;4;2;1;1;2;1;4;3036587072
16;64;16;2;1;8;1;4;16;319257216
8;128;8;8;4;1;1;32;16;7994594592
256;32;2;2;8;1;16;8;64;1717966784
512;256;16;128;2;1;256;256;1;43573257536
