GLOBAL_SIZE_0;GLOBAL_SIZE_1;LOCAL_SIZE_0;LOCAL_SIZE_1;cost
4096;1;256;1;8487488
2048;2048;1024;128;18446744073709551615
1;128;1;8;319845312
1;8;1;4;4912174464
16;4;8;2;606722944
16;512;1;8;25734944
1;1;1;1;36563095552
4096;1;512;1;8577440
4096;1024;256;1;2913344
2;1;1;1;17090320128
1;1;1;1;36563263808
4096;4;8;1;20360512
16;1024;8;1;24252928
4096;1024;16;1;10441504
4096;1024;128;8;4402048
4096;1024;128;1;2903520
128;1024;128;1;3291136
4096;16;128;1;4236768
4096;1024;128;1;2889376
4096;1024;8;1;20678848
4096;16;16;2;5583136
4096;256;128;4;3116160
4096;8;128;8;3704192
2048;1024;128;1;3222624
4096;1024;512;1;3208640
4096;128;128;8;3762240
4096;1024;128;256;18446744073709551615
4096;1024;64;1;3014144
2;2;1;2;9029921664
512;1;512;1;86701056
1024;4;8;4;13211104
256;8;4;8;23995872
4096;1;128;1;8214112
4096;1024;8;1;20694240
4096;1024;8;2;10613600
4096;512;128;2;2950688
8;4;1;1;1248788128
1;2;1;1;18641983648
256;8;128;8;26392928
8;1024;8;16;5926784
256;1024;128;1;3219648
4096;16;128;2;3301376
4096;1024;32;1;5461248
2;1024;2;1;78615488
256;1024;128;1;3214912
4096;1024;256;1;2917536
512;4096;64;1;3838368
1;1024;1;1024;297924896
4096;2;128;2;4584224
64;1024;1;1;180036864
1024;1024;128;8;4224128
4096;64;128;16;18446744073709551615
256;128;256;8;18446744073709551615
2048;4096;4;1024;18446744073709551615
16;2048;1;2;91896576
1;32;1;4;1224567424
4096;1;32;1;8206720
4096;1024;128;4;3221376
1;1024;1;1;170031840
4096;4;64;4;2972672
4096;1;4;1;39871808
4096;4096;256;1;2890240
1;1024;1;1;170172960
4096;64;32;16;3032288
512;2048;16;16;3303872
16;1024;4;1;46706592
4;1024;2;1;90969024
64;1024;1;4;48820960
1;1;1;1;36068106592
512;16;1;2;99200608
2048;1;1;1;172034688
256;64;8;16;5248064
64;64;1;2;95126336
4096;1;128;1;8216448
1;1024;1;1;171353024
4096;1;2;1;78841536
16;1024;1;1;179719840
4096;4;128;4;3558784
32;1024;2;1;91114176
1024;2048;8;4;7131072
4;4096;2;1;91123104
4;4096;1;128;92601792
16;128;8;4;20031904
1;1;1;1;36559842304
1;1;1;1;36087182560
4096;1024;2;8;11203840
128;1024;32;8;3359776
4096;4096;64;1;3269984
2048;128;128;8;4430336
8;128;2;1;108777280
8;1024;8;4;10499680
2048;4096;32;32;4695520
8;128;2;1;108859424
1024;256;256;2;3492160
8;64;2;2;73675456
128;2048;2;32;11450528
1;1024;1;1;170665664
1024;1024;128;1;3199072
4096;1024;128;1024;18446744073709551615
1024;2048;16;8;3278336
8;32;4;32;166350848
16;512;16;2;10214656
8;2;1;1;2273976032
32;512;32;1;7568512
4096;512;128;512;18446744073709551615
1024;4096;32;16;3370400
4096;1024;1;1;162688288
4096;1024;128;128;18446744073709551615
512;512;8;512;18446744073709551615
1024;256;8;8;4346432
64;256;1;2;94965600
4;2048;1;16;16566048
512;4096;64;4;3231264
128;512;32;2;3871904
4096;1;128;1;8228672
4096;2;128;2;4579552
512;2048;128;64;18446744073709551615
256;128;2;8;13603328
2048;2;2;2;44234176
32;4096;16;1024;18446744073709551615
4096;1024;128;32;18446744073709551615
2048;128;128;4;3565056
4;512;2;32;21900544
256;2048;1;64;27105664
1;256;1;8;163209632
2;64;1;4;289585952
1;1024;1;1024;297017472
4096;4;128;4;3559904
32;1024;16;1;12493312
2;1024;2;1;80347456
4096;1024;128;512;18446744073709551615
4096;4096;128;1;2888576
512;1024;128;1;3166912
512;1024;64;1;3833920
2;4096;2;1;78845568
4096;4096;128;16;18446744073709551615
4096;4096;8;1;23869184
4096;4096;128;256;18446744073709551615
16;4096;4;1;45869632
4096;4096;128;512;18446744073709551615
4096;4096;1;1;188576928
4096;4096;128;1024;18446744073709551615
2048;4096;128;1;3166784
4096;4096;2;1;94657440
4096;1;128;1;8215872
4096;32;128;32;18446744073709551615
64;4096;1;128;52863520
1;4096;1;1;170982368
4096;16;8;2;10471360
16;4096;1;1;172918656
4096;4096;128;64;18446744073709551615
4096;4096;128;32;18446744073709551615
4096;8;128;8;3706816
4096;4096;512;1;3088128
4096;8;128;2;3595168
4096;4096;16;1;11999840
4096;4096;128;4;3085408
4096;32;8;32;3729952
128;4096;128;1;3155872
64;4096;1;1;179702624
2048;4096;8;1;27118528
1;4096;1;1;171111648
4096;2048;8;1;21722208
4096;4096;128;128;18446744073709551615
2;1;2;1;17132526144
1024;1;1024;1;55845696
256;256;4;128;9474016
256;128;128;8;4959488
4096;1;256;1;8476384
4096;2048;32;1024;18446744073709551615
4096;2048;128;512;18446744073709551615
2048;4096;128;512;18446744073709551615
32;4096;2;1;89778400
4096;4096;1024;128;18446744073709551615
16;4096;8;1;24399264
4096;4;128;1;3320256
4096;4096;1024;1;5119552
2048;512;4;1;48107776
16;2048;1;4;48759840
1;32;1;1;1167952640
1;16;1;4;2466479968
4096;2048;128;1024;18446744073709551615
2048;1;32;1;25474432
128;4096;4;1;45690400
4096;4096;128;8;5138496
8;4096;8;1;23772544
2048;128;256;128;18446744073709551615
256;64;8;4;8376128
4;1;2;1;9078534048
4;4096;1;64;77929920
1;4096;1;1;170877152
1024;1024;128;1024;18446744073709551615
2048;4096;128;16;18446744073709551615
4096;4096;1;1;188584800
4096;4096;32;512;18446744073709551615
1024;4096;128;1;3134112
4096;4096;128;1;2888320
4096;4096;1;1;188552832
4096;512;128;1;2894848
4096;4096;1024;1;5116480
1;4096;1;16;21241792
1;4096;1;1;170692960
2;4096;2;1;78820480
32;4096;2;1;89977184
16;4096;4;1;45868000
256;4096;128;1;3151552
512;4096;1;16;14676416
4096;64;128;32;18446744073709551615
4096;1;128;1;8214496
2;1;2;1;16273908576
4096;2;128;1;4406880
4096;4096;8;4;6375616
4096;4096;8;1;23862688
1024;4096;128;1;3140192
256;2;128;2;74520288
64;4096;1;1;179737152
2048;4096;128;32;18446744073709551615
4096;4096;1;1;188585152
4096;4;128;1;3237344
128;1;128;1;306718720
1;4096;1;1;171947392
4096;32;1024;1;3355616
8;4096;8;1;23772224
4096;16;256;1;3749696
16;128;8;1;38246336
8;2048;1;256;95360000
1024;256;2;2;51009248
8;4096;2;1;90161376
4096;4096;512;1;3081248
4096;2048;128;1;2888512
4096;4096;64;4;2889216
4096;4096;2;1;94613632
2;4096;2;1;79059744
1;64;1;16;688260192
16;4;16;4;612433184
1;2;1;1;18708982848
512;256;16;8;3473472
4096;32;4;2;20295328
2048;4096;128;1;3166688
1024;4096;64;1;3914240
4096;1;32;1;8204608
2048;512;128;1;3240576
4096;64;128;1;4468192
4096;1024;1;1;162684576
64;1;16;1;609541984
4;2048;4;1;46309824
512;2048;64;64;18446744073709551615
16;128;1;8;41304768
2048;2048;128;1;3203744
1024;1;256;1;42173120
4096;4096;32;1;6129024
4096;4096;1;512;42150816
32;4096;16;1;12539584
64;4096;32;16;3388064
4096;4096;64;1;3267424
2048;2;2;2;44253824
32;4096;32;32;3925280
4;512;4;2;38530240
256;2048;1;1;182255296
4096;16;128;4;3264448
4096;64;8;1;20175232
1;256;1;2;137736192
1;64;1;4;622018176
512;1;128;1;77419808
1024;256;1;32;25092384
4096;4096;256;1;2889504
4096;1;64;1;8221056
128;4096;1;1;181536832
512;4096;128;1;3156224
4096;4096;16;1;11998016
32;4;2;1;335239808
4;4096;2;2;47072512
4096;256;256;128;18446744073709551615
256;128;4;4;13308544
4096;512;4;1;40054304
1;2048;1;4;54867616
1;1;1;1;35582559424
4096;1;256;1;8465568
4096;1024;32;1;5454912
4096;2048;32;1;5677024
32;1;1;1;1387542656
128;128;128;1;3799776
4096;256;128;1;3118048
4096;4096;4;64;2903328
4096;1;128;1;8214784
128;4096;128;1;3149888
4096;8;64;1;3738368
4096;128;128;1;3880672
128;4096;64;1;3813984
4096;8;128;2;3590080
4096;4096;128;2;2891360
4096;4096;4;1;47387232
4096;512;128;1;2897760
4096;4096;512;16;18446744073709551615
4096;8;128;4;3539584
4096;1;512;1;8553216
4096;4;4;1;40049024
4096;4096;16;1024;18446744073709551615
4096;32;128;1;3688544
1;32;1;4;1233121344
512;16;1;1;194638496
16;1;1;1;2417083104
256;64;8;1;25002624
8;4096;1;1;172532576
1;4096;1;64;18387040
16;128;2;8;20373696
2048;2048;256;8;18446744073709551615
4096;8;128;1;4189280
2;4096;2;1;79176736
1024;256;8;2;13728640
8;64;4;1;78751264
8;1;1;1;4455536832
256;256;16;2;6768064
4;4096;2;1;91051072
8;2048;8;1;23772000
2048;1024;128;1;3226784
1;64;1;8;652278336
1;64;1;1;583746432
4096;4096;64;2;2887520
2048;4096;64;1;4064960
4096;1;64;1;8204768
4096;4096;16;2;6228640
1;4096;1;2;87074816
4096;1024;128;2;2913792
4096;512;32;4;2895456
4096;1;64;1;8212960
4096;2048;64;2;2888384
1;1024;1;2;107079360
2048;4096;64;2;3182464
1;4096;1;2;87100768
4096;1024;64;2;2891008
4096;4096;32;2;3269696
2048;1;64;1;25158688
1;1;1;1;37477049792
2048;4096;32;2;4115040
4096;4096;256;2;3099712
1;1;1;1;35600569600
2048;1024;256;2;3439264
2048;1024;128;2;3288544
4096;1;16;1;16612832
4096;1024;32;2;3036288
2048;4096;64;16;4724512
4096;2048;128;2;2907136
512;4096;32;2;3876064
1;2048;1;2;88333088
4096;1024;64;1;3055008
4096;1;16;1;16623072
4096;1;256;1;8477696
4096;4096;64;8;3105024
1;4096;1;1;170952992
4096;1;128;1;8222176
1024;2048;32;2;3916320
4096;4096;64;16;5138816
4096;4096;512;2;5131264
1;256;1;2;137671200
512;2048;64;16;4113632
64;2048;1;64;42876544
256;128;2;128;29621024
1;4096;1;2;87154912
2048;4096;32;1;7130176
1;2;1;2;18502707264
32;4096;4;32;5048032
4;1;2;1;9168978208
256;2048;128;1;3160640
32;256;8;2;15000128
2;64;2;4;288493472
128;2048;1;4;48212960
1024;4;8;2;22152768
1;256;1;128;193803744
256;2048;4;8;7140512
4096;512;4;2;20506656
16;2048;1;1024;87127136
4096;512;128;2;2953024
1;1024;1;1;170045600
1;32;1;16;1361667200
512;32;4;1;50900608
1024;1;1;1;187767200
128;64;8;16;7125504
1;4096;1;8;28757920
1;4096;1;2;87162208
1024;1;64;1;42577568
2048;4096;16;1;13753664
1;128;1;64;385751136
16;4096;8;4;6677728
8;2048;4;128;5954432
1024;2048;64;2;3174016
1024;4096;64;2;3150848
1;256;1;2;138050208
4096;4096;64;128;18446744073709551615
512;2048;32;256;18446744073709551615
8;2;4;1;2327516960
256;256;32;2;3899168
1;1024;1;1;169973600
4096;4096;2;2;48169152
4096;4096;64;64;18446744073709551615
512;4096;2;2;47747744
4096;4096;64;256;18446744073709551615
4096;4096;512;1024;18446744073709551615
8;4096;1;2;90580672
512;4;32;1;21083520
8;1;1;1;4535701088
1;2048;1;16;20544384
8;2048;8;64;4504224
64;128;2;8;15743040
2048;256;4;1;52800576
32;16;32;4;76494336
4;64;2;32;177782208
2048;4096;128;2;3237984
4096;4096;64;32;18446744073709551615
512;128;64;2;3639392
4096;4096;64;1024;18446744073709551615
1;128;1;8;325566656
32;256;4;2;24401952
2;1;2;1;16928710592
1;1;1;1;36559577632
256;128;8;32;4885984
256;1;4;1;151799936
256;4;128;1;39755328
1;512;1;2;147122336
512;2048;32;4;3188896
32;512;32;8;3513728
1024;128;4;64;6222976
4096;4096;4;2;24134560
16;4096;2;2;47075776
2048;1;128;1;25278368
256;256;8;16;4260032
2048;4096;256;1;3248320
512;4096;1;64;20630944
512;1;64;1;77542272
32;1;1;1;1384654688
4096;64;64;2;3188032
16;1;8;1;2392445536
8;32;4;2;160917216
512;4096;64;2;3177280
512;4096;128;2;3218848
1024;1024;16;2;6661440
4096;4096;1;1024;46381760
1024;256;256;128;18446744073709551615
8;64;8;2;77449952
8;32;4;32;166386656
256;256;32;64;18446744073709551615
4096;2;8;1;20262880
4096;64;64;16;3633376
1;1024;1;1;172612672
4096;256;16;8;2931520
4;256;1;2;111254944
512;4096;2;512;15099232
8;2048;1;64;78457856
256;128;16;8;4070112
256;2;8;2;81181216
256;1;4;1;151389664
4096;1;512;1;8569920
128;256;64;2;3735328
1;4096;1;2;87888448
4096;4096;64;512;18446744073709551615
4;512;2;32;21891008
64;64;1;16;23631680
32;32;8;16;40595200
32;64;2;4;41023264
4096;2048;64;1;3109568
128;2048;8;4;6943424
1;128;1;32;387785760
4096;512;64;2;2915232
4096;4096;1;2;96073152
256;256;4;4;13288992
4;128;4;8;85297280
256;1;4;1;151750144
1;2048;1;4;54889312
1;512;1;8;79886112
1024;4096;4;512;18446744073709551615
16;1;4;1;2333199456
2048;256;8;16;3490368
128;4096;64;2;3165248
32;4096;1;2;91920032
1024;4096;256;1;3209504
1;4096;1;64;18624608
16;8;8;4;326320608
8;2048;1;128;92679456
16;256;8;2;19736128
8;2;4;1;2328138592
8;32;1;32;197710400
256;128;32;2;4494848
2048;1;64;1;25253472
8;1;8;1;4661700896
4096;1024;16;8;2914464
64;4096;4;2;23623776
512;2048;1;32;18611424
8;512;8;2;19325024
256;128;16;1;12696256
256;2;4;2;79212768
256;4096;4;1;45885664
4;512;2;1;91022592
4;1024;4;1;46223680
32;256;8;1;24382112
32;256;2;1;92248928
128;1024;8;4;6984800
1;128;1;32;387754144
8;64;8;1;72853440
4096;4096;1024;2;18446744073709551615
4096;32;64;2;3467008
128;256;64;128;18446744073709551615
4096;1;64;1;8226464
2;4096;1;2;80737792
4;4096;1;2;92353664
2;4096;1;2;80866784
4096;8;64;8;3576192
4096;32;1;2;79670400
8;4;4;2;1239289664
256;4096;64;4;3213856
4096;128;64;2;3020768
64;4096;64;2;3241568
4096;16;64;2;3723840
1;4096;1;1;170337888
4096;2;64;2;4414432
256;4096;64;2;3170944
4096;4096;8;2;12200672
256;128;128;8;4951072
2048;512;4;2;25299584
8;2048;2;4;24500160
1;512;1;1;208578496
1024;128;2;1;99924832
2048;1024;256;64;18446744073709551615
4096;4096;1;16;13840288
2048;256;64;1;4332000
64;4096;16;2;6662592
1;512;1;64;96992832
512;4096;8;4;7069888
1;1;1;1;36559742720
4096;256;64;8;3141472
2048;2048;4;128;4256928
1024;256;256;8;18446744073709551615
1;64;1;2;622960064
8;1024;4;32;6025472
256;256;32;256;18446744073709551615
8;2048;1;1;176879808
4096;4096;16;8;2901216
32;4096;1;8;25659808
64;4096;4;128;7904864
512;1;64;1;78849824
32;2048;2;64;26274336
4;4096;1;4;47646912
256;128;1;2;97215936
2048;2;2;1;87181536
128;4096;8;8;4080960
4;256;2;1;108118240
4096;1;32;1;8230240
4096;1024;32;4;2903680
4096;1;16;1;16610624
1024;1024;64;2;3192768
1;1;1;1;37519204544
1;512;1;1;208088192
1;2048;1;1;171483456
4096;1024;64;4;2937408
4096;2048;64;4;2905664
1024;4096;32;2;3951200
2048;4096;32;4;3248768
1;4096;1;4;44689824
2048;1;256;1;25151648
4096;512;32;1;5347680
1024;2048;64;16;4231232
4096;4096;512;32;18446744073709551615
32;2048;4;1;45822528
64;256;16;1;12518464
32;64;2;4;40471008
128;2048;8;8;4095680
256;128;128;1;3588640
256;256;4;1;48045760
16;128;4;8;20934816
1;512;1;1;208208640
32;2048;32;4;3588256
1;512;1;8;80193184
1024;128;16;64;4341824
4096;1;128;1;8227520
4096;4096;32;4;2896000
2048;4096;64;4;3290560
2048;256;8;128;4610496
1024;4096;1024;1;4730112
1;1;1;1;37466812256
1;4096;1;1;171002688
16;4096;8;128;4221888
2048;2048;4;16;4451200
1024;256;256;16;18446744073709551615
8;64;2;16;88326912
1;1024;1;2;107085440
4096;2048;32;4;2902112
2048;1024;64;32;18446744073709551615
256;1;256;1;156970816
8;512;8;2;19472256
2;1;1;1;16574058176
64;2048;4;2;24233728
512;4096;64;16;4175616
8;2048;8;4;7858688
256;256;16;128;18446744073709551615
2048;2;64;2;12919680
4096;256;64;4;2967424
4096;4096;16;4;3342464
1;512;1;2;144688480
4;4096;2;32;17109120
64;512;1;32;41986304
256;1024;128;4;3399424
64;2048;16;1;12514464
32;4096;2;512;26031360
128;2048;8;1;23652064
256;1;128;1;159746528
256;256;1;1;189297632
2048;256;128;4;3524192
1;4096;1;256;20730496
4096;1;4;1;39883296
512;32;2;4;26215648
32;128;32;8;10257984
1024;128;1;1;194266560
4096;256;128;2;3010912
256;256;2;16;7652896
128;4096;1;256;49128768
1024;32;8;1;27273728
16;4096;1;128;53940896
2048;1;4;1;53150304
32;256;4;2;24386880
64;64;32;2;10464064
32;4096;1;32;28183104
256;256;128;2;3596000
1024;512;64;2;3239424
1;512;1;2;144689888
128;4096;16;1;12179552
1;4096;1;128;20597376
512;2048;64;512;18446744073709551615
1024;4096;16;2;6865504
2048;4096;128;4;3465472
4096;4;64;2;3056288
4096;8;64;2;3582816
1;2048;1;512;49129696
256;128;64;8;4039680
2048;1024;64;256;18446744073709551615
4096;4096;1;2;96094144
128;4096;64;32;18446744073709551615
8;4096;4;2;24120224
4096;1024;256;2;3213856
1024;4096;1;16;15111584
4;512;2;32;21872704
256;32;128;32;18446744073709551615
64;2048;8;32;3712000
256;4096;64;128;18446744073709551615
32;512;2;16;8864640
128;4;8;1;81412992
256;512;8;8;4181920
256;256;2;128;30412832
16;256;4;4;19966976
4096;512;4;8;5847872
512;1024;32;4;3187648
8;512;2;8;20524448
1024;512;16;1;12506688
2048;4096;16;2;7296160
4096;256;1;2;80481216
4;256;1;64;49420352
512;16;256;1;6392608
4096;4096;256;128;18446744073709551615
1;4096;1;64;18363360
64;4096;8;4;6805856
2048;2048;4;1;49891680
1;4;1;2;9969699264
64;64;64;32;18446744073709551615
128;1024;64;256;18446744073709551615
32;256;2;2;47647136
8;512;4;2;28627328
4096;1;256;1;8493568
64;8;64;2;76724000
4096;2;4;2;20434336
4096;1;16;1;16618656
64;1024;4;1;46407616
512;32;64;16;6623936
8;1;8;1;4759348032
1;128;1;64;383020672
2048;128;64;128;18446744073709551615
1;256;1;32;193188192
1;512;1;32;96691712
256;256;2;4;25680288
64;256;8;16;5370176
1;512;1;16;86294304
1;2048;1;8;38709056
256;128;128;1;3549600
256;256;1;128;90845600
1024;4096;128;2;3220864
1024;256;128;64;18446744073709551615
8;512;4;256;14118880
16;1024;1;4;49019872
4;512;4;128;21223040
1024;128;16;16;3547008
2048;256;128;2;3469600
2048;256;8;1;27800928
512;4096;512;1;3331232
1024;256;64;2;3329952
1024;4096;256;2;3363104
1;4096;1;2;87816608
4096;256;256;2;3130848
512;4096;64;256;18446744073709551615
4096;4096;1;256;27402400
4096;2048;256;2;3396448
4096;4096;4;8;6569280
4;1;1;1;8989254464
4096;1;64;1;8219424
1;4096;1;2;87045408
128;512;8;2;12846688
64;4096;32;2;3834656
4096;64;512;2;3390016
128;4096;64;1;3817344
1;4096;1;1024;112226688
4096;1;4;1;39829120
128;4096;4;64;4311392
8;128;8;1;37097184
2048;2048;64;128;18446744073709551615
1024;1;64;1;42676544
64;4096;64;128;18446744073709551615
16;8;2;2;358586528
64;8;1;1;251125280
8;2048;1;32;30162176
256;256;128;4;3734720
1;512;1;2;144457216
256;4096;256;8;18446744073709551615
64;4096;8;256;18446744073709551615
32;2048;1;16;14398848
8;2048;4;2;24092096
256;128;64;2;3557440
2048;64;1;1;199313856
256;4096;2;32;7967520
4;512;2;2;56447232
4096;1024;64;64;18446744073709551615
4096;8;64;2;3868384
256;2048;128;16;18446744073709551615
1024;64;1;32;37171648
32;4096;2;16;7425920
128;1;8;1;308031104
4;128;2;1;144781888
256;256;4;128;9675520
2048;256;1;2;102002048
4096;4096;256;4;5137888
4096;4096;32;8;2889792
4096;4096;32;32;5117568
4096;4096;256;16;18446744073709551615
4096;512;64;1;3111584
4096;1;32;1;8208480
1024;4096;64;8;3401984
2048;2048;64;2;3206944
1024;2048;64;1;3894464
4096;2048;32;2;3098048
2048;4096;256;2;3419552
1024;4096;64;4;3244704
2048;256;64;4;3399552
4096;512;4;2;20503808
128;4096;32;4;3155776
64;1;8;1;616510688
128;128;8;16;5262912
4096;256;1;16;11809408
2048;256;1;16;15341568
1;4096;1;1;170673248
128;4096;2;256;19601376
16;4096;16;128;18446744073709551615
2048;1;4;1;53000864
1024;4096;256;1024;18446744073709551615
2048;4096;64;8;3447520
256;64;32;4;3823008
4096;2048;128;4;3393088
64;1024;32;32;3930592
1;256;1;2;137704672
8;512;8;2;19444736
512;4096;16;8;3247232
4;4096;4;128;6270752
512;2048;128;16;18446744073709551615
128;2048;128;128;18446744073709551615
256;128;64;32;18446744073709551615
2048;64;64;1;4361536
1;512;1;32;96750016
4;512;2;2;56455136
512;1;16;1;77470400
1;2048;1;1;170230976
1;2048;1;32;24325024
2048;4096;8;16;3342752
128;2048;1;32;23919296
256;128;1;1;190739136
256;256;2;1;96071968
1024;4096;64;16;4374368
4096;4096;1;1024;46391712
1024;256;128;4;3500896
4096;512;1;8;21755552
128;4096;32;64;18446744073709551615
32;1;32;1;1217998048
1024;512;16;16;3391744
4096;256;1;2;80463648
2048;4096;1;16;16207296
1024;4096;1;1;192961472
1024;1;4;1;69879680
128;4096;16;128;18446744073709551615
2048;2048;1;4;53439680
1024;256;256;4;4266080
256;64;32;8;3778720
4096;1024;32;32;4397600
256;256;128;4;3786944
8;256;4;4;19764416
4096;512;16;8;2899072
4096;1024;64;1024;18446744073709551615
4;512;2;128;21620896
512;2048;64;256;18446744073709551615
8;2048;8;4;7827264
256;128;64;1;4483456
2048;16;64;2;4325152
2048;64;64;64;18446744073709551615
32;32;32;32;49241024
4;256;2;4;37987712
1;128;1;8;325679616
1;2048;1;4;54901120
4096;4096;1024;512;18446744073709551615
8;4;4;2;1265647712
64;1024;16;32;3914880
2048;128;8;16;3778368
128;1;32;1;308982464
1;1024;1;4;74589792
32;2048;2;1;89925856
256;512;4;1;46214080
1024;256;512;4;18446744073709551615
