epoch;GLOBAL_SIZE_0;GLOBAL_SIZE_1;GLOBAL_SIZE_2;LOCAL_SIZE_0;LOCAL_SIZE_1;LOCAL_SIZE_2;cost
1505254690;4;8;16;2;4;2;38437312
1505254690;16;8;4;16;1;1;41487968
1505254690;64;32;256;2;8;64;29382528
1505254691;64;128;16;2;2;16;30395616
1505254691;64;32;256;4;8;32;12203424
1505254691;64;64;64;1;8;64;105262112
1505254692;64;32;256;2;16;64;18446744073709551615
1505254692;64;64;256;4;8;64;18446744073709551615
1505254692;4;64;2;1;4;1;32085536
1505254692;128;128;1;128;2;1;5071264
1505254693;64;8;32;4;2;1;13769024
1505254693;16;1;32;16;1;8;43036512
1505254693;256;16;8;256;2;2;2895296
1505254693;128;256;1;128;1;1;4377632
1505254693;128;128;2;128;2;2;3983168
1505254694;128;128;1;128;2;1;4916768
1505254694;128;1;4;2;1;1;79722016
1505254694;256;16;8;256;8;2;18446744073709551615
1505254695;32;1;2;1;1;1;300669024
1505254695;16;16;16;1;2;4;17512288
1505254695;32;128;32;1;2;2;23974464
1505254696;1;16;4;1;2;2;233829888
1505254696;256;16;8;256;4;2;18446744073709551615
1505254696;8;16;8;1;2;2;36142016
1505254698;1;1;16;1;1;16;1200701472
1505254698;128;4;8;1;1;4;27544128
1505254698;256;16;32;1;2;1;55029856
1505254699;256;64;8;1;1;2;55878912
1505254699;16;16;16;4;4;8;5758944
1505254699;2;16;4;1;1;2;115133248
1505254699;4;128;64;1;8;1;11285408
1505254699;64;16;256;16;16;1;5933664
1505254702;1;8;1;1;4;1;1863365792
1505254702;16;16;8;8;2;1;10048000
1505254702;256;64;8;256;2;2;2852896
1505254702;256;256;8;256;2;2;2843840
1505254703;32;256;8;32;2;2;3040544
1505254703;256;256;128;256;2;2;3738080
1505254703;16;256;256;8;2;2;4293088
1505254703;256;256;8;256;2;8;18446744073709551615
1505254703;64;256;4;2;2;2;13260672
1505254704;256;256;8;8;2;2;5002976
1505254704;256;256;8;1;2;2;31781728
1505254704;8;256;8;1;2;2;23556896
1505254704;256;256;8;256;2;8;18446744073709551615
1505254705;256;256;8;16;2;2;3412160
1505254705;1;256;8;1;2;2;21807648
1505254705;256;256;16;256;2;2;2879712
1505254705;32;1;8;4;1;2;80827136
1505254706;256;32;8;256;2;2;2882976
1505254706;16;64;8;1;4;8;49490272
1505254706;32;256;8;8;2;2;6359296
1505254706;256;8;8;2;2;2;15571360
1505254707;256;128;8;256;32;2;18446744073709551615
1505254707;256;64;4;256;2;2;2479712
1505254707;64;16;16;2;4;4;10414496
1505254707;128;16;16;2;8;16;36389088
1505254708;128;64;16;128;2;16;18446744073709551615
1505254708;128;32;64;1;4;16;66271296
1505254708;32;32;4;1;4;4;36819392
1505254708;256;64;256;256;2;16;18446744073709551615
1505254709;4;64;4;4;4;2;19722112
1505254709;128;8;16;2;1;2;26327008
1505254709;256;64;4;256;2;4;18446744073709551615
1505254710;256;64;4;2;2;1;28910400
1505254710;256;64;64;256;32;16;18446744073709551615
1505254710;128;16;16;2;8;4;36330624
1505254710;256;64;32;256;2;16;18446744073709551615
1505254711;256;64;16;256;2;16;18446744073709551615
1505254711;256;32;8;256;2;8;18446744073709551615
1505254711;128;32;8;1;4;8;67924992
1505254711;256;32;8;1;4;1;29749184
1505254712;128;64;4;128;4;4;18446744073709551615
1505254712;256;64;16;256;4;16;18446744073709551615
1505254712;256;64;8;256;2;1;3882560
1505254712;256;64;2;256;4;1;3347072
1505254714;1;4;4;1;2;4;1018520576
1505254714;256;64;4;1;2;2;29055232
1505254714;256;64;4;1;2;2;29052832
1505254714;1;64;4;1;4;4;75432768
1505254715;16;64;4;8;2;2;5440032
1505254715;32;64;4;4;2;2;10498816
1505254715;1;64;4;1;4;1;58649248
1505254715;256;64;4;256;2;4;18446744073709551615
1505254716;128;64;8;1;2;1;50898240
1505254716;256;64;4;1;8;2;9909312
1505254716;256;256;1;256;16;1;18446744073709551615
1505254723;1;2;1;1;1;1;6490902208
1505254724;32;32;2;4;2;1;19977312
1505254727;1;2;2;1;2;1;3426882016
1505254728;256;128;2;256;8;2;18446744073709551615
1505254728;256;64;4;256;1;2;2854560
1505254728;256;64;4;32;2;2;4107552
1505254729;256;16;16;256;1;4;2567072
1505254729;256;64;4;256;2;4;18446744073709551615
1505254729;256;64;4;256;2;4;18446744073709551615
1505254729;32;1;4;4;1;2;158412896
1505254730;1;32;8;1;1;8;65956832
1505254730;256;64;8;256;1;1;4207168
1505254730;256;1;4;256;1;2;23321760
1505254730;1;32;8;1;2;8;76393728
1505254731;2;128;8;1;4;8;13346688
1505254731;256;128;2;4;1;2;14647008
1505254735;4;1;1;1;1;1;4020541792
1505254735;256;64;4;256;4;2;18446744073709551615
1505254736;256;64;8;1;4;1;29872800
1505254736;1;64;4;1;4;2;65216000
1505254736;256;64;8;256;4;1;3599424
1505254737;256;64;32;256;4;16;18446744073709551615
1505254737;256;64;4;256;32;2;18446744073709551615
1505254737;256;64;4;256;2;1;4143424
1505254737;256;64;4;256;64;2;18446744073709551615
1505254738;64;64;32;64;1;16;3306848
1505254738;256;64;256;64;2;16;18446744073709551615
1505254738;256;64;4;256;2;1;4187104
1505254738;256;64;4;256;2;2;2461312
1505254738;256;1;4;256;1;2;23290368
1505254739;1;64;4;1;2;1;53505056
1505254739;256;64;4;8;2;2;6539392
1505254739;256;64;128;256;8;2;18446744073709551615
1505254739;1;64;4;1;2;2;58583712
1505254740;256;64;4;8;2;1;8665536
1505254740;256;1;4;256;1;2;23303264
1505254740;256;64;4;256;8;2;18446744073709551615
1505254740;256;64;128;256;2;16;18446744073709551615
1505254741;256;64;4;4;2;2;9130496
1505254741;256;64;4;256;4;2;18446744073709551615
1505254741;1;64;4;1;32;2;97441216
1505254741;4;64;4;4;2;2;18215424
1505254741;256;64;4;128;2;2;2989024
1505254743;16;64;4;8;2;2;5382432
1505254743;256;64;4;256;64;1;18446744073709551615
1505254743;128;256;4;1;256;2;111362432
1505254743;256;64;1;256;2;1;4170720
1505254744;256;64;4;64;2;2;3729056
1505254744;256;64;2;256;2;1;3759136
1505254744;256;256;256;1;128;1;16079328
1505254744;32;32;32;4;4;32;19049376
1505254745;32;8;32;1;4;4;46163776
1505254747;1;1;8;1;1;8;2068748640
1505254747;1;128;4;1;2;2;28433792
1505254748;256;32;4;256;4;2;18446744073709551615
1505254748;256;64;8;256;4;1;3618592
1505254748;256;64;4;32;2;2;4308288
1505254748;256;2;4;256;1;2;11784800
1505254748;256;64;128;64;2;16;18446744073709551615
1505254749;32;64;4;4;2;1;14996256
1505254749;256;64;4;1;2;1;55684064
1505254750;4;4;1;4;1;1;1027744608
1505254750;32;8;16;1;2;4;17504992
1505254751;8;8;1;1;8;1;322554176
1505254751;16;2;128;4;1;16;10888032
1505254751;1;128;4;1;1;2;54302272
1505254752;256;64;4;1;1;1;106591104
1505254752;256;64;8;256;2;1;3795104
1505254752;256;64;64;256;2;16;18446744073709551615
1505254752;256;16;4;256;8;2;18446744073709551615
1505254753;256;64;2;256;2;2;2597760
1505254753;256;64;4;4;16;2;22379424
1505254753;256;64;4;1;2;2;29041088
1505254753;256;32;4;256;4;1;3530848
1505254754;128;128;1;128;1;1;5696416
1505254754;64;128;4;1;8;4;63844544
1505254755;1;16;2;1;8;1;518538880
1505254756;16;4;1;16;4;1;333669248
1505254756;256;128;4;256;1;2;2253568
1505254756;1;64;4;1;2;4;65196064
1505254757;256;128;4;256;128;4;18446744073709551615
1505254757;256;256;4;128;256;4;18446744073709551615
1505254757;256;128;4;256;1;4;2340416
1505254757;256;128;4;1;128;2;90706240
1505254758;256;256;4;256;256;4;18446744073709551615
1505254758;256;256;4;256;256;2;18446744073709551615
1505254758;256;256;4;256;32;2;18446744073709551615
1505254758;256;128;2;128;2;1;3331232
1505254758;256;1;8;1;1;4;34106944
1505254759;256;128;4;1;1;4;29699072
1505254759;256;128;4;256;128;2;18446744073709551615
1505254759;128;64;4;128;2;2;4481632
1505254759;256;32;4;256;8;4;18446744073709551615
1505254760;256;128;2;256;64;1;18446744073709551615
1505254760;1;128;4;1;128;2;53461760
1505254760;256;128;2;128;1;1;4478656
1505254760;256;128;8;256;2;8;18446744073709551615
1505254761;128;256;2;1;256;1;104127840
1505254761;256;128;8;256;1;1;4058496
1505254761;256;128;4;256;1;1;3860192
1505254761;256;128;4;256;128;1;18446744073709551615
1505254762;256;128;2;256;1;1;3473504
1505254762;128;128;4;1;1;2;49287680
1505254762;128;128;4;64;1;2;5572416
1505254762;256;256;4;256;128;2;18446744073709551615
1505254763;256;128;4;256;1;2;2259456
1505254763;256;128;4;128;1;2;2569344
1505254763;8;128;256;1;1;16;26946880
1505254764;4;8;4;4;1;4;143969024
1505254764;64;1;16;64;1;16;27044128
1505254764;1;128;256;1;64;128;18446744073709551615
1505254764;32;256;128;4;4;32;8453216
1505254765;64;1;128;64;1;1;5166624
1505254765;256;128;8;256;1;2;2649920
1505254765;128;64;4;2;2;2;13974528
1505254765;256;128;2;256;1;2;2383040
1505254765;256;128;2;64;1;1;2501760
1505254766;256;128;4;256;2;2;2479040
1505254766;256;128;4;256;1;1;3778304
1505254766;256;128;4;256;2;2;2476896
1505254766;256;256;4;1;256;1;96427424
1505254766;256;64;4;256;2;4;18446744073709551615
1505254780;1;1;1;1;1;1;13009046912
1505254781;1;2;4;1;1;1;1621539008
1505254782;64;128;16;1;64;4;96222816
1505254789;1;1;2;1;1;1;6139126208
1505254789;256;128;4;1;1;2;56384064
1505254789;128;128;4;2;1;2;25428480
1505254790;32;4;4;4;4;2;44632480
1505254790;256;128;4;256;1;1;3757536
1505254790;256;1;4;1;1;2;65127456
1505254790;256;128;64;256;1;16;18446744073709551615
1505254791;1;128;4;1;1;4;28392288
1505254791;256;256;4;256;64;2;18446744073709551615
1505254791;256;128;4;128;1;1;5213632
1505254791;64;128;4;2;2;2;13444960
1505254792;256;128;4;256;64;2;18446744073709551615
1505254792;256;128;2;64;2;1;4316832
1505254792;256;32;16;256;4;16;18446744073709551615
1505254792;256;128;16;256;1;16;18446744073709551615
1505254792;256;128;8;256;2;1;3581728
1505254793;128;128;4;1;2;4;14947776
1505254793;256;64;4;128;4;4;18446744073709551615
1505254793;128;128;2;128;128;1;18446744073709551615
1505254793;256;128;8;128;128;1;18446744073709551615
1505254794;1;128;4;1;1;4;28365472
1505254794;256;256;4;1;256;2;98322752
1505254794;256;256;8;128;64;1;18446744073709551615
1505254794;256;256;16;256;1;16;18446744073709551615
1505254794;256;128;4;256;1;4;2340288
1505254795;1;256;4;1;128;4;44399968
1505254795;64;128;4;4;128;1;24505728
1505254795;256;128;4;256;2;1;3449184
1505254795;256;256;4;128;128;1;18446744073709551615
1505254796;256;128;2;256;128;1;18446744073709551615
1505254796;16;16;128;2;2;128;18446744073709551615
1505254798;1;2;4;1;2;2;1834862592
1505254798;4;128;64;4;8;1;4781472
1505254798;64;16;256;1;2;2;24149280
1505254799;256;128;32;256;1;16;18446744073709551615
1505254799;4;128;4;4;1;2;16312672
1505254799;256;1;4;256;1;2;23281600
1505254799;16;128;4;8;1;2;8023072
1505254800;256;256;4;1;128;1;89944672
1505254800;1;128;1;1;4;1;117218848
1505254801;32;1;2;4;1;1;299843104
1505254801;256;1;2;2;1;1;84530016
1505254802;2;1;8;1;1;8;1055726976
1505254802;32;128;4;4;4;2;5382368
1505254803;256;4;4;256;4;2;18446744073709551615
1505254803;256;128;4;256;8;2;18446744073709551615
1505254803;256;128;2;1;1;1;108299744
1505254803;256;128;2;4;1;2;14631136
1505254808;4;1;1;4;1;1;4148626432
1505254808;16;1;256;1;1;1;80361024
1505254808;32;64;32;4;16;32;18446744073709551615
1505254809;4;128;16;4;1;16;9130112
1505254809;64;128;4;2;1;2;24083744
1505254809;256;128;4;256;4;4;18446744073709551615
1505254809;256;128;4;1;64;2;82239872
1505254810;256;128;1;256;1;1;3965280
1505254810;256;128;8;256;1;1;4020832
1505254810;32;128;4;4;1;2;12644896
1505254810;64;8;1;64;4;1;49260192
1505254815;4;1;1;1;1;1;4074268352
1505254816;4;4;1;4;1;1;1031025440
1505254816;32;8;16;1;2;4;17553952
1505254816;256;256;2;1;256;1;91588640
1505254817;256;256;4;1;256;4;90292576
1505254817;256;64;16;256;2;16;18446744073709551615
1505254817;1;128;2;1;1;1;103170240
1505254817;256;2;4;256;1;2;11787584
1505254817;256;128;4;256;32;2;18446744073709551615
1505254818;128;128;2;128;1;1;4787616
1505254818;256;128;4;128;1;4;1865984
1505254818;256;128;4;128;2;2;2201664
1505254818;1;128;4;1;1;4;28396832
1505254818;256;128;4;64;1;4;2251392
1505254819;256;64;16;128;1;1;4607104
1505254820;256;128;4;128;2;4;2337536
1505254820;256;128;4;1;1;4;29706560
1505254820;64;128;4;4;1;4;7817568
1505254820;256;256;4;128;256;2;18446744073709551615
1505254820;256;1;4;128;1;4;23342144
1505254821;256;128;2;128;1;2;2578304
1505254821;256;128;4;64;128;2;18446744073709551615
1505254821;256;128;4;128;128;4;18446744073709551615
1505254821;256;128;16;64;1;2;2565344
1505254822;128;256;4;128;256;1;18446744073709551615
1505254822;256;128;4;1;2;4;16235968
1505254822;1;128;4;1;1;1;77601312
1505254822;256;128;1;64;1;1;2698912
1505254823;256;128;4;128;2;2;2164832
1505254823;256;128;4;128;1;2;2517888
1505254823;128;64;2;1;1;2;49195296
1505254823;128;128;1;128;1;1;5450144
1505254823;256;128;8;128;1;8;2440768
1505254823;1;128;4;1;1;4;28424288
1505254824;64;128;1;1;1;1;87035744
1505254824;256;64;1;128;2;1;4828256
1505254824;256;128;8;128;1;2;2954208
1505254824;256;256;4;128;1;4;1822400
1505254825;256;256;8;128;1;2;2550752
1505254825;256;256;16;256;1;1;3423296
1505254825;256;1;4;64;1;4;22674176
1505254825;128;256;4;128;1;4;2604288
1505254826;256;256;4;256;1;4;2441184
1505254826;256;256;4;256;1;2;2113696
1505254826;256;256;4;1;1;4;30902176
1505254828;1;1;8;1;1;2;1732972832
1505254828;256;256;4;256;128;4;18446744073709551615
1505254828;256;256;8;128;1;1;3633408
1505254829;256;1;4;128;1;1;24365568
1505254829;256;128;4;64;2;4;1882144
1505254829;1;256;4;1;1;2;40920384
1505254829;1;256;4;1;1;4;29235904
1505254830;256;256;4;64;1;4;2073216
1505254830;256;256;8;32;1;2;2772160
1505254834;1;1;4;1;1;4;3586384704
1505254834;256;256;4;128;256;2;18446744073709551615
1505254838;1;1;4;1;1;4;3545384224
1505254838;256;256;1;256;1;1;2558112
1505254838;256;256;4;64;256;4;18446744073709551615
1505254838;256;256;4;128;1;1;3692288
1505254839;64;256;8;1;1;1;90946656
1505254839;256;1;2;128;1;1;48613024
1505254839;256;128;2;128;2;2;1989856
1505254839;128;256;4;64;1;4;3376384
1505254840;256;256;2;64;1;2;2487744
1505254840;128;256;8;128;1;2;3285312
1505254840;1;128;2;1;2;2;58641664
1505254840;256;1;8;128;1;2;11547936
1505254841;256;256;4;1;1;1;116453504
1505254841;256;256;4;128;1;1;3642944
1505254841;1;256;4;1;256;4;138397056
1505254841;128;256;4;1;1;4;27300640
1505254842;256;1;4;64;1;4;22657216
1505254842;256;256;4;32;1;2;2611776
1505254842;1;256;2;1;1;2;54829472
1505254842;256;1;8;128;1;1;11779648
1505254843;256;256;2;1;1;2;58105408
1505254843;256;1;4;128;1;2;22593312
1505254843;256;256;4;128;1;2;2228384
1505254843;1;64;4;1;4;4;75487520
1505254845;8;2;1;2;2;1;1137985920
1505254845;16;2;1;1;1;1;540230784
1505254846;1;128;1;1;1;1;102901280
1505254850;1;1;4;1;1;2;3417714368
1505254850;256;256;4;256;256;1;18446744073709551615
1505254850;256;256;2;128;1;2;1910368
1505254851;256;1;4;128;1;4;23278496
1505254851;16;256;4;4;1;4;6083104
1505254851;256;256;4;2;1;4;15855424
1505254851;256;16;4;128;16;4;18446744073709551615
1505254852;256;2;4;128;2;4;11943520
1505254853;1;16;1;1;8;1;1035172064
1505254853;16;4;1;1;4;1;298612160
1505254853;64;1;16;64;1;16;27040320
1505254854;32;128;256;8;64;16;18446744073709551615
1505254854;128;1;4;32;1;4;61629504
1505254854;32;1;128;4;1;8;16225728
1505254854;1;1;128;1;1;1;101194112
1505254867;1;1;1;1;1;1;12284286944
1505254870;1;1;4;1;1;1;3270482688
1505254871;1;4;4;1;1;1;812674304
1505254872;1;256;4;1;1;4;29179232
1505254872;64;128;2;2;2;2;12959648
1505254872;32;1;2;1;1;1;301213920
1505254873;16;16;16;1;2;16;50069888
1505254874;2;2;4;1;2;2;959671680
1505254874;256;1;4;256;1;4;23796832
1505254874;1;256;4;1;1;4;29193184
1505254874;1;256;2;1;1;2;54820928
1505254875;4;128;256;4;64;1;13833696
1505254875;64;16;16;16;16;16;18446744073709551615
1505254875;1;128;1;1;2;1;109715136
1505254875;4;32;16;4;2;16;10133376
1505254876;1;128;4;1;2;4;32652320
1505254876;256;256;2;128;128;2;18446744073709551615
1505254876;256;1;2;1;1;2;86493024
1505254877;16;128;1;16;4;1;11133152
1505254877;1;16;2;1;1;2;437418784
1505254878;32;4;1;1;4;1;162946336
1505254878;256;128;4;256;2;4;18446744073709551615
1505254878;128;256;8;128;1;1;4312864
1505254878;1;256;4;1;1;4;29118528
1505254879;256;256;1;1;128;1;77358368
1505254879;256;32;32;4;2;32;17863680
1505254879;32;8;32;2;4;2;9785056
1505254880;16;1;8;1;1;8;158568384
1505254880;256;256;2;128;1;1;2661504
1505254881;4;4;64;4;1;8;19490176
1505254881;64;8;16;1;2;4;15723808
1505254881;8;8;1;1;8;1;321546336
1505254882;16;1;128;8;1;16;12129728
1505254882;256;256;4;128;128;4;18446744073709551615
1505254882;64;256;2;1;1;2;46408992
1505254882;64;256;2;1;256;2;102918752
1505254883;32;1;1;2;1;1;617629664
1505254884;1;128;8;1;8;2;19296032
1505254884;1;128;2;1;8;1;65222464
1505254884;16;4;256;1;4;1;22828864
1505254884;256;256;4;128;1;2;2243808
1505254885;256;256;4;128;64;4;18446744073709551615
1505254885;1;256;4;1;256;4;142004480
1505254886;64;1;1;64;1;1;400789344
1505254886;1;128;256;1;64;2;84161984
1505254886;32;256;128;4;4;16;6772608
1505254886;64;1;128;32;1;1;6655072
1505254887;256;64;1;128;4;1;4274304
1505254887;64;1;1;4;1;1;313318176
1505254894;1;2;1;1;1;1;6490008512
1505254894;64;128;1;2;2;1;23719008
1505254894;32;32;2;1;8;2;13541344
1505254895;16;16;16;16;2;2;5672192
1505254895;2;4;4;1;4;1;482276768
1505254896;1;128;64;1;64;8;55093504
1505254896;64;16;256;16;4;1;4625568
1505254896;256;1;1;128;1;1;96758400
1505254896;256;256;8;128;1;4;2178752
1505254897;1;32;4;1;1;4;117047968
1505254898;8;1;4;8;1;4;667177280
1505254898;256;256;4;128;64;2;18446744073709551615
1505254898;1;256;4;1;32;4;24697856
1505254898;256;256;16;128;1;8;2734848
1505254899;8;256;4;8;1;4;6261952
1505254899;256;256;4;128;1;4;1815584
1505254899;256;4;4;128;2;4;6128704
1505254899;256;256;4;32;1;4;2599264
1505254899;64;256;4;1;1;4;25529568
1505254900;256;8;4;128;1;4;3853088
1505254900;4;256;4;2;1;4;12207104
1505254900;256;256;128;128;1;32;18446744073709551615
1505254900;256;1;4;128;1;4;23256032
1505254900;2;256;4;2;1;2;22208576
1505254901;256;4;1;1;1;1;104171040
1505254901;256;64;4;128;1;4;2275712
1505254901;8;256;4;2;1;2;21795200
1505254902;256;256;1;128;1;1;2819136
1505254902;16;2;4;4;1;4;150738368
1505254902;128;256;4;128;1;4;2574528
1505254902;256;256;4;128;1;2;2216032
1505254902;256;256;8;128;1;2;2551648
1505254903;2;256;64;2;1;32;31115264
1505254903;256;256;4;256;8;4;18446744073709551615
1505254903;1;256;4;1;2;4;15934016
1505254903;256;256;32;1;1;32;39494912
1505254903;256;2;4;128;1;4;11773984
1505254904;1;256;4;1;1;4;29173984
1505254904;256;256;4;8;16;2;9314400
1505254904;256;256;256;128;1;32;18446744073709551615
1505254904;256;256;4;128;1;2;2211424
1505254905;4;256;32;2;1;32;31615936
1505254905;1;256;4;1;1;4;29136960
1505254905;256;4;4;128;1;4;5996928
1505254905;256;2;16;128;1;1;3202880
1505254905;256;2;4;64;1;4;11460352
1505254906;256;256;16;8;1;1;16079616
1505254906;256;256;4;2;1;4;15869408
1505254906;256;256;2;4;1;2;15235744
1505254906;256;256;4;128;1;1;3633760
1505254906;256;1;4;128;1;4;23311136
1505254907;256;256;4;256;1;1;3226560
1505254907;256;256;256;2;1;32;15610048
1505254910;1;1;4;1;1;1;3252395296
1505254910;16;256;4;4;1;4;6068000
1505254911;2;256;4;2;1;1;35603008
1505254911;32;256;2;2;1;2;22366240
1505254912;256;128;4;128;1;4;1862848
1505254912;1;256;2;1;1;2;54812928
1505254912;32;256;4;1;1;4;25865152
1505254912;256;32;1;128;1;1;4437888
1505254912;256;256;4;128;1;1;3608320
1505254913;256;256;4;8;1;2;8098848
1505254913;4;256;256;2;1;32;19334720
1505254913;256;256;4;32;1;4;2588352
1505254913;256;256;4;1;1;4;30898400
1505254913;8;256;4;8;1;4;6288512
1505254914;256;256;4;4;1;4;8225536
1505254914;256;256;4;1;2;4;16827840
1505254914;256;256;4;128;32;4;18446744073709551615
1505254914;256;256;4;32;32;4;18446744073709551615
1505254915;256;32;4;128;1;1;6199168
1505254915;256;256;4;128;2;4;2424960
1505254915;1;256;4;1;1;4;29168256
1505254915;256;256;4;1;1;4;30881632
1505254915;256;256;128;128;2;32;18446744073709551615
1505254915;256;256;4;128;1;1;3655488
1505254916;32;256;4;2;1;4;12642368
1505254916;2;256;4;2;1;4;15639648
1505254916;256;256;4;128;1;1;3696704
1505254916;32;256;4;1;16;4;92644000
1505254917;256;256;32;128;2;32;18446744073709551615
1505254917;256;256;4;16;1;4;3079328
1505254917;32;256;128;2;1;32;18976672
1505254917;256;256;4;1;1;2;58820576
1505254918;2;256;4;2;1;4;15580160
1505254918;1;256;4;1;1;1;65242624
1505254918;256;8;1;8;1;1;24077600
1505254918;256;256;4;1;4;4;9739072
1505254919;256;256;4;8;1;4;4473952
1505254919;256;256;4;4;1;1;30200864
1505254919;256;256;16;128;1;1;3419744
1505254919;256;256;64;1;1;8;20218240
1505254920;256;256;16;1;1;1;119965440
1505254920;256;256;1;128;1;1;2726624
1505254920;256;256;32;128;4;32;18446744073709551615
1505254920;256;256;2;128;1;2;1923008
1505254920;256;256;16;128;1;1;3418880
1505254920;256;256;1;128;1;1;2856160
1505254921;256;256;4;128;1;4;1803712
1505254921;256;256;32;128;1;32;18446744073709551615
1505254921;256;256;4;1;1;4;30890144
1505254922;2;2;4;2;1;4;976619680
1505254922;4;256;4;2;1;4;12137952
1505254923;256;256;1;1;1;1;111853344
1505254923;256;256;1;128;1;1;2917888
1505254923;16;256;4;4;1;2;11363616
1505254923;256;256;4;128;8;4;18446744073709551615
1505254923;16;256;4;4;32;4;14977728
1505254924;128;256;4;128;1;2;3243232
1505254924;256;64;4;128;1;4;2251008
1505254924;256;256;8;16;1;4;3173888
1505254924;256;256;2;128;1;1;2683552
1505254924;256;1;4;128;1;4;23328960
1505254924;256;2;4;128;1;4;11750848
1505254925;32;256;4;2;64;4;38312736
1505254925;256;256;4;128;1;2;2205984
1505254925;4;256;4;2;1;1;36465952
1505254925;256;256;4;128;128;4;18446744073709551615
1505254925;256;8;4;2;1;4;15642976
1505254926;256;16;4;16;1;4;7357600
1505254926;64;256;4;4;1;4;7191936
1505254926;256;256;4;128;1;4;1820576
1505254926;256;256;4;2;1;4;15856256
1505254926;256;256;4;4;1;4;8230528
1505254926;16;256;4;4;1;4;6077696
1505254927;256;4;4;128;1;4;5989664
1505254927;128;256;4;128;1;4;2566752
1505254927;256;128;4;128;1;4;1860608
1505254927;8;256;4;8;1;2;7995104
1505254927;256;16;4;128;2;4;3372768
1505254928;256;256;4;16;4;4;2500064
1505254928;16;256;128;4;1;128;18446744073709551615
1505254928;256;256;4;128;32;4;18446744073709551615
1505254928;256;16;4;128;4;4;18446744073709551615
1505254928;32;256;4;2;1;4;12853152
1505254929;1;32;4;1;1;4;116987200
1505254929;256;256;4;64;1;1;3393760
1505254929;128;256;1;128;8;1;3564512
1505254929;256;256;4;128;4;4;18446744073709551615
1505254929;128;8;4;128;1;4;8008992
1505254930;256;256;4;2;8;4;18811584
1505254930;64;256;4;1;1;4;25546240
1505254930;256;256;4;128;16;4;18446744073709551615
1505254930;256;1;4;128;1;4;23297600
1505254930;256;256;8;128;1;4;2189472
1505254931;8;256;4;8;64;4;18446744073709551615
1505254931;256;256;8;128;1;4;2230976
1505254931;1;256;4;1;32;4;24766976
1505254931;256;256;256;128;1;4;2371552
1505254931;32;256;128;2;8;4;10603456
1505254932;4;128;1;4;2;1;34746144
1505254932;1;32;16;1;2;16;48538144
1505254934;1;1;8;1;1;4;1865011712
1505254934;16;128;1;16;32;1;11285824
1505254934;2;32;1;1;1;1;213716352
1505254936;4;4;1;4;4;1;1110824640
1505254936;256;256;1;256;128;1;18446744073709551615
1505254936;256;1;1;64;1;1;96698720
1505254936;256;256;1;128;1;1;2791072
1505254937;256;32;4;256;1;4;2742272
1505254937;128;8;1;2;8;1;24220672
1505254937;256;1;8;1;1;8;25733440
1505254937;4;1;64;4;1;8;77134208
1505254938;64;8;8;8;2;8;9638816
1505254940;1;8;1;1;8;1;2074741280
1505254940;16;64;128;4;64;16;18446744073709551615
1505254940;128;128;1;128;8;1;5852320
1505254943;1;1;8;1;1;2;1733081376
1505254943;64;256;8;1;256;4;107307456
1505254943;256;256;4;8;1;2;8095296
1505254944;1;128;2;1;16;1;75684448
1505254944;1;4;256;1;4;1;29250688
1505254944;64;1;1;64;1;1;400841728
1505254945;1;128;256;1;2;2;17833920
1505254945;32;256;128;8;4;16;3560000
1505254945;64;64;128;64;1;16;2676032
1505254945;64;1;256;4;1;256;18446744073709551615
1505254947;1;2;4;1;1;2;1707810464
1505254948;256;256;64;128;2;4;3230656
1505254948;64;128;16;32;2;16;3721664
1505254948;32;32;2;1;1;1;90215040
1505254949;1;16;16;1;2;2;59471360
1505254955;2;1;1;1;1;1;6690159840
1505254956;256;8;4;128;1;4;3772320
1505254956;256;256;4;16;1;4;3114432
1505254956;2;256;256;1;1;128;18446744073709551615
1505254956;256;256;32;128;1;16;18446744073709551615
1505254958;2;1;4;2;1;4;1976509056
1505254959;1;128;64;1;8;2;33927072
1505254959;64;16;256;16;4;32;18446744073709551615
1505254959;4;128;1;1;32;1;54225984
1505254959;4;32;16;1;1;4;23838848
1505254960;1;256;4;1;16;4;24246464
1505254960;256;256;16;128;1;4;2094784
1505254960;256;1;2;1;1;1;126074240
1505254961;16;128;1;16;4;1;11038272
1505254961;4;128;2;1;1;2;45616544
1505254961;32;4;1;1;4;1;162382624
1505254961;16;256;1;4;1;1;20783552
1505254961;256;256;4;64;1;4;2079840
1505254962;256;2;256;1;2;1;53757696
1505254962;256;32;32;4;1;32;23351744
1505254962;1;8;64;1;4;1;28898944
1505254963;8;1;8;1;1;8;317460192
1505254963;256;256;4;128;64;4;18446744073709551615
1505254963;256;16;8;128;2;4;2728640
1505254963;2;256;8;2;1;4;11879968
1505254964;1;256;4;1;1;4;29188512
1505254964;256;256;4;256;1;1;3206400
1505254964;256;256;4;128;2;4;2439808
1505254964;1;256;4;1;1;4;29179520
1505254964;1;256;4;1;1;4;29167808
1505254964;1;128;4;1;1;1;77540384
1505254964;256;128;1;256;1;1;3513952
1505254965;1;256;4;1;4;4;19041920
1505254965;256;256;4;256;1;4;2438176
1505254965;256;128;4;64;1;4;2394400
1505254965;1;256;4;1;1;2;40882624
1505254965;256;128;4;128;1;2;2505248
1505254965;128;256;4;64;1;4;3288288
1505254966;256;256;8;128;1;8;2513344
1505254966;1;256;4;1;1;1;65320864
1505254966;1;256;4;1;2;4;15882944
1505254966;256;1;4;64;1;4;22591552
1505254966;256;256;2;1;1;1;114493888
1505254967;256;128;1;32;1;1;3986336
1505254967;128;256;8;128;1;4;2882816
1505254967;256;128;4;128;1;1;5073696
1505254967;128;256;4;128;1;1;4403328
1505254968;128;256;32;1;1;4;27483232
1505254968;64;1;1;1;1;1;302005408
1505254968;1;4;64;1;1;8;64792160
1505254969;64;8;8;1;2;2;26833312
1505254969;8;64;1;1;8;1;40627680
1505254969;128;1;4;128;1;4;59779904
1505254969;16;2;128;4;1;64;10954432
1505254969;128;128;1;128;1;1;5497152
1505254970;32;256;8;4;1;4;6908960
1505254983;1;1;1;1;1;1;12281585344
1505254983;1;128;2;1;8;2;75607904
1505254985;16;1;1;16;1;1;1273575328
1505254985;64;32;16;64;32;16;18446744073709551615
1505254985;1;128;4;1;1;1;77420544
1505254986;128;1;4;128;1;1;61223552
1505254986;1;128;256;1;2;1;33376832
1505254986;32;256;1;8;4;1;9963872
1505254986;64;64;128;64;1;16;2697152
1505254987;64;1;1;4;1;1;315573728
1505254987;256;32;2;256;1;1;3962144
1505254987;128;256;2;128;2;1;4302816
1505254994;1;2;1;1;1;1;6492545312
1505254994;64;64;16;32;2;4;4536064
1505254994;32;32;256;1;8;1;13719584
1505254995;16;16;16;1;2;2;25072672
1505254995;256;128;8;128;1;4;2270304
1505254995;256;128;4;128;2;2;2194368
1505254995;2;128;4;1;32;2;26164992
1505254996;4;1;64;4;1;1;60931264
1505254996;64;16;256;16;16;1;5930656
1505254996;1;128;1;1;2;1;109670656
1505254996;1;256;4;1;1;4;29200736
1505254996;256;1;8;128;1;4;11888576
1505254997;16;32;16;8;2;16;5859584
1505255003;1;1;2;1;1;1;6528828640
1505255004;1;128;1;1;4;1;117270816
1505255004;32;16;32;4;16;32;18446744073709551615
1505255004;256;256;2;256;1;2;1900224
1505255004;256;128;2;128;1;1;4459008
1505255005;64;256;8;1;1;2;47558368
1505255005;128;128;4;128;1;1;5280352
1505255009;1;1;4;1;1;4;3658221088
1505255009;1;64;1;1;32;1;390381024
1505255010;256;256;256;2;128;1;6452864
1505255010;256;32;1;8;2;1;9510400
1505255010;32;8;16;2;4;4;12302400
1505255010;256;128;4;128;1;2;2570368
1505255010;256;1;4;256;1;2;23288480
1505255011;256;1;8;8;1;1;22606624
1505255011;4;4;64;1;1;8;25020800
1505255011;64;8;2;32;1;2;26261760
1505255012;8;1;2;1;1;2;1133785664
1505255013;256;1;4;128;1;4;23294272
1505255013;256;256;4;64;1;1;3361824
1505255013;16;2;128;4;1;16;10619424
1505255014;256;64;8;64;1;4;2652640
1505255014;16;1;64;4;1;1;34038880
1505255014;2;128;8;1;8;2;10210560
1505255014;1;128;2;1;8;1;65254048
1505255015;64;4;256;1;4;1;23676160
1505255015;64;1;16;64;1;1;25688768
1505255015;1;128;256;1;2;2;17824128
1505255015;1;1;128;1;1;16;150525984
1505255016;1;4;128;1;2;128;18446744073709551615
1505255016;64;1;1;4;1;1;318522944
1505255017;128;2;4;1;1;2;59057856
1505255017;64;8;32;2;1;8;30040448
1505255017;128;32;2;1;8;2;56402112
1505255017;256;32;4;128;1;4;2460512
1505255018;16;16;16;16;2;16;5808480
1505255018;4;128;4;2;32;2;10384352
1505255018;128;16;64;4;8;1;13896064
1505255018;64;16;256;32;1;1;4213888
1505255019;256;128;1;256;1;1;4006592
1505255019;16;128;32;1;2;2;23182336
1505255025;1;1;2;1;1;1;6505954944
1505255026;64;32;4;1;2;4;14965312
1505255026;256;64;4;256;1;4;2308896
1505255026;1;256;4;1;1;4;29185856
1505255027;2;64;1;1;1;1;109144896
1505255027;256;1;2;4;1;2;49145312
1505255027;32;128;8;1;32;1;88317408
1505255027;256;32;256;2;2;1;29354880
1505255028;128;256;4;2;1;2;25633984
1505255028;256;1;2;64;1;1;48409856
1505255028;1;256;2;1;1;1;77458464
1505255029;256;32;1;8;8;1;12588128
1505255029;64;8;1;2;1;1;74494848
1505255029;256;1;8;1;1;1;106795808
1505255030;4;4;1;4;1;1;1031116800
1505255031;16;256;1;4;4;1;9775808
1505255031;256;256;1;128;32;1;18446744073709551615
1505255031;256;1;8;256;1;4;12151584
1505255031;256;128;4;128;1;1;5213248
1505255032;256;256;2;32;1;1;4283776
1505255032;256;256;4;1;1;1;116459200
1505255032;256;256;256;2;1;4;21257536
1505255032;32;8;8;8;2;8;13417664
1505255033;8;64;1;2;1;1;66181536
1505255033;16;1;8;4;1;1;142150816
1505255033;128;256;1;2;1;1;48380640
1505255034;128;256;4;128;2;4;3066368
1505255034;256;128;2;128;1;2;2543904
1505255034;2;8;8;2;2;2;125730848
1505255034;1;128;2;1;2;1;53940864
1505255035;128;4;256;1;4;1;25575776
1505255035;4;1;16;1;1;1;251301376
1505255035;256;1;4;128;1;1;24328160
1505255036;256;256;2;128;2;1;2148928
1505255036;256;128;4;256;1;4;2336032
1505255036;256;16;4;128;1;4;3331392
1505255036;1;1;256;1;1;64;100844096
1505255036;128;256;128;2;4;16;6877344
1505255037;64;64;128;64;2;1;3980384
1505255037;64;1;1;4;1;1;317055392
1505255037;256;256;4;8;1;4;4477984
1505255037;256;1;8;128;1;4;11894752
1505255038;128;2;4;1;1;2;59041376
1505255038;64;256;2;32;2;2;5403040
1505255038;2;256;2;1;1;2;41518560
1505255038;8;16;16;2;1;4;18133312
1505255039;256;256;128;128;1;128;18446744073709551615
1505255039;256;256;4;256;4;2;18446744073709551615
1505255039;256;256;8;1;2;8;12325536
1505255040;4;128;4;2;32;4;10331680
1505255040;4;128;64;4;8;64;18446744073709551615
1505255040;4;1;256;4;1;1;30820928
1505255040;256;128;1;256;4;1;2628256
1505255040;256;256;4;256;1;2;2118304
1505255041;256;32;16;256;2;16;18446744073709551615
1505255041;256;1;2;1;1;1;126299168
1505255041;64;256;1;16;4;1;8734976
1505255041;256;64;256;4;1;64;9211008
1505255042;256;64;1;256;1;1;3877024
1505255042;256;256;1;1;1;1;111904288
1505255042;256;16;4;4;1;4;12353280
1505255043;8;1;4;1;1;4;583373664
1505255044;256;64;32;128;1;4;2304480
1505255044;256;256;4;128;256;4;18446744073709551615
1505255044;16;256;1;8;1;1;13904448
1505255044;256;2;4;128;1;4;11766560
1505255045;256;256;8;128;32;4;18446744073709551615
1505255045;256;256;4;16;1;4;3073952
1505255045;256;32;4;128;1;1;6220128
1505255045;256;256;64;128;1;4;2167168
1505255045;128;256;4;128;128;4;18446744073709551615
1505255046;8;256;4;8;32;4;4288576
1505255046;256;256;32;128;1;4;2130176
1505255046;256;256;4;1;1;4;30897440
1505255046;256;256;4;8;8;4;6649600
1505255046;256;256;8;128;1;2;2546336
1505255047;256;256;1;128;128;1;18446744073709551615
1505255047;1;4;16;1;1;4;233137632
1505255048;1;256;1;1;1;1;103081088
1505255048;32;128;8;1;32;1;89625664
1505255048;256;256;4;128;8;1;3249568
1505255048;32;32;4;2;2;1;25647232
1505255049;128;32;1;8;2;1;15079008
1505255049;8;1;32;2;1;2;75206816
1505255049;256;16;8;8;4;4;11480160
1505255049;4;4;64;4;2;8;19712256
1505255050;16;128;1;8;2;1;10035840
1505255050;8;64;1;1;8;1;40341920
1505255050;8;2;128;8;1;2;10161024
1505255050;128;128;1;1;32;1;69280032
1505255051;8;256;4;8;1;4;6275008
1505255051;2;256;1;1;8;1;33348320
1505255051;1;64;2;1;4;1;117163104
1505255051;16;1;256;1;1;1;80312096
1505255052;1;1;16;1;1;1;830097760
1505255053;4;256;1;2;1;1;43107968
1505255053;4;256;4;2;1;4;12097504
1505255053;256;8;4;128;2;4;3195584
1505255053;64;4;256;8;2;2;4877952
1505255054;32;256;256;2;4;16;7348800
1505255054;1;64;128;1;4;16;55726080
1505255058;4;1;1;4;1;1;4143856160
1505255058;128;64;1;1;1;1;92232000
1505255059;256;128;1;32;2;1;2706752
1505255059;128;64;4;128;1;4;3753856
1505255059;32;32;1;1;1;1;90445696
1505255060;128;16;16;2;2;16;36894752
1505255060;4;128;4;2;16;4;10500992
1505255060;4;128;64;4;8;32;6419840
1505255060;16;16;256;1;1;1;81875072
1505255061;16;128;1;8;4;1;10831104
1505255061;256;256;64;128;4;4;18446744073709551615
1505255061;128;32;1;1;2;1;48350432
1505255061;256;1;2;2;1;2;44541536
1505255062;2;256;8;2;1;8;13926240
1505255065;1;1;4;1;1;4;3544801216
1505255066;128;1;4;1;1;4;40967072
1505255066;256;8;4;128;1;4;3737504
1505255066;16;256;4;4;1;2;11341504
1505255066;256;256;4;8;1;1;15648384
1505255067;8;256;4;8;1;1;12377120
1505255067;16;16;1;4;1;1;72148384
1505255067;256;4;4;128;1;4;6008256
1505255067;256;32;4;32;1;4;4195680
1505255068;256;2;4;1;2;4;25184896
1505255068;256;256;1;32;1;1;4149152
1505255068;64;256;4;1;1;1;88750368
1505255068;256;256;256;128;128;4;18446744073709551615
1505255069;16;128;4;4;4;4;4224960
1505255069;8;8;4;8;1;4;86620576
1505255069;64;256;4;1;1;1;88763392
1505255069;16;256;4;1;1;4;22571392
1505255070;256;8;4;64;1;4;4473696
1505255070;256;32;4;1;1;1;105221600
1505255070;256;256;256;128;1;4;2371744
1505255070;32;256;4;2;1;4;12805696
1505255071;32;256;4;2;32;4;37873536
1505255071;256;256;128;128;2;4;3673024
1505255071;256;1;4;128;1;4;23312448
1505255071;8;256;32;8;1;1;12426112
1505255071;2;256;4;1;1;4;22713760
1505255072;256;256;64;128;1;32;18446744073709551615
1505255072;256;256;4;4;32;4;12704544
1505255072;64;256;8;1;1;4;25752672
1505255073;64;256;4;1;256;4;100384384
1505255074;4;4;4;2;1;4;275236032
1505255074;256;256;4;1;1;1;116424768
1505255075;256;256;16;128;8;4;18446744073709551615
1505255075;4;8;4;2;1;4;139493536
1505255075;256;256;128;128;1;4;2246496
1505255076;256;1;1;1;1;1;165929632
1505255076;2;256;4;2;1;1;35594464
1505255076;256;256;4;128;64;1;18446744073709551615
1505255076;256;128;8;128;2;4;2590176
1505255077;2;256;4;2;4;4;10376224
1505255077;256;64;4;128;1;1;5757152
1505255077;1;256;4;1;1;1;65251808
1505255077;256;256;1;1;1;1;111876928
1505255077;256;256;8;128;1;2;2528160
1505255078;256;32;32;128;1;4;2350176
1505255078;256;16;2;128;8;1;3548992
1505255078;256;256;2;128;16;1;18446744073709551615
1505255078;256;256;4;128;1;4;1796064
1505255083;4;1;1;2;1;1;4105516096
1505255083;32;2;4;2;1;4;82596032
1505255083;4;256;4;2;1;4;12173664
1505255083;256;16;2;128;1;1;3699392
1505255084;256;64;16;128;1;8;2600640
1505255084;16;256;4;4;1;4;6072160
1505255084;8;256;4;1;1;4;22301760
1505255084;256;256;8;128;1;1;3613664
1505255084;256;256;4;16;1;1;8158784
1505255085;16;1;4;4;1;4;301386368
1505255085;256;256;8;4;1;1;30705952
1505255085;256;32;4;128;1;4;2484736
1505255085;256;256;4;8;1;4;4485184
1505255086;2;256;1;2;1;1;53193344
1505255086;256;256;4;128;8;4;18446744073709551615
1505255086;256;256;4;1;1;4;30885216
1505255086;256;256;4;8;1;1;15641536
1505255086;256;256;32;4;1;4;8530592
1505255087;8;256;4;8;1;4;6289376
1505255087;8;256;4;8;1;4;6285056
1505255090;1;1;4;1;1;4;3676986944
1505255091;256;256;4;32;32;4;18446744073709551615
1505255091;64;64;4;1;1;4;25722240
1505255091;256;128;4;128;1;4;1863968
1505255091;256;256;64;128;1;2;2315744
1505255091;256;256;4;256;1;4;2444384
1505255091;256;256;16;128;1;8;2737248
1505255092;256;64;256;128;1;256;18446744073709551615
1505255092;256;64;4;128;1;4;2248000
1505255092;64;256;4;1;1;4;25518880
1505255092;256;4;4;128;1;4;6000608
1505255092;256;32;4;16;1;4;7947264
1505255092;256;256;2;128;1;2;1920672
1505255093;256;256;4;4;2;4;4963040
1505255093;256;256;4;128;32;1;18446744073709551615
1505255093;256;256;4;128;32;4;18446744073709551615
1505255093;1;256;4;1;1;4;29186144
1505255093;256;16;4;128;1;4;3427104
1505255093;1;256;4;1;1;4;29184000
1505255094;64;256;4;1;1;4;25554464
1505255094;256;256;2;8;2;1;8079648
1505255094;256;256;4;128;128;4;18446744073709551615
1505255094;256;256;1;1;2;1;57801312
1505255094;256;256;4;32;1;4;2577024
1505255095;256;256;2;128;1;1;2687456
1505255095;256;256;1;128;1;1;2906976
1505255095;256;256;128;128;1;1;3118688
1505255095;1;256;4;1;1;4;29169184
1505255095;256;256;2;256;1;1;2370816
1505255095;256;2;1;128;1;1;48485344
1505255096;256;256;4;128;2;4;2425472
1505255096;2;128;32;2;1;4;10177344
1505255096;256;1;4;128;1;1;24444480
1505255096;256;1;4;256;1;1;22634912
1505255096;256;256;1;128;4;1;1995808
1505255097;256;256;4;32;2;4;2086176
1505255097;2;256;4;2;1;4;15674880
1505255097;256;2;4;128;1;4;11740224
1505255097;256;256;4;256;1;4;2441440
1505255097;256;1;4;64;1;4;22654016
1505255097;256;256;4;128;256;1;18446744073709551615
1505255098;256;256;1;128;1;1;2836384
1505255098;256;1;4;128;1;4;23373984
1505255098;256;128;4;256;1;4;2338816
1505255098;256;256;1;128;1;1;2846976
1505255098;256;256;4;128;1;4;1811264
1505255098;1;64;4;1;1;4;58571520
1505255099;256;256;2;128;2;1;2113728
1505255099;32;256;4;2;1;4;12642368
1505255099;4;256;1;2;1;1;43010528
1505255099;256;256;4;64;1;4;2107840
1505255099;256;128;4;128;1;1;5165952
1505255099;128;1;1;1;1;1;155485440
1505255100;256;256;1;128;1;1;2884448
1505255100;256;256;4;128;64;1;18446744073709551615
1505255100;16;256;64;4;1;2;11786784
1505255100;256;64;4;128;32;4;18446744073709551615
1505255100;256;256;128;128;1;8;3720576
1505255101;256;256;4;1;1;4;30891360
1505255101;256;128;4;32;1;1;4618784
1505255101;16;256;1;16;4;1;6013472
1505255101;256;32;256;4;1;1;28669088
1505255102;32;128;1;1;32;1;32087424
1505255102;256;256;1;16;128;1;18446744073709551615
1505255102;256;128;1;16;128;1;18446744073709551615
1505255103;32;128;256;2;64;4;17281344
1505255103;256;2;8;8;2;4;7587488
1505255103;4;4;64;4;4;64;25971296
1505255103;256;256;4;128;2;2;2073696
1505255104;1;256;4;1;1;4;29173664
1505255104;256;1;4;64;1;1;24357344
1505255104;1;256;4;1;2;4;15906048
1505255104;256;256;4;4;1;4;8252288
1505255104;256;32;4;16;1;2;6414688
1505255105;32;8;8;8;1;8;13187040
1505255105;8;64;16;1;8;1;13128352
1505255106;8;1;128;8;1;2;19451392
1505255106;128;16;1;128;8;1;17143680
1505255106;1;256;4;1;1;4;29174272
1505255106;256;4;4;128;1;4;6000064
1505255107;1;256;4;1;1;1;65249184
1505255107;256;64;4;256;1;4;2306912
1505255107;2;128;1;2;8;1;67177568
1505255107;256;256;2;128;1;1;2616800
1505255107;4;256;4;2;1;1;36438560
1505255108;16;128;2;8;2;2;5515264
1505255108;16;4;256;16;4;1;3997600
1505255108;64;1;16;32;1;1;25436384
1505255108;16;4;256;8;2;64;9277600
1505255108;128;256;4;128;1;4;2608096
1505255109;256;256;2;128;4;1;2075552
1505255109;128;256;4;128;4;4;18446744073709551615
1505255109;256;256;4;128;256;4;18446744073709551615
1505255109;1;256;128;1;1;4;17886496
1505255110;64;64;1;64;1;1;7389600
1505255110;32;1;1;4;1;1;601684736
1505255111;16;2;4;8;1;2;156038944
1505255111;256;32;1;32;1;1;6275584
1505255111;32;128;2;1;2;2;24153632
1505255112;16;32;16;1;1;16;71128896
1505255112;4;128;4;2;32;1;10510656
1505255112;1;256;4;1;1;2;40902752
1505255112;256;16;256;128;1;256;18446744073709551615
1505255116;4;1;1;1;1;1;3407945376
1505255116;64;16;128;32;1;2;3853792
1505255116;1;128;1;1;1;1;102734880
1505255117;128;256;4;128;1;2;3191968
1505255117;256;1;4;128;1;1;24321696
1505255117;256;1;2;128;1;1;48583904
1505255117;256;256;256;128;1;256;18446744073709551615
1505255117;256;1;4;1;1;4;46528352
1505255118;256;2;4;1;1;4;34374112
1505255118;16;32;64;16;2;32;3111168
1505255119;16;1;2;2;1;2;579673344
1505255119;16;256;1;16;8;1;6113152
1505255119;256;64;256;4;8;64;18446744073709551615
1505255120;256;32;4;1;1;4;29070816
1505255120;256;256;4;128;4;4;18446744073709551615
1505255120;128;1;4;128;1;4;60099392
1505255120;256;1;1;128;1;1;96574368
1505255120;256;2;4;128;1;1;12144032
1505255120;256;16;1;128;1;1;6582304
1505255121;32;128;32;4;32;1;22571200
1505255121;256;256;256;2;8;1;11589088
1505255121;64;32;1;8;2;1;14433760
1505255122;32;8;1;2;4;1;85946496
1505255122;256;256;256;4;1;256;18446744073709551615
1505255122;256;1;4;128;1;2;22573568
1505255122;256;64;4;64;1;4;3307168
1505255123;2;256;2;2;1;1;41241248
1505255123;1;2;128;1;2;64;96757184
1505255123;4;4;4;4;1;1;257308736
1505255124;64;8;8;4;2;8;8157216
1505255124;128;64;16;16;1;1;7986656
1505255124;256;128;4;128;2;1;4340544
1505255124;256;256;4;64;1;2;2509632
1505255125;256;256;128;128;1;16;18446744073709551615
1505255126;8;2;1;8;1;1;1223034272
1505255126;256;128;1;128;1;1;4462752
1505255127;64;16;8;1;8;2;51600384
1505255127;16;2;2;16;2;1;334670912
1505255127;16;128;256;16;4;1;3253056
1505255128;8;1;16;4;1;1;140579360
1505255128;16;4;1;8;1;1;303450432
1505255129;32;256;128;8;1;16;3724544
1505255129;2;64;32;1;16;2;14776960
1505255129;128;1;1;8;1;1;244357248
1505255130;256;128;2;32;8;1;3846240
1505255132;1;2;4;1;1;2;1704571104
1505255132;256;128;1;16;2;1;4213952
1505255132;32;32;2;1;2;2;29346560
1505255132;16;16;16;16;1;2;5652480
1505255133;4;256;4;2;32;4;7867456
1505255133;4;256;64;4;8;1;4943424
1505255133;1;16;128;1;1;2;33897312
1505255133;256;128;8;256;8;2;18446744073709551615
1505255134;16;256;64;16;256;4;18446744073709551615
1505255134;256;1;256;2;1;1;52149920
1505255134;1;256;1;1;4;1;58764704
1505255135;256;64;256;4;4;64;5487104
1505255135;128;1;32;1;1;1;94377664
1505255136;1;1;256;1;1;1;103388288
1505255136;256;32;16;8;2;2;6090336
1505255136;16;16;32;2;2;1;22967232
1505255137;1;128;8;1;128;4;44399616
1505255137;128;4;64;1;1;8;57237568
1505255139;1;1;8;1;1;8;2068506368
1505255140;128;4;16;16;1;1;9394688
1505255140;8;16;128;8;1;1;11543712
1505255140;256;128;1;16;1;1;7506944
1505255140;2;128;1;2;8;1;67136544
1505255141;16;128;2;8;2;1;9982560
1505255141;128;256;1;128;1;1;4475520
1505255141;128;256;8;128;1;1;4321952
1505255141;16;128;128;2;4;1;12592928
1505255141;64;16;16;32;4;16;18446744073709551615
1505255142;128;4;256;8;1;2;6988832
1505255142;32;256;128;8;4;1;5010368
1505255142;256;2;4;128;1;2;11381280
1505255142;8;256;4;4;16;4;6302752
1505255143;64;64;128;32;1;16;2715648
1505255143;128;1;64;8;1;1;14249312
1505255143;128;2;32;1;1;2;49640768
1505255143;8;128;1;2;2;1;35158080
1505255144;1;128;4;1;1;4;28377472
1505255144;1;256;4;1;1;4;29159328
1505255144;256;128;4;128;2;4;2301184
1505255144;256;32;128;1;8;2;9718368
1505255144;16;16;16;16;8;2;5785728
1505255145;4;256;8;2;32;4;20965312
1505255145;4;128;8;4;8;1;5532064
1505255145;1;128;4;1;1;4;28403264
1505255145;256;256;8;32;1;1;4724544
1505255146;64;16;128;32;4;2;3881280
1505255146;256;128;1;16;16;1;6511968
1505255146;16;1;64;16;1;32;21242816
1505255146;256;1;1;64;1;1;96658368
1505255146;256;256;2;64;1;1;2505568
1505255147;16;256;1;1;4;1;24027584
1505255147;1;64;1;1;4;1;234489888
1505255148;32;16;1;4;1;1;37455072
1505255148;64;256;256;2;1;8;7866784
1505255148;1;256;4;1;1;1;65245568
1505255148;256;32;1;1;2;1;54608192
1505255148;256;8;32;2;8;2;5556928
1505255149;256;2;1;8;2;1;49994304
1505255149;16;4;64;8;1;8;5360384
1505255149;128;256;4;128;2;4;3049696
1505255149;64;8;64;4;1;1;23999456
1505255150;128;64;16;128;2;1;4821184
1505255150;8;4;128;1;1;16;68371616
1505255150;256;128;1;4;1;1;27775232
1505255150;256;256;2;128;1;2;1916320
1505255151;2;128;256;1;8;1;10608096
1505255151;16;128;2;16;2;1;5647328
1505255151;16;128;256;1;4;1;24116256
1505255151;64;1;16;1;1;1;89923008
1505255152;256;128;8;128;1;1;4788192
1505255152;64;4;256;1;2;8;42568064
1505255152;8;256;128;2;4;16;16284096
1505255152;64;2;128;32;2;16;4982272
1505255153;16;1;64;8;1;1;19826816
1505255153;256;256;2;32;1;1;4272032
1505255157;1;1;4;1;1;4;3586078848
1505255157;256;128;4;64;1;4;2251904
1505255157;128;2;32;1;2;1;49750016
1505255157;16;128;1;1;2;1;44999104
1505255158;256;32;16;1;8;16;75292416
1505255158;16;16;16;16;1;1;9748000
1505255158;128;256;4;64;2;1;6551008
1505255158;256;1;4;64;1;2;24330528
1505255159;256;256;8;128;4;1;3457024
1505255159;4;256;4;4;32;4;5539552
1505255159;4;128;1;4;64;1;37412160
1505255159;64;16;64;4;1;4;8704256
1505255160;256;128;4;1;4;2;16270080
1505255160;128;256;4;1;1;4;27286784
1505255160;128;128;4;128;2;4;3101952
1505255160;16;8;128;16;2;32;4144416
1505255161;256;8;16;2;1;8;26382656
1505255161;16;256;1;2;4;1;17614880
1505255161;128;64;256;4;4;1;7797120
1505255161;128;1;8;128;1;1;31849120
1505255162;256;256;4;128;4;1;3102048
1505255162;32;32;32;4;32;1;21487232
1505255162;256;64;256;2;1;1;60002560
1505255162;1;32;256;1;2;1;33390752
1505255163;256;64;32;2;8;2;6341184
1505255164;256;256;2;128;2;2;1831488
1505255164;1;32;4;1;1;1;101605760
1505255164;1;256;1;1;1;1;103189632
1505255164;256;8;4;128;8;4;18446744073709551615
1505255165;16;256;4;4;4;4;13398848
1505255165;64;256;256;1;1;256;18446744073709551615
1505255165;256;256;4;128;1;1;3644064
1505255165;16;1;4;4;1;4;301479136
1505255166;128;256;4;128;16;4;18446744073709551615
1505255167;256;128;4;16;1;4;2783360
1505255167;256;16;4;128;4;4;18446744073709551615
1505255167;32;32;4;2;1;4;15411168
1505255167;8;256;16;8;1;8;4178176
1505255167;256;256;4;128;16;4;18446744073709551615
1505255168;64;256;4;1;1;4;25528608
1505255168;1;16;4;1;1;4;234321920
1505255168;256;256;4;128;64;4;18446744073709551615
1505255169;256;256;4;2;2;4;8736928
1505255169;64;256;4;1;1;2;45819456
1505255169;256;256;1;128;32;1;18446744073709551615
1505255169;256;256;8;64;1;1;3609632
1505255169;256;128;4;64;1;1;3449952
1505255170;256;64;4;128;1;2;3909888
1505255170;1;256;4;1;1;2;41033504
1505255170;256;256;1;16;1;1;7861248
1505255170;2;256;4;2;256;4;18446744073709551615
1505255170;256;128;1;128;1;1;4995328
1505255171;4;16;4;2;1;1;57362016
1505255171;256;256;4;128;4;2;2553152
1505255171;256;256;4;16;8;4;2349056
1505255171;256;256;4;2;1;4;15864352
1505255172;4;256;4;1;1;4;19367744
1505255172;1;256;4;1;1;4;29187360
1505255172;32;256;4;16;1;4;5853120
1505255172;256;4;4;128;2;4;6146048
1505255173;128;256;4;4;1;4;7537152
1505255173;4;2;4;2;1;4;554836256
1505255174;256;256;32;256;1;4;2908000
1505255174;256;256;4;32;128;4;18446744073709551615
1505255174;256;256;256;128;32;256;18446744073709551615
1505255174;256;256;2;128;16;1;18446744073709551615
1505255174;4;64;4;2;1;4;15528704
1505255175;1;64;4;1;1;4;58592096
1505255177;2;1;4;2;1;4;1971957408
1505255177;256;1;4;32;1;4;24349568
1505255177;2;128;4;2;1;4;15839296
1505255178;128;256;4;2;1;4;14288256
1505255178;128;8;16;128;1;8;4917120
1505255178;32;256;4;1;1;1;85026912
1505255178;256;8;4;128;1;4;3779488
1505255179;64;4;4;1;1;4;40825440
1505255179;1;256;4;1;2;2;29122272
1505255179;256;256;4;256;1;1;3257152
1505255179;256;8;4;128;1;4;3690400
1505255179;256;256;4;1;16;4;44825248
1505255180;1;256;4;1;2;1;41156736
1505255180;64;256;4;16;1;4;6937664
1505255180;1;256;4;1;1;1;65175136
1505255180;1;256;2;1;1;1;77483776
1505255181;1;256;16;1;1;8;19775360
1505255181;256;128;2;128;1;1;4365760
1505255181;128;128;4;128;1;4;3184640
1505255181;256;128;4;128;1;2;2467968
1505255182;256;256;4;1;1;1;116433728
1505255182;256;256;1;128;1;1;2758048
1505255182;1;256;1;1;1;1;103141312
1505255182;256;256;4;1;2;4;16837056
1505255184;1;1;8;1;1;1;1651960256
1505255184;256;256;1;128;2;1;2129536
1505255184;256;1;8;128;1;2;11539424
1505255185;256;256;4;64;2;4;1841408
1505255188;1;1;4;1;1;4;3676631328
1505255189;256;256;4;256;1;2;2112960
1505255189;256;1;4;128;1;1;24336288
1505255189;256;1;4;128;1;4;23311232
1505255189;256;128;4;128;1;1;5151616
1505255189;256;32;16;128;1;4;2533248
1505255190;256;256;8;128;2;1;3674272
1505255190;256;256;16;128;1;4;2094752
1505255190;1;256;8;1;1;1;65227168
1505255190;128;256;2;1;1;2;50076384
1505255190;256;256;1;128;4;1;1996800
1505255191;256;256;4;128;2;1;3199616
1505255191;256;128;4;256;4;4;18446744073709551615
1505255191;128;256;2;128;4;1;4851424
1505255192;1;2;8;1;1;4;912473472
1505255193;16;4;64;2;1;8;28269504
1505255193;64;8;16;4;2;16;14199360
1505255193;2;32;16;2;2;8;20240160
1505255193;256;256;128;128;1;2;2277504
1505255194;256;128;128;128;1;2;2297184
1505255194;2;128;8;1;8;8;13341792
1505255194;16;128;2;8;2;1;9995232
1505255194;256;256;4;4;8;4;15651040
1505255195;256;1;4;128;1;4;23274336
1505255195;1;16;16;1;16;8;96994112
1505255195;256;256;2;128;1;2;1918112
1505255195;256;256;4;1;1;4;30903904
1505255195;256;16;1;128;1;1;6497184
1505255196;256;256;4;4;16;4;14793920
1505255196;1;256;4;1;1;4;29184992
1505255196;256;4;4;1;1;4;29538240
1505255196;256;16;1;128;1;1;6602080
1505255196;2;256;4;2;1;1;35558880
1505255196;256;256;32;128;1;4;2119840
1505255197;128;256;1;128;1;1;4524256
1505255198;8;2;4;8;1;4;330549984
1505255198;256;256;1;128;32;1;18446744073709551615
1505255198;256;256;4;8;256;1;18446744073709551615
1505255198;256;256;64;128;64;2;18446744073709551615
1505255199;256;4;4;32;1;4;6040128
1505255199;256;256;4;128;1;1;3670336
1505255199;1;256;4;1;1;4;29155104
1505255199;2;256;4;2;1;2;22164000
1505255199;256;1;4;16;1;4;25116096
1505255200;256;2;16;128;1;8;3210720
1505255200;256;32;4;128;32;4;18446744073709551615
1505255200;32;256;4;2;1;2;22455520
1505255200;1;256;16;1;1;8;19814080
1505255201;256;256;1;1;1;1;111888160
1505255201;16;64;4;4;4;4;5841248
1505255202;4;1;4;2;1;4;1098327264
1505255203;256;256;4;4;64;4;10292160
1505255203;16;256;4;2;4;4;16042112
1505255203;256;128;16;128;1;8;2650560
1505255203;256;256;2;4;1;1;29642368
1505255204;2;4;4;2;4;4;610792992
1505255204;256;256;4;32;16;4;18446744073709551615
1505255205;1;256;4;1;1;4;29168000
1505255205;4;256;4;4;1;4;8907008
1505255205;256;256;4;1;1;2;58790336
1505255205;32;256;4;2;256;4;18446744073709551615
1505255205;256;256;32;128;1;4;2125888
1505255206;256;64;4;128;64;4;18446744073709551615
1505255206;1;256;4;1;16;4;24243904
1505255206;256;256;4;1;1;2;58810080
1505255207;4;1;4;2;1;4;1091112992
1505255207;256;256;4;128;128;1;18446744073709551615
1505255207;256;256;2;128;1;1;2594048
1505255208;1;128;256;1;4;1;17871648
1505255208;64;1;16;1;1;1;90688128
1505255208;64;4;256;32;2;2;4852928
1505255208;8;256;256;2;1;16;12110400
1505255209;2;256;8;2;1;1;35542432
1505255209;64;64;1;64;1;1;7334464
1505255209;128;1;128;2;1;1;46896256
1505255210;1;2;32;1;1;2;220251168
1505255210;256;128;1;256;2;1;3207392
1505255210;256;2;8;1;2;2;29210944
1505255210;16;16;16;16;4;1;5682112
1505255211;32;1;8;32;1;4;88016160
1505255211;4;128;32;4;8;1;5185568
1505255211;64;16;128;32;1;1;4878464
1505255212;128;256;256;128;1;256;18446744073709551615
1505255212;256;128;1;128;4;1;2333984
1505255212;16;32;64;1;2;32;76255392
1505255212;256;8;16;2;8;16;30214400
1505255213;16;128;1;16;4;1;11050720
1505255213;256;64;2;4;4;1;9272416
1505255213;32;4;32;16;1;1;10604672
1505255213;256;64;32;2;64;8;23172896
1505255214;256;32;16;8;2;16;10848640
1505255214;256;8;32;2;1;8;21382240
1505255214;256;32;1;8;8;1;12690624
1505255214;16;256;64;8;64;8;18446744073709551615
1505255215;4;8;8;1;1;1;115893664
1505255215;1;64;256;1;1;1;63102624
1505255215;32;256;8;2;1;2;23402240
1505255216;256;128;128;128;8;2;18446744073709551615
1505255216;64;128;8;1;8;2;47503616
1505255216;256;128;2;1;2;2;29185952
1505255216;16;1;256;16;1;1;10285152
1505255217;64;1;32;32;1;1;12265440
1505255217;256;4;256;16;2;2;2566336
1505255217;32;256;128;8;4;1;5011328
1505255217;4;64;128;1;8;16;56368064
1505255218;1;1;64;1;1;1;207050656
1505255220;1;1;8;1;1;2;1734029984
1505255220;1;128;1;1;2;1;109621856
1505255220;2;32;1;2;8;1;266338080
1505255221;16;64;16;16;1;2;4399808
1505255221;4;256;4;4;2;2;9127040
1505255221;8;128;8;4;8;1;6171008
1505255221;2;16;128;2;1;2;18116032
1505255222;4;128;1;2;8;1;38608224
1505255222;16;32;1;16;4;1;43274176
1505255222;256;8;2;2;1;2;27929856
1505255223;256;32;128;1;1;128;18446744073709551615
1505255223;256;1;16;128;1;4;6075680
1505255223;16;8;4;4;1;2;38242208
1505255224;256;4;64;64;1;2;3415456
1505255224;16;16;4;4;1;4;19493344
1505255224;8;256;4;1;16;4;63737568
1505255224;256;256;4;128;2;2;2094528
1505255225;256;1;256;128;1;256;18446744073709551615
1505255225;1;64;16;1;1;8;16135296
1505255225;8;4;64;8;4;2;10651200
1505255225;256;256;64;256;64;2;18446744073709551615
1505255226;256;1;4;128;1;4;23319360
1505255226;256;256;4;64;256;2;18446744073709551615
1505255226;256;4;4;128;2;4;6133344
1505255226;256;1;4;128;1;4;23352608
1505255226;256;256;1;128;64;1;18446744073709551615
1505255227;2;256;4;2;1;4;15650112
1505255227;256;256;4;4;1;1;30189856
1505255227;8;4;4;8;1;4;165717280
1505255228;32;256;128;2;1;1;45495392
1505255228;256;4;128;128;2;1;2086976
1505255228;256;256;1;128;1;1;2801312
1505255229;256;2;64;128;1;2;2548896
1505255229;256;2;4;128;1;1;12211872
1505255229;256;256;256;32;1;256;18446744073709551615
1505255229;4;64;16;2;1;8;14466112
1505255230;256;256;16;128;1;16;18446744073709551615
1505255230;256;16;16;128;1;8;2450432
1505255230;256;256;64;1;1;2;65927776
1505255230;256;4;4;128;1;2;6161696
1505255231;256;256;8;128;256;1;18446744073709551615
1505255231;256;16;4;128;8;4;18446744073709551615
1505255231;256;256;8;64;2;1;3673792
1505255231;256;256;128;4;1;8;5182880
1505255232;1;256;4;1;1;2;40895488
1505255232;256;1;4;128;1;4;23275584
1505255232;256;256;4;4;1;1;30200480
1505255232;256;256;16;2;1;8;11584928
1505255232;256;4;4;128;1;2;6103424
1505255233;256;256;4;4;32;4;12707616
1505255233;16;1;16;16;1;8;84862720
1505255233;256;1;256;8;1;64;11929280
1505255233;256;4;32;8;1;1;13871840
1505255234;256;256;256;1;8;1;22895328
