GLOBAL_SIZE_0;GLOBAL_SIZE_1;GLOBAL_SIZE_2;LOCAL_SIZE_0;LOCAL_SIZE_1;LOCAL_SIZE_2;TILE_0;TILE_1;TILE_2;cost
64;8;16;32;4;2;1;32;1;1997889856
32;64;32;32;1;2;1;4;1;3260397408
16;128;128;16;2;4;8;4;1;37597283904
256;4;32;32;1;8;1;16;2;1828055904
8;2;64;2;1;16;1;64;32;244257632
32;64;1;1;4;1;16;1;1;18446744073709551615
32;64;2;8;4;1;2;1;1;740778560
128;2;8;1;2;1;4;64;1;939607552
16;4;16;2;2;16;2;256;8;162750272
256;2;128;16;2;8;1;256;2;5924698400
1;128;64;1;64;1;1;16;4;28912947648
32;16;256;8;4;4;8;4;16;5235214368
16;4;16;2;2;16;256;64;8;608772480
16;4;256;2;1;2;2;1;8;6213483712
128;4;16;64;2;2;2;256;8;65486325216
16;16;16;2;4;16;1;256;8;208869408
4;1;2;4;1;2;4;256;8;4573018624
32;8;4;32;1;1;256;4;128;607763008
1;2;1;1;2;1;4;32;1;15680988960
128;16;64;64;1;2;16;4;32;21642218624
8;32;128;1;8;4;2;4;32;1298920672
256;1;256;1;1;1;8;8;2;37258487264
1;16;16;1;1;1;64;32;64;3332563520
2;8;16;1;2;4;1;4;4;532115968
64;1;16;64;1;1;2;256;8;72676384224
16;8;32;2;8;16;2;256;4;505868512
32;4;8;1;1;2;2;256;8;1358156384
16;4;16;8;2;16;2;256;8;2105206624
128;1;64;4;1;4;128;64;8;1412489056
16;32;8;2;2;2;2;32;8;217820352
16;4;16;2;2;8;2;256;8;155900256
16;1;16;2;1;2;2;256;128;1003466880
2;4;16;1;2;8;2;256;8;994721600
256;4;64;2;2;2;2;256;8;2613585952
16;4;16;2;2;8;1;256;8;251298336
16;4;16;2;4;8;2;256;8;99966336
16;4;16;4;4;8;2;256;8;333580640
16;1;1;1;1;1;2;256;8;1705307904
16;4;16;2;4;2;2;256;8;553508800
32;4;16;1;4;8;2;256;8;44732032
32;1;16;1;1;8;2;256;8;123122528
32;16;16;1;8;8;2;256;8;90369984
32;4;16;32;2;4;2;256;8;15066245984
32;4;128;1;4;2;2;256;8;2616018016
32;4;128;1;4;2;2;1;8;4612547616
2;4;16;1;1;8;2;256;8;1662165664
32;4;16;2;4;8;2;256;8;70691424
32;4;16;1;4;8;128;256;8;612374688
32;4;16;1;4;8;2;16;8;45982048
32;4;16;1;1;8;2;256;8;249669344
32;4;16;8;4;1;2;256;8;7852397440
32;128;16;1;1;8;2;256;8;5471836704
1;4;16;1;2;8;2;256;8;2028912288
8;4;16;4;4;8;2;256;8;664733408
32;4;16;1;4;8;2;256;32;46440000
4;4;16;1;4;8;4;256;8;303669536
1;1;8;1;1;2;1;128;32;13195394912
32;4;1;1;4;1;2;256;8;291707936
32;16;16;1;8;2;2;8;8;348376256
32;4;16;1;4;1;2;16;8;1398943936
128;4;16;8;4;4;8;64;16;308474016
32;1;64;32;1;1;4;64;64;59926352032
1;128;128;1;2;4;256;32;32;1491535264
1;32;256;1;4;32;16;1;256;141132576
2;16;8;1;2;1;128;1;1;18446744073709551615
32;4;16;1;4;8;1;256;64;45872352
64;4;16;64;4;1;2;256;8;65225396384
32;4;16;1;4;8;2;256;128;45964128
64;16;64;32;1;1;32;16;16;8637234560
32;4;8;1;4;1;2;256;8;825466656
32;4;16;1;4;8;1;256;8;47684480
32;4;16;2;4;4;2;128;8;143614432
1;4;16;1;4;8;2;256;8;1200795904
32;2;16;1;1;8;64;256;8;860488512
16;4;1;8;1;1;2;256;8;11922245696
32;4;256;1;4;2;2;256;8;5208414112
1;4;16;1;4;8;2;256;8;1197958976
32;128;16;1;1;16;2;256;8;2932518336
32;4;16;1;1;8;2;256;32;241933920
32;4;64;1;4;2;2;256;8;1308480704
32;1;16;1;1;8;2;256;8;122984864
32;4;32;2;4;4;2;64;8;198338624
32;4;16;1;4;8;2;256;1;355554304
32;4;16;1;4;8;2;256;16;48124672
32;4;16;1;2;8;2;128;8;39023904
32;256;16;8;4;1;2;128;8;11282786272
32;4;16;4;2;8;2;128;8;141576384
32;4;16;1;4;8;2;128;8;45680768
32;4;1;1;2;1;2;128;8;256831712
32;4;16;1;2;8;2;128;2;156825952
32;8;16;1;1;1;2;128;8;2284303168
32;4;8;1;2;1;2;128;8;858716512
16;4;256;2;2;2;2;128;8;5146104096
32;4;16;1;2;16;2;128;8;40919616
16;4;16;2;2;8;2;128;8;81073504
32;4;1;1;2;1;4;1;8;414752032
4;4;16;1;2;8;2;128;8;261911840
32;4;16;32;2;4;64;128;8;496914496
32;1;16;1;1;8;2;256;8;123000416
32;4;16;1;2;4;2;128;8;152377536
32;2;128;1;1;1;2;1;8;17226377696
32;4;64;1;2;2;2;128;8;1553390688
2;4;16;1;2;8;2;128;8;529077472
32;4;16;1;1;4;2;128;1;926567616
32;4;16;1;2;16;1;128;8;37618624
1;4;16;1;2;16;1;128;8;1034773792
32;32;16;1;16;16;16;128;8;106443296
32;16;16;1;16;16;1;128;8;103146240
32;32;16;1;16;16;2;128;8;88961792
32;4;16;1;1;16;1;128;8;62030784
128;4;16;64;2;1;1;128;8;3772195424
32;4;16;1;2;16;256;128;8;1182517024
32;4;32;1;2;16;16;128;8;78661632
32;4;4;1;2;1;1;128;8;554996000
32;4;16;1;1;8;1;128;8;59463392
32;4;16;8;2;16;1;128;8;267726464
32;4;16;1;2;16;1;128;8;37586720
64;4;16;64;2;2;1;128;8;3456753216
2;1;16;1;1;16;1;128;8;1944873312
32;4;16;1;2;8;1;128;8;36480256
32;4;16;1;2;16;1;128;8;37588288
32;4;16;1;1;8;1;128;8;59408960
32;4;8;1;2;8;1;128;8;36317920
32;4;16;1;2;8;4;2;64;36091936
32;1;16;1;1;8;1;128;8;113607616
32;4;16;1;2;8;4;1;64;57860224
32;32;16;1;2;8;128;2;8;84476800
32;2;1;1;2;1;4;1;64;815028736
8;1;4;4;1;4;4;2;64;1180326624
32;4;16;1;2;8;4;2;64;35903296
32;4;16;1;4;8;8;32;64;49955904
32;4;64;1;2;2;4;2;64;1507786624
32;8;16;1;8;1;2;2;64;5326733088
32;4;16;1;2;8;4;1;64;57287936
32;4;16;4;2;8;2;2;64;144499232
32;4;16;1;2;8;4;4;64;42004640
128;32;2;64;2;2;4;2;64;1870652224
1;4;16;1;2;8;4;4;64;1298296192
32;4;16;1;2;1;4;2;64;1480950784
32;4;16;1;2;8;4;2;4;74120576
32;4;16;16;2;8;1;2;64;523486304
32;4;16;1;2;8;8;16;64;40261216
1;4;64;1;2;8;4;2;64;1006005408
32;4;16;4;2;16;4;2;64;38671744
32;4;16;1;2;8;1;2;64;35315136
32;4;16;1;2;8;4;64;8;39799296
32;16;16;1;16;8;4;2;64;702074624
32;4;1;1;2;1;1;2;64;243937888
32;4;16;1;2;16;256;2;64;551336000
8;4;16;4;2;8;1;64;64;501600704
32;4;16;1;1;8;1;2;64;57934272
32;4;16;1;2;8;1;16;64;35670464
32;4;16;1;2;8;1;1;64;55567232
32;16;16;1;4;8;1;2;64;59065408
32;4;16;1;2;8;1;32;64;35787008
32;4;16;1;2;8;1;2;32;36029472
32;4;16;1;4;8;1;2;64;91373664
32;4;16;1;2;8;1;2;2;152902976
32;4;16;8;4;2;8;2;64;1959997216
32;4;1;1;2;1;1;2;64;246194272
32;4;16;1;2;8;8;2;64;36062240
32;64;16;1;1;8;128;2;64;71803872
1;4;1;1;2;1;2;128;64;7784020384
32;4;16;1;2;16;1;2;64;18427104
32;4;16;1;2;8;32;2;64;128347264
32;4;256;1;2;2;1;4;1;12087602400
32;1;16;32;1;2;1;2;64;12864148608
32;4;16;4;2;16;1;2;64;71138432
2;4;16;1;4;16;1;1;64;911096736
32;32;256;1;2;2;1;2;64;5954929408
32;4;16;1;2;16;1;2;4;77504256
32;4;16;1;2;8;1;8;64;35730368
32;1;16;1;1;16;1;2;64;60241440
32;4;16;2;2;16;1;2;64;34135008
32;1;16;2;1;16;1;2;64;120811296
32;128;16;1;128;2;1;2;64;71414092000
32;4;1;1;2;1;1;8;64;247157056
32;4;16;1;2;16;128;2;64;265498464
64;4;16;4;2;16;1;2;64;38655936
32;4;16;1;4;16;2;2;64;46099648
256;4;16;64;2;2;1;2;64;1620525408
32;256;16;1;32;2;8;2;1;18446744073709551615
32;4;32;32;2;1;1;2;64;6458074816
32;256;16;32;8;1;1;2;64;6026742976
32;4;16;1;2;16;128;2;8;551159168
32;1;16;2;1;1;1;2;64;3228747424
32;4;16;1;2;16;1;2;64;18391616
32;64;16;1;2;16;1;2;64;7157344
32;4;16;2;2;16;1;2;64;34129024
32;4;16;1;2;16;1;1;64;30333216
32;4;16;1;2;2;1;2;64;436897792
32;64;16;1;2;16;1;2;256;7652512
32;64;16;1;8;16;1;2;64;107573344
32;64;16;1;2;16;1;2;8;14945792
32;64;16;1;1;16;1;2;256;9958656
32;2;128;1;2;2;1;2;64;3069714144
8;256;16;4;2;4;1;2;64;100941568
1;64;16;1;2;16;1;2;64;33020192
128;64;16;64;2;2;1;2;64;1601484192
32;64;16;1;2;16;64;2;64;12765312
32;64;16;1;2;16;128;2;64;19133536
1;256;16;1;2;16;256;2;64;10453152
32;2;32;1;2;8;1;2;64;73325184
32;64;16;1;8;16;1;2;1;1299014048
32;64;16;32;2;1;1;2;64;1930918144
1;64;16;1;2;4;1;2;64;141454848
32;64;2;1;2;2;1;2;64;47293856
32;256;16;1;128;2;1;2;64;74660491840
32;64;16;1;2;1;1;2;64;1442873664
4;64;64;1;1;4;1;2;64;569154048
32;64;16;1;4;16;1;2;64;25473856
32;64;16;1;2;16;1;2;32;7237312
32;256;16;1;2;16;1;64;64;9905440
64;64;16;64;2;1;1;2;64;3617689856
32;64;16;1;2;16;1;2;128;7824288
32;64;16;4;2;16;1;2;64;23262272
32;64;16;1;2;16;1;2;64;7170752
32;64;16;1;32;2;8;2;64;19821959328
32;64;256;2;2;4;1;2;64;1548394944
32;64;256;1;2;1;1;2;64;23003394304
32;64;128;1;2;2;1;2;64;2967805760
32;64;16;1;2;16;256;2;64;215287776
32;2;16;1;2;16;1;2;64;36009088
32;64;32;1;4;8;1;2;64;88924992
32;64;8;1;8;2;1;2;32;625825312
32;64;16;1;2;16;16;2;64;8771616
32;64;16;1;2;16;1;8;64;7038944
32;16;16;1;4;16;1;2;64;22775008
32;64;16;1;2;16;4;2;256;7700512
8;64;16;4;2;16;1;8;64;24755808
32;64;16;1;2;16;16;2;32;8886976
32;64;16;2;2;16;1;8;64;12775680
32;16;4;1;2;1;1;8;64;367422400
32;64;16;1;4;16;1;8;64;12407072
256;64;16;128;2;1;1;8;64;6110320384
32;64;64;1;2;4;1;4;1;1492569152
1;64;16;1;2;16;1;8;64;34047552
32;64;16;4;2;16;1;8;8;48617888
128;64;16;64;2;2;1;8;64;1631122528
32;64;16;1;2;16;1;32;64;10054592
8;64;16;4;32;2;2;8;64;5663918144
32;64;16;1;2;16;1;16;64;8030816
32;32;16;1;2;16;32;1;64;18125952
32;64;16;1;2;2;1;4;64;371538752
32;2;16;1;2;16;1;8;32;36949056
256;64;16;64;2;2;1;8;64;1551428064
32;64;64;1;2;4;1;8;64;381380096
32;128;16;1;2;16;1;8;64;7047744
32;64;16;32;2;1;1;8;64;1968833888
32;64;16;1;2;16;1;4;64;7061568
32;64;16;1;2;16;32;8;64;11737280
32;64;16;1;2;16;1;8;256;7686720
32;64;16;1;2;16;1;8;1;96542496
1;1;1;1;1;1;1;32;1;26409347040
32;64;16;1;2;16;16;8;64;8912064
32;4;16;1;2;16;256;8;64;542547712
4;64;256;1;2;64;1;16;64;29633792
32;8;256;1;2;2;1;8;64;5961500064
32;64;16;1;2;4;1;8;256;97988576
32;256;16;1;2;16;1;128;64;18061120
8;8;128;4;8;4;16;32;4;2425502144
32;16;16;2;2;16;1;8;8;24731808
32;8;16;1;2;16;1;8;64;9750336
32;2;16;1;2;16;1;8;64;35720992
2;2;128;1;2;128;2;256;8;18446744073709551615
1;256;2;1;8;1;32;64;4;1539941184
4;16;4;2;16;1;64;256;256;2327045088
1;16;16;1;16;16;256;16;256;611286912
32;8;16;1;2;16;1;8;2;81564832
64;64;16;64;2;2;256;8;64;1486059552
32;32;16;1;2;16;128;8;64;39139552
64;16;8;4;16;2;32;128;2;373723200
4;64;16;1;2;16;2;8;64;10068704
32;64;16;1;1;16;1;8;64;10213280
32;64;16;1;2;16;1;1;64;10612672
32;64;16;2;2;16;1;4;64;12785984
64;64;16;64;2;2;1;8;128;1912970176
32;128;16;2;2;16;1;8;64;13137632
32;64;16;1;2;16;1;8;16;7388384
32;64;16;1;4;2;1;4;64;319140544
32;64;16;1;2;16;1;256;64;228321504
32;64;16;1;16;16;1;8;16;93355744
32;64;1;1;2;1;1;8;64;92007232
32;64;2;1;64;2;1;8;64;674498048
32;64;16;1;2;16;1;8;32;7114368
64;16;16;8;16;1;32;64;4;1521670016
32;64;16;4;2;4;1;8;64;97899744
32;64;16;1;2;16;64;8;2;144600160
32;64;16;2;2;16;64;8;64;18060896
32;64;1;1;2;1;32;8;64;179099104
32;64;16;8;2;16;1;8;64;59678560
32;64;16;2;2;16;1;8;64;12701120
64;4;16;32;4;1;4;128;16;12928963552
32;8;8;1;1;2;32;32;32;446123232
64;64;32;16;16;1;16;128;8;5194680608
64;4;32;64;2;1;32;64;4;8094782912
32;1;16;1;1;16;1;8;64;59426016
32;64;16;1;4;16;1;8;64;12011168
32;64;16;8;2;16;1;8;64;59802080
32;64;16;4;2;16;1;16;64;22931040
32;64;16;1;2;8;1;8;1;189319424
128;64;16;1;2;16;1;8;64;7085536
32;64;1;1;2;1;1;8;64;91995232
32;64;16;1;16;16;64;8;64;134331840
256;1;4;4;1;4;2;128;32;85896000
16;1;64;1;1;4;4;256;32;906180960
64;1;32;1;1;1;32;4;32;7224688192
4;1;4;2;1;2;1;64;64;6613696416
32;64;256;1;2;2;32;8;64;6054622912
32;64;16;1;2;8;1;8;64;25542880
32;64;16;1;2;16;1;64;64;9887424
32;64;16;1;2;16;1;8;2;62315808
32;128;16;32;1;1;1;4;64;2250390176
32;64;16;1;8;8;1;8;64;47479616
32;64;16;1;2;8;1;16;64;26605664
32;16;16;1;2;16;1;8;16;10265440
32;64;16;1;2;16;1;8;64;7061472
32;64;16;1;2;16;1;8;128;7804160
32;64;16;1;2;16;128;8;64;18941696
32;64;16;1;2;16;256;8;64;215494624
32;8;16;1;2;16;1;8;64;9774432
32;64;16;1;16;16;1;8;64;103385280
32;64;16;1;2;16;1;16;1;108539936
8;64;16;4;2;2;1;8;64;450544864
64;64;16;64;2;2;2;8;64;42635121120
32;64;16;1;2;16;1;32;128;10935008
32;64;16;1;2;16;64;8;64;13209920
16;8;64;2;2;2;8;128;8;1591260960
8;64;8;1;1;4;4;256;8;5011419232
32;8;64;32;2;1;4;32;16;92947911840
64;4;64;32;1;4;32;256;4;9648091936
32;4;16;1;2;16;1;16;16;18046688
32;1;16;1;1;1;1;8;64;2511777216
1;1;16;1;1;16;1;8;64;1750843104
32;64;16;1;2;4;1;8;64;96358592
32;256;16;1;2;16;1;8;64;7043712
32;64;16;4;4;16;1;8;64;50983488
128;16;128;64;2;1;16;32;8;91165383904
1;16;64;1;2;8;16;32;1;1992778144
1;32;1;1;4;1;4;32;1;1145266688
4;4;4;2;4;1;1;256;32;4485316960
32;64;16;1;2;1;1;8;64;1441171552
32;128;16;1;2;16;1;256;64;455302560
64;64;16;64;2;2;1;8;64;1937189216
32;128;16;1;2;16;1;8;16;7353024
32;64;16;1;2;16;1;8;128;7802048
16;64;16;2;1;16;1;8;64;15120960
32;64;32;1;2;8;1;8;64;50985920
64;64;16;64;2;2;1;8;8;1933487584
32;64;16;1;32;8;1;8;64;1009431168
32;2;16;1;2;16;1;4;64;36005216
1;8;16;1;2;16;8;8;64;336067136
32;64;16;1;64;1;1;8;64;17808512672
32;8;32;1;4;2;8;64;16;648370784
32;1;16;1;1;16;1;4;64;59697376
32;32;16;1;2;16;1;8;64;7933056
1;32;16;1;2;16;1;8;64;67698176
16;64;16;2;2;16;16;8;64;13148352
32;8;8;32;1;2;32;1;2;495499968
32;64;16;1;2;16;128;8;256;21093344
32;64;2;1;2;1;1;8;2;187281568
32;64;16;1;2;16;1;128;64;18080544
16;2;32;8;2;2;1;8;2;4044995552
256;8;64;64;4;1;32;1;16;78603811040
1;256;1;1;1;1;128;8;128;781367456
4;16;4;4;1;2;1;2;256;812713760
32;8;16;32;8;1;16;256;4;4270104704
32;64;32;1;1;8;1;8;64;74062016
32;32;16;1;2;16;1;4;64;8016384
32;64;16;1;1;16;1;8;64;10176640
32;128;16;1;2;16;256;8;64;215414912
32;128;16;1;2;16;1;8;64;7062528
32;64;16;1;32;2;1;8;64;4114572032
32;64;2;1;2;2;1;8;128;47888896
32;8;16;1;1;4;8;128;16;240161536
32;8;32;1;8;4;4;128;16;203937760
16;8;32;2;4;8;4;256;8;198102560
16;16;16;1;4;8;4;256;8;112209248
32;64;16;4;2;16;1;8;16;24807328
32;64;16;1;8;16;1;64;64;21664800
32;64;16;1;2;4;4;8;2;203997536
16;64;16;2;2;16;1;8;64;14421280
32;64;16;1;8;16;1;8;64;24609248
32;64;16;1;2;16;1;8;4;30767136
32;4;16;1;2;16;1;8;128;17384096
1;64;1;1;2;1;1;8;64;480931360
32;64;8;1;2;2;128;8;64;372856896
1;128;1;1;16;1;4;1;1;3355385792
8;1;4;1;1;1;1;2;16;3288001536
256;256;1;32;4;1;32;256;128;8969805152
8;1;256;4;1;1;1;256;32;39562443040
32;64;8;1;2;2;1;8;64;187209536
32;64;16;1;4;16;1;4;64;13046368
32;16;16;1;2;16;1;8;64;10098560
32;64;16;1;2;8;256;8;64;791068512
4;64;16;1;2;2;64;8;64;381208992
32;64;16;2;2;16;1;128;64;34285824
32;64;16;1;2;2;1;8;64;372721120
32;128;16;1;2;16;1;64;64;9955424
32;16;32;32;4;1;8;256;8;79540056544
32;4;32;1;1;4;8;128;8;384165216
32;4;32;1;2;4;8;256;8;463829344
32;4;16;1;1;16;4;256;16;64687232
32;1;16;1;1;4;1;8;64;222029280
32;64;8;32;4;2;1;2;8;824270528
256;64;1;64;2;1;1;8;64;208397088
32;64;16;1;2;16;1;8;8;15105536
1;64;16;1;2;16;8;8;64;33674176
1;64;16;1;2;16;1;1;64;65518720
32;64;1;1;4;1;16;1;8;212892224
1;64;2;1;2;1;32;1;1;816120000
128;1;1;1;1;1;4;64;1;465415360
8;16;2;1;16;1;2;4;32;2486268160
32;64;8;1;2;8;128;16;64;66388832
32;64;16;1;4;16;1;8;64;12316992
32;64;16;1;2;1;8;8;64;1452226400
32;64;16;1;2;16;2;8;64;7258592
32;4;16;1;2;8;1;8;64;35836832
32;64;4;1;2;1;1;8;64;364239616
32;8;32;1;4;4;4;128;16;186842976
8;64;16;4;2;16;1;4;64;25234048
32;64;16;1;2;16;1;1;64;10607008
32;2;32;4;2;4;1;256;8;561177152
32;64;16;1;2;16;1;8;64;7042784
32;64;16;2;2;16;256;8;64;192396480
32;4;32;2;4;4;2;256;8;198748736
128;64;16;32;2;4;1;8;64;391632992
64;32;16;64;2;2;1;16;64;2416355328
32;64;32;1;2;8;256;16;64;1666864544
256;1;256;1;1;1;8;1;64;34359202880
1;8;256;1;1;32;64;32;64;129547200
2;8;16;1;2;4;1;64;4;505843232
32;32;64;32;4;1;1;64;64;10348963872
32;32;32;1;2;4;1;256;8;3236607968
32;64;16;1;2;16;1;1;64;10615616
32;64;16;1;2;16;16;8;8;19768064
32;1;16;1;1;16;1;8;64;59435872
256;64;16;64;2;1;1;8;64;3243137088
8;8;16;4;2;16;8;8;64;66606912
32;64;16;32;2;1;1;1;64;3862149792
32;8;32;1;8;4;8;256;8;259854688
1;64;64;1;2;4;1;8;64;460424256
2;64;16;1;2;16;1;16;64;35187328
1;64;16;1;2;16;1;8;64;34036704
32;64;64;4;2;8;256;32;32;1590999328
16;16;16;1;2;16;1;2;64;9751104
32;64;4;2;2;1;128;8;64;559478528
32;128;16;1;2;8;1;8;64;25918208
1;1;8;1;1;1;256;32;32;26029309952
1;32;64;1;4;32;16;1;256;119472064
2;16;128;2;4;2;2;256;8;11141576736
256;256;2;2;8;1;32;1;4;264239200
4;64;16;2;2;16;1;8;64;18335072
8;64;16;4;2;16;1;8;64;24708224
32;64;16;1;32;1;1;8;64;6863758848
32;64;64;1;2;4;1;256;64;12342445248
32;32;32;1;8;4;1;1;8;316533600
256;64;16;64;4;1;1;8;8;3202518400
1;4;16;1;2;16;1;8;1;7821875392
1;4;16;1;2;16;1;8;64;512461696
32;64;16;1;2;16;1;8;64;7049088
1;64;16;1;2;16;128;8;64;33266368
32;64;4;16;2;1;1;2;64;546615584
32;64;16;1;2;2;1;1;64;553161408
32;64;128;1;1;2;1;8;64;4266008512
32;64;16;4;2;2;1;8;64;376821728
32;64;16;1;2;16;4;8;64;7676864
32;64;16;16;2;2;1;8;64;815076512
32;16;32;1;8;4;2;1;8;349421312
32;64;16;1;2;2;1;8;64;372430720
32;8;16;1;8;16;4;256;16;27806304
32;4;16;1;2;16;4;256;16;37608512
32;8;32;1;4;8;4;256;16;118497216
16;32;16;2;2;16;1;8;64;12667808
256;32;4;128;1;1;64;32;8;1118327264
32;64;16;4;2;4;1;8;128;100585792
1;16;16;1;16;16;256;16;32;538557984
256;1;8;4;1;8;2;1;32;46105280
16;8;64;1;8;8;4;2;32;639965184
16;64;8;4;4;2;1;8;64;211103232
32;4;32;2;2;8;4;256;16;110669760
32;8;32;1;8;8;4;256;16;87615424
32;8;16;1;8;8;8;256;16;50792320
32;8;32;1;8;8;8;256;16;87304672
64;1;32;1;1;1;16;1;32;5292878272
4;64;4;2;64;1;1;64;64;627435200
64;16;8;64;2;1;16;32;8;3635852544
32;16;32;1;2;8;1;8;64;52497856
32;256;32;1;2;8;1;8;64;50971488
64;128;16;32;2;4;1;8;64;465738304
16;64;16;2;2;16;1;16;128;14015776
1;4;64;1;2;4;8;32;1;7837955104
2;32;1;1;4;1;4;32;1;562221536
4;4;4;2;1;1;1;256;2;13432237888
4;2;32;1;1;2;1;8;2;1724430240
32;4;32;1;1;8;8;256;16;389340704
32;16;16;1;2;16;1;8;256;10440672
32;64;16;1;2;1;1;8;1;1466125504
32;32;32;1;8;8;1;256;16;382315200
32;64;16;1;4;16;256;8;64;398221216
32;128;16;2;2;8;1;8;64;26547520
32;16;32;1;8;8;2;256;16;234863008
256;8;64;64;4;1;128;8;16;12010541120
4;2;1;1;2;1;128;8;128;7342334176
1;1;4;1;1;2;1;2;256;12780706592
32;2;32;1;2;8;16;256;16;145015232
64;64;16;64;1;2;1;8;64;2389962048
128;128;16;64;2;2;1;8;64;1632790080
16;64;16;1;2;16;1;8;64;7934720
32;8;16;1;8;16;8;256;16;27722400
32;8;32;2;8;16;4;256;16;100040608
32;16;32;1;8;8;4;256;16;251023520
32;2;32;1;2;8;4;256;16;74168224
1;128;1;1;16;1;64;1;8;3327287520
8;1;1;1;1;1;1;2;16;3299358304
256;256;16;32;4;1;32;256;128;18446744073709551615
32;4;32;1;1;8;4;256;16;389478080
32;64;16;1;1;16;1;8;32;10396192
32;64;64;1;4;4;1;8;32;327482048
32;8;32;2;8;16;8;256;16;100382560
32;16;32;1;8;8;8;256;16;219792256
8;16;1;2;4;1;1;64;32;551191744
32;64;1;1;64;1;16;1;8;1656113024
32;2;32;1;2;8;8;256;16;74471104
32;64;64;1;2;4;1;4;64;381568992
32;64;16;1;2;8;1;8;64;25614368
32;64;32;32;1;2;1;8;64;1818591840
32;1;2;8;1;1;1;1;1;6167596928
128;2;1;1;1;1;4;256;16;424085120
1;32;128;1;16;8;2;4;32;3026314464
256;1;32;1;1;1;8;1;16;4595226688
32;64;16;1;2;4;1;8;32;96653344
32;64;16;16;2;2;1;16;64;944028768
1;8;256;1;1;1;64;128;64;48312176128
2;8;16;2;8;4;1;64;4;1556939072
32;32;64;32;4;1;1;1;1;27960391136
32;128;128;2;2;4;256;32;32;10883252352
16;64;16;2;2;8;1;8;64;29243808
32;64;32;1;2;8;1;32;32;54938400
1;32;64;1;4;32;16;1;8;466065408
2;16;128;2;4;2;16;16;1;5450084992
256;256;16;2;8;2;32;1;4;491009248
256;128;4;128;1;1;64;32;8;1114673248
16;64;16;2;4;8;1;8;64;46330080
32;128;16;1;2;16;1;8;128;7790208
1;16;16;1;16;16;256;2;64;4262732928
256;1;8;32;1;1;2;1;16;15067086272
16;8;16;1;8;16;4;2;32;150191296
64;1;4;1;1;1;16;1;32;1659777728
64;64;16;32;8;1;1;8;256;1940125664
4;64;4;1;64;1;1;64;64;586746208
64;1;8;64;1;4;16;128;8;3811292512
1;16;64;1;8;8;16;32;4;844795968
128;8;1;1;1;1;4;64;1;18446744073709551615
16;64;16;2;2;16;1;8;32;13627840
32;64;16;32;2;1;1;8;32;1970470816
32;64;64;16;2;2;1;32;64;3391881344
256;4;4;16;4;1;1;256;32;530779392
4;2;32;1;1;1;1;256;2;13297367936
256;8;64;64;4;1;256;64;16;46716362304
1;128;1;1;2;1;128;8;4;490108352
32;128;16;1;2;16;128;4;64;20286272
32;64;16;1;2;16;256;16;64;255712256
64;64;16;64;2;2;1;4;64;1909093920
4;64;4;4;1;2;1;1;256;204422400
1;128;1;1;16;1;64;1;8;3340037472
8;1;1;8;1;1;16;2;16;6006571104
256;1;1;32;1;1;1;256;128;3124625152
32;64;16;1;1;16;1;16;64;11840640
32;64;64;2;2;4;1;4;32;384849728
64;64;16;16;2;2;1;8;64;679160064
32;256;32;1;2;4;1;8;16;194008352
8;2;64;2;2;1;1;64;32;8481400288
32;64;1;8;4;1;16;1;8;135398496
32;4;1;8;4;1;2;1;1;5871993728
128;2;2;16;2;2;256;1;16;2520355776
32;64;64;1;2;2;1;8;64;1476586880
16;64;16;1;1;16;1;8;64;11825440
32;256;128;16;16;1;2;64;32;18446744073709551615
256;1;32;32;1;1;8;1;32;13778339488
1;8;256;1;1;32;64;32;8;486788864
2;256;16;1;2;4;1;32;128;280896000
16;32;16;2;2;16;1;16;64;12406112
32;64;32;2;2;8;256;8;64;698112832
32;32;16;1;2;8;1;8;64;25778560
32;64;16;1;2;8;1;8;1;189417152
128;64;16;64;2;2;128;8;1;3045534816
32;256;16;1;2;16;128;8;64;21334048
32;32;16;1;2;16;1;32;4;42914240
32;32;64;32;4;1;1;64;16;10004995040
1;128;128;1;2;4;256;8;32;900349088
1;32;64;1;4;32;64;32;256;56314560
2;16;128;2;4;2;16;16;128;2785778848
32;64;16;16;2;2;1;4;2;770003616
32;64;16;1;1;8;1;8;64;37216160
64;64;16;64;2;2;1;4;128;1907732384
32;16;16;1;2;8;1;16;64;29667040
32;256;16;2;2;16;1;8;64;12816928
32;64;16;8;2;16;1;8;1;862268416
128;64;16;64;2;2;1;8;64;1631871136
256;1;2;2;1;1;32;1;4;1986038464
256;1;4;128;1;1;1;32;8;13133589184
1;16;16;1;16;16;1;8;32;1075362656
256;1;8;4;1;8;2;1;128;46918080
32;64;16;1;2;16;1;4;2;61107520
16;16;16;2;2;16;1;8;64;18153664
32;128;16;32;2;1;1;8;64;1892758976
32;64;16;1;64;1;1;8;64;17655910368
64;256;4;64;2;2;1;8;64;485161984
32;64;16;2;2;16;128;8;64;22117568
32;1;16;1;1;4;1;8;64;216650592
16;8;1;1;8;1;4;2;32;1503921632
32;64;16;4;2;16;128;8;64;30724992
32;64;16;4;2;2;1;8;64;376782432
32;64;16;1;2;8;256;8;128;841965632
64;1;4;1;1;1;4;1;32;831558624
4;64;4;1;64;1;1;64;64;587147552
32;64;16;1;16;16;1;8;4;388263520
32;4;16;1;2;16;1;8;64;17903936
32;64;16;1;2;16;8;4;64;7631040
32;64;16;1;1;1;1;8;64;2093527104
32;64;16;2;2;16;1;8;2;105725120
64;64;8;1;4;1;16;32;8;704062848
1;16;64;1;1;8;32;32;4;902771232
16;32;1;16;8;1;4;32;128;1162265568
256;8;4;16;4;1;1;256;32;693942432
4;2;2;1;1;2;1;8;256;1597456352
1;64;16;1;2;16;1;8;4;157363200
32;4;16;1;1;16;1;8;64;15216384
32;256;16;2;2;16;1;8;64;12718048
32;64;16;1;2;16;1;4;32;7159040
8;64;8;4;2;2;1;16;64;301084640
64;64;16;32;2;1;1;8;64;1629059008
32;128;16;1;2;16;1;1;64;10830944
32;64;16;1;2;8;1;256;64;827738016
32;64;16;1;64;1;1;64;64;1961945728
32;64;16;1;2;16;8;8;64;7661760
32;64;16;32;4;2;1;8;64;1145261408
1;8;64;1;2;8;1;8;128;509835136
1;128;1;1;2;1;128;8;64;476202464
32;64;4;32;1;2;1;1;256;222569344
32;64;16;2;2;1;1;8;64;1450335232
32;64;16;1;2;16;2;64;64;10264128
16;64;2;2;2;2;1;8;64;67999680
32;16;16;1;2;16;64;8;64;39327488
32;64;16;32;2;1;1;8;128;2003246016
16;64;16;2;2;16;1;8;64;14448768
32;64;16;32;2;1;1;64;64;3698768640
32;64;16;4;2;16;1;8;64;23185952
1;128;8;1;1;1;64;1;8;1097482656
8;1;4;1;1;1;1;4;16;3288099360
256;1;64;32;1;8;128;256;128;1108040960
8;2;64;8;1;16;1;32;32;884510656
32;32;8;1;2;1;1;8;64;726647136
32;64;32;1;2;8;1;16;64;52697472
16;128;16;2;2;16;1;8;64;14690688
32;64;16;1;4;16;1;8;32;11792512
32;32;16;1;8;8;1;4;64;90486144
16;32;16;2;2;16;1;8;128;13469856
128;64;16;32;2;1;1;16;128;1711405376
32;64;16;1;1;1;1;64;64;2185919040
32;64;2;1;2;2;1;8;64;47224032
32;64;16;1;2;16;1;16;4;34490176
32;64;1;1;4;1;16;1;8;216713824
8;64;1;4;2;1;1;8;64;246484128
32;64;128;8;2;16;1;8;64;341562720
2;2;2;2;1;1;2;1;1;7339465664
1;2;1;1;1;1;4;256;16;26318759584
8;32;1;1;8;1;2;4;32;379264032
1;128;128;1;1;1;64;1;16;16898968288
4;64;16;1;2;8;1;4;128;37924096
1;8;256;1;2;32;64;32;64;181146784
2;256;16;1;8;4;1;32;128;144627328
32;16;1;1;2;1;1;8;64;133501568
32;64;16;1;2;2;1;8;8;377201120
32;64;32;1;2;8;1;8;32;51271072
64;64;8;64;2;2;128;8;128;624171936
32;64;16;32;2;1;256;4;64;2435873856
32;64;16;1;2;16;1;16;32;8128960
4;32;64;4;1;32;1;1;16;71880032
1;128;128;1;2;4;256;1;32;1157980832
1;32;256;1;4;32;16;2;8;686820416
32;64;4;1;64;1;1;8;64;3500703232
32;1;64;1;1;4;1;8;64;665967360
32;64;16;16;2;2;4;8;64;3117820032
32;128;16;1;2;8;1;4;64;25470784
128;64;16;64;2;2;1;8;32;1629677856
32;64;32;1;2;4;1;16;64;195897632
32;128;16;2;2;8;1;8;128;28388992
32;128;16;1;2;4;1;8;256;98541664
4;64;16;1;2;16;1;8;64;10120928
2;16;128;2;4;2;16;4;128;2782090496
1;256;64;1;8;1;32;1;4;9028625728
1;128;4;1;32;1;64;32;8;1206095360
1;8;16;1;1;16;256;16;32;229743712
256;1;8;4;1;8;2;1;32;46040736
16;8;16;1;1;8;4;64;32;61223808
64;1;1;1;1;1;4;1;32;416226304
4;64;1;1;64;1;2;64;64;582566720
32;64;32;1;2;8;128;8;64;91739200
32;32;16;1;2;16;1;32;64;10045760
32;32;16;1;2;16;256;8;64;255699904
32;64;8;1;2;2;1;8;64;187377984
32;64;16;4;2;16;2;8;64;44845984
32;64;16;1;2;2;256;8;64;11842734720
32;64;16;1;2;16;4;1;64;10131008
1;64;16;1;2;16;1;8;16;40405632
32;4;16;2;2;16;1;8;64;34719104
64;64;8;2;4;1;256;32;8;19847335104
1;16;64;1;8;8;1;32;4;803881632
1;1;32;1;1;4;4;32;1;26621622016
4;4;4;2;4;1;2;1;1;7516238784
64;256;16;64;2;2;1;8;64;1921010176
32;64;8;2;2;2;1;8;32;188489760
8;64;16;8;2;16;1;8;64;55204928
4;2;2;1;2;2;1;1;256;3109889472
1;8;256;1;2;8;16;256;128;2195787520
1;32;1;1;8;1;128;8;64;1496492768
4;16;4;4;1;2;1;1;256;798984416
1;4;8;1;1;1;64;1;1;6553203872
32;64;16;1;2;2;256;8;8;12016981696
256;4;16;64;2;2;1;8;64;1621436128
32;64;16;1;2;8;16;8;64;29250112
1;1;4;1;1;1;4;64;16;26306576480
256;64;64;32;4;2;128;256;8;103667494784
8;1;2;1;1;1;1;64;32;3299371936
