GLOBAL_SIZE_0;GLOBAL_SIZE_1;GLOBAL_SIZE_2;LOCAL_SIZE_0;LOCAL_SIZE_1;LOCAL_SIZE_2;cost
1;4;16;1;2;4;2095248064
1;256;256;1;128;4;745572896
16;8;2;16;1;1;645726496
4;64;512;1;4;1;160048928
16;128;512;16;4;1;37751296
4;64;512;2;4;1;89912256
4;32;512;1;2;1;297948640
4;64;512;1;8;1;90213088
1;16;4;1;16;1;2451182432
1;2;16;1;2;1;3534395040
16;128;512;16;8;1;54995040
2;16;8;2;1;2;483072064
32;1;2;1;1;2;2566450880
1;4;8;1;2;1;3565455232
4;64;4;4;2;1;134961248
8;2;512;1;1;64;1753491872
16;1;512;16;1;1;71341376
16;128;512;16;4;1;41867008
16;8;512;4;4;1;51329408
16;128;4;16;4;2;27660224
16;128;4;16;4;1;27404192
16;128;128;4;4;4;116523872
16;128;4;8;4;1;46851104
16;128;8;16;4;4;56643456
16;128;4;16;1;1;64668864
64;1;4;32;1;1;720818176
2;128;4;2;64;1;161560096
16;128;4;16;2;1;46148992
32;4;256;1;4;32;940544032
4;128;8;1;4;1;226488448
1;8;16;1;4;4;1234832544
16;128;4;16;4;1;27208704
16;128;4;8;4;4;74171552
16;128;4;1;4;1;282163584
16;128;4;16;4;2;27326624
16;128;4;8;4;4;66464704
16;128;4;1;2;1;422054688
16;64;4;8;8;1;43696960
8;128;4;2;4;1;122222272
16;128;4;16;2;1;46292864
16;128;512;16;64;8;18446744073709551615
16;128;4;16;4;1;27745184
16;128;4;16;128;1;18446744073709551615
128;128;4;2;4;1;156490880
1;32;512;1;2;1;276895232
8;8;256;4;1;4;54878240
1;16;128;1;16;1;319193472
512;1;32;256;1;2;37278688
8;16;128;8;8;2;101954432
16;128;4;16;8;1;27918752
64;128;4;4;2;1;172748512
32;128;4;8;4;1;94797024
4;512;1;2;256;1;131437696
32;512;1;8;1;1;141059968
16;128;16;16;4;8;41043200
8;128;4;4;4;1;84958144
1;256;1;1;1;1;848559744
16;128;64;16;4;8;25431808
16;128;256;16;4;8;23259744
16;128;4;16;16;1;49450944
16;128;32;1;4;8;439395136
16;16;8;1;1;4;384864128
512;128;256;512;4;2;18446744073709551615
16;128;256;16;128;8;18446744073709551615
16;128;256;1;4;8;274281920
1;128;1;1;4;1;953189536
16;128;2;16;128;2;18446744073709551615
16;128;256;2;4;8;163236768
16;128;256;1;4;256;18446744073709551615
64;128;256;4;4;8;127377344
16;128;1;16;4;1;89521504
32;128;256;8;4;8;84898816
16;512;256;16;1;8;20927776
16;128;256;1;4;8;274163968
16;128;32;16;128;8;18446744073709551615
16;128;256;16;4;4;26809056
16;512;256;4;1;8;40871360
1;512;256;1;2;8;162681472
16;512;256;16;64;4;18446744073709551615
16;1;256;16;1;8;59267680
16;512;256;16;1;16;20997216
512;512;256;512;1;8;18446744073709551615
16;8;256;16;4;8;52761248
16;4;256;16;2;8;59626304
16;512;32;16;1;8;39963072
16;512;256;16;1;256;18446744073709551615
2;1;256;2;1;8;284004256
16;16;256;16;1;8;66974496
4;64;512;4;8;512;18446744073709551615
16;16;64;16;4;8;47259744
16;4;1;1;1;1;2259657440
32;2;16;4;2;1;161726208
16;64;512;2;64;4;244860704
16;256;2;2;256;1;304121376
8;128;512;2;64;1;296228864
8;32;32;2;4;8;211248576
8;32;256;1;1;2;357361056
16;8;256;4;1;128;18446744073709551615
16;512;512;16;1;8;19784704
16;512;256;4;1;8;39921152
32;512;256;8;1;8;24569152
16;1;512;16;1;8;65725664
16;128;512;16;4;8;21946528
16;1;512;8;1;8;105082656
16;512;512;16;1;1;54420768
16;512;512;16;1;16;19322176
16;1;256;1;1;8;569135104
16;512;1;16;512;1;18446744073709551615
16;512;1;1;1;1;767808928
16;512;1;8;1;1;114378656
8;512;512;2;1;16;111837984
16;1;512;16;1;16;61387936
16;512;512;8;1;16;31711584
16;512;512;16;256;16;18446744073709551615
4;512;512;1;1;16;184925568
32;512;512;8;512;16;18446744073709551615
64;512;512;4;1;16;37165568
8;128;128;2;4;8;206513376
16;512;32;16;1;16;44678240
16;256;512;16;2;16;20537408
1;512;256;1;1;32;484939616
16;512;256;8;1;16;57100768
16;16;4;16;1;2;172015200
16;512;512;2;1;16;102682016
256;512;64;1;1;16;348036896
16;512;512;2;1;16;102681248
8;512;512;4;1;16;67478240
8;128;512;4;2;64;133219616
16;512;512;1;1;4;191264384
2;512;512;2;1;16;116069280
16;512;4;16;32;2;31103584
16;512;512;16;128;16;18446744073709551615
16;512;512;16;4;16;22214240
8;8;256;1;4;256;18446744073709551615
128;8;64;128;8;2;18446744073709551615
32;512;128;2;1;16;185041312
16;512;512;16;512;16;18446744073709551615
8;256;256;8;1;4;39787488
8;8;4;4;1;2;624442304
1;256;2;1;1;1;641576448
8;256;32;4;32;4;145461088
16;512;1;16;1;1;64487776
256;512;512;16;1;16;18044992
16;512;512;16;1;512;18446744073709551615
256;256;512;16;2;16;18893920
256;512;512;16;64;16;18446744073709551615
256;1;512;16;1;16;84785664
256;512;512;8;1;16;22241600
64;512;512;16;1;64;23663360
256;512;1;16;256;1;18446744073709551615
256;512;1;16;1;1;70957856
256;512;512;2;16;128;18446744073709551615
256;512;256;16;1;16;18364096
256;8;1;4;4;1;152424224
4;512;512;1;1;16;185063360
8;512;512;8;1;16;52895744
256;512;512;16;1;64;30183104
16;512;512;16;64;16;18446744073709551615
2;512;512;1;1;16;187512480
256;512;512;16;256;16;18446744073709551615
8;512;512;1;1;16;194551232
256;16;512;16;4;16;36883968
256;512;512;16;1;4;20923264
256;512;512;16;128;16;18446744073709551615
1;512;512;1;1;2;271667680
64;512;512;8;512;16;18446744073709551615
256;128;512;16;4;16;26991936
32;512;512;16;1;16;19007328
512;512;512;16;1;16;17440864
256;2;512;16;1;16;84470080
256;512;4;16;1;2;60804928
256;512;512;16;1;32;19270112
512;128;512;16;2;16;19317472
512;512;512;16;1;32;19571648
512;512;1;16;1;1;63044640
64;512;512;16;1;16;18512448
32;512;512;16;1;128;18446744073709551615
512;512;512;16;2;16;19362464
512;512;2;16;1;1;70890656
512;512;4;16;1;2;50106944
512;512;512;16;4;16;36140000
512;512;512;256;4;16;18446744073709551615
512;512;512;16;1;256;18446744073709551615
512;512;256;16;1;16;16628800
512;512;128;16;1;2;39170112
512;512;256;4;1;256;18446744073709551615
512;256;256;8;1;64;56296768
512;512;256;512;1;16;18446744073709551615
512;512;256;1;1;16;194855072
32;1;256;16;1;16;68932640
512;256;256;16;256;1;18446744073709551615
512;512;256;16;128;4;18446744073709551615
512;512;256;16;1;32;19153952
512;512;256;4;1;16;45780064
512;512;256;16;4;16;30371520
512;512;128;16;1;16;18229216
512;512;16;8;1;16;105792992
512;512;256;8;1;16;21515584
16;512;256;16;1;16;20924480
128;32;256;16;16;16;18446744073709551615
512;4;256;16;2;16;59307648
512;512;1;16;1;1;63061760
512;512;256;16;1;8;16258432
512;512;256;4;1;8;41778016
512;512;256;128;1;8;29811424
512;512;32;16;1;8;44797824
512;512;256;16;32;8;18446744073709551615
512;512;512;16;1;8;17324704
512;512;256;16;1;64;42646528
512;16;512;16;1;8;63938784
512;512;256;16;1;8;16245664
512;512;256;64;256;8;18446744073709551615
512;512;256;16;16;8;18446744073709551615
512;512;128;16;1;8;16388320
128;512;256;16;1;8;18458240
512;512;32;16;1;8;45159264
512;512;256;8;1;1;147877472
512;512;256;32;4;8;29793664
512;256;256;16;2;8;16964672
512;512;256;128;1;8;29833280
512;512;256;16;256;256;18446744073709551615
16;512;256;16;1;8;20933856
32;512;32;16;1;8;76087104
512;512;256;16;128;256;18446744073709551615
512;512;256;16;256;8;18446744073709551615
512;512;256;16;128;8;18446744073709551615
512;64;256;8;1;128;18446744073709551615
512;32;256;512;1;8;18446744073709551615
512;512;256;4;1;8;41783168
2;512;256;1;1;256;18446744073709551615
512;512;256;512;1;8;18446744073709551615
512;8;256;16;1;1;72972864
8;512;1;1;1;1;718207360
512;512;256;32;1;8;16292416
512;512;256;2;1;8;80661856
512;128;256;16;1;8;18525568
2;512;256;1;1;8;135262336
256;512;256;16;1;8;18246496
512;512;256;16;1;16;16635872
512;512;256;16;1;2;39734656
1;64;512;1;1;1;519380928
512;512;256;16;1;32;19113440
512;512;256;16;1;4;21557920
64;512;256;8;1;256;18446744073709551615
1;512;256;1;1;8;145987008
512;512;8;16;1;8;68940448
4;32;256;2;4;2;53900768
512;512;4;16;1;4;59258048
1;512;128;1;1;8;156590784
512;32;256;16;1;8;66783648
512;1;1;16;1;1;396671488
512;1;256;32;1;8;35474624
1;512;256;1;1;8;146043008
512;1;256;16;1;8;63247456
8;512;256;2;256;2;273041120
512;8;256;16;1;8;73907872
8;256;256;2;64;32;18446744073709551615
2;512;512;1;64;4;554869664
512;128;128;64;2;32;18446744073709551615
8;32;512;4;2;2;52719072
32;512;256;16;1;8;20278368
512;512;256;2;1;256;18446744073709551615
8;128;256;4;64;2;152019328
512;16;256;16;1;8;70552864
512;8;512;256;1;8;18446744073709551615
512;512;256;16;1;64;42661664
2;512;256;2;16;2;201433728
512;512;256;64;1;8;17794656
4;128;256;2;16;2;266066368
512;512;256;16;8;8;30555296
512;16;256;16;1;8;70537152
1;512;16;1;1;8;334652448
512;512;256;16;256;4;18446744073709551615
8;32;256;8;8;2;94070144
8;64;256;8;16;2;81576448
8;32;128;4;4;4;131253376
8;64;512;1;16;1;289829664
512;256;512;8;1;8;21326784
512;512;256;8;1;8;21877600
1;1;8;1;1;4;14652048192
32;1;4;4;1;1;1209204320
1;2;64;1;1;16;1225218976
4;1;64;4;1;8;637881568
512;64;256;16;1;8;46992992
512;512;256;2;1;128;18446744073709551615
512;512;256;1;16;4;96347520
32;64;256;16;1;8;74757888
512;512;256;4;2;16;22944448
1;1;512;1;1;16;314729440
512;512;256;16;1;256;18446744073709551615
512;512;128;16;1;8;16376896
512;8;256;16;8;64;18446744073709551615
8;32;256;1;16;2;483658048
8;16;256;8;8;1;90651840
512;512;256;16;512;1;18446744073709551615
64;4;4;64;2;2;173498048
128;1;1;1;1;1;1235866720
64;32;32;2;4;2;160395232
4;8;32;2;2;1;272759104
512;16;8;16;1;8;87498720
512;512;256;256;1;1;24955328
128;512;128;16;1;8;19977824
512;512;256;16;2;8;16719392
512;512;512;16;1;16;17437888
8;32;256;2;2;2;96304352
512;128;256;128;1;8;23448320
512;256;256;16;1;8;16377536
8;32;256;4;4;2;36615712
4;512;256;2;1;8;73347328
1;512;256;1;128;8;674457184
512;512;16;16;512;8;18446744073709551615
512;512;256;1;1;128;18446744073709551615
8;8;64;2;2;8;94488640
512;256;256;16;2;16;20631360
256;512;256;32;1;2;21287008
512;512;256;32;1;16;18125184
16;2;512;1;2;1;387387232
64;64;256;2;2;32;324950688
4;8;2;1;4;1;2278634752
1;8;4;1;1;1;3351066080
8;16;128;4;4;4;138210784
512;512;256;256;4;8;18446744073709551615
8;32;256;8;4;2;81054944
8;64;256;8;8;2;89907488
8;64;512;8;8;1;85517792
16;1;256;16;1;8;59308192
512;512;256;8;1;128;18446744073709551615
4;512;16;2;1;8;209762272
512;512;256;8;2;8;17285728
512;1;128;64;1;8;33426688
512;256;512;16;1;16;16457600
512;512;256;16;64;8;18446744073709551615
512;1;256;512;1;8;18446744073709551615
512;1;256;16;1;8;61957120
1;2;16;1;2;1;3533005760
2;1;8;2;1;4;8082750208
1;8;16;1;4;4;1216329280
1;8;256;1;1;4;185421792
8;512;256;1;1;8;136519616
512;512;256;16;1;128;18446744073709551615
256;512;256;16;2;8;18443456
512;512;512;16;1;8;17293632
1;512;128;1;1;2;271564896
512;1;256;16;1;8;61998976
512;128;1;16;1;1;86299776
8;512;256;4;1;32;145053216
512;2;256;16;1;8;66983936
1;16;128;1;16;1;327131360
512;1;32;256;1;8;18446744073709551615
16;4;8;2;1;8;336269472
32;2;16;4;1;1;296439392
256;1;256;8;1;2;68008128
512;8;256;16;2;8;57695744
512;512;8;256;1;8;18446744073709551615
512;512;4;16;1;1;78367488
32;128;256;16;1;8;57838464
512;512;16;16;1;8;68715584
256;1;256;16;1;8;90218240
512;512;1;16;1;1;63039008
16;16;512;1;1;1;681383808
16;1;2;2;1;1;4552072256
8;256;1;8;1;1;158215904
8;8;4;4;4;2;694169888
512;2;256;16;1;2;46338176
512;2;256;16;2;8;52377536
512;512;256;1;1;8;159704928
512;128;16;16;1;8;79824160
512;512;256;1;1;8;159685024
512;4;256;512;4;8;18446744073709551615
128;512;256;16;32;8;18446744073709551615
512;16;256;16;1;2;46445280
64;512;256;16;1;8;19252704
1;512;1;1;256;1;427666496
512;512;256;16;512;8;18446744073709551615
512;4;256;16;1;8;76066464
512;512;256;512;1;2;31174848
512;2;16;16;1;8;71359328
512;256;256;256;1;8;18446744073709551615
32;512;256;16;1;64;42563680
512;512;256;8;1;32;27466432
512;2;64;16;1;8;73238176
512;512;8;1;1;8;505842432
512;512;2;16;1;2;47407232
512;128;256;16;1;2;34502368
512;16;256;128;1;2;35531584
512;2;256;16;1;8;65786720
512;512;256;256;1;8;18446744073709551615
256;512;256;16;1;4;20500864
512;32;256;16;1;16;65321984
512;1;256;1;1;8;263611552
512;256;256;1;1;8;165260640
512;512;256;32;8;8;18446744073709551615
512;512;256;8;512;8;18446744073709551615
512;4;8;1;1;8;635524672
1;512;1;1;1;1;639461504
512;512;32;32;1;8;26687584
512;256;256;16;256;8;18446744073709551615
512;512;512;16;1;32;19582208
4;512;64;2;1;4;80336928
512;1;16;16;1;8;47656736
256;32;256;16;1;8;76061728
512;512;256;256;1;1;24861632
512;512;1;16;1;1;63058432
512;512;256;1;4;64;131135936
4;512;256;2;1;1;295593472
512;512;2;16;1;1;71792064
1;2;256;1;1;64;460731456
4;512;1;2;1;1;316964704
512;512;256;16;1;2;39728224
256;512;256;16;1;1;63424640
1;512;256;1;2;8;162476416
512;512;32;512;1;8;18446744073709551615
1;256;4;1;1;2;336975328
8;256;32;1;32;4;836657472
8;256;256;2;64;8;184476032
2;512;16;1;512;4;18446744073709551615
1;512;256;1;64;8;745984224
512;512;1;4;1;1;249513440
512;128;256;1;2;32;175777504
8;1;512;4;1;2;142518272
1;1;128;1;1;4;949439264
32;1;1;4;1;1;4848653760
512;512;8;16;64;8;18446744073709551615
1;1;64;1;1;16;2444371936
4;1;64;4;1;8;632450400
64;4;4;1;2;2;326461856
8;1;1;1;1;1;17757086400
512;128;2;16;1;2;68348064
64;32;32;4;4;2;155754944
4;1;2;2;1;1;14059828800
16;1;512;1;1;1;715214880
512;1;256;1;1;32;574988736
64;512;16;8;1;8;122074560
512;512;256;16;1;2;39742912
512;16;256;16;16;8;18446744073709551615
1;8;2;1;2;1;7140412032
2;16;4;1;16;1;1248944320
1;2;16;1;2;1;3561048640
1;512;8;1;1;1;530905312
1;512;256;1;1;8;145891392
512;512;256;64;1;16;29901792
256;512;256;32;1;8;17648928
1;512;256;1;2;8;160990624
1;8;16;1;4;1;958184768
8;8;256;4;1;1;178400928
1;16;128;1;16;1;327277632
8;1;32;4;1;32;683362464
512;256;512;16;1;8;16174464
512;512;256;16;2;4;17084640
128;512;256;8;1;8;22713952
512;512;512;128;1;8;35878048
512;256;512;16;1;4;20664192
512;256;512;16;2;8;16443328
256;256;512;16;1;8;18111520
512;64;512;4;1;8;46647616
256;512;512;16;1;8;18035136
256;256;512;64;1;16;24223424
512;256;1;8;2;1;61540416
512;256;1;32;1;1;34646464
1;128;256;1;2;8;257852992
1;128;512;1;1;8;168527392
512;1;512;16;1;8;56443552
512;512;512;8;1;8;23809184
512;64;512;16;1;8;18450688
512;256;512;32;1;8;16047552
1;256;512;1;1;8;149324192
1;1;1;1;1;1;100771410688
512;512;512;32;1;8;17358432
512;128;512;32;1;8;16118272
512;256;512;32;1;4;16556224
512;256;1;16;1;1;68477664
512;256;1;32;1;1;34353728
512;256;1;32;1;1;35639616
512;256;512;64;4;8;18446744073709551615
1;256;512;1;1;8;150815296
128;256;1;32;1;1;54081696
512;512;1;32;2;1;21678112
512;256;512;32;1;16;17762144
1;256;512;1;2;4;88451968
256;256;512;32;1;8;17519168
256;256;512;32;2;8;17170016
1;128;512;1;1;8;173447168
1;1;512;1;1;8;269617216
512;256;512;32;2;8;17340544
512;256;1;16;2;1;50818368
512;1;512;16;1;8;56753312
512;256;1;32;1;1;34782816
256;256;1;16;1;1;88234976
512;64;256;32;1;8;26147424
256;512;512;32;1;8;17545824
512;256;1;32;1;1;32898944
512;128;512;64;1;8;16306720
512;256;512;32;2;4;16208320
512;256;256;32;1;16;17962656
512;128;512;32;1;16;17240672
512;512;512;32;2;8;19076192
512;64;512;32;1;8;16663232
512;256;512;32;1;32;29835776
256;256;512;128;1;8;25125088
1;256;512;1;1;8;150871776
512;256;1;64;1;1;41848992
512;512;1;32;1;1;33698240
512;256;512;128;1;8;28827136
256;512;512;16;4;16;27763840
512;128;128;32;1;8;26460608
128;256;512;32;1;16;17676928
512;1;512;32;1;8;26701536
512;256;1;64;1;1;38013440
512;512;256;128;1;32;18446744073709551615
1;256;512;1;1;2;271835520
512;256;512;64;1;8;17184480
512;128;1;32;1;1;43255808
512;512;128;128;2;8;18446744073709551615
512;512;512;32;1;4;17503520
256;256;64;32;2;32;18446744073709551615
512;64;512;32;1;4;16709120
1;512;512;1;1;8;137261376
256;1;512;16;1;8;85055104
512;256;512;32;1;2;21440448
128;1;512;32;1;8;68951264
256;64;512;32;1;8;18712032
1;256;512;1;1;16;232463104
256;128;512;32;1;8;17657440
512;512;512;32;2;16;36022144
512;256;128;32;1;8;18162592
512;256;512;32;4;8;28917664
512;256;512;32;2;16;29016032
512;64;128;32;2;8;20167904
512;256;128;32;1;32;32924704
512;256;256;32;1;8;16227072
512;256;256;128;1;8;25092768
512;128;256;32;2;8;17418592
128;256;512;64;1;8;16533600
256;128;512;16;1;8;18692672
128;256;512;32;1;4;18129280
512;256;256;32;1;4;16629344
256;128;512;32;2;8;16808832
512;512;512;32;2;32;18446744073709551615
1;512;512;1;1;8;138000864
1;256;256;1;1;4;146155616
512;256;64;32;1;2;21404000
512;512;1;32;1;1;33726784
128;256;1;64;1;1;63968960
256;256;128;4;1;8;57442368
1;256;1;1;1;1;847371488
512;256;1;128;1;1;58781824
512;64;512;64;1;32;18446744073709551615
512;256;512;64;2;16;18446744073709551615
512;256;512;32;2;32;18446744073709551615
512;256;256;32;1;32;32094688
128;256;512;16;1;8;18477408
512;256;512;64;1;4;16038688
256;256;1;64;1;1;65420896
512;128;512;64;1;2;18393344
512;256;1;128;1;1;58261024
512;256;64;64;4;4;22448128
512;256;512;64;4;4;28884224
512;128;512;128;1;4;16623136
256;128;512;64;1;2;19602368
256;256;512;256;1;4;27264192
256;256;512;64;1;2;19197312
1;256;512;1;1;4;146045760
512;128;512;64;1;4;15771488
1;64;512;1;1;1;519363680
256;128;512;64;1;32;18446744073709551615
512;256;512;16;4;2;19197440
512;64;512;64;1;4;15723616
512;128;1;64;1;1;57894752
512;64;1;32;1;1;46978336
512;64;256;64;1;8;19417184
512;32;512;32;1;8;26417376
512;64;256;256;1;4;21563488
512;128;512;32;1;4;16510592
256;128;512;64;1;4;17219904
512;64;512;64;1;2;18613344
512;64;256;64;1;4;17612000
512;64;512;128;1;4;15968768
512;64;1;32;2;1;59209984
512;64;1;64;2;1;64525856
256;64;512;64;1;4;17556032
512;64;1;128;1;1;65960704
512;64;512;32;2;4;15915584
1;64;1;1;4;1;1902984576
512;64;512;128;1;1;26146528
1;64;512;1;8;4;324950752
512;64;64;64;1;2;44462112
256;64;512;64;1;2;20341248
512;32;512;64;2;4;18939872
128;64;512;64;1;4;18693728
512;64;1;64;1;1;62602240
256;64;512;64;2;4;17649536
1;64;1;1;1;1;1672607136
1;16;512;1;1;4;148736416
512;64;512;256;1;4;22168928
512;64;512;64;1;8;16340608
512;64;512;64;2;4;16123328
1;64;512;1;1;4;147797280
512;64;512;128;1;16;18446744073709551615
512;64;512;256;1;8;18446744073709551615
512;16;512;128;1;4;20434624
1;32;256;1;1;4;148911040
256;64;1;64;1;1;74519776
1;32;512;1;1;8;229374176
1;32;512;1;1;4;148367008
1;128;512;1;1;4;146636128
256;64;1;64;1;1;74446880
512;128;1;64;1;1;57595488
512;64;1;32;1;1;49049920
512;32;256;64;1;4;28693536
512;32;512;64;8;4;18446744073709551615
512;64;512;64;4;4;22670688
1;64;512;1;2;4;88055488
1;64;1;1;1;1;1673113728
512;64;512;8;2;2;36465888
128;64;512;64;1;16;27918016
1;16;512;1;1;8;237142624
512;16;512;64;1;4;28686368
256;64;128;64;1;4;35369344
512;64;1;64;1;1;62213248
512;512;512;64;1;4;17579008
512;64;128;128;2;4;23110592
256;64;256;32;1;2;23317440
1;128;512;1;1;4;146568864
512;32;512;64;1;4;17918720
512;64;1;64;1;1;60705120
1;64;512;1;1;8;202760160
1;64;1;1;2;1;1786259168
512;256;1;64;1;1;37335392
512;64;512;32;1;2;20464800
1;32;512;1;1;16;533055072
512;32;512;128;1;4;18398880
512;64;512;64;4;2;19068896
512;64;128;64;1;4;27986208
512;64;512;128;1;8;23323008
512;128;512;64;1;1;26973632
1;128;512;1;1;8;174233696
1;32;1;1;1;1;3343295648
512;64;512;64;1;1;27070592
512;32;1;64;1;1;67998080
512;256;256;64;2;4;17059520
512;64;128;32;1;4;29122880
512;64;512;64;2;2;18625440
512;32;512;64;2;8;24226528
512;64;512;16;1;4;19948544
1;64;512;1;1;4;147785632
512;32;512;32;1;4;18525280
1;256;256;1;1;4;146096960
1;64;256;1;1;1;519518752
512;128;512;64;1;16;25176096
128;64;512;64;2;4;19199776
1;64;512;1;1;4;147880128
512;64;512;32;4;4;16891072
512;128;256;64;1;4;15797696
512;128;128;64;1;2;19356576
256;64;512;32;1;4;18737920
512;128;1;128;1;1;63843424
256;64;512;128;2;4;22025696
512;32;256;512;1;4;18446744073709551615
1;64;512;1;4;4;223016608
512;64;256;16;1;4;22910944
512;256;512;128;1;4;17410688
512;64;512;32;1;1;36304896
128;32;512;64;2;4;26396384
256;64;512;64;1;8;18052640
512;128;512;64;2;2;18511744
1;64;512;1;4;4;247128864
512;64;256;64;2;4;18880928
512;64;256;32;1;4;18123296
1;32;128;1;1;4;150168608
1;64;512;1;1;16;468424224
512;64;256;64;1;16;30344384
512;128;128;64;1;4;18296832
1;64;1;1;1;1;1673090400
512;64;1;128;2;1;63565024
512;64;512;16;1;2;33957792
1;64;256;1;1;4;148537696
512;128;512;32;2;1;27330624
256;64;512;128;1;4;17653376
16;4;8;2;1;1;590634464
32;2;16;1;2;1;479188736
16;1;512;2;1;4;223128224
16;256;2;2;4;1;112784896
512;32;1;16;1;1;96803968
512;64;512;4;1;4;63905696
512;64;512;8;1;4;34613664
512;256;512;64;64;4;18446744073709551615
512;64;256;64;32;4;18446744073709551615
8;64;4;4;1;4;80687200
512;64;512;64;1;16;27067936
512;1;512;1;1;4;229304224
512;64;512;64;8;4;18446744073709551615
512;64;512;64;8;1;26932800
512;64;512;64;2;128;18446744073709551615
2;64;512;1;1;4;156456960
512;64;64;64;1;8;34839392
512;64;1;64;1;1;62443392
2;32;512;1;1;4;156884480
512;64;64;64;1;4;38086144
8;256;256;1;1;4;187743360
8;8;4;4;1;2;626622432
4;8;4;1;8;2;1330580448
8;256;32;4;1;4;53657568
8;32;16;1;1;8;368568960
128;512;1;4;64;1;228355392
512;4;256;1;1;1;855173216
16;512;512;4;128;2;109486592
1;8;16;1;4;4;1233488288
32;8;4;4;2;1;174591616
1;16;4;1;2;2;1898992352
4;1;64;1;1;8;620156256
512;64;1;128;1;1;66212160
1;64;512;1;1;16;428978144
512;64;512;32;2;16;25828480
1;16;512;1;1;4;148672256
256;64;256;64;1;4;22067008
512;64;512;64;8;4;18446744073709551615
512;128;256;32;1;4;16735392
512;64;512;512;1;4;18446744073709551615
256;64;512;16;2;2;24555264
512;256;128;64;1;4;16824352
1;16;512;1;4;4;275965088
512;128;512;128;2;4;24902112
128;64;512;128;1;4;18570176
128;32;512;64;1;4;26872864
512;64;1;64;4;1;61389728
512;256;512;64;2;4;17568704
64;64;512;64;1;8;22294848
1;64;256;1;1;16;521252288
512;64;512;64;16;4;18446744073709551615
512;64;512;2;1;4;123916768
512;1;512;64;1;4;25899200
512;64;8;64;1;4;55246368
256;64;64;64;4;4;27365088
512;128;1;64;1;1;57452192
512;8;512;64;1;8;32104864
512;512;512;64;1;8;18951072
512;32;512;64;1;8;19385920
512;64;512;64;2;1;26306528
512;64;512;512;2;2;18446744073709551615
1;64;256;1;1;4;148534944
256;32;512;64;2;4;22411968
1;128;1;1;1;1;847143040
512;64;512;128;4;4;18446744073709551615
512;16;256;32;1;8;39864992
256;32;512;128;1;4;21776768
512;256;512;256;1;4;29264288
512;4;4;64;2;2;40819904
16;1;1;1;1;1;9016750720
64;32;512;8;4;2;100203808
4;8;32;1;2;16;222380224
512;32;512;32;1;1;35900768
512;64;256;32;1;1;35832064
512;64;128;64;1;16;29664160
1;128;512;1;1;4;146635616
1;64;512;1;1;2;273231616
1;32;512;1;1;2;275555104
1;64;1;1;1;1;1673693792
512;64;512;4;8;4;35088608
512;64;32;64;1;4;44769504
512;8;512;64;1;4;35726944
2;64;512;1;8;4;233642112
1;128;512;1;2;4;88398272
512;16;512;64;1;8;20641760
256;8;512;32;1;4;53281088
512;64;1;32;2;1;60428160
128;64;512;32;1;4;19836288
128;64;256;64;1;4;26712640
512;32;512;64;1;2;19039456
512;128;512;64;4;4;24923488
256;64;1;64;2;1;75313248
256;64;512;64;4;4;21982144
8;1;512;1;1;1;708118336
64;64;256;8;4;32;72437408
128;8;2;2;1;1;397157728
1;16;16;1;1;2;443925152
1;128;256;1;1;8;207899680
512;256;256;128;2;4;25295968
512;64;1;1;1;1;847746528
512;64;1;64;2;1;64056000
1;2;16;1;2;1;3538570208
1;1;8;1;1;2;14075109312
4;8;16;4;4;1;290820064
512;64;1;16;1;1;95456896
1;64;1;1;1;1;1672561312
512;64;512;32;4;2;19054272
512;64;512;64;64;4;18446744073709551615
512;64;512;64;4;4;22697216
512;64;1;256;1;1;66988928
8;8;256;1;1;8;487214176
1;128;128;1;16;1;537201888
64;256;512;2;2;128;18446744073709551615
16;4;8;8;1;1;289177664
256;64;256;64;1;16;33423040
1;32;512;1;2;4;93456992
1;128;1;1;1;1;847485344
512;16;512;256;1;4;21601280
512;64;256;32;2;4;19144448
32;32;512;1;1;4;191522112
32;32;1;4;2;1;189716704
16;1;1;2;1;1;9111385248
16;2;2;1;1;2;2372094464
1;256;8;1;2;4;152290624
512;64;1;32;1;1;47760736
256;256;512;64;1;4;17135328
512;64;256;64;2;2;19841120
256;64;4;2;1;2;240544416
1;256;4;1;1;2;336914720
2;256;32;1;1;4;158791392
2;256;256;2;8;8;224456992
256;16;512;64;4;8;18446744073709551615
128;128;512;64;1;4;17185280
128;64;512;128;1;8;20813856
128;64;512;64;1;2;22182752
512;128;512;64;2;4;16781280
512;64;512;128;1;2;18463776
1;64;512;1;1;4;147731712
512;64;256;128;1;8;22731616
512;64;1;128;8;1;39607072
512;64;256;128;1;4;18196064
512;64;512;128;2;4;22306848
512;64;512;16;2;4;18228128
512;64;128;32;2;4;24829120
256;64;256;64;1;1;30632256
1;64;256;1;1;1;519594912
512;64;256;64;1;2;19246976
256;64;512;64;1;16;26974880
128;64;512;64;2;1;32104288
512;128;512;128;1;2;18382688
512;32;512;64;4;4;22113792
512;128;256;64;1;32;18446744073709551615
128;64;1;64;2;1;58425344
256;32;512;64;1;8;29421088
512;64;128;128;1;2;24293824
256;64;256;32;1;8;29889664
512;256;1;64;1;1;40779040
512;16;512;64;1;16;31593792
512;64;512;64;2;8;23400224
512;32;512;128;8;4;18446744073709551615
512;256;256;256;1;4;25414752
128;64;64;64;1;4;57248448
128;64;512;32;2;4;19536192
1;64;512;1;2;8;268256800
256;128;512;64;2;4;17261984
1;16;512;1;2;4;122975232
512;16;512;64;4;4;22329472
512;32;256;128;1;4;19852224
1;128;128;1;1;4;148058144
128;64;512;64;1;8;19634464
512;128;1;128;1;1;63426624
512;64;512;16;1;16;33988416
512;128;256;128;2;2;18885984
512;32;256;32;2;4;25105184
512;16;1;64;1;1;59227968
512;64;128;256;1;4;23207200
512;128;512;256;1;1;25730336
512;16;512;128;1;2;24284064
128;64;1;32;1;1;60162976
512;32;256;64;2;4;20331392
512;64;512;64;8;8;18446744073709551615
128;64;512;32;1;8;20205792
512;128;512;64;2;1;25762848
512;32;512;256;1;4;21564000
128;64;512;1;1;4;201944768
64;64;1;64;1;1;60336160
512;32;1;128;2;1;66238368
512;128;512;256;1;32;18446744073709551615
1;64;1;1;1;1;1673544000
512;64;512;64;2;16;18446744073709551615
128;64;512;64;1;1;30580640
1;64;256;1;1;4;148640704
512;64;1;256;1;1;67498272
1;32;512;1;2;2;147535680
64;64;512;64;2;4;22556512
512;128;512;64;2;8;24950688
1;64;256;1;1;16;519411840
1;128;512;1;1;4;146595680
512;64;512;128;2;2;18647680
256;128;512;64;1;8;16805024
512;64;512;256;4;4;18446744073709551615
1;64;512;1;2;4;88499840
1;64;512;1;1;8;203301120
512;16;256;64;1;4;36813536
1;16;1;1;1;1;6683429728
512;32;512;128;2;8;18446744073709551615
512;32;512;32;2;4;19150208
256;128;256;64;1;8;18280096
1;64;512;1;1;4;147820640
256;16;512;64;1;4;35033984
1;64;1;1;1;1;1671858688
1;256;512;1;2;4;88330784
512;32;1;64;1;1;67969600
512;16;512;32;1;4;28950464
512;128;512;64;8;4;18446744073709551615
512;4;512;64;1;4;38363616
512;64;256;32;1;2;20631072
512;64;512;128;2;8;18446744073709551615
128;64;256;64;8;4;18446744073709551615
1;8;512;1;2;4;139674592
256;64;512;64;2;1;28622528
16;64;512;2;1;4;97361568
1;64;2;1;1;1;842926272
512;64;512;2;64;4;92785408
512;64;512;64;2;4;16090752
512;128;128;32;1;4;18783680
512;64;512;32;1;16;24728160
512;64;512;256;4;8;18446744073709551615
1;8;512;1;1;4;155319072
1;64;64;1;1;4;150047680
128;512;1;4;64;1;227924160
512;1;256;1;1;32;563328896
8;32;512;4;2;2;53393792
1;1;4;1;1;4;29983489888
2;1;512;1;1;4;329532032
512;64;512;64;8;512;18446744073709551615
4;64;2;1;1;1;754976896
1;32;512;1;1;1;519764032
512;1;512;8;1;4;52219040
64;64;512;64;8;4;18446744073709551615
512;8;512;64;4;4;20288256
512;64;1;64;2;1;63952192
32;64;512;1;1;1;690330368
512;32;512;64;1;1;27445216
1;64;512;1;8;64;751508864
32;64;512;1;1;4;190718432
4;64;512;4;1;4;48039776
1;4;4;1;1;1;6656887488
1;2;64;1;1;16;1226001056
512;1;64;1;1;64;935568448
512;4;4;1;2;2;241366240
256;128;512;2;1;4;113323776
512;64;512;64;64;16;18446744073709551615
512;64;512;64;1;1;27149280
128;1;1;2;1;1;1242513120
64;32;512;2;4;2;66659232
4;8;1;1;4;1;4465889888
16;2;512;1;2;1;346596128
64;1;256;8;1;32;137575264
128;1;2;4;1;1;660699872
1;128;16;1;1;2;280754080
1;2;64;1;2;1;884228672
64;64;256;64;1;1;39068480
1;64;256;1;2;4;88914464
128;64;512;16;1;4;22707488
2;64;8;2;1;2;239796704
4;1;16;4;1;1;2113295968
8;1;256;4;1;4;106173504
1;16;16;1;16;1;618246368
512;64;512;512;1;8;18446744073709551615
1;32;1;1;1;1;3351377824
1;32;512;1;1;8;234219808
512;16;1;64;1;1;59124672
256;64;128;64;1;8;39328256
512;512;256;128;1;4;17984512
512;64;1;64;1;1;63465088
512;16;256;64;2;4;24478688
256;64;1;64;1;1;74915456
256;32;512;32;1;4;22017664
256;64;256;128;1;4;21929824
256;32;512;64;4;16;18446744073709551615
1;512;512;1;1;8;138128928
512;64;512;512;1;2;23395808
512;256;512;64;2;2;18255456
512;64;128;64;1;8;21384608
512;128;512;256;4;4;18446744073709551615
256;8;512;64;1;4;46437248
1;64;512;1;2;16;479903456
1;64;128;1;1;4;149503136
512;64;1;64;1;1;62399616
256;64;1;8;1;1;167768608
1;64;128;1;1;4;149515360
512;64;512;256;1;2;18700576
512;64;1;16;4;1;87268032
128;32;256;64;1;4;41574208
1;64;128;1;2;4;93785024
64;64;512;64;1;4;22109248
512;256;512;64;1;2;17984768
256;128;512;128;1;4;17510144
256;64;512;128;8;8;18446744073709551615
1;64;1;1;1;1;1673729664
1;64;512;1;2;2;147307904
512;32;1;128;1;1;69218496
512;64;512;256;1;1;26211968
512;32;512;128;1;2;18961632
512;64;256;16;2;4;25444160
256;32;512;64;1;4;21811296
512;16;32;256;16;2;18446744073709551615
16;4;8;1;1;4;329318368
32;2;16;4;2;4;187934080
16;1;512;2;1;1;372480320
512;64;4;1;1;4;443715008
512;64;2;64;1;1;61611168
64;32;1;32;1;1;99511136
128;64;256;1;1;4;204800896
512;128;1;64;2;1;58865408
512;64;256;128;4;4;18446744073709551615
512;64;512;32;2;8;17338752
512;32;128;32;1;4;46080512
512;128;1;32;2;1;52037696
512;32;512;16;1;8;48605760
256;16;256;64;1;2;56768704
256;8;512;64;2;4;34607072
1;64;512;1;2;16;482920992
128;16;1;64;1;1;109445600
256;64;512;64;2;8;22696832
1;32;512;1;1;4;148408096
128;512;512;128;1;2;18921760
512;16;512;64;1;2;24144000
256;64;512;128;1;8;22687776
512;128;1;128;1;1;63251296
512;32;256;64;1;32;18446744073709551615
512;32;256;32;4;4;21592448
256;32;512;32;1;2;22972960
512;64;128;128;1;4;20664384
128;32;1;64;1;1;60981824
1;64;512;1;2;32;868457568
512;64;64;256;1;4;24266528
64;32;512;8;1;16;118007328
512;64;64;32;1;4;45052384
512;64;128;64;4;4;22814848
512;64;128;256;1;2;22211136
256;32;128;64;1;4;48422208
256;64;512;32;1;2;21732992
512;8;512;512;1;4;18446744073709551615
256;64;1;32;2;1;71774880
512;128;256;256;1;2;18827232
512;64;128;64;2;4;20569088
512;64;256;64;1;1;27517984
256;32;512;64;1;2;22327456
1;16;512;1;2;4;121266368
512;64;256;16;1;2;33943040
512;32;512;16;1;4;23379488
512;64;512;1;1;4;244539968
16;64;512;2;1;16;230178400
1;64;256;1;1;8;233535488
512;64;8;512;1;4;18446744073709551615
1;64;512;1;1;4;147818208
512;2;512;64;1;4;28415360
512;64;16;32;1;4;55610112
2;256;2;1;1;1;557634144
8;256;256;4;1;4;52805536
256;64;4;2;8;2;268356032
32;256;4;1;1;2;437277248
8;4;2;2;1;1;2217475008
8;256;1;2;64;1;102291488
128;1;1;1;1;1;1232917792
512;128;256;1;2;32;168639456
8;32;512;4;2;16;141484832
256;32;256;16;1;4;56950016
1;2;128;1;1;4;480927776
32;8;4;4;4;1;173111872
1;2;64;1;2;16;1560145728
2;1;64;1;1;8;1080033472
512;32;512;64;1;1;27410272
256;64;512;64;2;2;20321152
128;64;512;1;2;1;388768096
1;1;4;1;1;2;27857958304
128;1;1;1;1;1;1232615104
1;16;4;1;8;4;3020270048
1;8;32;1;2;4;532413152
512;64;4;64;1;4;56812928
2;512;512;1;1;4;154834848
512;64;128;64;1;2;24191456
1;256;512;1;1;8;148642912
512;256;256;16;1;2;36561440
512;32;512;32;2;2;19486592
1;512;512;1;1;4;145723264
