GLOBAL_SIZE_0;GLOBAL_SIZE_1;LOCAL_SIZE_0;LOCAL_SIZE_1;v_TP_64;v_TP_65;cost
16;16;4;8;89;23;304672135
16;1;2;1;89;23;2444784134
256;512;4;16;2047;89;1262422278
4096;256;1;2;2047;89;539632625
2;2048;2;256;2047;178;18446744073709551615
1;256;1;2;2;89;451943960
512;4;128;2;178;2;764057101
64;32;8;16;1;4094;340233379
16;64;4;8;89;23;1075533179
256;1;1;1;2047;4094;16971974709
16;16;16;1;89;23;572326106
1;128;1;1;46;23;918207692
16;8;4;8;89;23;555910917
128;16;128;8;89;23;18446744073709551615
16;16;8;8;89;23;271786875
2048;16;128;8;89;1;18446744073709551615
4;16;4;8;89;23;1088251283
16;16;8;8;89;46;513147642
16;16;8;8;89;178;171732959
2;16;1;4;89;178;1105878095
16;16;8;8;1;178;1208076505
16;1;8;1;89;178;2396805707
16;128;4;8;46;89;1202651083
16;16;8;8;1;1;16967521622
512;16;256;8;89;178;18446744073709551615
128;16;64;8;89;178;18446744073709551615
2;16;1;8;89;178;1147953562
4;1;4;1;2;178;16232030010
256;128;32;8;1;23;982146555
16;16;8;8;4094;178;329494804
16;16;8;8;89;2047;155965126
64;16;2;8;89;178;1412730015
1;16;1;8;89;2047;2181770428
16;16;8;8;1;2047;1138164174
16;16;8;8;178;2047;149576212
16;16;8;8;178;2;1171549613
4;16;4;8;178;2047;556598640
16;16;2;8;2;2047;141415297
16;16;8;8;46;2047;150022419
16;16;2;2;2;2047;771277798
16;16;2;16;2;2047;143050916
16;512;2;4;1;2047;544646917
16;1024;2;8;2;2047;143592048
16;64;2;8;2;2047;138686879
16;16;2;8;178;2047;145729292
2048;16;2;8;2;178;92001625
2;16;2;8;2;2;8376234073
2048;16;2;2;2;178;307939844
512;64;2;8;2;178;182377549
2048;1;2;1;2;46;427611179
2048;4;2;1;2;178;413222968
2048;16;1;8;2;4094;89587337
2048;1;2;1;2;23;430241169
2048;2;2;2;2;178;337742384
2048;128;1;8;2;4094;89231168
2048;16;4;8;2047;4094;568747722
1;16;1;2;46;4094;16943066250
2048;32;1;8;2;4094;88936002
8;32;2;8;2;89;204506211
2048;32;1;8;89;1;1166752806
2048;32;1;8;89;4094;365350673
2048;32;1;8;2;2047;89538209
2048;1024;1;8;2;4094;91741667
2048;32;1;8;1;4094;80121002
2048;32;1;8;2;178;122953172
2048;32;1;4;2;1;659111042
2048;16;128;8;1;4094;18446744073709551615
2048;32;4;8;2047;4094;569046173
2048;2;1;2;1;23;232578589
2048;32;1;4;1;46;148003753
2048;32;1;8;178;4094;198335716
2048;256;64;8;1;4094;18446744073709551615
2048;4;1;4;1;4094;171956671
2048;32;1;8;2047;4094;2273058504
2048;32;8;8;1;4094;278739166
2048;2048;1;8;1;46;113151127
1;32;1;4;1;4094;8722180584
2048;32;1;2;1;4094;180925340
2048;32;1;2;1;4094;181235049
2048;32;16;8;1;4094;309213881
1;32;1;8;1;4094;4611761708
2048;32;1;8;1;89;104789626
2048;1;1;1;4094;2047;32926096292
64;32;4;8;1;89;376301794
2;512;2;8;1;4094;4602975233
256;32;1;8;1;4094;82081709
2048;32;1;1;1;4094;346869875
2048;2048;1;1;1;4094;355227012
2048;256;1;8;46;4094;127484750
2048;32;1;8;1;2047;80518335
2048;2048;1;8;1;4094;84718169
1;32;1;8;89;4094;4451423792
2;32;2;8;1;4094;4603082508
2048;32;1;8;46;4094;127425750
2048;32;1;8;1;1;714834804
2048;32;4;8;4094;4094;1071327199
2;32;1;8;1;4094;2132594627
2048;64;1;8;1;4094;80954628
2048;32;16;8;1;4094;305476671
2048;16;1;8;1;4094;80510292
2048;32;64;8;1;4094;18446744073709551615
64;32;4;4;1;4094;519784091
2048;32;1;8;1;46;121149337
2048;32;1;16;2047;4094;1234203568
4096;32;1;8;1;4094;79035420
2;64;1;1;46;4094;17174359966
4096;64;1;8;1;4094;79238876
4096;32;1;16;1;4094;81644166
4096;32;1;8;2047;4094;2273599353
4096;32;256;8;1;4094;18446744073709551615
4096;32;1;8;1;1;708019391
4096;32;1;4;1;4094;147958627
4096;32;1;8;1;2047;79156293
1024;32;128;16;4094;4094;18446744073709551615
4096;32;1;8;23;4094;143267167
128;32;2;16;1;178;198170125
4096;32;1;32;1;89;130297464
4096;32;1;1;2;4094;496790144
4096;4096;1;8;1;4094;96489420
4096;32;128;4;1;4094;18446744073709551615
4096;32;32;8;1;4094;590197681
4096;256;1;8;1;178;87171834
4096;1;1;1;1;1;603478897
1;32;1;32;1;4094;1236786951
4096;32;1;4;1;178;139366961
1;1;1;1;1;23;35796594458
32;32;16;8;1;4094;2262203221
8;32;2;32;1;4094;304858841
4096;32;1;1;1;4094;337365504
4096;1;1;1;1;4094;337861304
4096;32;64;8;1;178;18446744073709551615
4096;32;1;2;1;4094;176382750
4096;32;1;8;1;178;85867169
4096;32;8;32;89;1;1094105806
1;1024;1;128;89;46;261432343
64;128;32;2;2;178;545047314
128;512;2;1;178;2;1182685208
1024;8;256;4;2;46;18446744073709551615
4096;32;1;2;2047;4094;8411273184
4096;32;1;8;89;4094;377936927
4096;256;1;8;1;4094;79440460
4096;32;1;8;1;2;403348301
4096;32;1;8;1;89;100305876
8;32;2;8;1;4094;1074406650
2048;32;1;16;1;4094;82378794
1;32;1;8;1;4094;4609864851
4096;64;1;4;2047;1;2273423118
4096;64;1;8;4094;4094;4603963642
32;32;32;16;23;178;18446744073709551615
512;64;256;4;46;46;18446744073709551615
128;8;128;1;178;23;726154943
64;64;64;8;23;23;18446744073709551615
4096;32;1;8;46;4094;225273834
4096;32;1;8;4094;4094;4604029926
4096;16;1;8;1;4094;78885295
1024;2;1;2;1;1;603295100
4;1;1;1;2;4094;8405558575
4096;16;1;8;2;4094;89367210
4096;16;1;4;1;4094;147000751
4096;16;1;2;1;4094;176460588
4096;16;1;2;23;4094;545529019
4096;16;1;8;1;2047;79417961
4096;16;16;8;1;4094;313731421
4096;8;1;8;2;4094;90299753
4096;16;1;16;1;4094;82353958
4096;16;1;4;1;4094;147358130
4096;16;2;8;2047;4094;1078276403
256;16;1;8;1;4094;86750292
4096;16;4;8;1;4094;272035088
4096;4096;1;8;1;4094;96483711
4096;16;1;16;1;89;115758420
4096;16;1;1;1;4094;337695221
4096;256;64;8;178;4094;18446744073709551615
4096;16;1;16;1;4094;82483000
4096;16;128;16;1;2;18446744073709551615
4096;16;1;8;1;1;696468636
4096;256;1;256;1;4094;91534375
4096;2;1;2;1;89;188329422
4096;16;1;16;46;4094;97092002
4096;16;1;16;1;23;173112963
4096;16;1;8;1;4094;79254630
4096;16;2;8;1;4094;144042879
1024;16;128;8;1;4094;18446744073709551615
4096;16;1;8;1;178;87191667
2;16;1;8;1;1;15686726375
4096;16;64;8;1;4094;18446744073709551615
4096;16;4;8;4094;4094;1071104125
4096;1024;1;8;1;4094;82900000
4096;16;1;8;2047;4094;2275519087
4096;16;1;8;1;89;104000629
4096;16;8;8;1;1;4425551077
2;16;2;8;1;4094;4603814309
1;16;1;8;1;4094;4610729676
512;16;256;8;1;4094;18446744073709551615
4096;8;1;8;1;2047;79420792
4096;16;1;4;1;1;630701752
2;16;1;4;178;4094;4350231527
256;1024;16;4;1;46;638275717
128;1;2;1;2;23;512946097
8;1;4;1;4094;46;8188156299
1;32;1;2;4094;2;2186483946
4;4096;2;4;23;2047;1094988544
1;16;1;2;178;1;8492713541
4096;128;32;16;1;2;18446744073709551615
16;2;8;2;2047;2047;1070819595
256;512;1;128;2047;2;5273923603
64;4;4;2;2;2047;279562669
8;32;4;16;1;89;957004515
64;8;4;8;46;46;1091417500
1024;128;32;1;178;46;865491866
4096;1;1;1;2;89;477235799
16;16;16;16;178;2;2601864625
32;64;1;4;1;1;684497774
512;1024;8;64;2047;1;18446744073709551615
32;512;2;64;89;1;2568970435
4096;2;256;2;23;89;18446744073709551615
2;16;1;4;46;4094;4358526542
2;16;1;4;1;4094;4177032368
32;16;16;4;178;4094;313999553
2;16;1;4;178;178;1151833662
2;16;1;4;1;4094;4176462083
2;16;1;16;178;4094;1289636833
2;16;1;4;178;46;1396074034
8;4;1;1;46;89;1422697833
8;256;2;64;178;89;168681833
2048;2;8;1;178;4094;673306258
2;16;1;4;2;4094;4281944981
2;16;1;4;2;4094;4281154488
512;16;16;4;178;4094;538205465
2;16;2;4;178;4094;3988853914
2;16;1;4;178;2;4571327286
2;16;1;4;178;1;8896860783
2;16;2;4;178;1;8375409932
8;8;2;4;178;178;854766932
1;8;1;4;89;178;4332114876
8;16;8;2;4094;2;618466686
16;1;2;1;1;23;4308127513
256;1;1;1;2047;1;37313936805
1;2;1;1;89;23;16856008292
2;64;2;1;46;4094;16709935666
256;32;8;32;46;1;1087818912
1;1024;1;128;1;46;369242346
64;128;32;32;2;1;18446744073709551615
128;1024;2;1;178;2;1140582197
2048;16;32;4;178;2047;728514841
256;1024;16;4;1;4094;551341642
1;1;1;1;2;23;34298356512
8;1;4;1;1;46;17152419708
1;32;1;32;4094;2;36626403234
4;1;2;1;1;2047;16761901000
1;4096;1;1;178;1;554058379
1;128;1;16;1;2;4565786240
16;1;8;1;23;2047;2335127986
256;1024;1;128;2047;2;2823420193
64;1;4;1;2;89;1349259496
256;8;64;1;1;89;2198530099
64;8;4;8;46;1;1486555050
1024;128;1;1;1;46;357430673
4096;8;32;1;2;89;550594635
16;1;16;1;23;2;4620081437
32;64;1;4;1;46;871368294
512;1024;8;64;1;1;18446744073709551615
32;32;2;16;46;1;1364062425
4096;16;256;1;1;89;2145257012
1;8;1;4;89;2047;4139251220
8;16;2;16;2;2;4208258875
4096;64;2;2;1;178;186163631
256;8;64;8;2047;1;18446744073709551615
1;128;1;1;46;23;910484726
2;64;2;1;46;4094;16709948042
1;32;1;8;46;1;16222277958
1;1024;1;1;89;46;908119754
64;4096;32;1;2;2047;3999068833
16;1;2;1;1;178;4127506479
16;1;1;1;1;46;2135990744
32;1;2;1;1;23;2198927967
16;128;16;1;1;1;1586534556
16;1;4;1;1;23;8697396513
16;2048;2;256;4094;23;18446744073709551615
16;2048;2;256;1;23;18446744073709551615
16;1;2;1;1;46;4205592650
16;16;8;1;89;89;600646674
512;1;2;1;1;23;359145583
16;1;2;1;1;2047;4106631755
16;1;2;1;1;23;4308251209
2;1;2;1;1;23;35798581834
16;1;2;1;1;1;7872731625
16;64;2;2;1;23;643185066
16;8;2;1;1;23;608371809
1;8;1;1;2047;46;4378392750
128;256;2;1;1;2;618613644
2;16;1;1;178;4094;17090678379
64;1;16;1;1;1;15841000000
16;1;2;1;1;23;4308214320
16;1;2;1;23;23;2670939055
1024;1;2;1;1;23;357001754
4;1;2;1;1;23;17564643274
1;2;1;2;1;46;17728994114
1;1;1;1;1;23;35797050783
256;1;2;1;1;23;373508876
16;1;2;1;1;23;4308631887
128;4;2;2;2;23;677705426
1;1;1;1;4094;46;33576056667
1;2;1;2;89;1;67000675833
4;4096;4;1;89;2047;4173865896
4;4;4;2;1;1;31894262209
16;1;1;1;1;23;2200843567
16;1;2;1;1;4094;4098825225
16;1;2;1;1;1;7873288745
16;1;2;1;1;23;4308397904
8;8;8;4;2047;23;1216489155
64;1;32;1;1;23;17539017083
8;256;2;1;1;2;481002675
16;1;2;1;2047;1;18848647250
1;64;1;2;1;23;1106513971
4;1;2;1;2;2;12043407667
1;128;1;32;178;1;17147020548
1;128;1;16;1;2;4565578268
16;2;1;2;178;2047;1544145746
256;512;1;4;2047;2;1202642766
16;1;2;1;4094;23;17036759251
64;1;2;1;1;23;1428040244
16;1;1;1;1;23;2201899209
8;64;4;1;4094;23;687860904
16;1024;2;64;1;23;482949431
16;4096;2;256;1;23;18446744073709551615
16;4096;4;256;1;23;18446744073709551615
16;1024;16;8;1;23;621423639
16;1;8;1;1;23;17538051208
16;1;2;1;1;23;4308497920
