GLOBAL_SIZE_0;GLOBAL_SIZE_1;LOCAL_SIZE_0;LOCAL_SIZE_1;v_TP_577;v_TP_578;cost
8;16;1;8;1;2;3723615919
64;4096;8;2;4094;23;426778928
4;64;1;2;89;4094;927925265
4096;64;128;2;2;23;18446744073709551615
1;2;1;2;1;89;42394685600
64;2;1;2;89;2047;9452849791
2;64;2;32;46;4094;548531140
16;2;4;1;89;2;4178721674
2;4;2;1;23;1;17694267292
4096;8;64;2;178;2;4426455536
64;32;16;16;2;1;18446744073709551615
128;2;64;2;4094;89;387440259
4096;8;64;8;178;2;18446744073709551615
4096;8;64;2;178;2;4429690541
4096;8;64;2;23;2;4673632723
4096;8;128;2;178;2;18446744073709551615
2;128;2;2;89;46;266553467
128;32;16;1;2047;1;4485117770
1;1;1;1;178;89;36087232879
256;256;64;32;23;1;18446744073709551615
256;8;128;2;178;2;18446744073709551615
4096;512;2;1;178;2;302927422
4096;8;64;2;4094;2;4842138340
4096;8;64;1;178;2;4388407917
1;8;1;1;178;2;15472051187
4096;8;32;2;178;2;2209622254
2048;8;64;2;178;2;4420201226
4096;8;64;1;2047;2;4662783069
4096;16;128;4;178;2;18446744073709551615
4096;32;32;2;178;2;2185397650
4096;8;128;1;178;2;8921924084
4096;4;32;4;178;2;2228864673
4096;4;64;4;178;2;18446744073709551615
4096;4;64;2;178;2;4426569893
1;4;1;4;178;1;19575837125
4096;8;64;1;178;23;402099016
8;32;2;4;4094;2;2591303566
1024;4;256;4;178;1;18446744073709551615
128;16;2;8;2;178;410794513
256;16;256;8;4094;2;18446744073709551615
4096;4;64;4;178;46;18446744073709551615
2048;8;64;1;178;2;4393324083
4096;4;64;1;178;2;4432937661
4096;8;32;1;178;2;2209799665
4096;8;64;1;178;2047;120678920
4096;1;64;1;178;2;4472430105
4096;8;64;1;89;2;4382405099
512;8;128;1;4094;2;9257919449
1;8;1;2;178;2;7886773213
4096;8;64;1;89;23;399906017
2048;8;64;1;89;2;4383852084
1;4;1;2;46;2;14398605333
1;1;1;1;89;2;57829945166
4096;4;32;1;46;2;2189884584
1;8;1;1;89;1;20841191500
1;2;1;2;89;2;28683202570
4096;16;64;8;2047;2;18446744073709551615
4096;8;32;1;89;2;2163031036
4096;16;64;8;178;2;18446744073709551615
1;8;1;2;89;2;7760996250
2048;8;32;1;46;2;2181827424
2048;2;64;1;178;2;4455085409
4096;8;64;8;89;2;18446744073709551615
4096;8;128;1;89;2;8853984911
4096;8;256;1;23;2;18446744073709551615
4096;8;64;2;89;2;4421263963
1024;8;64;2;89;2;4412453299
128;1;16;1;1;2047;1904031617
16;8;16;2;1;89;882878434
1;4096;1;1;46;46;1081336586
4096;4;64;4;89;2;18446744073709551615
2048;8;32;1;89;23;215906463
4096;16;64;8;89;2;18446744073709551615
4096;8;64;1;46;2;4430238958
16;8;16;8;46;1;8319632625
4096;512;32;256;2047;2;18446744073709551615
4;1024;1;8;178;46;439398013
64;32;16;32;1;46;18446744073709551615
512;8;64;2;89;2;4444355291
512;2048;64;2;89;1;8426646018
4096;1024;2;256;89;2;18446744073709551615
1;8;1;1;89;2;15302748054
1;1;1;1;89;2;57829864333
4096;8;32;2;89;2;2180232875
128;1;32;1;2;1;21113095250
4096;2;64;1;89;2;4390302366
2048;8;64;8;46;2;18446744073709551615
64;512;16;4;23;2047;111486126
8;8;2;2;46;46;729777218
256;1;1;1;89;2047;18855288750
512;4096;256;8;4094;1;18446744073709551615
1;1;1;1;1;4094;46672409320
4096;16;128;8;89;89;18446744073709551615
1024;8;128;1;89;2;8861860953
