GLOBAL_SIZE_0;GLOBAL_SIZE_1;LOCAL_SIZE_0;LOCAL_SIZE_1;v_TP_299;v_TP_300;cost
4;1;1;1;1;1;18796632592
16;512;2;64;178;46;18446744073709551615
128;1024;128;1;89;1;772530667
128;32;2;32;2;2;157494963
128;16;2;1;2;2;92496444
64;64;2;32;2;2;157784000
1;64;1;4;2;4094;18446744073709551615
2;2;2;2;46;178;18446744073709551615
1;2;1;1;1;2047;11002919259
128;1;1;1;2;1;481251556
4096;16;8;8;1;4094;18446744073709551615
256;4;16;4;89;178;18446744073709551615
128;1;2;1;2;2;434485778
128;2048;2;32;2;2;34468445
128;16;2;1;1;2;118320000
128;16;2;16;178;2;23393926
128;16;2;16;1;2;295573333
32;16;2;16;178;4094;18446744073709551615
4096;1;2;1;178;2;69820000
128;512;2;128;178;2;15069778
128;512;8;128;178;1;18446744073709551615
128;512;2;128;178;46;18446744073709551615
4096;512;2;128;178;2;25851260
128;512;2;4;178;2;18932593
128;512;1;128;178;1;35484296
256;1024;2;128;178;2;13408148
128;32;1;2;178;2;45084148
128;512;1;128;178;2;24801778
128;1024;1;32;178;2;19126815
256;2048;2;128;178;2;12652444
256;512;4;128;178;2;18446744073709551615
128;1024;2;128;178;23;5528148
64;1024;2;256;89;23;18446744073709551615
16;1024;2;256;178;23;18446744073709551615
64;1024;2;128;178;2;18342963
128;512;2;128;178;23;4877482
128;512;8;128;178;23;18446744073709551615
512;512;4;128;178;23;18446744073709551615
32;512;1;128;178;46;18446744073709551615
512;512;1;128;178;23;6761037
128;4;2;1;2;23;77066370
128;4;128;2;178;23;432899259
128;512;2;64;178;23;2894074
512;512;2;128;178;23;4132592
128;512;64;64;178;23;18446744073709551615
128;1;2;1;178;23;146908148
128;512;128;64;2;1;18446744073709551615
128;512;64;128;1;23;18446744073709551615
128;128;2;64;178;23;3527111
32;512;2;64;89;23;5486518
64;128;1;64;178;23;7589038
128;512;4;128;178;23;18446744073709551615
128;1;2;1;178;23;149037777
128;512;2;64;46;23;5418519
128;32;2;1;178;23;93631556
4096;512;2;64;178;23;2657630
4096;8;2;4;178;23;24617482
4096;512;2;64;178;89;18446744073709551615
2;512;1;64;178;1;64848889
64;512;2;64;178;23;3497333
1;256;1;32;178;23;79343111
4096;512;2;128;178;23;4089333
4096;512;2;64;89;1;19948740
4096;1024;2;64;178;23;2562519
4096;1024;1;64;178;23;4206074
2048;1024;2;64;2047;23;18446744073709551615
4096;1024;2;32;89;23;2193037
4096;4096;2;32;89;23;2545926
2048;2048;2;32;178;23;3538370
4096;2048;1;32;89;23;3858074
1;512;1;32;89;23;42108296
2048;1024;2;32;46;46;2367704
4096;1024;1;32;89;23;3687704
4096;1024;2;32;89;2;6897630
4096;4096;1;32;46;23;8218815
16;1024;8;32;89;23;7252000
4096;256;2;32;89;23;4567111
4096;4096;128;32;89;23;18446744073709551615
4096;1024;32;32;89;23;18446744073709551615
4096;256;2;32;46;23;5712592
4096;1024;2;64;89;23;5415851
4096;1024;4;32;178;23;4856000
2048;1024;2;64;89;23;5435556
128;512;2;256;1;23;18446744073709551615
64;16;2;4;1;23;113892593
128;256;2;16;2;2;38074963
2;4096;1;1;46;4094;18446744073709551615
4096;1024;2;32;89;1;11601334
32;1024;2;32;178;23;4529333
4096;1024;8;32;89;23;1643408
2048;8;1;2;89;23;52817185
4096;1024;8;32;2047;23;18446744073709551615
4096;1024;8;32;46;1;18515556
64;1024;8;32;89;4094;18446744073709551615
4096;128;8;32;89;23;1754074
4096;1024;1;64;89;23;5048296
4096;1024;8;16;89;4094;18446744073709551615
4096;1024;8;4;89;23;4493778
2;128;2;32;89;46;74985777
4096;2048;8;32;89;23;1785778
4096;1024;8;64;89;23;18446744073709551615
16;2;8;2;23;2047;18446744073709551615
16;2048;16;64;46;1;18446744073709551615
64;4;4;4;178;1;541025333
256;4096;8;1;4094;2;18446744073709551615
4096;1024;8;1;89;23;17354074
1;128;1;32;89;23;151966371
4096;2;8;2;89;23;12093037
4096;1024;8;32;89;178;18446744073709551615
1;1024;1;16;89;23;27411703
4096;512;32;32;89;23;18446744073709551615
1;512;1;32;46;2;84043555
4096;1024;8;32;46;23;1778519
4096;1024;8;256;89;23;18446744073709551615
512;1024;32;32;89;23;18446744073709551615
4096;1;8;1;89;23;24114667
4096;1024;8;32;1;23;17741778
4;1024;1;32;89;4094;18446744073709551615
4096;512;8;32;89;23;1670222
4096;1024;1;32;2;23;31711703
4096;1024;8;8;89;23;2382371
4096;128;8;32;89;1;20644889
256;1024;8;32;89;23;1832889
32;32;8;32;89;1;294558222
4096;1024;128;32;89;23;18446744073709551615
4096;1024;8;128;89;23;18446744073709551615
2048;128;8;64;89;23;18446744073709551615
4096;1024;8;16;89;23;1919703
4096;1024;32;32;89;2;18446744073709551615
4096;8;8;2;89;23;10340444
4;1024;1;32;89;23;26201777
4096;1024;8;4;89;89;18446744073709551615
1;1024;1;32;89;23;29541482
4096;4096;8;64;89;23;18446744073709551615
4096;512;8;128;89;23;18446744073709551615
4096;32;8;32;89;23;2061185
16;8;2;2;1;23;355243408
512;32;2;16;178;2047;18446744073709551615
2;8;2;8;2;4094;18446744073709551615
64;2048;32;64;23;4094;18446744073709551615
2;64;2;2;2;2;398361037
1;512;1;32;89;23;43206963
4096;1024;8;32;89;1;17627111
1;2048;1;32;23;23;14789778
4096;16;8;1;89;23;17326222
8;1024;8;32;89;23;7071703
4096;1024;8;32;2;23;9539704
256;256;8;128;2;2047;18446744073709551615
128;64;32;32;89;23;18446744073709551615
4096;1024;8;32;178;23;1823852
1;1024;1;64;89;23;27843703
4;4;1;1;4094;2047;18446744073709551615
4096;1024;8;32;89;2047;18446744073709551615
64;1024;8;32;89;1;36331259
16;16;4;4;178;2047;18446744073709551615
4096;1024;4;32;89;23;1638222
4096;1024;8;16;46;2;10154371
4096;256;8;16;89;23;1976148
1024;256;4;32;89;23;1848000
2048;1024;4;32;89;23;1630222
2048;1024;8;32;89;23;1640000
4096;1024;4;32;89;2;5531259
2048;1024;4;64;89;23;2004889
4096;1024;4;16;89;89;18446744073709551615
1024;1024;4;32;89;23;1625629
2048;1024;4;16;89;2;9539407
512;1024;4;32;89;23;3341185
2048;2048;8;32;89;46;3126222
1024;512;2;32;89;2;20114815
512;1024;4;64;89;23;3842666
1024;1024;2;32;89;23;4243703
1024;2048;4;16;89;23;3956000
1024;4096;4;32;46;2;11874963
1024;1024;4;8;89;2;18747556
512;1024;2;32;89;23;4238519
1024;1024;4;32;178;23;4760445
1024;1024;4;16;89;23;3949925
1024;1024;4;32;89;46;4337333
1024;1024;8;32;2047;23;18446744073709551615
1024;1024;16;32;89;23;18446744073709551615
1024;512;4;32;89;23;3413926
1024;1;4;1;89;23;51999259
1024;4096;2;32;89;23;2158519
1024;1024;4;64;89;46;1901482
256;1024;1;32;2047;2;18446744073709551615
1024;1024;1;32;89;23;3634075
1024;1024;4;32;23;23;2049037
2048;4096;4;32;89;23;1792445
1024;1024;4;128;178;23;18446744073709551615
1024;4096;4;32;89;23;1620593
512;4096;4;32;178;23;2376740
1024;4096;8;32;89;23;1671556
1024;4096;4;64;89;23;1780000
2048;1;4;1;46;2;92115852
1024;4096;1;64;46;23;5645037
1024;4096;2;32;46;23;2270519
128;1;4;1;89;23;170101630
1;4096;1;32;89;23;17171111
1024;4096;8;32;178;23;1942518
1024;2048;4;16;89;46;3416000
128;4096;4;32;89;23;2168445
512;4096;2;32;89;23;2111704
1024;4096;4;32;46;23;1528444
1024;1;4;1;178;23;56037778
1024;4096;4;16;89;23;1992444
2048;2048;8;32;46;23;1730963
1024;512;4;32;46;23;2033185
1024;2048;4;32;46;23;1577630
1024;1;16;1;46;23;40344741
2048;4096;2;32;46;2;3612444
1024;4096;4;32;23;23;2008889
4096;2048;4;32;23;23;2117778
1024;1;4;1;46;46;66798815
1024;4096;4;16;46;23;1585778
1024;1;4;1;1;23;55137630
1024;4096;16;32;46;23;18446744073709551615
512;4096;4;32;46;46;1571111
1024;1;4;1;23;23;38497778
1024;4096;4;32;89;2;5728740
1024;1;4;1;46;23;38228000
1024;4096;4;32;46;46;1571556
1024;1;2;1;89;23;66780148
512;512;4;32;23;23;2584148
1024;4096;4;64;46;23;1709778
512;4096;4;32;23;2;7587703
1024;4096;8;32;46;23;1816296
1024;4096;2;32;23;23;2900297
512;4096;4;32;46;23;1583408
1024;1024;4;32;46;46;1642963
1024;4096;4;8;46;23;3073037
512;4096;1;32;46;23;3719852
2048;4096;4;32;46;46;1718370
1024;4096;4;32;23;46;1613630
1024;4096;4;32;46;1;10047408
128;4096;4;32;46;23;2474074
1024;128;16;32;23;2047;18446744073709551615
512;1;256;1;1;46;695141630
2048;128;8;8;23;46;1835704
128;2;32;2;4094;89;18446744073709551615
1024;4096;4;256;46;23;18446744073709551615
1024;4096;4;32;2047;23;18446744073709551615
128;32;4;32;4094;23;18446744073709551615
1024;4096;4;32;2;23;14406519
1024;4096;8;32;23;23;2094370
1024;4096;4;32;178;23;2382370
512;1024;4;32;46;23;1942222
256;64;32;16;46;2047;18446744073709551615
2048;4096;4;32;23;23;2101482
1024;4096;4;32;1;2047;125888889
1024;4096;4;32;1;1;162365482
1024;4096;8;64;46;23;18446744073709551615
64;4096;4;32;46;23;3620297
512;1;4;1;46;23;57200741
2048;2048;4;32;46;1;10048148
512;1024;4;32;178;23;2376296
4096;4096;2;32;46;23;2578815
4;64;4;2;46;2047;18446744073709551615
2048;4096;16;64;46;23;18446744073709551615
1;4096;1;32;46;23;24288593
1024;4096;1;2;46;23;38193185
32;4096;4;32;46;23;5474371
16;64;1;4;46;2047;18446744073709551615
2;64;1;2;1;89;301224593
4096;256;64;128;4094;89;18446744073709551615
32;1024;2;128;89;1;25713629
1024;4096;1;16;46;2;6305334
1024;1;4;1;1;2;144835556
1024;64;32;32;46;2047;18446744073709551615
2048;4096;4;32;46;1;10074370
1024;4096;16;64;46;23;18446744073709551615
512;4096;4;256;46;2;18446744073709551615
1024;4096;4;32;46;1;10111112
128;4096;1;32;178;23;6219851
1024;4096;4;32;46;4094;18446744073709551615
1024;4096;4;8;46;1;16209630
1024;4096;4;128;46;46;18446744073709551615
1024;1024;2;64;46;23;4952296
256;4096;4;32;46;23;1942963
1024;4096;4;16;23;1;11465037
1024;128;4;32;4094;23;18446744073709551615
1024;2048;4;32;23;23;2016148
128;32;2;2;178;1;71663408
4;2048;2;16;23;1;64114667
64;1;16;1;89;89;18446744073709551615
1024;8;1;2;89;46;89213333
1024;1;4;1;46;23;38635703
1024;1;8;1;46;23;34788741
1024;4096;4;32;46;178;18446744073709551615
1024;4096;4;32;46;2047;18446744073709551615
1024;4096;4;128;46;23;18446744073709551615
1024;1;4;1;2;23;45978963
2048;4096;2;16;89;23;3777481
1024;1;8;1;46;23;34724593
1024;1;4;1;89;46;50087111
1024;1;2;1;46;23;66825185
2048;1;4;1;46;23;38094519
1;4096;1;32;2;23;85990223
1024;2048;1;32;46;23;3914666
1;1;1;1;178;2;25672657482
1024;1;4;1;46;46;49089037
2048;4096;4;32;46;23;1698518
1024;4096;4;32;89;1;9775407
1024;2048;8;32;46;46;1694519
4096;4096;4;32;46;23;1748740
256;4096;2;16;89;23;3448000
4096;4096;16;32;89;23;18446744073709551615
4096;1;8;1;46;23;23630370
1024;2048;1;32;89;23;3591259
2048;4096;4;32;46;2;5766370
1024;2;1;2;46;23;61673037
16;4096;4;32;46;23;8363259
1;1024;1;64;89;4094;18446744073709551615
256;64;128;16;4094;23;18446744073709551615
4;1;1;1;4094;23;18446744073709551615
4;64;1;1;1;2;285044148
1024;1024;2;32;23;23;4943852
2048;1024;2;32;46;23;2605629
1024;2048;4;64;23;23;2339704
1024;4096;1;32;46;89;7946815
1024;4096;4;1;46;23;23673481
64;16;32;1;46;2;509237334
1024;1;1;1;46;23;122399852
1024;4096;2;32;46;2;5438370
1024;2048;4;8;46;23;2945037
1024;4096;2;64;46;23;3329630
1024;2048;4;32;46;2047;18446744073709551615
2048;1;1;1;178;89;18446744073709551615
256;512;1;32;2;2047;18446744073709551615
4;2;2;1;2;23;2710310666
128;1024;128;64;2047;1;18446744073709551615
1024;1024;4;32;2;23;14784741
1024;1;4;1;89;2;89567111
4096;4096;4;16;23;23;1958074
1;2048;1;32;46;46;22091851
1024;4096;4;32;23;2;7556889
512;4096;16;32;46;23;18446744073709551615
512;2048;4;32;23;23;2065778
1024;1;8;1;23;2;180322667
512;4096;4;16;89;46;3414222
64;4096;4;32;46;46;2081778
256;4096;2;32;46;23;2429185
1024;1;4;1;46;2;86154074
1024;4096;4;32;46;89;2503704
512;4096;2;32;46;23;2287704
2048;4096;4;64;46;23;1726667
2048;4096;4;16;46;23;1746667
1024;1024;4;128;46;23;18446744073709551615
1024;1;16;1;46;46;35475111
1024;4096;4;128;23;23;18446744073709551615
1024;4096;256;32;46;23;18446744073709551615
1024;4096;4;2;46;23;11836000
2048;4096;2;8;46;46;6550667
1024;1024;4;4;46;23;5810222
1024;2048;4;32;46;2;5790815
1024;4096;8;32;46;2;9692297
1;2;1;1;23;2047;18446744073709551615
128;1;1;1;1;4094;18446744073709551615
1;16;1;8;2;4094;18446744073709551615
8;32;2;8;89;178;18446744073709551615
256;4096;4;32;46;4094;18446744073709551615
1024;4;4;4;46;23;10142074
1024;4096;32;32;46;23;18446744073709551615
1024;2048;4;32;89;89;18446744073709551615
1024;4096;8;8;46;23;1904148
1;4096;1;32;46;23;25885185
1024;4096;2;16;46;23;2740889
1024;512;4;32;23;23;2234963
4096;4096;4;32;23;23;2057630
1024;1;4;1;46;23;38198074
1024;64;2;32;46;23;3078963
1024;2048;4;64;46;23;1918667
1024;2048;4;8;46;2;8584889
128;512;2;32;1;1;124802963
64;1;2;1;1;23;438578518
128;32;2;2;1;2;91834222
16;4096;4;4;46;4094;18446744073709551615
4096;4096;8;64;46;23;18446744073709551615
1024;4096;1;32;89;23;3680445
1;32;1;16;178;2047;18446744073709551615
2;8;2;8;2;4094;18446744073709551615
2048;1024;32;64;46;23;18446744073709551615
2;4096;1;2;2;2;56825926
512;4096;2;32;23;23;2947556
4096;4096;4;16;46;23;1936740
1024;2048;32;32;46;23;18446744073709551615
512;1;256;1;2047;46;18446744073709551615
2048;128;1;2;23;46;50358666
128;2;32;2;1;89;293754222
2;64;2;2;2;89;159235704
2048;256;64;128;4094;89;18446744073709551615
32;4096;2;128;89;1;38041185
128;4;2;2;178;2047;18446744073709551615
4;2048;2;16;23;46;9914074
1;1;1;1;178;1;39270856148
2048;4096;8;64;46;23;18446744073709551615
2048;2048;4;64;46;23;1845629
128;8;2;2;89;46;44359111
1;8;1;4;89;4094;18446744073709551615
256;64;128;1;1;1;598084888
4;1;2;1;46;23;4344433037
1024;4096;8;32;89;2;9288000
1;1;1;1;1;2;47411559555
2048;1;1;1;1;89;508157185
256;512;2;32;2;2047;18446744073709551615
512;2;1;1;2;23;115900148
1024;4096;4;16;178;23;3804593
128;1024;128;1;4094;1;18446744073709551615
128;2;32;1;46;2047;18446744073709551615
1;1;1;1;2;1;54098555555
1;16;1;8;1;4094;18446744073709551615
128;4096;2;32;46;23;2809482
256;4;16;2;89;178;18446744073709551615
128;128;2;2;2;1;85257926
64;16;2;4;89;23;19631704
1024;4096;8;64;89;23;18446744073709551615
2048;4096;8;32;23;23;2137481
1024;2048;2;32;46;23;2421926
128;256;2;64;2;89;38923704
2048;1;4;1;46;4094;18446744073709551615
512;32;256;16;178;2047;18446744073709551615
2;8;2;8;1;4094;18446744073709551615
256;4096;4;64;46;2;5476297
256;4096;4;4;23;23;5250667
64;2048;1;64;23;4094;18446744073709551615
256;1;256;1;2;2;20506490667
512;1;256;1;23;46;415740593
2048;128;1;8;23;46;10543703
256;4096;4;64;46;46;1750814
4096;2048;4;32;46;23;1681629
4096;4096;8;32;46;23;1942667
1024;1024;4;32;46;23;1757926
128;2;2;2;1;89;222010519
1024;16;1;2;1;178;203869630
4096;256;256;128;46;89;18446744073709551615
32;1024;2;128;178;1;33302815
1024;1024;4;32;46;89;2564148
4096;1024;4;32;89;89;18446744073709551615
1024;4096;2;128;46;89;3261629
1;4096;1;32;46;23;25932445
1024;8;4;4;46;23;8432296
1024;128;4;16;46;2;6454519
1024;4096;4;4;46;23;6115556
1024;2;4;2;46;23;19103407
256;4096;1;2;46;23;35267111
128;16;2;1;178;1;141502223
4;2048;2;16;89;46;9654667
1;1;1;1;4094;1;18446744073709551615
128;8;64;2;89;1;2063713777
1024;4096;2;32;2;23;16779111
32;1024;1;8;1;23;64124148
256;1024;128;1;1;1;337956741
4;1;1;1;46;23;4097951111
32;64;1;2;1;2;130622815
2048;4096;4;32;2047;23;18446744073709551615
1024;32;4;32;46;23;2436741
1024;4096;128;32;46;23;18446744073709551615
64;4096;4;32;46;178;18446744073709551615
1024;2048;4;32;2;23;15188888
1024;4096;4;128;46;178;18446744073709551615
1024;4096;1;32;46;23;3708593
2;4096;1;32;46;1;66905037
1024;1;1;1;46;23;122338518
1024;8;4;4;46;46;8855704
1024;16;4;1;46;1;128908593
1024;4096;64;32;46;23;18446744073709551615
2;4096;1;32;1;23;87116149
512;1;4;1;1;23;85667407
1024;128;4;32;46;178;18446744073709551615
4;4096;4;32;46;23;7617037
1024;4096;4;16;4094;23;18446744073709551615
1024;2;4;2;46;23;19226370
1;4096;1;1;46;23;182823852
1024;64;256;32;46;23;18446744073709551615
8;4096;2;32;46;23;14627259
1024;4096;4;32;1;23;27804741
4;4096;1;2;46;23;52410370
2;2048;1;32;46;23;28623407
4096;1024;4;64;46;23;2326815
1024;512;4;32;46;2047;18446744073709551615
1024;4096;4;32;178;2047;18446744073709551615
1024;1024;128;32;46;23;18446744073709551615
8;4096;4;32;46;23;7860148
4;4096;4;32;1;23;38481482
1024;4096;4;32;1;23;27202963
1024;4096;4;2;46;4094;18446744073709551615
1024;4096;4;64;46;1;11198074
16;4096;4;8;46;23;7833629
1024;4096;2;1;1;23;38308741
1024;16;4;1;46;23;22976296
512;4096;1;32;46;23;3706222
1024;4096;4;32;89;4094;18446744073709551615
1024;256;4;128;46;23;18446744073709551615
1024;4096;256;256;46;23;18446744073709551615
1024;64;4;32;46;23;2447259
1024;8;4;2;46;23;13583260
1024;128;4;32;178;23;2567259
1024;4096;4;128;1;23;18446744073709551615
128;4;1;2;46;23;61782222
1024;1024;4;256;46;23;18446744073709551615
1024;4096;4;64;1;23;27994074
8;4096;4;32;46;1;61624000
1024;4096;16;8;46;23;5491555
1024;4096;1;32;46;23;7208889
1024;4096;256;32;4094;23;18446744073709551615
1024;4096;4;32;1;178;37545333
1024;4096;4;2;2047;23;18446744073709551615
1024;4096;4;4;2;23;9504593
1024;4;2;4;46;23;17427112
1024;4096;4;2;46;2;32464741
1024;4096;4;256;23;23;18446744073709551615
256;64;4;32;1;23;57649926
1024;256;4;64;46;23;2811556
256;4096;4;1;46;2047;18446744073709551615
32;4096;4;64;46;1;28420593
64;4096;4;32;46;89;2568296
64;4096;4;32;1;23;30157333
256;16;4;1;178;23;53722074
1024;256;4;32;46;23;2344296
1024;4096;2;4;46;23;10795704
1024;4;4;4;46;4094;18446744073709551615
1024;4096;64;32;2;23;18446744073709551615
2048;1024;4;32;178;23;2326963
4;4096;4;32;23;23;8657629
1024;16;64;1;46;23;10440445
1024;16;4;2;46;178;18446744073709551615
1024;4096;32;32;89;23;18446744073709551615
2;4096;1;32;46;1;66129037
1024;1;1;1;46;23;122314222
1024;4096;4;256;46;1;18446744073709551615
1024;1024;16;32;46;23;18446744073709551615
2;4096;2;32;23;23;15610222
2048;2048;4;32;46;23;1580889
1024;32;4;32;23;23;3075111
1024;2;4;2;4094;23;18446744073709551615
1024;2;4;2;46;4094;18446744073709551615
16;8;4;2;46;23;161418814
1024;2;4;2;46;1;83060444
4096;1;4;1;46;23;38050963
1024;4096;32;32;46;46;18446744073709551615
1024;4096;8;32;46;2047;18446744073709551615
1;4096;1;32;46;46;24641185
1024;64;4;1;46;23;22266371
1024;1;4;1;46;23;38291556
64;128;4;32;46;23;4495556
1024;4096;8;128;46;23;18446744073709551615
2;4096;1;32;46;4094;18446744073709551615
1024;4096;4;128;178;23;18446744073709551615
1024;1;4;1;46;46;48935556
1024;8;4;2;46;46;16308593
2;4096;1;128;46;23;14912740
1024;8;256;2;46;23;18446744073709551615
16;1;4;1;46;1;7111621778
1024;4096;4;32;4094;23;18446744073709551615
1024;512;32;32;46;23;18446744073709551615
1024;8;32;2;46;23;7179260
4;4096;4;32;2;23;20026370
256;256;4;32;46;23;2983407
1024;4096;16;16;23;23;3122667
4096;4096;4;32;46;46;1805630
2048;1;1;1;1;1;222464148
1;512;1;1;2;1;204833037
512;2;1;1;1;1;246229037
128;1024;128;1;2047;1;16614391852
1;2;1;1;1;2047;11000984888
128;1;1;1;2;89;411808741
1;512;1;8;2;4094;18446744073709551615
256;32;16;8;89;178;18446744073709551615
1024;128;1;2;178;1;64424445
64;16;1;4;89;23;35092148
128;16;2;16;2;2;157417482
2;1;2;1;46;46;7821370667
1024;32;4;32;46;89;4900000
2;1024;2;16;178;2047;18446744073709551615
2;8;2;4;46;4094;18446744073709551615
8;2048;1;64;23;4094;18446744073709551615
2;2;1;2;2;2;9396805333
1024;4096;4;1;46;23;23630666
1024;4096;8;16;46;23;1713926
1024;8;64;2;46;23;19438222
1;1;1;1;46;2;25194118074
1024;4096;4;8;23;23;2747259
512;1;256;1;1;46;692701778
512;4096;2;8;46;46;5798666
2048;32;1;8;23;46;13592297
128;1;2;1;1;89;264681630
4096;64;8;2;2;1;80933481
4096;256;16;2;23;89;4171704
32;1;2;1;89;4094;18446744073709551615
1024;32;8;2;1;89;17758370
4;1;2;1;2;46;4932488000
1;64;1;4;46;2;441612297
512;4096;4;32;89;2;6634222
1024;4096;4;32;2;46;13793185
2048;4096;4;32;178;23;2573037
128;4096;8;32;89;23;2310962
1024;4096;8;4;23;23;3312444
1024;4096;4;64;89;2;5006963
512;4096;2;64;46;23;3332149
512;512;4;64;46;23;2745185
1024;1;4;1;46;2;119457926
1024;1;8;1;46;46;28518815
2048;4096;2;32;46;46;2436593
256;4096;4;16;46;23;1697037
2048;1;4;1;46;46;48964148
1;4096;1;128;178;46;18446744073709551615
2048;1;4;1;89;23;38996148
512;2048;4;32;46;1;10893185
512;4096;4;64;46;23;1870815
512;1;2;1;46;23;67561185
1024;4096;4;16;46;46;1730519
1024;4096;4;8;46;2;8536593
1024;4096;4;128;46;2;18446744073709551615
2048;4096;4;16;46;46;1897185
1024;2048;8;16;46;23;1670963
1024;2048;2;128;46;23;3522223
2048;1024;2;64;46;23;4866667
1024;2048;8;32;46;23;1816444
1024;4096;8;32;46;46;1707556
256;4096;2;16;46;23;2709778
2048;4096;4;32;46;89;2684593
1024;2048;4;32;89;46;2079407
128;2048;4;16;46;23;2162815
1024;4096;4;8;46;46;3319111
2048;4096;4;8;89;23;4149185
1;4096;1;32;89;89;18446744073709551615
256;4096;16;64;46;23;18446744073709551615
1024;1;4;1;46;1;165278370
2048;1;8;1;46;23;23682223
1024;2048;4;16;46;23;1535259
512;4096;4;16;46;23;1572296
256;4096;4;32;46;2;7045333
512;1;4;1;23;23;59372000
512;4096;4;64;89;46;1784444
1024;1;4;1;2;23;46997186
1024;4096;4;64;46;2;5247111
512;2048;4;32;46;23;3327704
4096;4096;4;32;89;2;11858518
1024;1;4;1;23;23;52558074
2048;4096;4;128;46;23;18446744073709551615
512;4096;16;16;46;23;2540000
256;1024;4;32;46;23;2329333
1024;4096;4;32;178;46;18446744073709551615
2048;4096;2;32;46;23;2461629
1024;2048;4;32;89;23;1580296
1;4096;1;32;46;2;57514519
512;4096;4;32;23;23;2036148
1024;1;2;1;46;23;66818518
2048;4096;4;4;46;23;6641037
2;8;2;2;89;46;1044510222
4096;1024;16;8;23;23;2975704
256;1024;128;16;1;1;18446744073709551615
64;1;4;1;46;46;298238518
1024;4096;16;16;46;2;17556445
32;64;1;1;1;2;144405037
2048;1;1;1;1;1;222140741
1;512;1;1;2;1;204795704
512;1;64;1;2;23;272596741
128;1024;2;256;89;1;18446744073709551615
1;1;1;1;1;2047;22056113778
128;1;1;1;2;1;495975111
4096;256;16;8;89;2047;18446744073709551615
1024;4096;16;32;89;23;18446744073709551615
512;1024;2;16;46;23;2671259
256;512;16;64;89;178;18446744073709551615
1024;128;1;8;1;1;112721926
64;1;2;1;89;23;294230963
2048;256;1;16;2;2;43616592
1;1;1;1;89;23;16552629038
2;1;2;1;46;46;7853680741
512;32;1;16;178;1;34008889
2;8;2;2;4094;4094;18446744073709551615
512;256;32;1;23;1;132944592
2048;4096;4;32;1;46;25526222
1024;4096;4;16;23;23;1730222
1024;4096;2;32;46;46;2254370
1;4096;1;32;46;2;58128592
1024;4096;8;32;23;1;22974074
2048;1;4;1;23;23;39510222
64;4096;8;32;46;23;2964889
2048;4096;4;32;89;89;18446744073709551615
256;2048;2;32;46;23;2642963
1024;4096;4;32;89;46;2121037
1024;256;4;32;23;23;2714518
1024;2048;8;32;23;23;2133482
1024;1024;4;128;46;2;18446744073709551615
1024;4096;2;32;178;23;3531556
256;4096;4;32;89;23;1753185
1024;4096;2;32;178;46;18446744073709551615
1024;1024;16;32;46;46;18446744073709551615
1024;256;4;32;46;2;7446815
2048;4096;8;32;46;23;1853037
2048;4096;4;64;46;46;1670666
1;4096;1;32;23;23;20659112
1024;2048;2;32;46;89;4393926
4096;4096;4;64;46;23;1754074
4096;1024;2;32;46;2;5694667
256;4096;4;16;46;2;8894666
2048;4096;2;64;23;23;2847259
1024;2048;4;32;46;46;1591260
1024;4096;4;64;2;2;44301482
1024;512;4;128;46;23;18446744073709551615
2;128;1;2;2;1;284771555
