GLOBAL_SIZE_0;GLOBAL_SIZE_1;GLOBAL_SIZE_2;LOCAL_SIZE_0;LOCAL_SIZE_1;LOCAL_SIZE_2;TILE_0;TILE_1;TILE_2;cost
32;128;2;8;2;2;16;128;2;2563290685
256;64;1;1;4;1;1;32;8;18446744073709551615
1;2;64;1;1;1;1;128;1;76998319166
128;8;128;128;2;1;1;2;4;18446744073709551615
32;128;2;8;2;2;16;128;4;2581629424
4;64;2;1;4;1;8;16;128;4356247351
32;128;2;8;1;2;16;1;2;3399806225
32;128;4;8;2;1;16;128;2;11187606575
1;256;1;1;32;1;1;8;1;8426550375
32;32;4;8;2;2;128;2;256;8173171264
32;16;256;4;1;2;8;1;16;18446744073709551615
2;128;64;1;1;8;32;4;1;18446744073709551615
2;16;32;1;8;32;4;2;32;10036483711
2;32;128;2;2;4;8;2;1;18446744073709551615
32;1;4;8;1;4;128;2;1;5184912950
2;64;32;1;16;4;32;256;1;18446744073709551615
4;256;256;1;32;2;256;256;4;18446744073709551615
1;1;32;1;1;32;1;1;16;5353583041
16;1;1;16;1;1;64;256;16;4696163532
8;2;1;2;2;1;2;256;1;4899842533
32;128;1;2;128;1;8;128;4;1144115708
32;128;2;8;2;2;16;256;2;18446744073709551615
16;128;2;8;2;2;16;128;2;2133451417
32;128;2;8;2;2;16;128;2;2612763410
32;128;1;2;64;1;8;128;4;1273873086
32;128;1;2;64;1;8;64;4;1180831359
32;128;1;8;2;1;32;128;4;2830419798
32;128;1;2;128;1;4;128;4;1197605193
32;128;1;2;1;1;8;128;4;3474095485
32;128;1;2;128;1;8;128;16;1097899058
32;32;1;4;2;1;8;128;4;2526837546
64;256;1;1;128;1;8;128;32;1782232232
32;128;1;2;1;1;4;128;16;3333516556
32;128;1;4;64;1;8;128;16;1315991261
32;128;1;2;128;1;8;64;16;2382195318
32;128;1;2;32;1;8;128;32;1718948792
32;128;1;2;1;1;8;128;32;3339987207
32;128;1;2;1;1;4;128;8;3351066194
32;128;2;2;128;1;8;128;16;2461521292
4;128;32;2;128;1;8;128;16;101051864125
32;256;1;2;32;1;32;32;16;3377989208
32;1;1;2;1;1;8;128;16;3409506667
1;128;1;1;128;1;8;32;16;8503884854
32;128;1;2;128;1;8;128;16;1106381517
32;128;1;2;128;1;8;8;16;13673650848
32;256;1;2;128;1;8;128;16;826472558
32;256;1;2;128;1;8;128;16;822923470
32;256;1;2;2;1;8;128;16;3199932167
256;256;1;128;2;1;8;128;16;36904406246
32;64;1;2;1;1;8;128;16;3370965860
128;256;1;128;2;1;8;128;16;31668091125
32;256;8;2;128;1;8;128;16;6702443987
32;256;1;2;128;1;256;128;16;106761431990
32;256;1;32;8;1;8;128;16;8995550374
32;256;8;2;1;2;8;128;16;11443516708
32;256;64;2;128;1;8;128;16;53462548791
4;256;1;2;128;1;8;128;16;1549972781
32;16;1;2;4;1;8;128;16;3554850977
32;2;1;2;2;1;1;128;16;5502808667
32;256;1;2;16;1;8;128;16;2145114215
32;256;1;2;128;1;8;128;16;812727019
32;256;256;2;128;1;8;128;16;18446744073709551615
32;256;1;2;128;1;1;1;16;18446744073709551615
32;256;1;2;128;1;8;128;64;845416346
32;4;1;2;2;1;8;128;16;3266302150
32;256;1;2;64;1;8;128;16;1236018789
2;256;1;2;128;1;8;128;16;1620331818
32;256;1;2;128;1;8;128;16;839137390
16;256;1;4;1;1;8;128;256;3550529348
32;256;2;2;128;1;8;128;16;1666856236
32;256;1;32;8;1;8;128;16;8733791375
32;256;1;2;128;1;64;128;16;3870602541
32;256;1;2;16;1;8;16;16;993006003
32;64;1;2;1;1;8;128;16;3383109422
32;256;2;2;128;1;8;128;16;1652230923
16;256;1;8;2;1;8;64;16;2127523745
32;256;1;2;128;1;8;256;8;2558701323
32;256;1;1;128;1;8;128;32;1739636708
32;256;1;2;2;1;32;128;16;2132543822
32;16;1;4;4;1;8;128;256;2084499100
32;256;8;1;128;1;8;128;16;14601157000
32;128;1;4;1;1;1;128;16;11973984833
32;256;1;2;128;1;8;128;16;822620518
32;256;1;2;128;1;8;1;1;18446744073709551615
32;256;1;2;128;1;8;128;128;842621053
4;128;64;4;1;4;4;1;8;60142898089
1;32;64;1;8;2;256;256;1;18446744073709551615
2;256;8;1;256;1;1;2;64;18446744073709551615
16;1;1;8;1;1;64;64;256;4709181796
32;256;2;2;128;1;8;256;16;5004799125
16;256;1;4;1;1;8;128;16;3649411823
16;256;2;2;128;1;8;128;32;2148761014
16;256;2;4;1;2;16;256;16;18446744073709551615
16;1;128;16;1;1;1;64;128;18446744073709551615
64;1;8;16;1;2;256;16;16;51142015542
128;16;256;4;1;2;4;1;8;18446744073709551615
64;32;1;32;1;1;8;64;4;9411971441
32;256;1;16;4;1;8;128;16;4076219093
32;256;8;2;128;1;8;128;128;6912545545
32;1;256;2;1;2;8;16;16;18446744073709551615
128;256;1;128;2;1;8;128;16;33327469875
32;256;1;2;4;1;8;128;1;3870398375
32;256;1;2;128;1;8;4;16;26642605902
32;256;1;2;128;1;8;128;8;860795048
32;256;1;2;128;1;8;128;128;836198342
32;16;1;2;8;1;8;128;16;2794708100
128;256;1;128;2;1;8;128;64;33137523833
32;256;1;2;128;1;1;128;16;2597419417
32;256;8;2;128;1;8;128;16;6612032683
32;256;1;2;128;1;8;128;32;832056897
32;2;1;2;2;1;8;128;16;3714038107
32;256;1;16;8;1;8;128;16;3984980373
32;1;128;2;1;64;8;128;16;15434744625
32;256;1;2;128;1;8;128;16;820243542
32;256;1;2;128;1;128;128;16;4549675046
32;256;1;2;128;1;32;128;16;2903071937
32;256;256;2;128;1;8;128;16;18446744073709551615
32;256;1;8;2;1;8;32;1;2903207671
1;256;1;1;1;1;8;128;16;31142318089
32;64;1;2;1;1;8;4;16;1652744877
32;256;32;8;16;2;8;128;16;54096710129
16;256;1;4;1;1;8;128;16;3621953926
32;256;1;2;1;1;1;128;8;6059179336
32;256;1;2;128;1;8;128;16;843274647
32;1;1;2;1;1;8;128;16;3418083892
32;256;128;2;128;1;8;128;16;108171563083
32;256;1;2;128;1;8;128;16;824277502
32;256;1;16;4;1;8;128;16;4106880721
32;256;1;2;128;1;8;128;2;932258192
32;256;256;32;8;1;8;128;4;18446744073709551615
32;256;256;2;16;2;8;128;16;18446744073709551615
8;256;1;8;2;1;8;128;16;3669014986
32;1;1;2;1;1;8;256;16;3460430727
32;256;2;2;128;1;16;128;16;3548767791
32;256;1;32;1;1;8;128;16;14251792385
32;256;1;2;128;1;8;128;16;822116894
32;256;16;2;128;1;8;128;16;13428021143
4;1;1;2;1;1;1;128;16;31137988589
32;256;1;2;128;1;256;128;2;102801876825
32;1;16;2;1;1;1;128;256;54898520371
1;256;1;1;128;1;8;128;1;2035610589
16;8;8;4;8;2;8;128;16;10594999258
32;16;1;2;4;1;8;128;16;3455435591
128;8;256;64;2;1;2;256;1;18446744073709551615
8;64;32;8;8;2;16;2;64;18446744073709551615
1;1;2;1;1;1;256;8;1;75430231125
32;4;4;16;2;1;1;1;128;18446744073709551615
16;32;1;4;1;1;1;1;64;11540370583
32;256;128;2;128;1;128;128;16;18446744073709551615
64;256;1;1;128;1;8;128;16;1691733202
32;256;1;2;32;1;8;128;16;1590510549
32;256;1;2;128;1;4;128;16;822329173
32;256;1;32;8;1;8;256;16;18446744073709551615
32;1;2;8;1;2;8;128;16;3258943125
16;256;1;4;64;1;8;128;16;1695533557
8;64;128;4;8;8;128;128;64;56674611320
32;256;1;2;128;1;8;128;256;1275992435
32;256;1;1;1;1;8;128;16;5506377146
32;8;1;2;8;1;8;8;16;2683365598
8;256;32;2;64;1;32;32;256;121932293080
16;256;4;1;1;2;32;8;16;4438627612
4;32;8;2;1;8;8;8;64;2549041419
16;256;8;16;1;8;4;64;256;10642697792
32;256;1;2;1;1;8;128;16;3377809984
32;256;1;2;128;1;8;1;16;18446744073709551615
32;256;1;2;32;1;8;128;16;1703092104
32;1;1;2;1;1;8;128;8;3446259098
32;1;1;4;1;1;8;128;16;3660278943
32;256;1;4;1;1;8;128;16;3783657459
64;2;1;2;1;1;1;2;256;2605590509
256;64;8;8;4;2;1;2;8;18446744073709551615
128;128;2;128;1;2;4;2;16;46137669584
64;16;64;4;2;8;16;8;128;20136215339
32;256;1;2;128;1;8;128;16;819779591
256;256;1;256;1;1;8;128;16;46388364058
32;256;1;2;128;1;8;128;16;811975482
32;256;1;4;1;1;256;128;16;26788013700
32;256;1;2;1;1;8;128;1;3455809663
32;256;1;8;2;1;8;128;1;2532426130
2;256;8;2;128;1;8;128;16;21402761225
32;16;1;2;4;1;8;128;1;3835553708
16;256;1;4;1;1;8;128;16;3658216653
32;256;1;2;8;1;8;128;16;2998955166
32;256;1;4;1;1;8;4;16;2205905559
4;256;256;2;128;1;8;128;16;18446744073709551615
32;16;1;2;4;1;8;128;16;3353811017
32;256;1;2;128;1;8;128;256;1284388077
2;256;1;2;128;1;8;128;16;1597578816
32;256;4;2;128;1;8;128;16;3262745961
32;1;1;2;1;1;8;128;16;3413251400
256;256;8;128;2;1;8;128;16;18446744073709551615
32;256;1;2;128;1;1;128;16;2526999232
32;1;1;2;1;1;1;128;16;4915370875
32;256;32;2;128;1;8;128;16;26760070417
2;2;1;2;2;1;8;128;16;15694564583
64;256;1;1;128;1;4;128;16;1363506474
32;256;1;4;1;1;8;128;16;3848516106
32;256;1;2;128;1;8;128;128;827723866
32;256;1;2;128;1;8;128;2;929933356
4;128;16;2;32;4;8;128;32;14233170927
4;64;16;1;2;2;8;8;16;17795609375
4;64;8;4;1;2;16;64;256;5595645851
2;64;16;1;64;2;64;64;256;23657746403
32;256;1;1;128;1;8;128;1;1803389609
32;256;1;2;4;1;1;128;16;3835452840
32;16;1;2;4;1;4;128;16;2942440875
32;256;1;8;2;1;8;256;16;18446744073709551615
32;128;1;2;1;1;8;128;4;3464590042
8;256;1;8;1;1;8;128;16;4775544305
32;256;1;1;128;1;2;128;8;1426895042
32;256;32;2;128;1;256;128;16;18446744073709551615
32;256;1;2;2;1;2;128;16;2587419285
256;256;1;128;2;1;32;128;16;11803365750
128;256;1;128;2;1;8;128;16;33048151666
2;32;64;1;2;2;8;2;64;111941873331
64;2;2;32;2;1;256;4;1;12752334625
1;8;256;1;8;8;128;4;32;18446744073709551615
