GLOBAL_SIZE_0;GLOBAL_SIZE_1;GLOBAL_SIZE_2;LOCAL_SIZE_0;LOCAL_SIZE_1;LOCAL_SIZE_2;TILE_0;TILE_1;TILE_2;cost
1;16;1;1;4;1;256;2;2;2085633629
1;1;4;1;1;4;128;64;64;2661317186
128;64;32;8;16;1;1;256;32;4773959111
128;1;1;1;1;1;32;16;32;1159032444
128;256;1;1;1;1;32;8;32;140811407
128;256;1;1;256;1;32;32;32;502504000
128;1;2;1;1;2;32;16;32;678691704
128;1;1;1;1;1;32;32;32;1118484444
8;1;32;4;1;2;2;4;256;1383777334
32;1;32;1;1;8;128;16;1;5084599111
8;8;128;4;1;4;8;2;1;929334519
8;32;128;1;16;2;128;32;64;1432484148
2;32;1;1;16;1;64;64;16;179027408
2;4;256;2;1;16;32;256;256;427928444
32;4;64;1;4;4;64;128;1;3870070074
4;2;16;2;2;2;32;16;16;712570074
128;256;2;128;2;1;32;8;32;845457482
128;256;1;2;2;1;32;8;32;48860741
64;256;1;2;2;1;32;8;32;60567704
128;256;1;1;1;1;32;4;32;124451852
1;256;1;1;1;1;16;8;32;263443111
128;64;1;2;4;1;32;8;32;47034222
128;1;2;2;1;2;32;8;32;349883852
128;256;1;2;2;1;32;8;16;57078519
128;32;1;2;8;1;32;8;32;47882370
128;64;1;2;4;1;64;8;32;76616296
64;128;1;4;4;1;32;8;8;49704593
128;64;1;2;4;1;32;16;32;52565778
128;128;2;2;2;2;32;8;32;29401778
128;32;1;2;8;1;32;2;32;185706371
128;64;1;1;4;1;32;8;32;59408445
128;128;2;2;2;1;32;8;32;85555704
128;64;2;1;4;2;32;4;16;32493185
128;128;2;1;2;2;32;8;32;51481630
128;256;2;2;2;2;32;16;32;46173333
128;128;2;2;2;2;32;1;32;22789778
1;256;1;1;32;1;8;4;128;514867111
64;128;2;4;4;2;32;8;128;25894223
128;128;2;32;2;2;32;32;4;99588592
128;128;2;2;8;2;32;1;32;83461926
128;4;2;2;1;2;32;1;32;110063260
128;16;1;2;16;1;32;1;32;636939111
256;128;2;256;1;1;32;1;32;1094390518
128;128;2;2;2;2;32;2;32;17999408
128;128;2;2;2;2;16;1;32;22344296
256;128;2;1;2;2;32;2;32;23577630
128;128;2;2;2;1;32;2;32;58714371
128;128;1;1;2;1;32;2;16;54627704
128;128;2;1;2;1;32;2;32;87395852
64;128;2;4;4;2;32;2;32;46354519
128;128;1;2;2;1;32;2;32;35227852
128;128;2;2;2;2;32;4;32;24292444
128;256;2;2;2;2;32;2;32;19131852
128;128;1;2;2;1;64;1;32;76008148
128;2;128;4;1;1;2;128;16;6833384000
256;256;4;64;1;4;8;1;256;646016593
1;16;2;1;4;2;1;8;16;313108592
64;4;4;4;2;1;1;256;64;371917926
128;256;2;1;1;2;64;2;32;70696889
64;64;2;4;4;2;32;2;32;42716593
128;256;2;1;256;1;32;2;32;10520021334
128;128;2;2;2;2;32;2;128;14900000
128;128;4;1;2;2;32;2;128;43057926
128;64;2;2;4;2;32;1;64;61412889
64;128;2;64;1;2;32;1;128;213004741
128;128;2;2;2;2;4;2;128;14371852
256;128;1;256;1;1;4;2;128;3472057334
128;128;2;2;2;2;2;4;128;14413778
1;128;1;1;2;1;2;2;1;162884889
64;256;2;4;4;2;4;1;128;21021629
128;128;2;2;2;2;4;1;128;21896888
128;128;2;2;2;2;4;4;128;16374222
128;128;8;2;2;2;4;2;128;52765037
128;128;2;2;2;1;4;4;1;83800889
128;32;2;2;8;2;4;2;256;47968444
128;256;1;2;2;1;1;2;128;42424592
256;128;2;1;2;2;4;8;128;22433926
128;128;4;2;2;1;4;2;256;217778814
128;128;2;16;16;1;4;2;128;3801623111
128;1;2;2;1;2;4;2;128;45077185
128;128;2;2;2;2;4;32;128;19946667
128;128;1;2;2;1;4;2;128;26802074
128;128;2;2;1;2;4;2;128;21554370
64;128;2;4;4;2;8;2;128;31669630
128;32;1;2;8;1;4;2;128;73022519
128;128;4;2;1;1;4;2;128;168131259
4;1;4;1;1;1;2;16;1;1775792444
128;128;2;2;128;1;2;2;128;7057341334
1;128;2;1;2;2;4;2;128;40399259
128;128;1;2;1;1;4;2;128;42359556
8;128;8;1;8;2;8;16;128;74557482
128;128;1;2;2;1;4;2;64;27846370
128;128;2;2;2;2;8;2;128;14651851
128;128;2;2;1;2;4;2;256;21390815
4;1;1;1;1;1;8;1;1;2250739111
128;64;4;2;4;1;4;2;128;167300741
128;128;1;1;2;1;2;2;256;108794963
8;128;4;8;1;4;16;4;128;8134815
256;128;2;1;2;2;4;2;64;21594518
128;128;2;2;1;2;8;2;128;21634815
64;1;2;4;1;2;4;2;128;86224296
1;128;1;1;2;1;1;1;1;175191259
8;32;4;8;1;4;16;4;128;13461926
8;128;4;1;64;4;16;4;128;689900000
8;128;4;8;1;4;16;1;128;8431112
4;64;128;2;1;16;8;128;128;239122074
8;128;4;1;64;4;16;4;256;521633037
8;128;4;1;64;4;32;4;128;775769926
16;128;4;8;1;4;16;4;128;9112296
8;128;8;4;32;2;16;8;128;487548593
4;64;2;1;32;2;32;16;64;95507852
4;32;32;4;4;1;32;32;256;390742074
8;16;8;8;2;8;32;8;64;30142519
8;32;32;2;8;4;16;4;16;120876445
32;256;2;4;2;2;32;8;64;24997037
8;256;16;8;1;2;8;4;256;109340148
8;64;32;4;32;1;64;16;128;2859666814
64;64;2;32;1;2;64;4;16;83225037
256;32;2;1;8;1;1;1;4;180692740
256;16;8;32;2;4;64;1;2;319800889
1;1;1;1;1;1;2;8;256;12906821334
8;64;1;2;2;1;8;2;16;23866371
8;256;4;4;64;1;16;2;128;6122198370
8;64;4;8;1;4;16;4;128;8160000
8;64;4;1;64;4;8;4;64;953218963
8;16;8;2;8;1;16;8;16;94407556
16;128;4;4;64;1;16;4;128;3212472888
8;64;4;8;1;1;16;4;128;69337333
8;256;4;8;1;2;16;4;128;19250963
8;32;8;1;2;8;16;8;32;9601037
2;128;32;2;16;4;8;4;128;358137926
1;128;4;1;64;4;16;2;128;6652553777
8;128;4;4;64;1;16;4;32;2756559408
32;256;1;32;4;1;4;1;4;823753777
8;128;4;8;1;4;16;1;64;8705926
8;128;4;8;1;1;4;4;128;141902222
8;128;4;8;32;1;32;4;128;1215584593
8;64;16;1;1;2;32;16;128;292530222
16;128;2;8;1;2;128;64;128;88328149
64;4;64;4;1;1;2;4;8;2900516741
16;32;16;16;1;1;256;4;16;750584000
8;64;1;2;16;1;4;2;16;250491852
8;32;4;4;1;4;16;4;128;12463555
8;128;4;8;1;1;16;4;128;77552592
16;128;4;4;64;1;16;4;256;4198785926
8;64;2;4;32;1;8;4;32;785328445
32;128;4;2;64;2;8;4;128;1839120296
8;128;4;8;1;4;64;4;128;8081925
8;256;1;1;64;1;8;2;128;773873629
8;128;16;8;1;2;64;4;64;170440741
8;128;4;8;1;4;32;8;128;13997630
8;128;4;8;1;4;64;4;64;9380740
16;128;4;1;64;4;64;4;64;1072635111
8;128;4;8;2;4;32;4;128;9756296
4;128;4;2;64;2;64;4;128;1943882815
8;128;4;4;64;1;64;4;64;3124372148
8;128;4;8;4;4;64;4;128;9606370
8;128;2;1;16;1;64;4;128;234549777
4;128;4;2;64;2;64;8;128;988448741
2;128;2;2;64;1;32;4;32;3093960741
8;128;2;8;1;2;64;4;1;63556741
8;64;8;1;1;4;16;8;64;38921333
8;128;2;1;128;1;16;4;64;1951829037
16;256;4;8;2;1;32;8;128;96753630
8;64;8;8;1;1;32;8;128;146416444
8;128;4;8;1;4;32;4;64;9085629
2;128;2;2;64;2;64;4;128;3186504889
8;128;4;8;1;4;128;2;128;12005926
8;128;4;8;1;4;64;2;128;11292741
8;64;4;2;64;2;64;4;128;1889054370
16;256;8;4;32;2;16;4;128;1505860296
32;128;4;2;64;2;64;4;128;2010902815
8;128;8;1;64;4;64;4;128;1447344593
32;128;4;1;32;1;32;4;64;1780833037
8;128;4;8;1;1;32;8;128;64244592
8;256;8;8;1;4;16;4;256;13962074
8;64;16;4;32;1;16;4;64;3903281185
256;1;4;128;1;2;64;4;128;530096149
8;128;4;8;1;2;64;4;128;19400741
8;128;4;1;64;1;64;256;128;337579111
1;128;4;1;64;4;128;4;128;3305141778
8;128;4;1;64;4;64;4;128;1036932445
8;256;4;8;1;2;64;4;128;19891112
8;128;8;2;64;2;64;4;128;4020025630
8;128;4;8;16;2;64;8;1;410312741
16;256;2;2;1;2;32;2;256;21726963
1;256;64;1;128;2;32;4;16;52524215555
8;4;128;2;2;8;128;32;1;1310906222
16;128;2;4;4;1;1;64;4;189949926
8;128;4;8;1;4;64;8;128;13757333
4;128;4;2;64;1;32;4;128;1863697926
8;128;2;4;64;1;64;8;128;1068786371
8;128;8;1;128;1;32;8;128;6496357778
8;128;8;8;32;1;32;4;128;2682506074
8;32;4;8;1;2;64;8;128;25275259
16;256;4;2;64;2;64;1;128;673023852
8;128;8;2;16;4;32;8;128;57795703
8;128;4;8;1;2;64;1;128;29769037
4;128;32;2;64;2;64;4;128;15337847111
8;128;4;1;32;4;64;4;128;157469629
8;128;4;4;64;1;128;4;128;2967496740
8;256;4;8;1;2;32;4;64;23655260
8;128;4;8;1;1;64;2;128;139323407
8;128;8;4;32;1;32;8;128;1017514814
1;8;64;1;8;2;16;16;8;743284444
1;1;1;1;1;1;64;1;4;8763560593
1;32;128;1;32;1;8;64;32;2543931555
8;128;8;1;128;1;16;8;128;5382176000
8;128;8;8;1;2;32;8;128;37601037
16;128;4;4;64;1;32;4;128;3507307703
8;128;4;1;128;1;16;4;128;2983409778
4;128;4;2;32;2;64;4;128;503994222
8;128;4;1;16;4;128;4;128;123541482
8;128;4;2;64;2;32;4;128;1252228741
8;128;4;8;1;4;8;16;128;27714667
8;128;4;8;4;4;64;4;128;9642371
8;128;4;8;1;4;64;16;128;26959704
8;128;128;8;1;32;64;4;128;28638518
32;64;32;8;8;1;2;128;4;5246850815
256;1;4;128;1;2;16;64;16;2313511259
32;8;256;8;2;2;128;128;128;2687154667
1;32;1;1;4;1;256;1;1;2101759556
16;128;16;4;64;1;64;4;128;14437663852
8;128;4;4;64;1;64;1;128;2085785037
4;1;4;4;1;4;64;4;128;699704148
8;128;4;8;1;4;32;2;128;9284593
8;128;8;8;1;4;16;4;128;14339704
8;128;4;4;32;1;64;4;128;665510222
8;128;4;8;1;1;64;2;128;132484889
8;128;4;4;1;1;64;4;128;113641481
8;128;4;8;2;4;64;4;128;9770371
8;128;4;8;4;4;16;4;128;9373630
8;128;4;8;1;1;64;4;128;82261482
4;128;4;1;64;4;64;4;1;3456483852
8;128;4;8;2;4;64;4;128;9862815
8;128;4;1;64;4;1;4;128;561792741
8;128;4;8;1;4;8;32;128;55108593
8;32;4;8;1;1;64;4;128;58301334
4;8;4;2;1;1;256;1;128;644445037
2;16;1;2;1;1;64;64;4;1394136593
128;4;16;2;2;4;8;128;32;58229778
32;1;64;1;1;4;1;128;1;1934124593
8;128;4;1;64;4;256;4;128;5896748889
8;128;4;2;64;2;128;4;256;1824973926
16;128;4;4;64;1;256;4;128;15054213777
16;128;4;4;1;4;32;4;64;13323259
8;256;2;8;1;2;64;4;256;14903112
8;256;2;8;1;2;64;4;128;13288592
8;128;2;8;4;1;64;4;128;24271111
64;4;1;1;1;1;16;64;8;241459408
8;256;32;4;1;4;1;128;2;1582314815
256;1;1;16;1;1;1;1;128;446895112
1;1;4;1;1;4;128;64;64;2641960296
8;128;4;8;1;4;1;4;128;45272889
8;128;4;1;64;4;64;16;128;283181037
8;128;4;8;1;4;64;2;256;8006371
16;128;4;4;64;1;64;4;16;4412012888
8;128;4;8;1;4;64;2;256;7966222
8;128;1;8;1;1;64;2;256;39065185
1;128;4;1;32;4;64;2;256;1195225778
8;128;4;8;1;4;1;2;256;29685926
8;128;4;8;1;4;128;2;64;17883111
8;128;4;1;64;4;64;2;256;1754025926
8;4;4;8;1;4;64;2;16;108102815
8;128;4;8;1;2;128;2;256;25465482
16;128;4;8;1;4;64;256;1;3811146815
256;128;8;8;4;2;64;2;256;205656148
8;128;4;8;1;4;32;2;256;7886667
8;128;4;8;4;1;64;2;256;96377777
256;1;4;8;1;4;32;2;256;52873333
8;128;4;2;64;2;32;2;256;2145974222
8;128;4;8;1;4;256;2;256;8214518
8;128;4;1;8;4;32;1;256;22388741
8;128;2;8;1;2;32;2;256;10380297
8;8;4;8;4;1;32;2;256;418368593
8;1;4;8;1;4;32;2;256;410132889
256;128;4;8;1;4;64;2;256;15205629
8;128;4;8;1;4;32;16;64;27282074
8;128;4;1;64;4;32;256;256;72694667
8;128;4;8;1;4;32;2;256;8052444
8;128;4;4;64;1;32;2;256;5475168148
8;128;4;8;1;2;32;2;256;25248000
8;128;128;8;1;32;32;2;256;26715407
1;128;4;1;64;4;32;2;256;6472040148
8;128;4;8;1;4;32;32;256;50923408
8;128;4;8;2;4;32;2;256;8484000
8;256;4;8;1;4;32;2;256;8074223
8;128;4;4;64;1;32;2;256;5696356889
8;128;4;8;1;4;32;2;1;72107852
4;128;4;1;64;4;64;2;256;1759793185
8;1;4;8;1;4;32;2;256;411976593
8;2;4;8;1;4;32;2;256;195522519
8;128;4;8;32;1;32;2;256;2889789778
8;128;4;8;8;4;32;2;256;113298963
8;1;4;8;1;4;32;2;64;417636148
8;128;4;8;1;4;32;2;128;10262667
8;128;4;8;1;4;32;2;1;67857926
64;128;4;8;1;4;32;2;256;12263555
8;32;128;8;1;32;32;2;256;26129037
64;128;4;8;1;4;32;2;256;12672297
1;128;16;1;64;4;32;2;256;7156984000
8;16;4;8;2;4;32;2;256;42802223
1;8;4;1;4;4;32;2;256;725820740
8;128;4;8;4;4;1;2;256;45414074
8;64;4;8;2;4;32;2;16;12028889
8;128;32;8;1;32;32;2;256;5998222
8;64;32;8;1;32;32;2;256;5661037
8;2;32;8;1;16;32;2;256;84321334
8;128;32;4;1;32;32;2;256;4696593
16;256;32;8;1;32;32;2;256;6135260
256;128;32;64;1;4;32;2;2;2174618963
8;128;32;4;1;2;32;2;256;213522074
8;8;16;4;1;1;32;2;256;414538667
32;128;32;1;1;32;32;2;256;4333185
128;128;32;1;1;32;32;256;256;497084593
32;128;32;1;1;32;32;4;256;6720889
32;128;32;1;1;32;32;2;128;5684296
32;128;32;1;1;32;2;2;256;4649778
32;128;32;1;1;2;32;2;256;573793926
32;128;32;1;4;8;32;2;256;43691111
32;128;32;1;8;32;32;2;256;28798963
32;256;32;32;1;2;128;2;256;839627408
32;128;32;32;1;2;32;2;256;838625481
32;128;32;1;1;4;32;2;2;296519852
32;128;32;1;1;32;32;128;256;29167555
32;128;32;1;1;32;32;2;256;4345629
32;128;32;1;1;8;32;2;256;42025630
1;128;32;1;1;32;32;2;256;4156000
1;2;32;1;1;4;1;2;256;1207769630
2;128;32;2;1;32;32;8;256;7691112
1;128;32;1;1;32;256;2;256;4788000
1;128;32;1;128;2;32;2;256;31137974370
1;128;32;1;1;4;32;2;256;145110074
1;128;32;1;1;32;256;2;256;4832297
128;128;32;32;1;2;32;4;256;801252889
8;128;128;2;1;32;32;2;256;13958222
1;128;32;1;16;4;32;8;256;123157185
1;128;1;1;4;1;32;2;256;185198074
1;128;4;1;1;4;32;2;256;25090222
1;4;32;1;1;32;32;1;256;100814222
256;128;32;64;1;4;32;2;256;1381206074
2;128;16;2;1;1;32;2;256;799333186
32;128;32;32;1;4;32;2;256;358674963
1;128;32;1;8;32;32;2;16;81642963
1;128;32;1;1;32;32;2;32;4607408
2;128;32;2;1;32;32;2;256;2921926
1;128;32;1;1;32;32;2;8;19200148
128;128;32;32;1;2;32;16;256;868771112
1;16;32;1;1;32;1;2;256;24475852
2;128;32;2;32;4;256;2;256;4451477481
2;128;64;2;1;32;1;2;2;73606963
2;128;32;1;1;32;1;2;256;2714370
2;128;8;2;1;2;32;2;256;85918963
2;128;32;1;1;32;256;256;256;663317481
2;128;32;1;1;4;1;2;256;136926963
1;128;32;1;1;32;1;2;256;4701185
2;128;32;1;32;2;1;1;256;666726223
2;128;32;1;1;32;1;32;256;25297481
2;128;32;1;1;32;1;2;256;2716592
2;128;32;1;1;32;2;2;256;2853777
2;128;128;1;1;32;1;4;256;14669333
4;128;32;1;1;32;1;2;2;44892889
2;128;8;1;1;2;1;2;2;146809926
1;128;32;1;1;32;1;1;256;3962815
2;128;2;1;1;2;1;2;256;34124148
2;128;32;1;1;32;2;8;256;6774222
1;128;32;1;1;32;1;2;256;4928889
2;128;32;1;1;32;1;4;256;3861037
2;128;1;2;1;1;1;2;256;214838223
2;128;32;1;1;32;1;2;32;2593333
2;128;16;1;1;1;1;2;32;1408060741
2;2;32;1;1;32;1;2;256;100060000
16;16;32;1;1;32;32;2;64;5289481
2;128;32;1;16;1;1;2;32;6370043259
2;128;32;1;1;16;1;2;32;10393926
8;128;32;1;1;2;1;2;32;574390074
2;128;2;1;1;2;1;2;2;37387556
256;128;32;16;1;1;1;2;32;2672111703
2;128;32;1;8;32;1;2;16;40977926
32;128;32;16;1;1;8;2;32;3106326519
2;128;32;1;8;32;1;2;32;21300889
2;128;32;1;4;32;1;2;32;8615408
8;128;32;1;1;32;128;2;16;18718371
2;128;32;1;1;32;1;2;8;9492889
2;128;32;2;1;32;1;2;32;4194074
32;128;32;16;1;1;1;2;32;2807506370
2;128;32;1;4;32;1;64;32;17064889
2;128;32;1;1;32;1;2;32;2663704
2;128;1;1;1;1;1;2;32;70359407
2;8;32;1;1;32;1;2;32;29499704
8;128;32;1;1;32;1;2;32;3057037
2;128;32;1;1;32;1;2;4;19293778
2;128;32;1;1;32;1;2;32;2646815
2;128;32;1;1;32;1;1;32;2437186
2;128;32;2;1;32;128;2;4;42644000
2;128;32;1;128;2;1;2;32;37461376000
2;128;32;1;1;1;1;2;32;2821153629
2;128;256;1;1;32;1;1;32;28123556
2;64;32;1;1;1;1;256;32;179198606074
2;64;32;1;1;32;1;32;32;24525333
32;128;32;16;1;1;1;1;256;2497314519
2;128;32;1;1;32;1;256;32;273512000
2;128;4;1;1;4;1;64;8;367871260
2;128;32;1;1;2;1;1;32;580100148
2;128;32;1;1;2;2;1;32;579749926
2;128;32;1;1;2;1;1;128;577875852
2;128;32;1;1;32;1;1;32;2383407
2;128;32;1;128;2;1;1;32;2937184593
1;128;32;1;128;2;1;1;32;5657569926
2;128;32;1;1;32;256;1;1;308137037
2;128;32;2;1;4;1;1;32;145494518
2;128;32;1;1;32;1;64;32;48302519
1;128;64;1;1;32;32;1;32;5821778
16;128;64;1;1;32;1;1;32;8737038
8;128;32;1;1;4;1;1;32;146206222
2;128;32;1;1;32;1;4;32;3963111
2;64;32;1;4;32;1;1;32;11771259
128;128;32;1;1;4;1;1;32;145836148
2;128;8;1;1;2;1;8;32;160556445
2;128;32;1;1;32;1;1;1;92378815
2;128;32;1;4;32;1;1;32;6269630
2;128;32;1;1;32;1;1;64;3061629
2;128;32;1;1;32;1;256;128;308602519
2;128;32;1;128;2;1;1;32;2912517630
32;128;32;1;1;32;1;1;32;3684741
2;128;32;2;2;32;1;1;32;6951555
8;128;32;1;1;32;1;128;32;24930963
2;128;4;1;1;1;1;1;32;324883259
2;1;32;1;1;32;1;1;32;188390814
2;128;32;1;32;2;1;1;32;749980444
2;128;32;1;1;2;128;1;32;571461778
2;128;32;1;8;32;1;1;32;11667852
2;128;32;1;64;4;16;1;32;725901334
2;128;32;1;1;32;32;1;32;4346519
2;128;32;2;1;32;1;1;32;3681926
8;128;1;1;1;1;1;1;32;78249630
2;128;64;1;128;2;1;1;32;4684189037
2;16;32;1;1;32;64;1;32;12406370
2;32;32;2;1;32;1;2;32;14093185
4;128;1;1;1;1;1;1;32;78178223
2;1;32;1;1;32;1;1;32;188203408
2;128;2;1;1;2;1;1;128;37538222
256;128;32;1;1;32;1;1;32;6756741
2;128;32;1;2;32;1;32;32;14467556
2;128;32;1;8;4;1;1;32;148754667
2;128;32;2;1;32;16;1;32;3295111
2;128;32;1;1;32;1;8;32;6738371
1;128;32;1;1;32;1;1;32;3683111
2;128;32;1;16;1;1;1;32;2390750074
2;128;16;1;1;1;1;1;32;1348526815
2;128;32;1;1;32;128;1;32;8750814
2;128;32;1;1;2;1;1;32;580295703
1;128;32;1;4;32;1;1;32;12846815
2;128;32;1;2;32;1;1;32;3433926
16;1;32;1;1;32;1;2;32;36351111
2;128;32;1;1;32;1;1;256;2656000
2;128;128;1;1;32;1;1;32;13142667
2;128;32;1;1;32;1;1;32;2373926
2;1;32;1;1;32;64;1;32;195946371
2;4;32;1;1;32;1;1;32;46293334
2;128;128;1;32;2;1;1;32;2382255259
2;128;32;1;1;32;1;64;32;47998074
2;128;256;1;1;32;1;1;32;28058666
1;128;32;1;8;32;1;1;32;25490370
2;1;32;1;1;32;1;1;32;188425777
8;128;32;4;1;32;1;1;32;4945334
32;16;32;4;1;4;1;1;32;148379852
2;64;32;1;1;32;1;1;32;3422371
256;128;32;4;1;32;1;1;32;9571852
2;128;32;1;1;1;1;1;32;2721331704
2;128;4;1;4;4;1;1;32;45927556
1;128;32;1;4;32;1;1;32;12821185
2;128;32;1;1;1;1;1;32;2714946074
2;128;32;1;1;32;16;1;32;3470074
1;128;32;1;1;32;1;4;4;45010075
2;128;32;1;1;2;1;1;32;580709926
64;128;1;4;1;1;1;1;32;80257630
2;128;64;1;1;32;1;256;32;550852149
2;128;32;1;1;32;1;1;4;17571408
128;128;32;4;1;32;128;1;32;9656148
2;128;32;2;1;32;8;1;32;2969185
16;128;32;4;1;32;1;1;32;6194370
2;128;32;1;1;32;1;16;32;12526815
2;128;2;1;1;2;1;1;64;37539260
2;1;32;1;1;32;1;1;32;188251408
2;128;16;1;128;2;1;1;2;2559209481
2;128;1;1;1;1;1;1;32;79298963
4;128;32;4;1;32;1;1;32;4808000
16;8;32;4;1;32;1;1;32;12899704
2;128;16;1;1;8;1;1;32;19483556
2;128;32;1;1;32;4;1;32;2482222
8;128;32;4;1;8;1;1;256;34844148
2;4;32;1;1;32;16;1;32;48812148
2;128;32;1;1;32;16;64;256;52209778
4;16;32;4;1;2;1;1;32;586215852
2;128;32;1;1;32;1;4;32;3908741
128;128;32;16;1;1;1;1;32;2620296741
2;128;32;1;1;32;1;8;32;6729482
2;128;32;2;1;32;1;8;32;13287259
2;128;32;1;1;32;16;1;256;2879852
2;128;1;1;1;1;256;1;32;261733185
2;128;32;1;1;4;128;1;32;145665778
2;128;32;1;16;1;1;1;32;2443447851
8;128;32;2;1;32;1;256;32;261570518
64;128;32;4;1;32;1;1;32;9001333
2;128;32;1;1;32;128;1;8;39498815
2;128;32;1;1;32;1;1;64;2844889
2;128;32;1;1;4;1;1;64;146428888
2;128;32;1;1;32;256;1;32;5979851
2;32;32;1;1;32;1;1;32;6299112
2;128;32;1;1;1;128;1;32;3081863852
2;128;32;1;1;32;1;1;32;2382963
2;128;32;1;1;32;1;1;8;8797925
1;128;32;1;32;2;1;1;32;1254096741
2;128;16;1;1;1;1;1;32;1357901333
2;128;32;1;1;1;1;1;1;2507893629
2;128;32;1;8;2;1;1;32;619638667
2;128;128;1;1;32;1;1;1;317255407
1;128;32;1;16;1;1;1;32;2293323703
2;128;32;1;1;32;1;1;16;4504741
2;2;32;1;1;32;1;1;32;94130222
2;128;32;1;16;1;1;1;32;2437037037
2;128;32;1;1;32;1;32;64;26720296
2;128;32;2;1;32;1;1;32;3708889
2;1;32;1;1;32;1;1;32;188049926
2;128;32;2;1;32;1;1;32;3679852
2;128;32;1;2;32;1;1;32;3361630
2;128;256;1;1;32;128;1;128;40088148
2;128;1;1;1;1;1;1;8;79187704
2;128;32;1;1;32;1;1;16;4504741
2;128;32;1;1;32;1;1;32;2396741
2;128;32;1;1;8;1;1;32;37780889
2;64;32;1;1;32;1;1;256;3603556
2;128;32;1;2;32;1;4;32;2873037
1;64;32;1;1;32;1;16;32;25566963
2;128;32;1;1;32;256;1;32;5966222
1;256;1;1;2;1;8;4;2;107593037
128;2;128;16;1;4;2;128;16;4155167111
1;256;256;1;16;8;8;1;256;583230370
1;16;2;1;4;2;1;8;1;827644296
2;4;2;1;1;2;1;1;32;640032000
2;128;32;1;1;32;1;1;1;86247556
2;128;32;1;16;1;1;8;32;1435892296
2;4;32;1;1;4;256;1;4;944389630
2;128;1;1;1;1;1;1;32;76152297
2;128;32;1;1;2;4;1;32;572600000
2;2;32;1;1;32;1;1;32;94050371
2;16;256;1;1;128;1;256;32;327456000
2;32;32;1;1;32;1;1;32;6297185
2;32;32;1;1;32;2;1;32;7525185
64;1;1;4;1;1;1;256;128;469376740
256;32;4;1;8;4;1;1;4;18591111
256;16;4;32;2;2;64;1;2;150694666
1;1;2;1;1;1;2;128;256;12828991556
2;1;32;1;1;32;1;1;32;188407852
2;1;32;1;1;32;1;32;1;3924424889
2;128;32;1;8;8;1;1;32;57629926
2;128;32;1;32;2;4;1;32;737175407
2;128;1;1;1;1;1;1;32;78884593
2;128;32;1;64;2;1;1;32;1562739555
2;128;32;1;128;2;1;1;32;2885445482
2;128;32;1;1;32;256;1;4;43119408
2;128;2;1;1;2;1;1;1;90381037
16;128;1;8;1;1;128;64;128;169549333
64;4;64;4;1;1;128;16;32;2944292593
16;32;16;16;1;1;1;4;16;1172811704
16;256;2;2;1;2;32;16;256;24304296
8;128;1;4;32;1;1;1;32;971123555
2;128;32;1;1;32;1;1;16;4507408
2;128;1;2;32;1;1;1;32;1707506222
2;128;32;1;1;32;1;1;32;2363407
2;16;32;1;1;32;1;1;32;12132889
2;128;32;1;1;32;4;1;32;2583852
2;128;32;1;1;32;1;16;32;12512296
256;128;32;64;1;4;256;1;32;3784790963
2;64;1;1;1;1;1;1;32;97822370
2;128;128;1;1;32;1;1;32;13420297
2;128;32;1;1;8;256;1;32;83175259
256;128;32;16;1;1;32;1;32;1204541185
2;128;32;2;1;4;1;1;32;145535852
2;128;32;1;1;16;1;1;32;9910370
2;128;32;1;8;32;1;8;128;5434667
2;128;8;1;1;1;1;16;32;766906667
64;128;32;4;1;32;64;1;4;50559555
2;128;32;2;1;32;1;1;32;3603260
2;1;32;1;1;32;1;1;32;187885926
2;128;32;1;1;32;1;1;32;2420148
2;4;32;1;1;8;1;1;32;202725630
1;1;32;1;1;32;1;1;32;396609926
2;128;32;1;1;32;1;128;32;96569629
64;256;32;4;1;32;1;1;32;8100296
2;128;8;1;1;2;1;1;32;146926519
2;128;16;1;1;1;1;16;32;1478973630
4;2;32;4;1;32;1;1;32;208086667
2;128;32;1;1;2;1;1;32;580011407
256;128;32;4;1;1;1;1;64;2650175556
1;128;32;1;1;16;1;1;32;9521777
2;128;2;1;1;2;1;1;32;37112592
2;128;32;2;1;32;1;64;32;102386814
64;128;32;4;4;1;1;1;32;2701514074
8;1;1;2;1;1;32;4;1;1382260741
8;32;128;2;2;8;128;32;1;1541201630
1;128;2;1;1;1;1;64;4;3275157926
1;8;64;1;8;2;64;16;8;779037185
2;128;32;1;1;32;1;256;32;274157926
2;128;32;2;1;1;4;1;32;1351928148
2;2;32;1;1;32;1;1;32;94049630
2;8;32;1;1;32;1;1;32;23331408
2;128;32;1;1;32;1;2;32;2593629
2;128;32;2;1;1;1;1;32;2734920889
2;128;1;1;1;1;1;1;32;75223407
2;32;32;1;32;2;1;1;32;2555385630
2;128;32;1;1;32;1;1;2;34910519
2;128;32;1;1;32;1;4;32;3974666
2;128;32;1;1;32;2;1;32;2517926
2;128;2;1;1;2;1;32;32;318237778
32;128;32;4;1;32;1;1;32;8110371
2;128;8;1;1;2;2;1;32;145746371
2;128;32;1;1;32;1;1;16;4492000
2;128;32;1;1;2;1;1;32;580081482
2;128;256;1;16;1;1;1;32;21903225778
2;128;32;1;1;32;1;1;16;4478667
1;128;1;1;1;1;1;1;32;89412000
2;128;32;1;1;32;1;1;1;86778667
2;128;32;1;1;32;1;8;32;6741778
2;128;32;1;128;2;1;1;32;2902886815
8;128;32;4;1;32;1;1;32;5372889
64;128;32;4;1;32;1;64;32;7009185
2;128;32;1;1;32;1;1;32;2409778
8;1;32;4;1;32;1;1;32;185395704
2;128;32;1;1;32;1;1;32;2367112
1;128;32;1;1;32;1;8;1;339181630
2;128;32;1;8;32;1;1;32;11725481
2;64;32;1;1;8;256;4;32;110757629
2;128;16;1;1;1;1;1;32;1339542518
1;1;1;1;1;1;4;64;4;7566818667
32;32;128;8;32;1;8;64;32;10406054518
2;64;32;2;4;8;2;128;4;336309925
2;1;16;2;1;16;16;64;16;425385778
32;2;256;8;2;2;128;128;8;4345826371
1;32;1;1;4;1;256;64;1;811416741
2;128;32;1;1;1;1;1;16;2653935259
2;128;32;2;1;1;1;1;16;2762493037
8;128;64;4;1;32;1;1;32;10535111
2;256;32;1;1;32;1;2;32;2681037
2;256;32;1;1;32;1;1;32;2812148
1;16;8;1;1;2;1;1;16;328255852
2;256;16;1;1;1;1;1;64;1369258371
1;128;8;1;2;1;1;1;32;630291704
2;128;32;1;1;1;256;2;32;6259065778
1;4;4;1;2;1;256;1;128;4195501186
2;16;4;2;16;1;64;64;4;557280592
128;1;64;2;1;4;8;128;32;216930666
4;1;1;1;1;1;1;128;1;1900297334
2;64;32;1;1;32;1;1;32;3443111
2;64;32;1;2;32;1;1;32;6330666
2;128;32;1;1;4;1;1;16;147301185
2;1;32;2;1;1;1;2;16;7234059703
2;1;32;1;1;32;1;1;256;197497333
2;128;1;1;1;1;1;1;256;91689630
64;4;1;1;1;1;16;64;8;242517926
8;256;32;4;1;16;64;128;8;139580148
8;128;32;4;1;32;1;2;32;5352296
2;64;32;2;1;32;256;1;32;5367111
2;32;4;1;2;4;1;1;32;87712000
2;128;32;1;1;16;1;1;32;9874963
4;256;32;4;1;8;1;1;32;36641778
2;128;32;2;1;32;1;1;16;6797185
2;256;32;1;1;16;1;1;64;9524000
2;128;32;2;1;8;256;1;32;39651556
2;128;32;1;1;16;1;2;32;9838666
2;1;4;1;1;4;1;1;32;1417520148
256;32;1;16;1;1;1;1;4;80800889
1;32;4;1;1;4;128;1;8;99694222
128;256;1;8;4;1;8;4;2;60445037
128;1;1;2;1;1;2;32;16;87000889
1;256;1;1;16;1;8;1;256;721369334
1;16;2;1;4;1;1;8;16;566901630
64;4;4;4;1;1;1;256;64;1178343260
2;32;32;2;1;32;1;1;32;13003704
2;64;32;2;1;32;1;1;32;6850370
2;128;32;1;2;32;1;1;32;3486814
2;128;32;1;1;1;1;1;64;2724772592
4;128;32;4;1;16;1;1;4;37350963
2;128;32;1;1;1;1;2;32;2802733926
1;32;4;1;8;4;1;1;1;2598861037
256;2;1;32;2;1;64;1;8;196548000
1;1;32;1;1;4;16;128;256;2664517778
16;128;2;16;16;1;128;1;1;491480000
2;8;32;1;2;32;1;1;32;46280148
2;64;32;2;1;32;1;1;32;6906074
2;128;32;1;1;16;1;1;16;9084444
1;128;32;1;4;32;1;1;16;25767408
2;128;16;1;1;16;1;1;32;5584445
2;128;64;2;2;32;256;1;32;13585185
64;1;1;32;1;1;2;4;8;4485645629
64;16;1;16;16;1;256;4;1;2710294222
16;256;2;2;1;2;1;2;256;37078667
8;1;1;2;1;1;32;4;1;1379812592
2;128;32;2;1;32;1;1;32;3702814
2;128;32;1;1;32;1;1;8;8834963
1;128;32;1;1;32;1;16;32;25633926
1;128;32;1;1;32;1;1;128;3932444
2;128;32;1;1;32;128;1;64;8913629
4;128;32;1;1;32;1;1;32;2855703
2;128;32;1;1;32;1;1;128;2802963
2;256;64;2;1;32;1;1;32;6258223
16;256;128;2;2;2;128;32;1;3905076889
16;256;2;1;1;1;1;64;4;273117630
1;2;64;1;2;1;128;16;8;5575174519
1;1;1;1;1;1;4;64;4;7584836148
2;128;32;1;64;4;1;1;32;777316297
1;128;32;1;1;32;1;2;32;4083555
2;128;256;1;1;32;1;1;32;28303703
128;128;32;4;1;2;1;1;32;579245333
2;8;32;2;1;1;1;1;32;2464658370
2;256;32;1;1;32;1;1;16;4949186
2;128;2;1;1;2;1;1;16;37271408
2;128;32;1;32;2;1;1;4;853734223
2;1;32;1;1;4;1;1;32;1402724148
2;128;8;1;1;2;1;1;32;146642667
2;128;128;1;1;32;1;1;2;146709482
2;1;128;1;1;32;1;1;32;187588740
2;128;32;1;1;1;1;4;2;3247000445
2;128;32;2;1;4;1;1;16;146228148
2;128;32;1;1;16;1;256;32;1308411851
4;4;16;4;1;1;1;1;32;1699867408
2;128;32;1;1;32;16;32;32;26645333
2;16;2;2;1;2;1;1;32;304934815
16;8;32;4;1;8;1;1;32;51488444
2;8;32;1;1;32;1;1;16;44007260
2;16;32;1;1;32;1;1;16;22357333
2;128;32;2;4;32;1;1;32;12684296
2;128;32;1;1;32;1;1;32;2426963
2;64;32;1;1;32;1;8;32;6800444
2;128;32;1;1;32;1;1;16;4506222
2;128;32;2;1;32;1;1;32;3663704
2;128;32;1;4;32;1;1;32;6221630
4;128;32;2;1;32;1;1;32;2377037
2;128;16;2;1;1;256;1;32;683677333
1;32;128;1;32;1;8;64;64;2644371704
2;16;1;2;16;1;2;1;32;5022879852
1;1;16;1;1;16;16;64;16;817985630
64;1;256;8;1;2;128;128;1;12940556444
2;128;256;1;1;32;1;4;256;29959111
2;128;64;1;1;32;1;1;32;5956445
2;128;32;2;1;32;1;1;32;3649926
2;32;32;1;1;32;1;8;32;6794370
2;128;32;1;1;8;1;1;32;37749185
2;64;32;1;2;32;1;4;32;4442667
2;128;8;1;1;4;1;1;32;37830667
4;128;64;4;1;32;1;1;32;11112148
4;128;32;4;4;1;1;1;32;2680855259
1;1;16;1;1;1;1;64;1;7919178963
4;8;4;2;2;1;256;1;1;1463869186
2;16;4;2;16;1;64;2;4;4213504148
16;4;8;4;2;4;8;16;32;52305481
2;128;32;1;1;2;1;256;32;72696212445
256;128;32;4;1;32;1;1;32;9787851
2;64;64;1;1;32;1;2;32;5204444
2;64;32;1;1;32;256;1;32;11389333
2;128;64;1;1;64;1;1;64;2334518
2;32;128;1;2;32;256;1;64;46279704
1;128;64;1;1;1;1;1;64;5484056889
2;128;128;1;1;64;1;1;128;7152148
2;256;64;1;1;64;1;2;64;2101630
1;1;64;1;1;4;1;2;64;2830663703
4;1;32;4;1;1;1;1;32;6629580593
2;256;32;2;2;32;1;2;64;5723407
4;256;64;4;4;2;128;8;64;541521482
2;256;8;1;1;4;1;2;64;37460445
2;256;256;1;1;64;1;2;64;14057333
2;128;64;1;1;1;1;4;64;5655831259
2;256;64;1;1;2;1;2;128;1144418963
2;128;128;1;1;64;256;2;64;23517334
2;256;64;2;1;64;1;2;64;2520741
2;256;32;1;2;1;1;4;64;1346304445
2;256;64;1;1;1;1;2;64;5604569185
2;256;128;1;4;2;256;2;64;3333521334
4;256;64;4;1;64;1;1;64;4719407
2;256;64;1;1;64;1;2;32;4196149
2;256;64;1;1;64;1;2;16;8655259
2;128;64;1;1;64;1;2;32;4268148
1;1;64;1;1;64;1;2;64;249363259
4;64;64;4;4;2;1;2;64;762278519
2;128;64;1;1;32;1;4;64;5215555
2;128;64;1;1;64;1;2;64;1859556
2;256;64;1;1;64;256;2;64;15212148
2;256;256;1;1;64;1;2;32;26617630
2;1;32;1;1;1;1;2;64;3441691704
1;64;256;1;1;64;1;1;64;4847703
2;128;64;1;1;64;1;2;32;4161038
2;256;64;1;1;1;1;2;64;5604971704
2;128;64;1;1;64;1;4;64;2202519
2;256;64;2;1;64;1;2;64;2513037
2;128;64;1;2;64;1;2;64;2829482
2;256;64;1;1;64;1;2;64;2165037
2;128;64;1;1;16;1;2;64;19836000
2;128;8;1;1;4;1;2;64;38978963
1;128;64;1;1;64;1;2;64;2382963
8;128;128;1;1;64;1;2;64;6285037
2;128;64;1;1;2;1;2;64;1142826222
2;128;64;1;1;2;256;2;64;2293366815
2;128;32;1;1;1;1;1;64;2708293629
1;64;64;1;2;64;1;2;64;3929630
2;128;64;1;1;64;1;2;16;8431852
2;1;64;1;1;64;1;2;64;126250667
8;128;64;1;1;64;1;2;128;3030963
1;128;64;1;1;64;1;2;16;7636741
8;128;64;1;2;64;1;1;64;3535259
2;256;64;2;1;1;1;2;64;5694234074
2;128;64;2;1;64;256;2;64;5876445
2;128;64;2;1;64;1;1;64;2531408
1;128;64;1;1;64;1;2;64;2422074
2;128;64;1;1;64;1;2;128;2736593
2;64;64;1;1;64;1;2;64;2424148
2;128;64;1;1;64;128;2;256;3089333
2;128;64;2;4;1;1;2;64;3314928148
2;128;128;1;1;64;1;2;128;7254815
2;128;64;1;1;16;1;1;64;19337926
2;128;64;2;2;64;1;4;128;5497926
2;128;64;1;1;32;1;2;64;6882519
2;128;64;1;1;1;1;2;64;5585699259
2;128;64;1;1;64;256;2;64;16178222
2;128;64;1;1;64;1;2;64;2000741
2;128;64;1;1;32;1;8;64;8028148
2;128;32;2;1;1;1;1;128;2781352000
2;128;64;1;1;32;1;2;32;6637481
4;128;8;2;1;8;1;2;16;9458667
4;128;64;2;2;64;1;1;128;5130518
2;128;64;2;1;64;1;2;128;3162667
2;128;64;1;1;64;1;2;32;3919555
2;128;64;1;1;1;256;2;64;12238856889
1;128;64;1;1;64;1;4;64;3854963
2;64;64;2;1;32;256;2;128;5483260
2;128;64;1;1;32;1;4;128;5654963
2;128;32;1;1;16;128;2;64;19935407
2;256;64;1;1;64;1;1;64;2793333
1;128;16;1;1;2;1;2;64;291107555
4;128;64;2;1;64;256;2;64;8478815
2;128;64;1;1;64;1;2;1;86212889
2;128;256;1;1;64;1;8;64;8699111
2;1;64;1;1;32;1;2;128;218305185
2;256;64;1;2;32;1;1;64;6425333
2;128;128;1;1;64;1;1;64;5989481
1;128;32;1;1;32;1;2;64;4174222
2;128;64;1;4;64;256;2;1;830017630
2;128;64;1;1;64;128;2;32;17012000
2;128;64;2;1;64;1;2;64;2504297
2;128;64;2;1;64;1;1;256;2951555
2;64;64;1;2;64;1;2;64;2852148
2;64;128;1;1;32;1;2;64;14721630
2;128;128;1;4;64;1;2;64;16782518
4;64;64;2;2;64;1;2;64;5455555
2;256;32;1;1;1;256;2;64;6265017185
1;64;64;1;1;32;1;2;64;7454815
2;128;64;2;1;64;1;2;64;2506074
2;128;64;1;1;64;1;2;64;2016297
2;128;64;1;8;1;1;2;64;4858842815
2;128;2;2;16;1;1;2;64;771889778
2;64;64;1;4;64;1;2;16;30764889
2;256;64;1;4;1;1;2;64;2849151407
2;128;64;1;1;64;1;1;64;2246518
2;64;64;1;1;64;1;1;64;2065778
1;128;64;1;1;64;32;2;64;3086963
2;128;64;1;1;64;16;2;64;4911111
2;128;64;1;1;64;1;2;64;2080889
128;128;256;16;1;2;1;2;64;4574407260
2;8;64;1;1;64;8;2;64;13455111
4;128;64;4;4;2;1;2;128;758811407
1;128;32;1;2;2;1;2;64;340516741
2;128;16;1;1;2;1;2;64;290842667
2;128;1;1;2;1;1;2;64;46778963
2;128;64;1;1;64;1;2;64;2178074
2;128;1;1;1;1;1;2;64;75903259
1;16;64;1;2;64;1;2;64;14665629
256;128;64;16;1;8;1;2;64;145263407
2;128;64;1;1;64;1;8;64;3616889
2;128;64;1;1;64;1;2;256;2484445
2;128;64;1;1;16;1;2;256;20492593
1;16;64;1;1;32;256;2;64;28784148
1;128;1;1;1;1;1;8;64;286792148
2;128;64;1;1;64;64;2;64;8162667
2;128;64;1;128;1;1;2;64;161107936445
2;128;64;1;1;64;1;2;256;2565630
2;128;4;1;1;1;1;2;1;375983111
2;128;64;1;1;32;1;4;64;5089037
2;128;64;1;1;64;2;2;64;2197037
2;64;64;1;2;64;1;1;64;3448445
2;256;64;1;1;64;1;2;32;4046814
2;128;64;1;1;16;1;2;128;20110518
2;64;64;1;2;1;256;2;64;5371124445
4;16;1;1;16;1;8;1;1;2245594815
64;4;1;1;1;1;16;128;8;379117926
128;256;1;16;4;1;64;128;16;73201185
256;1;1;64;1;1;1;1;4;1825900296
1;128;64;1;1;64;1;2;64;2400000
2;128;2;1;1;1;1;2;16;164695556
2;128;64;2;1;64;1;2;64;2520297
2;256;64;2;1;64;1;2;64;2509037
2;256;32;1;1;32;1;2;64;2693481
2;128;64;1;2;16;1;2;32;15400000
2;128;64;1;1;32;1;2;16;12936000
2;128;4;1;1;1;1;2;64;330156889
1;128;64;1;8;1;128;16;64;1769206815
2;128;64;1;1;1;1;2;16;5529674815
1;32;4;1;1;4;128;1;1;350083704
128;256;1;8;4;1;128;4;2;149726814
128;1;1;2;1;1;2;1;16;80363556
1;256;64;1;1;16;8;1;256;21438963
2;128;64;2;1;64;2;2;8;21705777
16;32;64;16;1;2;1;2;64;1181858371
4;256;64;1;1;64;1;2;64;2925778
2;256;64;1;2;64;1;2;64;3038370
1;16;2;1;4;2;1;8;16;312966370
64;4;1;4;4;1;1;2;64;336472148
1;16;1;1;16;1;1;32;4;855338963
256;16;4;2;16;2;64;1;2;732230815
1;1;32;1;1;4;1;128;256;2639899555
16;128;2;8;1;1;128;1;8;120463111
64;4;64;4;2;2;2;8;8;695709778
16;32;1;16;1;1;64;4;32;23873630
4;128;64;2;1;64;1;2;128;4002519
2;256;64;1;1;64;1;4;64;2235852
4;128;64;2;1;1;1;2;64;5604672000
2;4;256;1;1;64;1;2;64;30171703
2;128;64;1;1;64;1;2;2;62269482
2;2;64;1;1;64;1;2;64;60068889
16;256;2;2;2;2;128;1;256;86268889
8;1;1;1;1;1;32;4;32;1038786815
8;4;1;2;4;1;128;16;1;871250371
16;128;2;1;2;1;1;16;4;88818371
2;128;64;1;2;64;1;8;64;2869185
2;128;64;2;1;64;1;2;64;2509186
1;8;32;1;8;2;1;16;8;841738519
1;1;1;1;1;1;256;64;2;12023400445
1;32;128;1;32;2;1;1;32;5065942371
2;64;32;1;4;8;2;128;4;327667555
2;1;64;2;1;32;16;64;16;445385778
32;8;1;8;2;1;1;4;128;284090370
1;32;64;1;4;32;256;1;1;1990145778
1;8;4;1;1;1;256;1;128;1050897630
2;128;64;1;1;64;256;4;32;16850074
2;128;128;1;2;64;1;2;64;5773630
2;128;64;1;1;64;1;1;256;2418223
1;16;4;1;16;4;64;64;4;379973629
32;32;8;2;4;4;8;16;32;25976445
1;1;1;1;1;1;8;1;1;8458363408
64;4;1;32;4;1;16;1;8;1234259111
32;256;2;4;1;1;128;2;16;102767407
2;256;64;1;1;64;1;1;64;2906815
128;256;1;1;1;1;64;128;16;1053580740
256;32;1;2;1;1;1;1;32;88113482
128;32;4;2;1;4;256;1;8;848273186
128;256;1;8;2;1;16;4;2;57319111
2;128;64;1;1;16;128;2;64;32920444
2;64;64;1;1;64;1;2;128;2378074
4;128;128;1;1;64;1;4;64;6317481
1;128;64;1;1;64;1;1;64;2112149
1;128;64;1;1;16;1;2;64;21478815
4;1;64;2;1;64;1;2;64;126934815
2;128;32;2;2;1;1;2;64;1345763852
128;1;1;64;1;1;2;1;32;7424616296
1;8;64;1;1;4;8;1;256;322005037
1;1;2;1;1;2;1;8;16;5395773037
64;4;1;4;1;1;1;2;32;132112889
256;32;4;1;8;1;1;1;4;364887556
256;16;4;1;16;2;64;1;2;1297410666
1;1;32;1;1;4;1;4;256;2802108889
16;128;2;4;1;2;128;64;128;168874371
1;128;32;1;1;32;1;2;256;5041482
8;128;64;1;1;64;1;2;64;3007111
4;128;64;2;1;64;1;2;64;3305037
128;128;64;16;1;2;1;2;64;1144580888
256;128;64;16;1;2;1;2;2;1154251851
64;4;64;4;2;2;8;8;8;384941481
16;32;1;16;1;1;64;1;128;23296296
16;128;64;2;1;2;32;2;1;1439653926
8;1;1;1;1;1;1;4;32;877210223
2;128;128;1;1;32;1;2;64;15177037
2;64;32;1;1;1;1;2;64;2761028296
4;128;64;1;1;64;1;2;64;2860297
8;4;1;2;4;1;16;16;1;370553926
16;1;2;1;1;2;1;16;1;585483704
1;8;64;1;8;2;16;16;64;680562518
1;1;1;1;1;1;32;64;4;8105013630
4;128;64;2;1;64;16;2;64;3805037
1;4;128;1;4;16;8;64;32;276148296
8;64;32;1;4;8;2;128;4;89763111
2;1;1;1;1;1;16;64;16;3343777185
32;64;1;8;2;1;1;4;128;41498223
1;32;1;1;4;1;1;64;256;817749629
64;8;4;2;2;1;256;1;1;6122665186
1;16;1;1;16;1;64;1;4;8786248889
2;16;64;1;1;64;1;2;64;7513186
2;128;64;1;1;16;1;2;1;379405629
128;128;64;1;1;64;1;2;64;3055407
8;128;64;1;64;1;1;2;64;108970597038
2;128;64;2;1;64;1;8;64;7135259
1;128;32;1;1;1;1;2;64;3055564000
1;128;64;1;1;64;1;4;128;4170519
32;64;32;2;4;32;8;2;1;334213926
1;1;1;1;1;1;1;128;1;7817650074
64;4;4;1;1;1;128;8;16;2441626074
128;256;16;16;2;1;64;128;16;999129926
4;32;1;2;4;1;1;2;4;345800741
16;32;4;2;1;4;128;1;8;43922963
128;256;64;1;2;8;16;4;2;221194519
128;256;64;2;64;2;128;2;16;55599925334
2;4;64;1;2;64;1;2;64;29663260
4;128;64;4;1;2;1;2;64;1147733926
1;128;16;1;1;2;1;2;64;290480000
1;64;64;1;1;16;128;1;256;21184741
1;16;2;1;4;2;4;8;16;313732445
64;4;1;4;1;1;1;2;32;130012148
256;32;4;1;8;2;1;1;16;72672444
256;16;4;4;16;2;64;1;4;1089900000
1;16;1;1;1;1;1;128;256;6244988445
16;32;2;1;1;2;128;4;1;304963408
64;4;128;4;2;2;1;4;8;1236118222
16;128;1;16;1;1;64;1;128;34647556
16;256;2;16;1;2;32;2;256;26624593
8;1;1;1;1;1;1;2;8;1148204889
8;4;4;2;4;4;16;16;1;414468444
1;128;64;1;1;64;16;2;64;2837482
1;1;1;1;1;1;1;16;1;6840025778
1;8;64;1;8;2;16;4;64;1418359555
1;1;1;1;1;1;4;64;4;7550560445
1;4;128;1;4;1;8;1;32;7741559111
1;64;32;1;4;2;2;128;4;1604857186
2;1;16;2;1;1;128;64;16;5078958519
1;64;1;1;1;1;1;1;256;168644741
1;32;4;1;4;4;256;32;1;437625629
4;8;4;2;1;4;256;1;128;172278074
1;16;4;1;4;4;64;64;64;184124444
256;32;8;128;2;1;8;16;32;10614643407
4;1;256;1;1;4;1;128;1;7080824889
64;64;1;1;8;1;16;1;8;192156444
1;256;1;1;128;1;64;128;16;239258370
256;32;1;16;2;1;1;1;4;78263704
16;32;1;2;1;1;16;1;128;42380592
2;128;4;1;1;1;1;128;64;3993976741
2;128;64;2;1;64;1;2;1;190899555
1;128;64;1;1;64;128;2;64;4000000
2;8;64;1;1;64;1;2;64;15009037
128;256;1;16;2;1;64;4;2;99647852
128;2;1;2;1;1;2;1;16;47414371
1;64;1;1;4;1;128;1;128;489139852
1;2;4;1;1;1;32;1;16;5766560593
64;4;4;4;1;2;1;2;1;329469037
256;32;1;1;8;1;1;1;8;88581037
256;16;4;2;16;2;64;1;8;828047704
1;256;4;1;128;2;1;2;256;11277856740
16;128;64;4;2;1;1;2;64;2435738519
2;128;64;1;1;4;1;2;64;290445037
64;128;64;16;1;2;2;2;4;5686965481
2;128;256;1;1;64;16;2;64;17974963
2;128;1;1;1;1;1;2;64;75070519
2;128;8;2;1;4;1;2;64;37146222
2;128;1;1;64;1;1;2;64;4010722666
2;128;1;1;1;1;1;2;64;73928444
2;128;1;1;8;1;1;2;64;155143556
16;128;64;2;1;64;1;2;64;3321778
16;128;32;16;1;2;128;128;64;960857185
2;128;64;1;1;8;2;2;4;147432889
2;128;1;1;1;1;1;2;128;81772444
2;256;4;1;1;1;1;2;64;342590074
2;128;64;1;1;64;1;2;64;2144148
2;128;64;1;1;64;1;8;64;3636592
256;128;64;16;1;2;1;64;64;1148203407
1;128;64;1;1;64;1;2;64;2405926
2;128;64;2;1;64;32;2;64;3929334
2;128;64;1;1;64;1;2;128;382388331
2;128;64;1;1;64;1;2;4;30844000
2;128;64;1;1;64;1;2;1;87254963
2;128;64;1;1;64;32;2;64;6308148
2;128;64;1;1;64;32;2;32;12084000
16;64;16;8;1;8;128;64;128;42276741
32;4;64;1;2;1;8;8;8;2709013778
256;32;1;64;4;1;64;2;128;162413037
16;1;2;2;1;2;32;2;2;382030074
2;128;64;1;4;64;16;2;16;31662666
8;128;64;2;1;2;1;2;64;1146183408
2;128;1;1;1;1;1;256;64;9125885482
1;128;256;1;1;128;1;32;64;28676444
2;128;64;1;2;64;1;2;64;2826963
2;128;64;1;1;64;1;32;64;12786371
2;128;64;1;1;1;1;2;32;5634599556
2;128;64;1;1;32;1;2;64;6924000
8;256;128;2;8;16;4;4;32;126366963
128;4;1;32;4;1;1;16;1;745093333
16;128;2;1;64;1;1;16;1;192224741
8;8;64;2;1;1;16;16;1;3001524445
32;1;1;16;1;1;4;64;4;1712010666
16;128;64;16;1;2;32;2;64;858037777
8;128;64;1;4;64;1;2;64;8525778
2;4;64;1;1;1;1;2;64;5143138815
1;16;128;1;1;16;8;64;32;215205629
128;64;32;1;4;8;2;128;4;89481185
2;1;16;2;1;16;8;64;16;424410074
32;8;1;8;8;1;1;1;128;1676551852
2;128;4;1;1;1;1;2;64;338145037
2;128;64;1;1;2;1;2;64;1138585926
2;128;64;1;1;64;1;256;64;157960741
1;32;4;1;4;4;64;256;1;3178339852
1;8;4;1;1;4;1;1;32;325391111
1;32;4;1;8;4;1;64;64;100482667
64;32;8;1;8;4;8;4;64;33495408
2;128;64;1;1;2;1;2;4;1157530074
2;128;64;1;16;2;1;2;64;3766522815
2;128;64;1;1;64;1;2;64;2176593
4;1;1;1;1;1;1;128;1;1902483111
1;1;1;1;1;1;1;1;8;6665870222
1;256;1;1;128;1;64;64;16;473250963
256;32;2;16;2;2;1;1;4;38060889
2;128;32;1;1;1;128;2;64;3142186223
2;32;64;1;1;64;1;2;64;4115852
16;32;1;1;1;1;16;1;1;118270223
1;16;1;1;2;1;16;4;2;739984889
128;2;1;2;1;1;64;1;8;692027259
16;64;64;2;1;4;128;1;256;346052000
2;256;64;1;1;64;1;2;256;2639259
2;128;128;1;1;64;256;2;64;23284296
2;128;64;1;1;2;1;2;128;1147414222
4;256;64;1;1;64;1;4;64;2206370
2;256;64;1;2;64;1;1;64;3706371
1;128;64;1;2;64;1;2;64;2859259
2;128;64;1;2;64;1;4;64;2857778
4;128;128;2;1;64;1;2;16;28929333
4;128;64;2;2;64;1;2;64;5453185
2;64;64;1;1;64;256;2;128;6374074
2;128;64;1;4;64;1;2;64;8469926
2;128;64;2;1;32;1;2;64;5277630
2;128;16;1;1;2;256;8;64;634202815
4;256;64;2;1;64;1;2;64;3264000
2;128;32;1;1;32;1;2;64;2694074
2;256;64;1;1;64;1;8;128;4076593
2;128;32;1;1;1;1;2;64;1593203594
4;128;64;1;1;64;1;2;64;2869185
2;128;32;1;1;2;1;2;32;574601629
4;128;64;2;2;64;128;2;64;4980000
2;128;64;1;1;2;1;4;128;1146334963
2;128;32;2;1;1;1;2;64;3048458074
2;64;128;1;1;128;1;2;64;5500296
2;128;16;2;1;1;1;2;64;1513343852
8;128;64;1;1;64;1;4;64;3139851
2;128;64;1;2;64;1;1;64;2386371
2;64;64;1;1;64;256;2;64;5928593
1;128;256;1;1;64;1;2;64;13753630
2;128;32;2;1;1;1;2;128;3111994814
1;64;64;1;1;32;1;2;256;7122074
2;128;32;1;1;1;1;2;128;2776913185
1;256;64;1;1;64;1;2;64;2279111
1;128;64;1;1;64;1;2;1;189876000
2;128;32;1;2;32;1;2;64;2875111
1;128;64;1;1;2;1;2;64;1147520148
2;128;64;1;1;16;256;8;64;102140741
1;128;32;1;1;1;1;2;64;3120677482
2;128;64;2;1;64;1;2;32;5168000
2;128;64;2;2;64;1;2;64;5451408
8;256;64;1;2;1;256;2;64;21442138667
2;128;256;1;1;64;1;4;64;12986519
1;64;32;1;1;1;1;1;64;2743337777
2;128;64;1;1;64;128;2;64;9400148
1;128;8;1;1;4;1;2;64;37101185
2;128;64;2;1;64;1;1;64;2480444
2;128;2;1;1;1;1;2;64;163454815
2;128;64;1;1;64;1;2;1;86199704
2;128;64;1;1;64;1;128;64;48761185
2;128;64;1;2;64;1;16;64;3904593
2;16;16;1;1;2;1;2;64;289567703
4;128;64;2;1;32;256;2;64;19621482
4;128;64;2;1;64;1;1;64;3469185
8;128;16;1;2;2;1;16;64;172502815
32;128;64;16;1;2;1;2;64;1140108889
2;128;64;1;1;64;1;64;64;24528445
2;256;64;1;256;1;1;2;64;241249126223
2;128;64;1;1;8;1;2;64;75930371
2;32;64;1;1;64;128;1;64;3757333
2;128;16;1;1;1;256;1;64;3178856593
2;256;64;2;2;64;128;4;64;5069185
2;128;64;1;1;1;1;1;64;5416867703
16;128;128;16;1;2;1;2;4;2322450223
2;128;64;1;1;32;1;64;1;1125703408
2;128;64;1;1;64;1;64;1;1051324000
32;128;64;16;1;2;32;2;64;916041185
2;128;64;2;1;64;1;1;128;3282518
2;8;64;1;1;2;1;2;64;1180236741
1;32;2;1;32;2;1;1;16;4898981333
64;4;1;4;1;1;1;2;128;123970222
256;256;8;1;32;1;1;1;4;707093630
2;32;64;1;1;64;1;4;16;13297777
2;128;64;1;1;64;16;2;64;5064593
256;128;64;16;1;2;1;2;64;1144956741
2;128;8;1;1;4;1;1;128;39193333
16;16;1;1;4;1;64;1;2;757187556
1;32;32;1;2;4;1;128;256;761820889
16;64;16;1;1;8;128;4;128;77589778
8;2;1;2;2;1;8;1;2;1399267111
2;128;64;1;1;64;1;128;4;751987555
2;128;32;1;4;1;1;2;64;1425488148
2;128;64;1;1;8;1;1;128;78674667
16;32;1;16;1;1;8;1;128;45964741
16;8;2;1;2;2;32;2;256;80644148
64;4;16;4;1;4;1;4;32;72320889
8;4;1;1;4;1;16;16;8;365354222
16;128;1;1;2;1;8;16;4;64531259
1;8;64;1;8;1;1;16;64;1458652148
32;1;1;16;1;1;4;64;4;1724753185
1;256;128;1;32;1;8;64;4;6126733629
2;128;64;1;1;1;1;2;64;5590029185
2;128;64;2;1;64;1;2;64;2540296
128;32;32;1;8;4;2;256;4;618322667
2;1;1;2;1;1;8;64;16;5004329037
32;64;1;8;2;1;2;4;16;76394223
128;32;4;128;1;1;256;32;1;1095073481
2;128;64;1;1;2;256;1;64;2315115260
2;128;128;1;1;64;1;2;64;6151555
4;8;1;1;8;1;256;1;128;8523601334
1;32;4;1;1;4;1;64;64;673582370
32;32;8;4;4;4;8;16;32;17354519
4;32;1;1;1;1;1;128;1;1265407852
64;16;1;4;8;1;16;1;16;85006815
64;256;1;16;8;1;64;128;16;69216593
128;32;16;16;2;1;1;1;4;1339513926
16;32;4;2;1;4;1;1;64;19145334
1;128;64;1;1;64;1;1;32;3670519
2;256;32;1;2;1;256;1;64;6345695703
1;64;64;1;1;64;1;2;64;4176740
2;128;64;1;4;64;256;4;64;6751555
128;256;1;8;2;1;32;2;2;62624741
128;2;1;2;1;1;2;1;1;87515852
1;64;64;1;1;16;128;1;256;21137926
128;16;128;8;4;2;64;8;1;3564436444
2;128;64;2;1;1;256;2;64;2699976741
2;128;64;2;2;64;256;2;64;5078371
2;16;64;1;8;1;1;2;64;3988253630
2;128;64;1;1;64;1;1;64;2274222
2;128;64;1;64;2;16;2;64;53575810815
2;256;64;1;1;64;2;2;64;2198222
2;128;256;1;1;64;1;2;64;13514519
2;128;64;1;1;64;1;16;64;6610074
1;4;1;1;1;1;8;2;128;1622286222
2;32;32;2;8;8;64;8;4;124210667
64;16;32;1;16;16;64;1;2;2272429778
2;128;256;1;1;128;1;1;64;13767703
1;128;64;1;1;1;1;1;128;5592466222
1;32;32;1;2;4;1;128;4;734250518
2;128;128;2;1;64;1;2;64;7406222
16;64;128;2;1;8;1;64;128;176947408
64;4;64;8;2;4;8;1;8;167480444
16;32;64;16;16;1;8;1;128;19719629777
16;1;2;2;1;2;32;2;256;350768444
4;64;32;4;1;1;1;2;64;2828732000
1;4;16;1;1;4;1;4;32;623637926
256;4;1;16;4;1;16;16;8;41213185
16;128;1;1;1;1;8;4;4;111061037
1;8;64;1;8;2;16;16;64;680605630
2;64;1;1;32;1;8;64;4;144346371
32;16;128;1;2;16;8;1;32;45531407
64;128;32;4;1;1;2;2;64;1458627852
4;64;32;1;2;8;2;128;4;255747259
1;1;16;1;1;16;8;4;16;780176297
32;64;256;8;2;16;1;4;1;2721597185
2;128;64;2;1;64;128;2;64;4481482
1;128;64;1;1;32;1;2;64;5396296
1;64;64;1;1;1;1;2;16;5671707851
64;32;4;32;4;1;64;1;1;372885481
1;8;4;1;1;4;256;2;128;331744000
1;32;4;1;8;4;32;64;64;102479111
32;32;1;4;4;1;8;32;32;23104889
64;32;1;1;1;1;1;128;1;266901185
1;16;64;1;8;1;16;1;16;5776157481
64;256;1;64;1;1;64;128;16;273361926
256;32;128;16;2;2;64;16;4;2593006815
64;4;4;2;1;4;1;1;64;26752148
2;128;64;2;1;64;1;4;64;4003111
2;128;32;1;1;1;1;2;1;3210165777
2;64;64;1;1;4;1;2;64;291408148
2;128;128;1;1;64;32;2;64;10922815
128;16;1;32;2;1;2;4;64;330092593
16;1;1;16;1;1;128;1;16;734200148
1;4;64;1;2;16;128;128;1;3278491704
2;128;64;2;1;1;1;2;64;5872069630
128;16;2;2;4;2;1;8;16;15724593
64;4;1;64;1;1;1;2;128;1672154370
