GLOBAL_SIZE_0;GLOBAL_SIZE_1;LOCAL_SIZE_0;LOCAL_SIZE_1;TILE_0;TILE_1;cost
2048;1;64;1;32;128;77609760
256;2048;1;1;128;1;18446744073709551615
128;2048;1;2;1;64;33302432
1;32;1;1;512;4096;12252296416
256;1024;1;2;1;64;31948096
256;2048;1;2;1;1024;33334432
128;2048;1;2;1;8;34537696
64;2048;1;2;1;128;32914048
128;1;32;1;4;512;3394685536
8;4;4;1;128;1024;18446744073709551615
64;4096;4;16;4096;4096;23156951552
16;2048;16;16;64;1024;51885312
4;2048;1;4;8;1;18446744073709551615
1024;4096;1;64;8;128;2004192
8;64;1;4;1024;128;52307872
2;512;1;1;2;2;73292640
1;32;1;8;256;1;18446744073709551615
1024;4096;1;128;8;64;2736288
1024;1;1;1;8;64;18446744073709551615
1024;4096;1;256;4;256;1288256
1024;4096;4;2;4;256;15844160
512;2048;1;256;4;256;1294368
2048;4096;1;256;4;256;1395584
1;4096;1;256;16;256;4123872
1;1;1;1;1;1;11376006592
256;4096;1;128;4;512;2096064
1024;4096;1;256;4;128;2516256
512;4096;1;256;4;256;1294080
8;2048;2;32;8;512;9928256
1024;4096;1;256;4;1;18446744073709551615
1024;1024;1;256;4;256;1300992
1024;4096;1;256;4;256;1288992
2048;256;1;1;64;1;18446744073709551615
16;8;8;4;1;32;841685120
1;16;1;8;4;256;960980192
512;2;2;2;32;1;70131392
256;512;2;128;32;8;35151392
1024;2048;1;1;4;128;18446744073709551615
4;256;1;1;1;1;65531488
1024;1;1;1;4;512;18446744073709551615
512;4096;1;256;2;256;1296768
512;4096;1;128;1;256;1450080
16;512;1;128;4;512;2365344
1;128;1;2;128;32;134935648
256;32;16;8;2;64;91055136
4;1024;4;8;256;8;5357408
1;4096;1;1;128;1;18446744073709551615
4096;512;1;2;4;256;32939968
1024;4096;1;256;4096;256;1300098592
1024;4096;8;4;128;256;7297664
8;1024;1;256;4;16;35214368
512;4096;2;2;4;256;23783776
1024;4096;1;256;2;256;1304640
512;1;1;1;1;16;66253120
256;2048;16;4;512;8;11966176
512;1024;4;32;256;64;3682912
512;1;8;1;4096;4;2990281792
16;256;1;256;128;128;9076960
2;4096;1;256;4;256;2248864
1024;4096;1;128;4;256;1451360
64;4096;1;256;4;256;2236032
4096;1024;1;4;32;1024;20686688
1024;4096;1;1;4;64;18446744073709551615
512;1024;1;16;16;256;4907168
1024;2048;1;1;4;256;18446744073709551615
1024;4096;1;256;4;512;1442336
2048;4096;1;256;8;256;1443040
4;4096;1;2;1;1;74593440
256;4;64;1;4096;4;18446744073709551615
64;1;16;1;1;4096;3304177312
512;64;256;1;2;16;8167505824
128;1024;2;64;16;32;4112832
1024;32;1;4;4;256;16154592
1024;4096;16;8;4;256;45195776
16;256;1;1;512;512;18446744073709551615
1024;4096;2;1;4;512;18446744073709551615
1024;2048;2;1;8;256;18446744073709551615
512;4096;1;256;4;128;2531168
128;2048;1;8;4;128;9368768
4096;64;1;4;1024;1;18446744073709551615
8;2;2;2;2;128;939627360
32;4;4;1;32;512;136712672
4096;256;1;256;64;8;58495200
1024;64;1;2;4;256;29707328
1024;4096;64;4;16;256;95648672
1024;4096;1;2;4;256;39486976
32;2048;2;64;16;256;2447200
256;1024;1;256;4;256;2236256
1024;4096;4;2;4;512;15857152
512;4096;1;128;32;256;1397600
128;256;1;1;256;128;18446744073709551615
1024;4096;1;256;4;32;9897344
1024;4096;8;4;4;256;13011648
1024;4096;1;64;1;256;1991136
128;2048;1;32;8;128;2858176
4;1024;4;1;4;8;31080512
1;16;1;16;32;256;987205472
2048;4096;8;8;2048;2048;89751744
1;1;1;1;1;128;11503573504
1024;4096;1;256;2;1024;1506944
1024;1;2;1;2;256;45975456
1024;1;1;1;4;256;18446744073709551615
64;512;1;128;64;128;1699456
1024;4096;8;4;4;16;12872096
1;4096;1;256;1024;1024;21545088
8;1024;1;1;16;32;18446744073709551615
128;128;4;4;2;1;52792480
1024;1024;1;16;2;1024;5817376
32;4;32;1;64;32;419303200
256;1024;1;32;16;256;2682304
256;4096;1;256;4;256;1301952
1024;1;1;1;8;1024;70513760
128;1024;1;64;16;2048;3319136
1024;4096;1;256;4;2;176877024
1024;4096;1;256;4;4;88074336
128;1024;1;64;16;512;2353216
64;4;1;1;1024;1024;18446744073709551615
16;256;1;4;4;1;18446744073709551615
512;1024;4;2;1;2048;46865728
128;256;1;256;64;1024;1885728
128;4096;1;64;8;512;2463584
2048;2048;1;256;2;256;1318496
32;1024;1;256;16;256;1652704
1024;4096;1;16;4;16;6288384
1024;4096;1;256;4;2048;2613344
8;1024;1;1;16;256;18446744073709551615
1024;4;1;1;1;1024;18446744073709551615
1;1;1;1;32;128;13171111168
128;1;32;1;2048;512;18446744073709551615
256;256;1;1;16;256;18446744073709551615
1024;4096;1;1;4;512;18446744073709551615
1024;4096;1;256;16;256;1335744
1024;1;1;1;16;256;18446744073709551615
64;2048;2;128;16;256;2067168
1024;4096;1;32;4;256;3267680
8;4096;1;256;4;256;1623520
1024;4096;1;256;128;256;1369568
1024;4096;1;128;256;64;2868736
8;4;4;4;128;1024;558149184
64;8;4;1;4096;4096;4487542528
16;2048;16;2;64;1024;241693216
32;1024;1;128;8;512;2555680
4096;4096;1;256;4;64;5801152
2048;1;1;1;4;256;18446744073709551615
64;1024;1;256;32;256;1465088
64;512;1;256;32;512;1699840
256;2048;1;128;16;256;1345760
64;2048;2;1;16;256;18446744073709551615
64;1024;1;128;16;512;2142176
32;1024;1;256;8;512;1733888
1024;256;8;4;1;256;16515200
64;16;1;8;4;256;15414720
16;1;16;1;1;32;11634080864
1;16;1;8;32;256;958503808
512;2;2;2;128;4096;113258304
1;128;1;4;128;32;112084864
64;256;1;256;16;256;1594656
1024;64;64;4;4;256;396805152
1024;4096;256;1;4;256;2828053440
1024;4096;1;256;1;256;1325024
1024;4096;1;1;4;256;18446744073709551615
64;512;1;256;16;256;1763072
256;1;16;1;2;64;1099874976
4;1;4;1;256;2;4467226528
256;2048;16;4;512;64;12505248
128;2048;1;256;32;256;1319232
128;2048;1;256;16;256;1332864
128;1024;1;256;32;512;1422400
128;2048;1;256;16;512;1402048
1024;4096;1;1;4;256;18446744073709551615
4096;4096;1;256;4;32;11402880
1024;4;1;4;4;256;16395104
1;4096;1;256;4;256;4236224
1024;1;1;1;4;256;18446744073709551615
2048;4096;4;2;4;256;16932160
4096;4096;1;256;16;256;1602368
128;2048;1;128;16;512;2056928
128;2048;2;1;16;256;18446744073709551615
512;16;4;1;256;64;18446744073709551615
512;1;64;1;4096;4;837332640
1024;4096;8;4;4;32;12985952
1024;4096;256;1;4;256;2858850080
4096;4096;1;256;4;256;1588576
16;4096;1;256;4;1;18446744073709551615
128;2048;1;1;16;64;18446744073709551615
1;4;1;1;256;4;4525845536
32;1;16;1;1;4096;6196780800
512;4;256;1;2;16;4814806976
2048;4096;2;1;2;256;54216288
2048;4096;2;1;2;128;54129024
1024;4096;1;256;64;256;1345376
128;1;1;1;4;64;103121600
4096;4096;2;1;4;256;18446744073709551615
1024;128;1;1;512;256;18446744073709551615
128;2048;1;256;32;512;1393216
4096;64;1;4;4096;1;18446744073709551615
32;2;8;2;512;2;318061664
64;4;1;1;32;512;101688544
128;2048;1;256;16;64;5514912
1024;1;1;1;4;1024;59782816
1024;4096;4;4;1;256;20439360
1024;4096;1;256;1;512;1491104
1024;32;1;4;4;128;15718016
1024;4096;1;256;4;4096;37804256
1024;4096;1;1;4096;256;18446744073709551615
2;4096;1;256;4;256;2240160
32;1024;4;8;4;8;4193920
4;1;2;1;32;256;3745040736
2048;256;8;4;2048;2048;179227232
128;128;2;2;1;1;74424128
4096;2048;1;1;4;256;18446744073709551615
256;4096;1;256;4;512;1422016
16;4096;1;256;4;256;1430880
1024;16;1;2;4;2048;31999328
1024;4096;2;32;4;16;4384768
1024;4096;128;1;4;256;1213834304
8;1;1;1;2;1024;1457849120
4096;4;32;1;256;32;18446744073709551615
64;1;64;1;1024;1024;815201248
16;256;1;4;512;1;18446744073709551615
1024;4096;1;128;16;256;1439776
1024;2048;1;256;4;256;1292800
512;1;1;1;8;256;18446744073709551615
1024;4096;1;1;4;128;18446744073709551615
32;4096;1;256;4;2;274101280
1024;4096;1;256;32;256;1333632
2;8;2;2;1;2048;3090605728
16;32;1;1;1;2048;18446744073709551615
2048;8;64;2;32;128;43664352
128;1;32;1;4;512;3394753152
2048;1;1;1;32;1024;96078496
1024;1;2;1;8;512;18446744073709551615
1024;4096;1;64;4;512;2557824
1024;64;1;2;2048;256;198552096
128;4096;1;256;4;256;1309152
8;4;1;4;128;1;18446744073709551615
64;128;4;16;64;4096;33024992
16;2048;16;2;64;1024;242154208
16;8;16;2;1;32;1555302464
1024;4096;1;128;2;256;1423648
256;1;1;1;8;256;99622560
2048;1;1;1;4;256;18446744073709551615
8;128;1;1;4;256;18446744073709551615
1024;4096;1;1;4;2;18446744073709551615
256;16;256;1;32;16;274898208
32;1;2;1;1024;4;18446744073709551615
1;128;1;4;1;1;411802112
256;32;32;2;2;64;348422624
1024;4096;2;1;4;1024;18446744073709551615
1024;4096;1;16;4;256;6034400
1024;1;1;1;4;2048;59267488
1024;4096;64;4;4;256;382211232
4;1024;1;8;256;8;12286880
64;4096;16;16;1;8;30418880
128;1024;4;4;256;64;7519040
512;1;256;1;4096;4;304795456
1024;1;1;1;8;64;18446744073709551615
4096;4096;1;256;2;256;1502624
1024;4096;1;256;256;256;1434080
1024;512;1;256;4;256;1303616
1;4;1;4;16;4;3707906912
128;1;16;1;1;64;1422942976
8;4;2;4;2;16;558103296
4096;64;1;4;16;1;18446744073709551615
1024;4096;1;128;4;512;2016832
1024;4096;1;256;4;16;21796032
1024;4096;128;1;4;64;792273952
32;2;8;2;512;64;360732544
1024;4;128;2;32;512;139822848
1;1024;1;1;4;8;18446744073709551615
1;2048;1;16;32;256;62408544
1;4096;1;1;4;128;18446744073709551615
1024;1;1;1;4;256;18446744073709551615
1024;4096;1;32;4;2;51080384
1;4096;1;8;2048;2048;889816896
32;128;4;4;2;1;80228224
1024;1024;1;16;16;2048;7152480
32;1;32;1;64;256;1653257184
1024;4096;2;1;4;256;18446744073709551615
1024;4096;32;1;4;256;192624736
1024;128;1;1;4;8;18446744073709551615
512;2048;1;256;8;1024;1831904
1024;4096;1;256;4;64;4984864
64;4;64;1;1024;4096;822756608
2048;32;1;2;4;1;18446744073709551615
512;1024;128;2;1;2;114363136
1024;4;1;1;256;8;18446744073709551615
16;4096;16;8;4;256;94037920
1024;4096;1;8;4;256;11579488
4096;4096;1;256;4;128;3017760
2048;8;16;8;32;128;11563072
128;1;64;1;1;2048;5847244096
8;4;4;4;128;1024;558606496
4;1;4;1;4;4096;4294085312
1024;4;1;4;2;256;17261984
2048;4096;1;1;4;256;18446744073709551615
1024;4096;1;64;8;256;1942560
1024;4096;1;1;8;512;18446744073709551615
1;2048;1;16;64;1024;238272928
2;1;1;1;1;32;5950582848
256;8;256;1;32;16;303173952
512;2;2;2;1;1;101298048
8;4096;1;256;4;2;239816448
1024;4096;1;32;4;4096;482846624
1;1;1;1;128;32;13233028288
256;32;32;2;1;64;48319616
4;8;4;1;256;512;18446744073709551615
1;512;1;16;2;8;68214432
128;4096;64;4;128;256;26350112
1024;4096;1;256;32;256;1334560
128;4096;1;128;4;256;1468320
1024;4096;1;256;8;128;2643744
512;1024;1;32;256;64;3642656
512;1;256;1;1;256;5822668864
1;4;1;4;256;4;3659366432
128;1024;16;2;1;64;36279808
1024;4096;1;256;512;256;1667744
1;4096;1;256;4;1;18446744073709551615
1024;4096;1;256;4;1;18446744073709551615
1024;4096;2;1;8;256;18446744073709551615
1;4096;1;256;4;256;4244832
1;4;1;4;16;16;3646877952
4096;64;1;4;1;1;78917312
32;2;8;2;16;2;361245632
16;4;4;1;32;512;271417536
1024;128;1;1;4;256;18446744073709551615
1024;4096;1;256;128;128;2708224
16;2;8;2;1;8;3308292416
1;2048;1;16;4096;1;98967040
2048;512;8;8;1;2048;10392480
512;128;4;4;2;1;63412032
1024;4096;1;256;8;256;1357664
1024;2048;1;256;8;256;1347456
512;4096;1;1;4;256;18446744073709551615
8;4096;1;16;4;256;8081408
1024;1024;1;16;1;1024;5586304
32;1;32;1;64;32;1659367200
64;1;1;1;1024;1024;2949490944
4;256;1;128;4;1;18446744073709551615
512;4096;2;1;4;128;18446744073709551615
1024;4096;2;1;16;512;18446744073709551615
512;4096;1;128;4;64;2559200
2048;4096;1;128;16;256;1503360
64;2048;1;256;4;256;1373632
1024;4096;1;64;4;256;1948096
1024;1;1;1;4;32;18446744073709551615
512;1024;4;2;1;2048;46891200
32;4;1;1;1;1024;18446744073709551615
2048;8;64;4;32;128;43712832
128;1;32;1;4;4;3849564992
256;4096;1;256;4;128;2548576
2048;2048;1;1;4;256;18446744073709551615
1024;1;1;1;2;256;62924032
2048;4096;1;256;8;1024;2029056
1024;1024;16;8;4;256;45291520
4096;4;64;1;4;1024;516600320
64;128;8;16;64;1024;9405664
16;2048;16;16;64;2048;103325696
16;1;8;1;1;32;5952919200
1024;16;1;8;4;2;38024992
1024;2;1;1;128;256;18446744073709551615
4096;4096;1;256;4;1024;2184384
32;16;4;8;4;32;39892832
16;128;2;8;32;1;65816448
1;128;1;1;256;4096;12277712544
64;32;1;2;1;64;31052928
4;1;4;1;256;8;4204304352
256;4096;32;4;512;512;21912928
1024;1;1;1;4;128;18446744073709551615
1024;4096;4;2;4;16;15861152
1024;4096;1;128;1024;256;3609888
2048;4096;4;2;4;256;16948640
512;1024;1;1;256;64;18446744073709551615
512;1;256;1;4096;4;304642304
1;4;1;1;256;4;4310085440
16;1;16;1;8;64;3652765952
256;1;1;1;4;256;100907328
1024;256;1;256;2;256;1329280
1024;4096;2;1;4;128;18446744073709551615
128;4096;1;256;4;128;2563904
1024;4096;1;256;4;1024;2009280
4;4096;1;256;4;256;1990112
128;4096;1;128;2;256;1414752
1024;1;1;1;2;256;63100448
8;4;2;4;2;32;533722624
4096;64;1;4;1;1;79006912
32;2;8;2;2048;2;722080352
64;4;1;1;32;4096;369816416
1024;1024;128;2;4;8;680108576
4096;2048;16;16;2;256;88364640
1024;4096;2;1;2;256;50234304
2048;4096;1;256;4;64;5233856
512;4096;4;1;4;256;30265248
1024;4096;1;256;1;1024;1534176
1024;4096;1;256;2;512;1447200
512;4096;2;1;8;256;18446744073709551615
2048;1;8;1;1;2048;88326080
128;128;4;4;2;2048;36709760
1;4096;1;256;4;256;4229984
1024;1024;1;16;1;1;79658304
2048;4096;1;256;4;1;18446744073709551615
1024;16;1;8;4;256;9275520
32;4;32;1;256;64;420412864
1024;4096;64;1;1024;1024;18446744073709551615
16;2048;2;4;16;1;45114464
512;256;4;1;1;2048;18446744073709551615
1024;4;1;4;512;1024;400335776
1;8;1;8;8;128;1922281504
512;1;1;1;4;256;75656032
1024;4096;1;64;64;256;1843904
1;1;1;1;4;512;13158630528
1024;4096;1;256;8;512;1460160
32;2;1;2;4096;256;5783220096
2048;4096;1;1;4;64;18446744073709551615
1024;128;1;1;4;1;18446744073709551615
128;4;64;1;4;1024;1646635008
64;1;8;1;64;1;337280992
4;2048;1;16;1;1024;59392800
256;8;8;4;1;2048;51527712
512;4096;1;1;2;1024;18446744073709551615
2048;4096;1;1;1;256;18446744073709551615
256;4096;1;256;4;1;18446744073709551615
8;4096;1;256;4;8;63398336
32;1;4;1;4;1;533118080
16;512;2;8;32;1;54479424
1024;4096;1;1;2;256;18446744073709551615
1;4096;1;256;4;256;4229952
1024;4;1;4;4;1;18446744073709551615
1024;256;4;2;4;256;12592224
4;4;2;4;1;32;1672030080
64;32;1;1;1;64;63977088
4;1024;1;8;256;8;12320384
256;2048;2;64;512;1;117083936
2048;1;1;1;8;256;18446744073709551615
1024;1024;1;256;4;512;1348224
1024;1;1;1;4;128;18446744073709551615
512;1;2;1;256;64;18446744073709551615
512;1;32;1;1;4;778117312
1;4;1;4;1;4;3952127776
128;1024;16;16;1;64;13181984
1024;4096;8;4;4;2048;15787968
1024;2048;128;1;4;256;1200147840
512;4096;1;256;512;256;1617312
8;512;2;4;1;32;20653888
4096;64;1;1;1;32;62292672
32;2;8;1;64;2;366020928
1;4;1;1;32;512;4274203488
1024;4096;1;256;4;8;43806816
1024;4096;256;1;4;2;1328723072
256;4096;1;256;2;512;1430144
2048;4096;1;256;4;32;10318624
512;4096;1;256;8;512;1423136
1024;256;1;1;4;256;18446744073709551615
1024;4096;1;16;512;256;7991520
32;1;4;1;4;8;578435744
1;2048;1;16;1;256;61778976
256;512;1;8;1;2048;10451488
128;128;32;4;2;2048;820678528
1024;4096;1;128;4;1024;2476768
1024;4096;2;2;8;256;23449664
2048;4096;1;32;4;256;3636832
1024;8;1;1;4;256;18446744073709551615
1024;1;1;1;1;256;54856352
1024;512;16;16;1;1024;14265888
64;128;4;1;64;32;18446744073709551615
1;1;1;1;1024;1024;11722618048
1024;4096;128;1;256;256;18446744073709551615
16;2048;4;4;1;512;103315712
512;1024;2;2;1;2048;35566208
1024;64;2;4;512;1024;59514496
64;8;16;2;1024;128;60682080
1024;4096;1;128;4;128;1292096
1024;2048;1;1;8;256;18446744073709551615
2048;4096;1;256;128;256;1401376
128;1;2;1;4;512;117926368
4096;4;32;1;4;1024;192639232
64;1;1;1;64;512;18446744073709551615
512;2048;1;16;64;1024;8343776
2048;4096;1;128;4;256;1566080
1024;64;1;2;64;256;30536160
1024;4096;2;128;4;256;1935712
1024;4096;1;256;1;256;1318816
256;8;16;4;1;2048;98456576
32;16;32;2;2048;32;103379328
16;512;2;16;32;1;72283904
1;128;1;32;128;32;129972448
1;4096;1;1;4;256;18446744073709551615
512;4096;1;256;4;64;5000832
1024;4096;1;256;4096;32;10581501216
64;256;1;2;1;64;30276288
64;1024;2;8;512;8;6309984
256;2048;16;8;512;8;13336320
512;1024;8;1;256;64;18446744073709551615
512;2048;1;1;8;256;18446744073709551615
1024;4096;1;4;4;2;43377376
512;1;4;1;4096;4;4734582720
1;4;1;4;256;64;3527083616
64;1024;1;1;4;64;18446744073709551615
8;512;2;4;128;32;12280032
4096;64;4;1;1;32;63559552
32;2;8;2;1;2;1914106752
64;4;4;2;32;512;71583904
2048;1;256;1;4;4;2476306784
1024;1024;1;1;4;256;18446744073709551615
1024;2048;1;64;4;256;1774112
1024;1024;1;256;4;4096;9580448
1;256;1;16;1;256;61779648
2048;512;4;8;1;2048;8817856
1;128;1;2;2;128;193284768
1024;1;256;1;1;1024;2869422624
512;1024;1;256;4;1024;1910304
512;4096;1;1;8;256;18446744073709551615
4096;4;1;4;4;256;16387040
32;4;32;4;64;32;427883488
64;1;64;1;1024;128;806256832
1;128;1;4;16;1;18446744073709551615
512;1024;1;2;64;1;18446744073709551615
128;1;1;1;4;128;102758176
2048;256;1;256;4;256;1329280
