GLOBAL_SIZE_0;GLOBAL_SIZE_1;LOCAL_SIZE_0;LOCAL_SIZE_1;TILE_0;TILE_1;cost
1;8192;1;1;8;8192;18446744073709551615
16;2;16;1;8192;2048;18446744073709551615
1;512;1;64;16;1;18446744073709551615
128;128;64;2;8;256;1114447808
8192;128;1;8;16;2;204724128
8192;64;64;1;4096;1024;18446744073709551615
32;1;8;1;64;2048;2658398368
1024;16;16;2;16;256;54738496
4096;1024;64;4;16;1;3634987296
8192;1;16;1;1;256;286768672
8192;1;4;1;128;512;18446744073709551615
2048;16;16;16;64;2048;123388352
4;1024;2;128;2;1;1912373248
4096;4;128;1;64;16;511733152
4096;1;128;1;1024;8192;224947456
64;128;64;2;4;128;2174479136
16;2048;16;2;512;8;48670880
512;1024;8;1;512;32;18446744073709551615
2048;1;32;1;16;128;312953056
32;32;16;4;1;4;1231515264
128;4;2;4;128;512;123160064
8;2048;1;32;512;2;209728384
16;2048;16;2;64;2;70282336
16;2048;8;32;512;8;118334528
4;2;4;1;1;2;32128654720
32;512;8;4;1;1;316654848
64;32;4;2;8;2048;146167168
512;32;1;2;2048;1;18446744073709551615
64;32;16;8;2048;32;90784800
16;2048;2;64;512;8;101538144
16;2048;8;1;512;2048;18446744073709551615
16;2048;4;64;16;8;137587456
8;16;8;8;1;1;24752694112
16;2048;8;1;2048;8;18446744073709551615
8;2048;1;64;512;8;75186144
16;2048;16;2;128;4;51851104
2048;512;64;1;64;2048;179783328
2;8192;1;8;512;512;211895104
32;2;2;2;8192;4;18074965312
1;32;1;8;32;8192;6385816832
1024;128;8;1;1;256;18446744073709551615
16;1;16;1;512;8192;7750010144
16;2048;1;64;512;8;122981792
16;2048;2;2;512;8;81755072
128;128;64;1;64;256;107405664
8192;1;2;1;4096;1024;18446744073709551615
1;16;1;2;32;128;3515715328
32;128;1;16;8;16;35265376
512;2;16;1;128;64;170128736
64;1;4;1;512;256;18446744073709551615
1;4096;1;16;64;128;61268192
64;64;2;4;64;1;205544064
1;1;1;1;1;256;50317196416
1;8;1;2;2048;64;6456409824
2;16;1;8;2;1024;1799332896
1024;2048;2;16;8;1;199293888
2048;2048;32;1;2048;256;18446744073709551615
32;8192;1;128;64;8192;718513120
1024;8192;1;8;2;4;101253408
64;256;1;32;1;4;122941920
32;256;16;1;1024;16;104997696
64;512;32;4;128;64;185373664
64;64;1;16;256;64;29951872
128;128;16;1;128;128;18446744073709551615
128;1024;32;2;128;128;193243488
512;8192;16;1;4096;64;18446744073709551615
1;1;1;1;16;1;18446744073709551615
8192;512;64;1;4096;1024;18446744073709551615
1;2;1;2;8;64;28386204224
32;1;1;1;64;2048;1613485216
16;16;4;2;16;256;289082752
4;1024;1;128;8;1;18446744073709551615
8;32;4;32;64;64;330598144
64;64;1;16;64;64;30637760
32;64;2;32;256;64;39059552
128;64;128;1;256;64;177159904
2;1024;2;32;1024;16;79124544
8192;4;4;4;64;16;42892928
4096;1;32;1;1024;8192;871279712
64;128;64;2;128;256;106600960
8;512;4;32;512;32;23148320
64;64;1;16;8;64;30833728
64;64;1;16;2;1;488946080
64;64;1;2;256;64;137015488
512;1;8;1;4096;8;18446744073709551615
1;1024;1;64;512;8192;1042217888
2048;1;64;1;16;128;625951264
32;32;16;16;1;4;4440767360
16;128;2;32;128;64;39006528
8;512;4;32;512;64;23933728
8;512;2;32;512;64;19604704
8;256;4;32;512;32;45533152
16;512;1;32;512;64;16845920
8;512;1;32;1024;64;17279744
8;512;4;32;1024;64;23848384
16;512;1;64;512;64;12658976
16;2048;1;32;256;64;10658848
16;512;1;32;256;32;17226784
16;512;4;32;512;64;14091616
32;2048;16;1;256;64;18446744073709551615
32;2048;32;2;512;64;113738656
4;2048;2;32;256;64;10422336
16;2048;1;32;128;128;10282784
16;2048;4;32;64;128;14301184
32;1024;32;2;256;128;107056992
16;2048;16;1;128;64;18446744073709551615
16;2048;1;32;256;256;11387936
32;2048;32;2;128;128;107046208
8;2048;2;32;128;128;12630304
16;1024;1;32;512;128;11855744
32;2048;16;16;128;128;111324576
16;8192;1;32;128;256;11494272
16;1024;1;32;128;64;12459136
16;4096;1;32;128;128;10239776
16;2048;2;32;512;64;8697664
16;2048;4;32;512;64;14234304
2;2048;1;32;512;64;16390688
16;8192;1;32;512;64;11156416
8;2048;4;32;512;64;17042496
8;2048;2;64;512;32;15618720
16;2048;1;16;512;64;19178272
64;2048;1;32;512;64;11348672
16;4096;2;32;1024;64;10581248
16;4096;2;16;256;64;12480896
16;2048;4;32;256;512;17155488
64;2048;1;32;64;64;11157792
16;4096;2;32;512;32;10701248
16;2048;2;32;2048;64;12592416
8;2048;4;32;512;16;35713152
4;1024;1;32;2048;64;18022656
2;128;2;32;1024;2;4365855296
32;2048;2;16;512;16;17716896
16;4096;2;32;256;512;11437088
16;1;2;1;512;128;4084227904
64;512;32;2;128;64;191286048
16;2048;2;32;512;32;10712832
16;2048;1;32;512;128;10459488
16;2048;2;32;2048;256;11018112
8;64;2;32;1024;8;621789472
16;2048;2;32;256;64;8625696
16;512;8;32;512;64;35477408
16;2048;1;64;128;64;10276960
16;4096;2;128;256;64;19137216
8;2048;1;32;256;64;12327232
16;4096;2;32;256;64;9017184
16;2048;4;32;256;64;14245312
4;2048;1;32;1024;64;16453888
4;2048;4;32;256;32;14238784
16;1024;2;32;256;64;10968832
2;2048;2;32;256;64;18665312
16;2048;2;32;256;128;10038944
8;1024;4;32;256;64;14027328
4;2048;1;16;256;64;23126944
16;1024;1;16;256;16;25735392
16;1024;2;32;256;128;14578304
16;512;2;32;512;64;10548640
16;2048;2;16;256;128;13941920
8;2048;4;32;1024;64;16709600
8;2048;4;32;64;256;16927488
16;4096;2;32;128;64;8596320
16;2048;1;32;256;128;10230496
8;4096;4;32;64;64;15023872
8;1;4;1;128;64;8989247232
64;4096;64;4;128;32;139569664
64;4096;64;4;128;64;181383520
16;1;2;1;128;64;4073444544
16;4096;2;32;128;256;12472608
16;4096;2;64;128;8;100945376
16;4096;4;32;128;16;35988000
16;4096;2;32;128;16;18279904
32;4096;1;32;128;256;10032896
16;4096;16;1;128;128;18446744073709551615
16;512;1;32;128;64;16618336
16;4096;2;32;128;32;10460064
16;2048;2;32;128;64;8723936
32;2048;1;32;128;64;10948544
16;4096;2;32;256;128;10488608
16;4096;2;64;512;64;10640000
16;512;2;32;128;64;10593696
16;1;4;1;512;128;4534813568
16;4096;2;32;128;128;10025824
16;4096;2;32;32;64;8636288
16;4096;2;16;128;64;12101568
16;8192;2;32;16;64;8692384
8;1024;1;16;64;64;22353600
16;4096;2;16;128;128;13949952
2;2048;1;32;128;64;16417920
16;1;2;1;256;64;4111208096
16;4096;4;32;128;128;14790656
2;4096;1;8;128;256;107132480
32;1;1;1;128;16;1827771712
4;4096;1;128;2048;64;17589664
4;4096;2;32;128;32;11258720
16;4096;2;64;256;16;39132512
64;2048;64;4;128;64;179919808
16;4096;8;32;128;64;38662144
16;512;2;32;64;64;10598848
16;1;2;1;128;64;4091122816
16;8192;2;16;256;64;12620992
32;4096;1;8;32;64;35441344
16;4096;4;32;128;256;18753568
16;4096;2;64;128;64;10544832
16;4096;2;32;64;64;8627392
16;4096;1;32;128;64;10949792
16;8192;2;32;512;64;8887008
16;4096;2;32;512;64;8931776
32;512;8;4;1;4;112917568
64;32;4;16;8;2048;40858464
512;32;1;1;1;1;292027744
128;8192;64;1;512;4;153028736
16;4096;2;1;128;64;18446744073709551615
16;4096;2;32;1;64;12236448
16;4096;2;8;4;64;22310240
16;4096;2;2;128;64;80564448
16;2048;2;64;1024;64;11230784
32;4096;32;1;128;64;18446744073709551615
16;4096;4;32;512;64;15678528
128;1;128;1;128;64;1795337216
16;2048;2;32;64;64;8732032
16;4096;16;1;256;64;18446744073709551615
16;1024;4;64;128;64;15038176
16;4096;2;8;128;64;21500512
16;4096;1;32;128;256;11445728
8;4096;2;32;128;64;10068768
16;1;2;1;128;8;4212924832
16;1024;2;32;128;64;10995520
16;8192;2;16;32;64;12759424
16;4096;2;32;128;512;11390368
16;8192;2;64;512;64;10248640
16;4096;4;8;256;128;22537440
8;8192;4;32;128;64;14970976
32;4096;1;32;8;16;24375648
16;4096;2;32;64;512;11312480
16;512;2;64;256;64;11400608
16;1024;1;32;256;64;12480448
16;1;8;1;16;64;5527904896
32;4096;1;16;128;64;19183744
32;2;1;2;8192;4;31069100192
1;64;1;4;32;2;2061801600
8192;1;2;1;16;1024;18446744073709551615
8;16;1;2;32;128;444464736
16;4096;16;1;128;64;18446744073709551615
16;1;16;1;128;32;8145648320
16;128;2;32;1024;64;41021184
16;4096;8;32;128;64;37986976
16;4096;16;1;1024;64;18446744073709551615
16;4096;2;32;128;1;205882528
64;8192;64;4;64;64;188058784
32;128;1;16;8;16;35319040
1;2;1;2;128;64;28355868768
1024;64;1;64;512;256;65995328
1;4096;1;16;16;128;61474912
16;1;8;1;64;32;5626605504
32;4096;1;16;64;64;19105344
16;4096;1;32;256;64;10895616
32;4096;2;64;128;64;10228032
16;2048;8;1;128;32;18446744073709551615
16;4096;4;32;128;64;15694272
16;1024;8;32;128;64;37248896
16;4096;4;32;32;32;15891616
16;4096;2;32;8;64;8680032
16;2048;4;32;128;64;14294656
16;1;2;1;64;128;4077618912
2;4096;2;32;512;128;23463616
8;2048;4;64;64;512;19266208
2;4096;1;32;128;16;33267328
64;4096;64;4;512;64;155775072
16;1024;4;32;128;512;17120096
8;4096;4;32;128;64;14967296
16;2048;2;32;128;32;10279680
32;1024;1;64;128;64;11497792
4;4096;1;32;1024;64;14035200
16;4096;2;32;256;256;12773856
16;8192;1;32;128;64;10871872
16;8192;2;32;128;512;11330112
16;4096;1;32;128;64;10929344
4096;4096;64;1;4;2;2061770656
16;4096;2;32;32;1024;19697888
16;1;4;1;256;32;4523154048
4;4096;1;32;128;64;14007296
16;1;2;1;128;32;4125106208
4;4096;4;32;128;64;18436128
64;256;2;4;64;1;194349280
1;8;1;2;2048;64;6475846144
1;16;1;8;2;128;3533913088
1024;1;2;1;8;1;199395712
8;2048;4;32;128;128;18714304
8;4096;4;1;64;64;18446744073709551615
16;4096;2;16;512;64;15610432
64;4096;32;2;128;64;192006304
32;4096;1;32;32;64;10487744
64;4096;64;4;512;128;140378080
32;4096;1;32;128;64;11030688
16;2048;8;32;1024;64;40452256
64;4096;64;4;64;64;190642624
16;4096;2;1;4;64;18446744073709551615
16;4096;2;1;128;64;18446744073709551615
16;8;2;2;128;64;516518176
32;8;2;1;64;16;254850464
1024;8;1;8;64;4;133071360
64;1;1;1;1;4;862983680
1;128;1;32;16;2;8364208128
4;4096;2;32;128;64;13273344
32;4096;4;32;64;64;16643648
16;4096;2;32;128;8;46157504
8;8192;4;32;64;128;18771488
16;4096;16;16;128;64;108900192
16;4096;1;64;128;64;10424160
16;4096;2;2;128;64;80527648
16;4;4;4;128;64;1157886784
16;1;2;1;128;8192;3634362048
8;4096;4;16;128;64;17381952
4;1;1;1;128;64;14466020640
16;4096;2;16;1024;64;12977568
16;512;2;32;128;256;10356800
8192;2;16;1;4096;1;2038484832
32;1;2;1;64;2048;1837277472
1024;16;256;1;16;1;3722694144
4;1024;2;32;2;1;466025952
16;4096;2;16;16;64;12118080
16;4096;4;32;64;128;14311424
16;4096;2;16;128;32;12690528
16;1;2;1;256;128;4085382816
32;4096;16;1;128;64;18446744073709551615
16;2048;1;16;256;64;18706112
16;8192;2;32;128;64;8564416
32;1;2;1;128;64;2020885056
16;1;2;1;64;64;4073760640
16;8192;8;32;128;256;44484832
4;8192;1;32;512;64;14027360
16;8192;1;32;256;64;10870176
4;8192;1;16;128;16;19670112
16;1;8;1;64;64;5611787488
16;8192;2;16;256;256;18675616
8;8192;4;64;128;128;17642592
32;8192;1;32;128;64;11148448
16;8192;2;16;128;64;12494528
16;8192;2;64;128;64;10218784
16;8192;8;32;128;32;36210752
16;1;2;1;128;128;4066656512
32;8192;1;32;128;128;10735840
16;8192;4;64;128;512;17516320
16;8192;1;16;128;64;19789696
16;8192;2;32;128;128;10217184
16;1;16;1;128;64;8066097696
128;8192;32;2;128;16;142670880
16;8192;2;32;256;4;96663904
16;2048;2;32;128;128;9838048
16;8192;2;32;64;64;8607040
2;8192;1;32;128;16;26000256
32;8192;1;32;128;256;10564960
16;16;2;1;128;64;249249728
16;8192;4;16;128;16;17809536
16;8192;2;32;128;2048;38366272
16;512;8;32;128;64;34623040
8192;16;4;4;64;2048;33411904
512;1;1;1;4;8192;290823264
64;128;4;1;128;8192;12833881760
64;1024;16;2;512;8192;23666605344
16;8192;4;64;128;64;14546048
16;1;2;1;128;16;4049278144
16;8192;4;32;128;64;15862048
64;8192;64;2;128;64;209935808
32;8192;32;2;128;64;112826592
32;8192;2;32;128;256;11131808
8;8192;8;32;128;64;38011872
1;1;1;1;16;128;56815206048
16;32;16;2;512;4;296748960
32;512;8;1;1;4;305491360
64;4;1;2;8;2048;222424000
16;8192;2;2;128;64;86470336
16;8192;2;32;1;64;12261696
16;8192;2;32;8;64;8695712
16;8192;8;32;128;64;35511008
8;8192;4;16;128;64;17827776
32;8192;1;64;128;64;9985376
32;8192;1;32;64;64;11095168
8;8192;2;32;128;64;10061536
16;1;8;1;512;64;5638641888
16;1;2;1;128;64;4090831488
16;4096;4;32;128;64;15457056
512;8192;64;4;4;64;1405341408
16;128;2;32;128;4096;75347648
256;8192;64;4;128;64;111924160
8;2048;4;32;16;64;17150944
16;2048;2;32;32;64;8734624
4;8192;1;64;128;64;9112416
64;8192;64;4;256;128;156012736
4;8192;1;32;128;32;10294592
32;8192;1;64;128;32;23002176
256;4096;64;4;128;64;109208064
16;8192;16;1;128;128;18446744073709551615
16;2048;2;16;128;512;19319520
16;8192;2;32;128;16;19520800
8;1;1;1;128;256;7230451456
32;8192;1;128;32;256;7552128
32;8192;1;128;32;128;6679200
32;1;1;1;32;256;1800378784
32;1;1;1;32;128;1802619040
32;2048;1;128;32;256;7776800
32;1;1;1;8;16;1818305760
128;8192;64;1;32;64;528738112
32;8192;1;128;32;512;8916896
32;8192;1;128;128;64;14979200
64;1;64;1;32;128;6896419904
32;8192;1;128;32;64;14577472
128;8192;128;2;32;128;781919072
32;4096;32;1;32;64;107806848
32;8192;32;8;32;128;149220512
32;8192;1;128;64;128;6762848
32;8192;2;128;8;128;9740832
32;2048;1;256;32;128;14672736
32;8192;32;8;32;256;124498560
64;1;1;1;128;128;18446744073709551615
16;8192;2;128;32;128;9751328
32;8192;1;128;256;128;7026752
32;8192;32;8;32;32;124504960
32;4096;32;8;32;128;152866336
32;8192;1;256;32;256;6754240
32;8192;1;128;16;128;6638976
32;8192;1;256;16;128;15021984
32;1;1;1;32;128;1802925728
16;8192;2;128;16;128;9772768
8;8192;2;128;16;128;10110528
8;8192;4;1;16;128;18446744073709551615
32;1;1;1;16;128;1797829536
32;1;1;1;16;128;1796722464
4;8192;4;1;16;128;18446744073709551615
16;8192;2;1;16;32;18446744073709551615
32;8192;1;64;16;256;6822176
16;8192;2;128;16;256;10914976
32;8192;1;64;8;128;7085536
32;8192;1;16;16;128;19789632
64;8192;64;2;16;128;562789184
32;8192;1;128;8;128;7065984
32;8192;4;1;16;128;18446744073709551615
32;8192;1;128;128;128;6852768
16;8192;1;64;16;128;10020736
32;2048;1;128;16;128;8094720
32;8192;1;64;16;128;6927616
32;4096;32;4;16;128;277306464
32;8192;32;8;16;128;308281728
32;4096;1;128;16;128;7968352
8;8192;4;1;64;128;18446744073709551615
32;8192;1;128;16;512;9014816
64;8192;32;8;16;128;268224416
32;8192;4;1;16;16;18446744073709551615
32;8192;1;128;128;512;8863328
32;8192;2;128;16;128;9758400
512;8192;64;4;16;128;409219264
128;8192;64;2;16;128;787270560
128;8192;64;1;8;128;1253640864
32;1024;32;8;16;128;304361120
32;8192;1;128;16;32;32301504
64;8192;64;1;32;128;215699904
32;1;1;1;16;128;1796076544
64;1024;64;2;16;1024;935568192
2;8192;1;128;16;128;8608832
4;8192;1;128;128;128;9347552
8;8192;4;1;32;32;18446744073709551615
32;4096;1;32;16;128;10178400
32;1;1;1;64;256;1802503008
64;8192;64;2;128;128;129503744
128;8192;1;1;16;32;18446744073709551615
64;8192;64;4;16;128;722919872
32;8192;1;128;4;256;7669280
32;8192;32;1;8;512;1703336416
32;8192;1;256;16;256;6683296
4;8192;1;64;32;64;8743840
32;1;1;1;16;256;1795911456
8;8192;8;2;32;32;67073696
32;8192;1;128;16;256;7719424
8;4096;4;1;8;128;18446744073709551615
32;2048;1;128;16;64;14170112
32;8192;1;128;16;64;15361216
32;8192;1;64;2;128;6815328
256;8192;32;4;8;64;454143136
64;8192;64;4;16;128;726126880
8;8192;4;1;32;128;18446744073709551615
32;8192;1;128;4;64;13264736
32;2048;32;8;16;128;296507200
16;1;2;1;16;128;4058262624
8;8192;4;1;16;32;18446744073709551615
32;1;1;1;16;32;1803886112
32;8192;2;1;16;1024;18446744073709551615
32;8192;32;4;16;256;214041600
32;8192;1;128;8;4;415916192
256;1;64;1;16;128;3690219168
32;4096;1;128;32;32;28841248
256;8192;64;2;4;16;1470127936
32;1;1;1;8;64;1799401472
32;8192;1;64;16;32;18831328
32;8192;1;128;4;128;8395936
32;8192;16;4;16;256;58527520
32;8192;32;4;1;64;122313664
32;1;32;1;16;64;13841852704
32;4096;2;128;64;64;20012032
64;1;64;1;16;512;13782600896
32;1;1;1;16;1024;1795963776
32;8192;32;8;64;128;159338784
32;8192;1;256;4;128;11955136
32;8192;1;32;16;128;10784448
32;8192;32;1;16;128;314938304
64;8192;64;1;16;128;430705632
64;8192;64;2;16;256;427482304
64;8192;64;2;16;1024;935112384
8;1;2;1;64;512;8049062912
16;2048;2;128;4;128;10140192
16;8192;2;1;64;128;18446744073709551615
32;1024;2;128;16;256;9860032
32;8192;2;32;16;256;11336000
2;8192;1;64;16;32;17565728
16;8192;2;128;256;128;9646656
32;1;1;1;8;128;1796870208
64;4096;64;2;16;128;568482400
16;2048;1;128;8;128;9474080
32;512;1;128;16;128;8744480
32;4096;1;64;16;128;6985920
32;1;2;1;64;128;2042431360
32;1;1;1;64;256;1796515936
128;8192;128;2;16;128;1769365568
16;8192;2;64;16;64;10361088
32;8192;1;128;16;16;64220704
128;8192;32;8;4;64;777725952
64;8192;64;2;8;128;1096922176
32;8192;1;64;4;128;6765280
16;1;1;1;16;64;3620653408
32;4096;1;256;16;128;15274624
128;8192;64;2;16;64;804427808
32;8192;1;128;2;128;5870272
128;8192;32;8;256;16;99208384
64;8192;2;128;128;128;8844096
32;2048;16;4;2;256;464908672
128;8192;64;2;2;32;4244883168
256;8192;64;2;2;128;3206605344
32;8192;1;128;4;512;8939968
32;8192;2;128;2;128;10919104
128;8192;64;2;2;128;7326637728
32;512;4;1;2;128;249415392
32;8192;1;128;1;256;7110944
32;8192;32;8;2;128;2570142016
64;8192;64;2;2;512;4969568224
32;8192;1;128;2;512;8516576
8;8192;4;64;2;64;29860096
16;8192;16;4;2;128;465489536
64;1;64;1;1;64;50079680416
16;8192;2;128;2;128;11515200
32;1;1;1;2;128;1795572896
32;2048;1;256;2;128;12890144
32;8192;32;1;8;128;629839712
32;8192;1;1;2;128;18446744073709551615
32;8192;1;128;2;64;12160000
32;4096;1;128;2;128;5930112
32;8192;32;4;2;512;2468218784
32;2048;1;128;2;128;6221280
32;4096;1;128;1;128;7736160
64;8192;64;2;2;128;4408111040
