epoch;GLOBAL_SIZE_0;GLOBAL_SIZE_1;GLOBAL_SIZE_2;LOCAL_SIZE_0;LOCAL_SIZE_1;LOCAL_SIZE_2;cost
1505192374;32;64;256;2;1;8;229172445
1505192375;32;32;16;8;1;2;72272000
1505192375;512;128;16;8;2;4;59803111
1505192376;1;256;8;1;4;8;195103852
1505192376;128;2;2;16;2;1;213584593
1505192379;256;1;256;1;1;256;2250414222
1505192380;2;1;64;2;1;1;658175556
1505192381;1;4;128;1;1;128;1200791704
1505192382;1;128;32;1;2;2;166221629
1505192382;512;512;16;8;1;1;94245037
1505192383;512;256;16;8;64;4;18446744073709551615
1505192384;128;128;1;1;2;1;703093333
1505192384;2;512;32;2;32;8;18446744073709551615
1505192384;512;128;16;8;1;4;92570222
1505192385;64;8;64;4;4;4;83194962
1505192385;64;1;32;2;1;1;273454223
1505192386;512;128;16;4;2;4;123803555
1505192386;512;128;32;8;1;2;96335259
1505192387;512;256;16;8;1;4;89974223
1505192387;1;256;16;1;1;4;248405037
1505192388;4;128;1;1;2;1;237465185
1505192388;512;128;32;8;2;2;62984148
1505192389;512;128;512;8;1;16;57857630
1505192389;16;128;16;8;2;4;50558963
1505192390;16;128;512;8;2;128;18446744073709551615
1505192390;16;256;16;8;1;4;66660445
1505192390;2;128;16;2;4;4;77191704
1505192391;16;128;1;8;2;1;59949778
1505192391;16;128;16;8;128;4;18446744073709551615
1505192392;16;128;4;8;2;1;69518370
1505192392;256;128;16;64;2;4;18446744073709551615
1505192392;16;64;16;8;4;4;46133037
1505192393;16;64;8;16;4;8;18446744073709551615
1505192393;16;64;16;8;32;4;18446744073709551615
1505192393;16;64;16;8;4;4;45033926
1505192394;16;4;16;1;1;4;372341037
1505192394;16;64;16;8;4;2;43402370
1505192395;16;64;8;8;4;4;37380000
1505192395;1;64;32;1;4;4;207641037
1505192396;16;64;16;1;4;4;293780000
1505192396;512;64;8;8;4;4;72991704
1505192397;16;64;8;1;4;4;297301777
1505192397;256;64;8;8;4;4;58807704
1505192398;16;64;8;8;2;4;39095704
1505192398;16;64;2;2;4;1;190177186
1505192399;16;64;8;8;4;8;32768889
1505192399;2;64;8;2;4;8;139205037
1505192400;16;256;8;8;1;4;65839704
1505192400;16;64;8;2;1;8;274905778
1505192401;16;64;8;8;4;8;32288444
1505192401;16;64;64;8;4;1;61371703
1505192401;16;64;8;8;4;2;32512740
1505192402;16;4;8;8;1;8;211944148
1505192402;16;64;2;8;4;2;58044888
1505192403;16;16;8;8;16;8;18446744073709551615
1505192403;16;64;8;1;4;8;324802222
1505192404;16;64;8;8;1;8;57148889
1505192405;16;64;128;8;4;128;18446744073709551615
1505192406;16;16;8;1;16;8;426553778
1505192406;16;64;8;8;2;8;39093629
1505192407;64;64;1;2;4;1;242120148
1505192407;16;64;8;8;4;4;37464296
1505192407;16;64;8;8;2;4;39547259
1505192408;16;64;8;2;4;8;128734815
1505192408;16;64;512;8;4;2;48520296
1505192409;256;64;8;256;4;1;18446744073709551615
1505192410;16;1;8;4;1;2;781357037
1505192410;32;64;8;4;4;8;75623556
1505192430;4;1;1;1;1;1;19951802963
1505192431;512;512;4;4;1;1;210223407
1505192431;16;64;8;2;4;8;129839407
1505192432;16;8;8;8;2;8;119083703
1505192432;16;64;1;8;4;1;113877481
1505192434;16;1;8;8;1;8;846190371
1505192434;512;64;1;16;1;1;70285185
1505192434;16;64;8;16;4;8;18446744073709551615
1505192435;16;64;64;8;4;1;60798222
1505192435;16;64;8;8;4;4;36275851
1505192436;16;64;8;16;4;2;23219852
1505192436;16;64;8;16;4;1;21102074
1505192436;16;128;8;16;2;2;24490667
1505192437;64;64;8;2;4;2;184384593
1505192438;16;4;8;16;1;2;203797185
1505192438;2;64;8;1;4;1;125889334
1505192438;16;64;8;16;32;2;18446744073709551615
1505192439;16;64;8;16;2;4;28110075
1505192439;16;64;8;16;4;4;16115703
1505192440;16;1;8;16;1;4;797601186
1505192441;16;64;2;16;4;1;56578074
1505192452;8;1;1;2;1;1;10883235408
1505192452;1;64;8;1;4;4;164960444
1505192453;16;256;8;16;1;2;39726963
1505192453;16;64;8;2;2;2;178920296
1505192454;16;64;8;16;4;1;19964889
1505192454;16;256;8;16;1;4;37712445
1505192454;16;64;64;16;4;64;18446744073709551615
1505192455;16;64;16;16;4;2;31095111
1505192455;16;64;1;16;4;1;109445037
1505192456;16;64;64;2;8;64;18446744073709551615
1505192456;16;8;8;2;2;1;198375407
1505192457;16;64;8;1;4;4;296292297
1505192457;16;64;8;16;4;2;23502519
1505192458;16;32;8;1;4;4;264465185
1505192458;16;64;8;16;32;4;18446744073709551615
1505192458;16;8;8;16;2;4;121830815
1505192459;16;64;8;16;16;4;18446744073709551615
1505192459;16;64;8;16;4;4;16235111
1505192460;16;64;8;2;4;2;157874815
1505192460;16;16;8;16;16;4;18446744073709551615
1505192460;16;64;4;16;2;1;29747260
1505192461;1;8;32;1;2;1;364068148
1505192462;8;32;8;2;8;4;83513778
1505192462;16;64;8;16;4;2;21399704
1505192462;16;64;1;16;4;1;110314815
1505192463;16;64;8;8;16;4;18446744073709551615
1505192463;16;64;8;8;4;4;37328297
1505192463;256;32;32;32;32;8;18446744073709551615
1505192464;128;256;256;8;1;1;53930519
1505192466;2;32;1;1;8;1;1282011408
1505192466;512;1;64;8;1;2;52234815
1505192467;16;64;1;16;4;1;112981482
1505192467;8;64;8;2;4;4;80348444
1505192468;16;64;4;16;4;1;30362370
1505192468;16;64;256;16;4;4;35419407
1505192468;16;512;8;16;1;4;39621778
1505192469;256;32;32;64;1;32;18446744073709551615
1505192470;1;256;16;1;64;4;484854519
1505192470;512;256;8;8;1;1;124861037
1505192470;256;16;32;64;4;2;18446744073709551615
1505192471;16;4;8;16;1;4;205472148
1505192472;512;64;8;1;4;4;424296148
1505192472;16;64;8;16;2;4;19945481
1505192472;32;64;4;4;4;1;115317334
1505192473;16;64;8;4;4;4;60248741
1505192473;64;128;8;4;2;4;100523556
1505192474;8;8;8;2;2;1;183855704
1505192474;16;64;128;16;4;64;18446744073709551615
1505192479;1;8;2;1;4;1;4765711407
1505192480;64;32;64;1;1;32;568901481
1505192481;128;1;256;1;1;32;565124592
1505192482;2;32;512;1;1;32;723723852
1505192483;16;64;8;4;4;4;60698518
1505192483;128;64;8;2;4;4;197692297
1505192484;2;512;8;1;1;4;270555407
1505192484;16;64;8;16;1;4;24532889
1505192484;16;64;8;16;1;4;24507112
1505192485;16;64;8;8;4;2;33423852
1505192485;4;64;8;1;1;4;248920593
1505192487;16;1;8;16;1;4;801070814
1505192487;16;64;8;1;4;4;294269037
1505192488;2;64;8;2;4;4;95819852
1505192489;256;64;8;1;16;4;684638370
1505192489;2;64;8;2;4;8;139168889
1505192490;512;8;8;1;2;4;612638667
1505192491;1;256;8;1;1;4;212740000
1505192491;16;64;8;8;4;2;31596889
1505192491;16;64;8;16;4;1;20257333
1505192492;16;64;8;16;64;4;18446744073709551615
1505192492;4;64;8;1;4;4;160388148
1505192493;64;512;128;8;256;64;18446744073709551615
1505192493;32;256;32;16;128;4;18446744073709551615
1505192494;4;128;8;1;2;4;218485037
1505192494;16;64;4;2;4;1;208754963
1505192495;128;64;8;2;4;8;178518814
1505192495;8;64;64;2;4;64;18446744073709551615
1505192495;16;64;8;16;8;4;18446744073709551615
1505192496;16;64;8;16;2;2;19205037
1505192497;2;64;1;2;2;1;631191111
1505192499;16;1;4;8;1;4;1606116592
1505192500;16;256;512;1;32;1;362537630
1505192500;4;512;64;1;1;2;227753185
1505192501;1;32;32;1;2;32;286989185
1505192502;16;2;8;16;1;4;404376592
1505192503;16;2;8;1;2;4;420555408
1505192503;16;64;8;2;4;4;136431259
1505192504;512;64;32;16;1;1;54429630
1505192504;16;64;8;16;4;8;18446744073709551615
1505192504;2;64;8;2;8;4;139311555
1505192509;1;8;2;1;2;2;4778786814
1505192510;16;4;8;1;1;4;200659852
1505192510;16;64;8;16;2;2;19618370
1505192511;512;32;8;32;1;1;36730074
1505192511;16;64;8;8;4;2;31719852
1505192512;8;64;16;1;4;2;266429926
1505192512;16;64;512;16;4;64;18446744073709551615
1505192513;1;64;2;1;4;1;600174519
1505192514;512;512;1;4;4;1;105694815
1505192514;512;8;256;256;8;32;18446744073709551615
1505192515;4;1;32;1;1;2;687775852
1505192515;16;256;2;4;64;1;112716000
1505192535;1;1;4;1;1;2;18638042963
1505192535;16;64;8;4;32;4;18446744073709551615
1505192535;16;64;8;16;4;4;16367111
1505192536;1;256;8;1;128;8;18446744073709551615
1505192536;1;64;16;1;4;2;105854074
1505192537;8;64;8;1;4;4;224809630
1505192537;64;32;8;4;8;4;90416148
1505192538;16;256;16;16;1;2;40592593
1505192538;16;64;8;16;2;1;26776297
1505192538;512;64;16;32;1;4;35221482
1505192539;512;64;16;16;2;8;43255703
1505192539;512;128;8;16;1;1;58450223
1505192540;1;128;16;1;64;8;18446744073709551615
1505192540;8;64;8;8;4;4;28312741
1505192540;16;32;8;16;8;4;18446744073709551615
1505192541;128;1;4;64;1;2;217841333
1505192541;256;256;512;2;8;32;18446744073709551615
1505192543;1;8;8;1;2;2;1196220593
1505192543;256;1;4;16;1;1;116614667
1505192544;1;64;8;1;4;4;164137630
1505192544;32;64;8;8;4;4;44607111
1505192545;16;2;8;8;2;4;407898667
1505192545;16;128;8;16;2;4;24928148
1505192546;16;64;1;4;4;1;114846074
1505192546;512;32;16;64;1;4;33036889
1505192546;512;32;16;64;2;8;18446744073709551615
1505192547;16;32;8;16;8;8;18446744073709551615
1505192547;32;512;1;8;8;1;63510222
1505192566;1;1;4;1;1;1;18366408445
1505192567;64;32;8;64;1;1;23577037
1505192567;256;64;4;16;4;1;38923408
1505192567;512;256;16;8;128;8;18446744073709551615
1505192568;16;128;2;16;2;1;30287259
1505192568;16;32;16;16;8;2;18081630
1505192568;512;128;16;16;128;8;18446744073709551615
1505192569;512;16;16;128;4;8;18446744073709551615
1505192569;64;64;8;4;64;8;18446744073709551615
1505192570;2;64;8;2;32;4;461562370
1505192570;16;128;8;16;2;8;23998371
1505192571;16;64;32;8;4;1;61509926
1505192572;16;32;1;1;8;1;263638667
1505192572;128;8;32;64;4;8;18446744073709551615
1505192582;4;1;2;1;1;1;9863266815
1505192583;128;2;4;1;2;1;444420148
1505192584;256;64;8;1;4;4;395870815
1505192584;64;8;2;4;2;1;116981630
1505192585;16;64;8;2;4;4;136518519
1505192585;32;64;16;4;4;2;89427407
1505192586;16;32;8;8;8;2;31171259
1505192587;1;32;256;1;1;256;1006103556
1505192588;2;1;64;1;1;1;713177926
1505192589;1;4;128;1;4;2;168718963
1505192589;128;1;256;32;1;1;36121037
1505192590;64;512;8;4;1;4;132530519
1505192597;16;1;1;16;1;1;6612466370
1505192597;128;32;64;64;8;2;18446744073709551615
1505192598;512;1;64;8;1;2;52097185
1505192603;1;8;2;1;4;1;4751305333
1505192603;8;32;64;8;8;4;50967111
1505192604;16;64;4;16;1;1;38826666
1505192604;16;64;8;4;4;8;58463703
1505192604;16;128;32;4;2;2;99452297
1505192605;16;128;16;16;32;2;18446744073709551615
1505192605;16;256;8;16;1;1;46198370
1505192606;16;64;1;16;4;1;110172593
1505192606;128;1;256;1;1;1;450566667
1505192607;2;32;256;1;1;32;694773630
1505192608;2;64;1;2;1;1;666538667
1505192609;16;256;4;8;1;1;82571851
1505192609;16;256;8;16;256;4;18446744073709551615
1505192610;16;64;8;8;2;4;39028740
1505192610;8;128;4;2;2;1;151674963
1505192611;16;128;8;16;2;1;36859852
1505192611;4;128;4;1;2;1;236346519
1505192611;64;16;8;4;16;4;63223852
1505192612;8;64;8;2;4;1;147827407
1505192613;8;256;8;2;1;4;168899407
1505192613;16;64;4;4;4;1;105842667
1505192613;32;64;8;4;4;4;73370074
1505192614;8;64;4;2;4;1;106690667
1505192614;16;64;4;16;4;4;30556889
1505192615;64;64;8;4;2;4;103609482
1505192615;16;512;8;16;1;8;50518963
1505192616;4;64;8;1;4;2;148262815
1505192616;16;64;8;8;1;4;59307111
1505192616;32;16;8;8;16;4;18446744073709551615
1505192617;4;64;8;1;2;2;183156445
1505192617;16;64;16;16;2;2;24220148
1505192618;16;64;32;16;4;1;36227407
1505192618;64;256;16;4;1;2;141765037
1505192619;16;64;32;16;4;32;18446744073709551615
1505192619;16;128;16;16;2;2;30648148
1505192619;16;64;8;16;1;2;28160889
1505192620;16;128;64;16;2;64;18446744073709551615
1505192620;8;64;8;1;4;4;222124444
1505192621;32;64;16;8;4;2;48514963
1505192621;16;64;16;16;4;1;29539555
1505192622;8;32;4;2;8;1;123357482
1505192622;8;64;16;2;4;2;122951111
1505192622;32;64;2;8;4;1;31693926
1505192623;64;32;8;2;8;4;163472000
1505192623;16;128;8;16;1;4;31922667
1505192624;64;64;8;4;4;8;93415555
1505192624;16;64;32;4;4;1;118860888
1505192625;16;32;4;16;8;2;58070222
1505192625;16;128;8;8;2;4;47480445
1505192626;8;64;2;2;4;2;111231408
1505192626;16;64;2;8;4;1;57038815
1505192626;8;16;4;2;8;2;208950371
1505192627;8;64;8;2;2;4;104158074
1505192628;4;64;32;4;4;1;82860148
1505192628;8;128;8;2;2;4;126066667
1505192629;32;64;4;8;4;2;39404889
1505192629;16;64;4;16;4;4;29727260
1505192630;16;64;8;4;2;8;88847556
1505192630;64;128;16;4;2;2;100630519
1505192630;32;64;8;8;4;8;43648741
1505192631;64;64;8;4;4;4;88506519
1505192631;16;64;8;4;4;2;84826518
1505192632;16;16;8;16;16;8;18446744073709551615
1505192632;32;64;8;8;4;2;43677185
1505192632;16;64;4;16;4;2;28780741
1505192633;8;64;4;2;4;2;64613037
1505192633;16;16;16;16;16;1;30574666
1505192634;8;64;8;2;1;8;173073481
1505192634;16;64;8;16;2;2;26723703
1505192635;32;64;8;4;2;4;91221926
1505192635;8;16;8;2;16;4;246420741
1505192636;16;128;16;16;2;4;31485037
1505192636;16;128;8;16;2;1;36845481
1505192636;8;64;8;2;4;2;97691704
1505192637;32;32;8;8;8;8;18446744073709551615
1505192637;128;64;8;1;4;4;384145926
1505192638;16;64;16;16;2;1;36025778
1505192638;16;64;16;4;4;2;89889926
1505192639;16;128;8;16;1;1;44516000
1505192639;2;128;32;1;2;1;231388000
1505192640;4;64;8;1;2;4;150116889
1505192640;32;64;8;8;2;4;46472000
1505192641;16;64;16;16;2;4;24573629
1505192641;16;16;8;16;16;2;18446744073709551615
1505192641;16;128;8;16;1;8;31893630
1505192642;64;64;16;4;4;2;94223555
1505192642;32;64;8;2;4;1;215823259
1505192643;32;64;4;8;4;4;40505185
1505192643;16;64;2;16;4;2;55581482
1505192644;32;256;8;8;1;4;67761185
1505192644;32;32;16;8;2;2;53158963
1505192644;16;32;8;8;8;4;39885926
1505192645;16;32;32;16;8;1;31436000
1505192645;8;64;8;2;4;8;62687408
1505192646;8;64;8;1;4;8;263241778
1505192646;8;512;8;8;1;4;60379852
1505192647;16;8;16;16;2;8;70066371
1505192647;16;64;8;16;2;8;18753481
1505192647;16;64;4;4;4;4;53641185
1505192648;4;64;16;1;1;2;230774074
1505192648;8;256;16;2;256;2;18446744073709551615
1505192649;16;8;8;16;1;4;108019704
1505192649;4;64;8;1;1;4;246760149
1505192650;16;64;8;16;1;8;25256592
1505192650;16;64;8;16;1;1;41654667
1505192651;32;64;8;2;4;4;152337334
1505192652;4;16;8;1;16;4;623924444
1505192652;4;64;8;1;4;1;233414666
1505192652;16;32;8;8;8;8;18446744073709551615
1505192653;32;128;8;8;2;4;50000445
1505192653;16;64;4;16;1;4;30958963
1505192654;16;32;2;16;4;1;108956000
1505192654;32;64;32;4;2;1;128751704
1505192655;16;64;32;16;4;2;37010074
1505192655;16;32;4;16;8;1;55956593
1505192655;4;64;4;1;4;2;114354667
1505192656;32;32;2;8;8;1;77020593
1505192656;16;64;32;8;4;32;18446744073709551615
1505192657;16;64;2;16;2;2;56112148
1505192657;8;128;8;2;2;8;141934518
1505192658;32;64;16;8;4;1;63869481
1505192658;16;64;2;16;2;1;54026815
1505192659;4;256;8;1;1;4;294268296
1505192659;16;128;4;16;2;1;28096000
1505192660;16;64;4;8;4;1;29839852
1505192660;32;64;4;8;4;1;56370222
1505192661;8;32;2;2;4;1;178347852
1505192661;32;32;4;8;8;1;38997926
1505192662;64;32;2;4;8;2;43171408
1505192662;32;128;4;8;2;1;83336445
1505192662;16;128;16;16;1;2;39172741
1505192663;4;64;1;4;4;1;325025037
1505192664;16;64;16;8;2;2;52694963
1505192664;32;8;4;8;2;1;99728000
1505192665;8;16;8;2;16;8;448727703
1505192665;32;128;32;8;2;2;56969630
1505192666;16;128;8;4;2;4;92072296
1505192666;64;64;32;4;4;1;118655111
1505192667;32;64;8;8;4;1;63075704
1505192667;16;64;4;2;4;2;149209778
1505192668;64;64;8;2;4;2;185039852
1505192668;32;256;4;8;1;4;67440592
1505192668;16;64;8;4;2;4;86595259
1505192669;16;256;8;16;1;2;39711852
1505192669;16;64;32;16;2;1;37143260
1505192670;16;16;8;16;8;4;18446744073709551615
1505192670;32;64;16;8;4;16;18446744073709551615
1505192670;16;128;32;16;2;2;41152148
1505192671;16;64;4;16;64;1;18446744073709551615
1505192671;4;64;8;4;4;4;43937037
1505192671;16;64;2;16;4;2;55588740
1505192672;16;32;16;8;4;2;36668593
1505192672;4;64;8;1;4;8;106226222
1505192673;32;64;8;4;4;2;86405333
1505192673;16;16;16;16;16;2;18446744073709551615
1505192673;16;64;8;8;4;1;49258815
1505192674;16;64;16;8;4;2;43244444
1505192674;32;128;8;4;2;4;91731259
1505192675;16;256;2;16;1;1;41672297
1505192675;32;64;32;8;4;1;64128000
1505192676;16;64;4;8;1;1;78852296
1505192676;32;32;8;8;8;2;43726519
1505192676;8;32;8;2;8;1;92202666
1505192677;16;128;4;16;2;2;20572741
1505192677;32;32;16;8;8;2;60961186
1505192678;16;64;32;8;4;16;18446744073709551615
1505192678;16;32;512;1;32;1;393702519
1505192679;4;512;64;1;256;4;18446744073709551615
1505192679;512;2;1;4;1;1;148008889
1505192680;512;8;256;64;8;32;18446744073709551615
1505192680;2;256;8;2;1;4;112612148
1505192681;1;64;64;1;4;64;543716445
1505192681;16;64;128;2;4;64;18446744073709551615
1505192682;4;1;32;1;1;4;627777630
1505192683;16;256;1;8;1;1;76774814
1505192683;128;1;128;2;1;128;409328592
1505192684;256;16;64;4;1;32;156770815
1505192684;16;64;8;8;4;1;51351259
1505192685;16;512;8;16;2;4;33461778
1505192686;16;1;8;8;1;1;815681334
1505192686;16;64;8;16;1;4;24872741
1505192687;16;64;1;16;4;1;109526814
1505192689;1;8;8;1;2;4;1217175704
1505192689;256;1;16;16;1;16;33820593
1505192690;1;512;1;1;8;1;178113333
1505192691;2;1;32;2;1;1;1198722667
1505192692;32;64;8;8;1;4;67659556
1505192692;4;256;8;1;1;2;229063704
1505192693;16;64;16;16;4;4;27886370
1505192693;16;64;32;16;4;4;35431704
1505192694;16;256;8;16;1;8;38162815
1505192694;64;32;8;8;1;1;91586370
1505192695;256;64;1;8;4;1;75176148
1505192695;16;32;1;1;8;1;236250666
1505192695;128;8;32;64;8;8;18446744073709551615
1505192696;64;64;4;4;2;1;136531111
1505192696;16;64;16;16;1;2;37124889
1505192697;16;32;32;16;8;2;29573482
1505192697;32;32;4;8;8;2;35644740
1505192698;4;32;8;1;4;2;112135259
1505192698;32;64;8;8;4;1;62837333
1505192698;16;512;8;16;256;4;18446744073709551615
1505192699;16;32;16;8;8;2;47197926
1505192699;16;256;8;8;256;2;18446744073709551615
1505192700;8;64;4;2;2;1;146703407
1505192700;16;128;2;16;1;2;31747407
1505192700;16;64;64;16;4;32;18446744073709551615
1505192701;16;16;8;16;4;4;57317926
1505192701;4;32;8;4;8;4;98786222
1505192702;32;256;64;8;1;1;76776592
1505192702;32;64;4;1;4;1;468768889
1505192703;8;128;16;8;2;4;38082667
1505192703;16;128;8;8;2;2;53769630
1505192704;4;64;16;1;4;2;218118667
1505192705;2;16;8;2;16;4;834703111
1505192705;16;64;256;16;2;64;18446744073709551615
1505192706;16;128;2;16;2;2;30198666
1505192706;64;64;8;2;4;4;177799407
1505192707;32;64;8;8;2;2;54205185
1505192707;8;64;8;1;4;2;248284297
1505192718;4;1;2;1;1;2;9959158814
1505192718;256;2;2;16;2;1;120178074
1505192721;1;32;1;1;1;1;2351285334
1505192722;4;1;64;1;1;8;328888148
1505192722;32;32;8;8;8;4;30074222
1505192723;8;64;8;8;4;4;28175111
1505192723;8;32;2;2;8;1;192892296
1505192724;16;256;8;16;1;1;45652148
1505192724;16;64;8;16;2;1;26047703
1505192725;8;128;8;1;2;4;276506074
1505192725;16;64;16;16;4;16;18446744073709551615
1505192726;16;32;8;16;8;2;30485629
1505192726;16;64;4;16;4;2;29117037
1505192726;16;16;4;8;16;1;110727407
1505192727;16;64;16;16;1;4;32012000
1505192727;8;64;16;2;4;1;157651852
1505192728;16;128;16;16;128;2;18446744073709551615
1505192728;16;32;2;8;8;1;113853481
1505192729;32;32;16;8;8;1;59548889
1505192729;16;32;8;8;2;4;30916296
1505192729;16;256;4;16;1;1;44267704
1505192730;32;512;8;4;1;2;136028889
1505192730;16;16;4;16;16;1;116912592
1505192731;16;64;4;16;4;1;30247852
1505192731;16;16;8;8;16;4;18446744073709551615
1505192732;64;16;4;4;16;1;59564000
1505192732;16;256;2;4;1;1;155029926
1505192732;4;64;8;2;4;4;58868000
1505192733;16;128;8;2;2;4;165783259
1505192734;256;64;8;1;4;4;408448148
1505192734;16;64;2;16;4;1;57263556
1505192735;16;1;8;16;1;4;797973778
1505192736;16;64;2;1;2;1;491578074
1505192737;16;64;8;16;64;1;18446744073709551615
1505192737;16;2;8;16;2;4;407184000
1505192738;16;16;8;4;16;4;158352593
1505192738;16;64;8;16;1;2;28284593
1505192739;1;256;8;1;1;4;217573185
1505192740;16;16;1;16;16;1;441634519
1505192740;16;4;8;16;1;1;201415111
1505192740;16;512;8;16;1;4;39922222
1505192742;16;1;8;16;1;4;801726963
1505192742;16;4;8;16;2;4;212423852
1505192743;16;2;8;2;2;4;426778222
1505192743;16;8;128;16;2;64;18446744073709551615
1505192744;16;4;8;2;1;4;205507555
1505192744;128;64;8;2;4;2;208189481
1505192745;16;64;8;8;4;2;32146666
1505192746;1;64;64;1;4;64;551078223
1505192746;1;4;128;1;4;2;167380741
1505192747;128;1;256;2;1;1;251312000
1505192748;2;32;1;1;8;1;1273052592
1505192749;512;1;128;8;1;1;63419703
1505192749;8;64;8;2;4;1;144047852
1505192750;16;8;8;16;2;8;111164297
1505192750;16;64;2;4;4;1;57231111
1505192751;16;512;8;16;1;1;46532889
1505192751;4;256;4;1;1;1;341628889
1505192752;16;32;8;4;8;4;36123852
1505192753;32;32;8;2;8;4;125614519
1505192753;16;64;8;8;2;1;67665926
1505192754;8;128;8;2;1;4;163158963
1505192754;16;64;8;8;4;8;32568444
1505192755;16;32;16;16;8;1;22706518
1505192755;32;128;8;8;128;4;18446744073709551615
1505192755;16;256;4;4;1;1;164145482
1505192756;32;64;32;4;4;2;90500444
1505192756;64;32;8;4;8;8;88510815
1505192757;16;128;4;4;2;1;134071259
1505192757;8;128;8;2;2;2;125993038
1505192758;16;128;16;8;2;2;55013333
1505192758;128;64;16;2;4;4;192725037
1505192759;8;64;4;2;4;2;63570370
1505192759;128;64;8;1;4;2;440889334
1505192760;16;32;16;16;4;2;22309037
1505192760;8;16;8;1;16;2;178121778
1505192761;16;16;4;16;4;2;105714371
1505192761;32;128;32;8;1;1;86721333
1505192762;16;64;4;16;2;2;30049925
1505192762;32;64;32;8;4;2;65012741
1505192763;4;64;16;1;4;16;212441926
1505192763;64;64;4;4;4;1;119118370
1505192764;64;128;2;4;2;1;128292296
1505192764;1;8;512;1;4;1;265623704
1505192765;16;32;1;16;8;1;219762814
1505192766;1;1;256;1;1;1;457919111
1505192767;2;32;256;1;4;32;592093481
1505192767;16;32;8;8;2;8;31246963
1505192768;64;64;4;4;2;2;113176000
1505192768;16;32;4;16;8;4;18446744073709551615
1505192768;2;32;64;2;2;8;131862074
1505192769;16;256;4;8;128;1;18446744073709551615
1505192769;16;256;512;1;2;1;257396000
1505192770;4;64;1;4;1;1;348073777
1505192771;2;128;16;2;1;2;118911407
1505192771;16;128;8;16;128;2;18446744073709551615
1505192771;16;32;32;16;8;32;18446744073709551615
1505192772;32;64;8;8;2;8;46855704
1505192772;64;128;8;4;1;4;158156000
1505192773;16;64;64;8;4;64;18446744073709551615
1505192773;16;32;4;16;4;1;67643852
1505192774;16;8;16;16;2;2;56175408
1505192774;16;256;8;8;1;4;65661778
1505192774;16;128;32;16;1;32;18446744073709551615
1505192775;16;32;32;4;8;1;117272148
1505192775;512;512;4;4;4;2;106299851
1505192776;512;1;256;256;1;64;18446744073709551615
1505192776;8;1;32;4;1;4;348383407
1505192777;1;256;1;1;1;1;458394963
1505192778;32;64;4;8;4;2;40025778
1505192778;16;8;8;8;2;2;106784296
1505192778;16;64;16;8;4;16;18446744073709551615
1505192779;128;1;512;1;1;2;230805037
1505192779;256;16;512;64;1;64;18446744073709551615
1505192780;1;256;8;1;32;2;304371704
1505192780;256;1;16;2;1;16;115452889
1505192781;32;512;1;8;8;1;61853185
1505192782;2;512;1;2;128;1;601165482
1505192783;64;32;8;4;1;1;161597926
