GLOBAL_SIZE_0;GLOBAL_SIZE_1;LOCAL_SIZE_0;LOCAL_SIZE_1;cost
8;1;8;1;2843227936
1;1024;1;8;1209464719
8;1024;1;1;92079251
64;2048;4;8;68600296
2048;2048;16;1;74227709
2;1;1;1;10547939462
4096;128;128;2;87522459
64;1024;4;4;64215541
64;1024;2;4;65519210
512;4096;8;2;64901791
128;1024;4;4;59948542
128;8;1;1;143392964
128;512;4;4;65438794
128;4;16;4;734579197
128;1024;2;4;59181370
128;1024;4;32;123197213
128;2048;1;4;59454625
128;1024;1;2;80430961
64;1024;4;4;64684502
512;2048;1;4;61261583
128;1024;2;2;60746167
128;1;2;1;280876384
128;1024;2;32;235408835
128;1024;2;16;117375545
4;1;4;1;5350726097
512;512;64;64;18446744073709551615
128;1024;2;256;18446744073709551615
128;1024;64;4;76899378
128;1024;2;8;74632208
128;256;2;4;74756377
512;1024;1;4;61410211
128;1024;2;4;59225291
128;1024;2;1;76969042
1024;1024;1;4;60947211
1;8;1;1;2525360333
128;1024;8;4;60292670
128;2;2;1;139515922
128;256;2;1;152628503
256;1024;1;4;60412084
2;1024;2;4;530243101
4096;1024;1;4;64355587
8;32;4;4;94030713
256;4096;256;4;18446744073709551615
128;512;1;4;65473498
2048;1024;1;4;62720793
128;1024;2;128;347262217
16;1024;16;2;61951253
1;256;1;4;500952959
512;1;1;1;150445084
2048;256;128;64;18446744073709551615
1;512;1;128;896403983
1;8;1;2;2525121581
8;1024;2;4;109017835
128;1024;32;2;60625793
128;1024;2;64;323607506
128;1024;128;4;18446744073709551615
1;1024;1;4;1205315790
128;4096;2;4;59017710
64;32;4;4;304416709
128;4;2;4;1045397714
128;128;2;4;89469624
1;128;1;4;530437134
128;4096;2;1;63367583
8;4096;2;4;104886751
256;1;1;1;146672880
128;128;2;2;72438209
128;2048;2;4;59600919
128;4096;1;1;106559085
128;4096;128;4;18446744073709551615
128;4096;2;16;87150128
128;16;4;8;401127924
128;128;16;2;71148585
512;4096;256;4;18446744073709551615
128;2048;2;2;60940752
64;4096;4;1;61381294
128;1;2;1;280955335
128;4096;2;64;203026834
128;4096;2;32;155515547
64;512;8;4;71578669
256;256;4;2;64599670
64;64;16;8;291271300
64;1;32;1;395427341
128;4096;2;8;65468667
128;4096;2;256;18446744073709551615
128;32;2;4;289174631
1;32;1;32;1120256003
8;1;2;1;2846738205
4;128;1;2;679211251
64;16;1;16;610415649
512;4096;32;4;56326084
2;4096;2;4;485329181
32;128;8;4;139230542
128;2;32;1;139581711
1;2048;1;4;1189145044
4;4096;4;4;220253336
512;4096;1;4;61317378
512;4;32;4;725153837
16;4096;1;4;58414876
128;1024;32;4;84116625
512;4096;128;4;18446744073709551615
32;4096;32;4;54141129
8;4096;1;4;101242293
1024;16;128;4;18446744073709551615
32;32;32;4;288493000
32;4096;4;4;58749292
2;4096;2;2;483450628
2;4096;2;16;486571208
32;4096;8;4;59178334
64;4096;32;16;18446744073709551615
64;4096;32;4;56705958
32;4096;4;4;57803750
2;1;2;1;10528309334
32;4096;32;128;18446744073709551615
2048;4096;32;2;70661377
32;4096;16;4;61098457
32;1;32;1;779052106
32;32;32;2;241964836
32;4096;1;4;58440874
1;4096;1;4;1171496213
32;8;32;4;121852875
32;4096;4;32;103767378
32;512;32;4;109844500
16;32;1;2;61148087
32;1;32;1;779245348
32;1;32;1;780155251
16;2048;1;4;58308878
4096;4096;32;256;18446744073709551615
512;16;1;16;1034236828
32;4096;32;32;18446744073709551615
32;4096;32;16;18446744073709551615
128;2048;16;4;60815000
1;256;1;64;502528255
64;16;64;2;351324923
8;64;2;64;877425407
32;4096;2;4;57385458
32;4096;32;64;18446744073709551615
32;4096;32;1;57084251
512;1;2;1;968555802
128;2048;32;8;64980628
32;2048;32;4;73097459
32;4096;32;8;54245710
2048;4096;32;1;72311584
4096;4096;32;4;66637875
128;256;16;8;180808792
32;256;32;4;151451505
32;4096;2;4;57274169
4;128;4;64;340804005
64;128;8;2;74588835
512;64;4;64;827967074
16;8;16;8;237730135
128;1;2;1;281439919
64;1;32;1;395413045
32;4096;32;256;18446744073709551615
128;512;16;8;134837296
16;1024;16;2;61587330
32;4096;1;4;58197209
16;4096;2;4;57726751
32;4096;2;1;61080877
1;4096;1;16;1169447355
32;1024;32;4;97984963
16;4096;1;4;58700291
32;128;32;128;18446744073709551615
32;256;8;4;86094336
1;4096;1;4;1167930424
2048;4096;1;4;65270167
4;4096;4;2;217825591
8;4096;2;4;102827791
64;4096;2;4;58149420
64;32;32;4;288953255
32;4096;32;1;57845124
128;4096;2;1;63450876
4096;4096;32;8;65361334
4;4096;2;4;224919837
512;4096;8;1;68566876
2048;1;8;1;425859754
1;2;1;1;10221583666
1024;4096;64;32;18446744073709551615
256;2048;8;2;64494753
32;4096;8;4;59366460
64;4096;64;1;59309418
32;1;16;1;779959555
64;512;8;2;62978542
32;1;32;1;778624597
4;4096;4;1;217803796
2048;4096;1;128;279298256
64;8;2;8;474990134
4096;1;64;1;609096969
1;256;1;1;502278002
256;512;8;2;63188254
4;32;4;4;220608090
32;32;32;1;205927462
32;256;8;2;63133250
128;1;32;1;280717260
32;1024;32;16;18446744073709551615
32;2048;32;2;56937002
128;64;128;8;18446744073709551615
512;4096;2;64;182023918
128;2048;4;2;61207459
256;4096;32;1;65343335
128;512;16;16;141510127
16;32;4;1;66403127
32;4096;8;2;57253624
32;4096;32;2;56995252
32;1;1;1;780153936
32;4;32;4;240907045
512;1;32;1;912623459
8;1;8;1;2842281252
32;2;32;1;389179053
64;64;32;4;224478003
64;4096;8;2;60357373
4096;128;4;2;73487666
4;1;1;1;5351971595
32;4096;2;8;63141044
64;1;8;1;395377506
1;4096;1;4;1177157509
32;64;32;4;268683084
2;4096;2;4;485275053
2;1;2;1;10528780458
128;4096;32;1;62528667
64;1024;8;2;59940294
32;512;4;4;76863420
16;2048;1;2;61250294
1;2048;1;1;458185640
2;1;1;1;10548072587
4096;2;1;2;1431559489
32;128;32;4;182576423
32;16;32;2;62976543
32;16;32;4;62899921
128;2048;8;2;60987251
32;2048;16;4;60907460
16;2048;8;2;60963461
2;4096;2;1;358473251
64;256;1;64;750243854
1;16;1;4;1303727909
1;1;1;1;20572593584
1;16;1;1;1301629279
32;2048;8;2;56331379
256;4096;32;4;55393502
16;2048;2;1;61490793
1;4096;1;4;1176712946
1;4096;1;64;1180740670
1;1;1;1;20572435333
64;1;4;1;395424795
1024;16;32;4;866035939
32;64;32;2;116678588
2048;4;32;4;955323517
2;4096;1;4;507661628
32;2;32;1;389141921
32;16;4;4;737079059
32;4096;8;1;59043874
32;2;32;2;389299095
32;4;32;2;194867213
2048;1;32;1;382603931
32;1;2;1;778318273
32;4096;1;16;117407835
32;128;32;8;178184668
32;4096;4;2;57085501
32;4096;1;2;61055127
32;128;1;4;226100542
32;2;8;1;389907966
128;4096;32;4;55301001
32;2048;8;4;59668627
32;4096;16;1;58527877
1024;4096;32;256;18446744073709551615
32;16;32;1;76666420
2;4096;2;4;486941339
32;8;32;1;98644337
8;1;2;1;2846180478
512;128;4;2;67899168
128;16;1;16;704543009
1;256;1;1;501674752
32;1024;16;2;56867251
1024;4096;32;4;57140750
32;256;4;4;86176876
512;4096;32;128;18446744073709551615
512;4096;2;4;60966085
1024;4096;256;4;18446744073709551615
2048;4096;4;4;65646040
32;4;1;4;254319298
32;2048;32;128;18446744073709551615
2048;4096;32;32;18446744073709551615
2048;2048;1;4;62404419
32;64;8;4;240713459
32;128;4;4;160697589
4096;16;1;1;190402625
8;256;2;128;392820959
1;128;1;64;529516545
64;64;8;1;85877875
1;4096;1;4;1174394000
16;1;1;1;1544323644
32;4096;16;16;63299420
512;2048;4;64;117644750
16;64;8;8;168965919
16;1;8;1;1543186893
1;64;1;4;998489376
32;64;32;2;115509420
16;16;1;4;97153918
32;4096;16;8;77272749
2;4096;2;4;483515057
1;4096;1;64;1180180042
32;8;16;1;129244043
2;8;2;4;1273108829
64;4096;1;4;59340961
2048;4096;32;4;61861585
32;128;32;2;67035459
2048;4096;32;256;18446744073709551615
32;4096;8;16;84596504
32;32;32;8;223723500
32;16;32;1;62983751
32;16;2;4;870430187
32;1024;4;4;71426003
2;2;2;2;5136377276
128;4096;32;2;61998128
32;2;16;1;389063337
1;4096;1;256;1190915885
32;4;2;4;302135925
64;4096;32;8;60827959
1024;4096;1;4;61713960
4;4096;1;128;444148431
32;1;8;1;779537990
1024;4096;32;8;55092667
32;512;2;4;78384129
8;4096;1;4;101819962
4096;8;32;4;914162120
2;4096;1;4;507019888
32;1;16;1;779657167
1;4096;1;8;1178169451
2048;2048;64;128;18446744073709551615
64;8;4;8;480850137
16;4096;16;4;61032209
128;4096;32;8;55606712
256;4096;4;4;60009544
32;1;1;1;779415897
4096;1;64;1;548225674
1;256;1;1;502061479
256;4096;32;256;18446744073709551615
128;4096;16;1;62548002
32;2048;32;1;58185543
32;1;1;1;779149181
64;4096;64;4;55213627
16;1024;4;1;62072915
8;128;2;2;317802336
4;1;2;1;5352711027
32;4096;2;64;191392173
4096;4096;64;4;65799626
4096;4096;256;4;18446744073709551615
32;16;1;4;688780890
32;1;32;1;780134609
8;2048;2;8;118317920
64;4096;32;256;18446744073709551615
256;4096;2;4;59586416
4;4;4;4;1303860926
1;4096;1;1;446069720
2048;1;16;1;277844300
4;4;1;4;1303204928
4096;128;128;8;18446744073709551615
1024;64;1;64;1393680851
1;512;1;128;894171774
32;4096;8;1;59606162
1;1;1;1;20572351042
128;32;2;32;998905751
8;64;8;2;532410345
512;1;4;1;963499018
64;16;4;8;553916166
1;256;1;1;503657477
4096;1;1;1;142087292
1;256;1;128;708154966
4;4096;4;32;241715050
4;128;1;64;678300053
1;128;1;2;531732127
512;1;4;1;973969795
1;64;1;4;1000287000
32;4096;1;16;118058670
2;128;1;4;403318847
2048;1;8;1;409771092
1;64;1;4;998285667
1;4096;1;8;1167933433
1;4096;1;128;1209422934
16;4096;1;2;60356292
4;4096;2;4;226713671
32;4096;1;8;73799292
64;2048;32;4;79853083
16;1;1;1;1542166508
64;8;8;8;480655763
4096;1;64;1;518573560
8;256;1;1;103358252
4;4096;4;1;217631175
1024;4096;128;4;18446744073709551615
4096;4096;32;128;18446744073709551615
32;32;4;1;284275133
32;4096;1;8;68716292
128;4096;16;4;61127750
32;2048;1;4;60786252
1;4096;1;1;446409600
16;512;4;1;64287917
4096;128;64;16;18446744073709551615
4;1;1;1;5349956070
4;4096;4;4;217742840
32;512;32;64;18446744073709551615
32;4096;16;32;18446744073709551615
4096;4096;128;8;18446744073709551615
2048;1;8;1;391672513
4;4;1;1;1303227179
1;1;1;1;20572385815
1024;4096;64;4;56232540
64;8;1;4;945268972
1;512;1;4;902154745
1;1;1;1;20572314459
1;1;1;1;20572327774
8;512;2;16;179763669
128;4096;64;2;56498463
32;128;1;4;156846838
128;4096;32;32;18446744073709551615
512;256;32;2;64307168
64;16;2;8;569377970
2048;256;32;64;18446744073709551615
4096;256;1;4;67277626
8;256;4;1;152522839
4;128;4;8;678885085
128;128;8;2;71534211
16;2048;4;64;179164667
16;512;8;8;95423962
2048;1;1;1;128078420
32;4096;2;16;106106627
1;2;1;2;10188067391
512;256;1;8;88342750
1;1024;1;128;1206905044
64;8;4;8;471081003
8;1;2;1;2846074955
1;4096;1;16;1178594719
32;1024;4;4;70959752
32;4096;1;1;100499669
256;4096;8;4;61127293
16;64;1;4;347536472
32;1;32;1;777965130
32;1024;8;4;70368043
32;4096;1;1;100513044
4096;4;32;1;578836881
32;1;2;1;778185717
32;4096;8;128;18446744073709551615
1;16;1;8;1302843483
1;256;1;4;502360254
512;4096;32;256;18446744073709551615
32;2;4;1;390031840
64;4096;4;4;58513209
32;8;16;4;154346587
32;4096;1;256;466038966
4;32;4;8;192879417
4;2;4;1;2634184318
32;32;16;4;426556389
1;16;1;4;1299888134
32;4096;4;64;121816792
32;1;32;1;780685014
32;32;8;4;448892711
32;2;32;1;389028377
1024;1;64;1;322323218
8;256;4;16;214840000
256;4096;32;32;18446744073709551615
128;4096;16;1;63393210
32;256;1;4;95966587
32;1;32;1;777908796
32;4096;1;32;174259000
64;1024;32;4;97897169
8;1;4;1;2843537049
256;512;32;1;66974082
4096;1;256;1;746170148
4;1;4;1;5352854321
32;4;2;1;195138840
128;2048;32;4;63216086
32;4096;4;256;18446744073709551615
32;1;32;1;778999467
1024;2048;32;4;55970169
2048;2048;16;1;74273334
4;4096;1;32;301750009
16;128;16;2;104839256
2;256;1;64;540668301
32;1024;1;1;101596333
1;512;1;4;899324620
1024;8;1;2;1291184333
256;1024;2;32;220470252
1;512;1;16;900328546
512;4096;16;2;65299835
8;4096;8;4;94295210
32;512;32;1;60860250
512;64;1;2;759678549
32;16;8;8;498326395
1;32;1;8;1119295103
2;256;1;4;529183978
32;1024;2;2;56849458
32;1024;32;2;58061588
8;64;1;1;112197504
2;128;1;64;363387087
128;128;8;64;18446744073709551615
512;2048;1;64;319507670
16;1;8;1;1543817090
2048;1;1;1;128005251
16;1024;1;4;60416501
8;4096;2;2;96836918
32;8;1;4;150565922
1;8;1;4;2524955107
1;256;1;8;501252043
2048;1;1;1;127082878
64;1;4;1;395523669
1;1;1;1;20572869774
4096;256;1;1;142758214
256;4096;32;64;18446744073709551615
128;512;16;1;64100293
8;1;8;1;2842847702
16;2048;16;4;60725377
4096;32;4;8;535890004
1;1;1;1;20572462190
512;2048;128;256;18446744073709551615
32;2048;4;1;58930501
256;4096;1;32;171165049
4;128;2;2;682593672
2;256;1;64;540246961
128;512;1;128;810539264
256;2048;1;32;196239048
16;4096;4;4;59168543
256;1024;2;1;73611959
4;1;2;1;5353295502
512;256;1;2;194550877
32;16;8;16;491100710
1;256;1;1;502082311
4096;8;1;4;809473666
8;64;2;4;517666587
4;1;4;1;5351841946
128;128;128;2;92574502
512;32;2;1;1013781825
64;1;16;1;395430667
64;1;32;1;395279677
32;1;2;1;780287674
16;512;8;32;133948462
8;32;8;8;103397752
1;64;1;4;997072874
512;16;1;1;147687421
16;4096;16;2;60844710
2048;256;64;1;73240668
64;1;4;1;395436964
32;2048;1;64;300629337
8;128;1;2;401690668
32;2;32;2;388963850
1024;4096;4;4;61956749
128;4096;8;16;68847210
16;1024;2;1;62325417
4096;64;4;4;83805709
2;1024;2;4;527583682
32;4096;2;2;57561333
8;1;2;1;2846864913
32;128;1;8;306026669
32;2048;8;1;58180585
256;4096;1;32;171506875
1;128;1;4;529763258
512;2048;16;8;61840334
128;1;64;1;281011960
256;2048;32;32;18446744073709551615
16;4096;2;16;110523127
16;4096;2;8;64046208
256;1024;1;1;113705421
8;2048;2;128;239194919
128;128;32;2;71899963
8;4096;4;4;96312585
512;16;1;16;1051833166
2048;256;32;1;78478670
128;256;1;4;75770921
8;512;1;4;125923088
8;1;4;1;2844053000
8;128;2;64;404702839
128;128;1;2;453235261
512;2048;8;64;18446744073709551615
1;512;1;8;905296020
128;4096;64;4;56219293
1024;32;1;16;855561156
16;64;16;4;236334545
512;256;1;32;472147386
4;256;1;1;94496916
16;1;2;1;1542646913
256;1024;32;4;67726042
64;4096;32;2;61098669
32;2048;1;1;100649625
8;1024;1;1;91498002
1024;64;4;4;83132250
1024;4096;16;8;56893333
256;1;128;1;457194878
512;128;4;2;67828417
4;1;1;1;5351110086
512;4096;128;8;18446744073709551615
32;1;16;1;778308644
1;4096;1;32;1176771306
4096;1;128;1;748962522
128;2048;16;8;67990169
8;1;4;1;2843214660
256;2048;2;16;103326713
8;512;4;2;110023250
256;1024;64;1;63186919
2048;512;2;16;131569044
4096;256;32;2;68870752
32;16;1;16;678743625
2048;256;32;32;18446744073709551615
32;512;1;8;106413377
