GLOBAL_SIZE_0;GLOBAL_SIZE_1;GLOBAL_SIZE_2;LOCAL_SIZE_0;LOCAL_SIZE_1;LOCAL_SIZE_2;cost
256;64;16;2;32;2;1045137123
64;16;16;16;1;4;740888425
128;1;1;1;1;1;2565264118
8;1;64;8;1;1;877028968
64;16;2;32;1;2;434803725
64;16;16;16;8;4;18446744073709551615
64;16;16;8;1;4;2134720125
64;16;16;16;1;8;1059510432
128;2;1;4;2;1;472987552
1;32;256;1;8;256;18446744073709551615
16;2;64;16;2;16;18446744073709551615
4;1;1;1;1;1;15221403093
4;4;64;1;4;2;1704614301
128;4;16;128;4;2;18446744073709551615
128;256;1;16;8;1;440936141
128;256;1;64;16;1;18446744073709551615
64;16;2;16;1;2;445613264
64;16;2;32;16;2;18446744073709551615
128;16;1;64;16;1;18446744073709551615
64;16;2;8;1;2;455931928
64;1;4;32;1;1;484516301
64;1;2;2;1;2;657763970
64;16;32;32;1;8;409086424
64;16;128;32;1;8;370940258
16;16;128;16;1;8;276420257
64;16;4;32;1;1;367642973
64;2;128;16;2;32;18446744073709551615
64;16;1;32;1;1;391376587
16;8;128;16;2;128;18446744073709551615
1;16;128;1;1;8;1463225471
16;16;128;8;1;8;305342970
32;16;128;16;2;8;417383087
16;16;128;16;4;128;18446744073709551615
16;16;128;1;1;8;1631935046
16;256;128;16;32;8;18446744073709551615
16;16;2;16;8;2;328709427
4;128;1;2;2;1;2018690214
1;128;2;1;4;2;1701665246
2;16;128;1;1;1;960230965
16;16;1;16;1;1;383905086
16;16;128;16;16;8;18446744073709551615
1;16;1;1;1;1;4232612948
2;16;2;1;1;2;1902924382
16;16;128;2;1;8;674242640
256;16;64;16;4;4;407276887
1;64;32;1;4;4;1555588611
16;1;1;4;1;1;4023410791
256;1;256;32;1;16;18446744073709551615
128;1;1;1;1;1;2564427180
2;4;128;1;4;8;1461148042
128;128;128;16;32;8;18446744073709551615
16;16;1;16;1;1;381180266
16;16;128;16;1;32;18446744073709551615
16;64;128;16;32;8;18446744073709551615
64;128;256;4;8;64;18446744073709551615
16;32;32;16;32;8;18446744073709551615
256;16;128;4;2;32;389175970
256;16;32;32;1;32;18446744073709551615
32;16;1;4;8;1;1030205508
32;2;1;16;1;1;1038426329
16;8;4;16;2;1;326127097
16;16;128;2;1;32;1207419776
16;16;64;16;1;8;286344417
16;16;128;16;1;2;273992671
16;16;128;2;1;2;269177124
16;16;256;16;1;2;270702546
32;16;128;16;1;2;273329252
16;128;128;16;32;2;18446744073709551615
16;8;2;2;2;2;450431346
128;16;128;64;1;2;334416178
16;16;128;1;1;128;3864147442
16;16;16;2;1;2;262431884
16;16;16;2;4;2;1748579781
1;16;256;1;1;2;665753597
1;16;16;1;1;8;1983619833
16;32;8;2;32;2;2428930542
1;16;16;1;1;2;1468000008
16;16;16;1;1;2;559104508
16;16;16;2;1;4;388134336
16;16;16;2;8;2;1798345725
16;16;64;2;1;2;281100005
16;16;16;16;1;2;302062418
16;1;16;2;1;2;396685543
16;16;16;2;1;1;569898677
16;32;16;2;32;2;2001253667
8;16;16;4;1;2;1020971254
16;16;16;8;1;2;304419212
16;16;2;2;4;2;430688054
16;16;16;4;1;2;288546294
16;16;8;2;1;1;573253888
16;128;16;2;32;2;687884352
64;32;16;64;32;1;18446744073709551615
256;16;128;64;1;2;339009889
16;16;16;2;2;2;286960712
16;16;16;1;1;2;559444801
16;8;16;2;2;2;318602004
16;16;16;2;1;4;372649293
16;1;8;16;1;8;793877321
1;1;64;1;1;4;3236055728
64;64;256;32;2;1;292163549
256;1;1;64;1;1;363689379
16;16;1;2;1;1;571904548
32;16;16;1;1;2;687930309
1;8;32;1;2;2;2001438084
16;16;16;4;8;1;350326382
16;16;16;2;16;2;2019677172
16;16;8;8;1;2;298286094
128;128;64;64;32;2;18446744073709551615
16;16;16;2;1;2;293560760
16;4;16;2;4;2;449065046
16;16;16;8;1;2;303467384
16;16;16;2;16;2;2016071045
16;8;1;8;2;1;532377048
64;2;256;64;1;16;18446744073709551615
2;4;1;2;1;1;7510407146
256;4;64;16;2;64;18446744073709551615
4;128;16;1;4;2;1575391780
16;4;16;2;4;2;1020398408
16;8;16;2;2;1;301773920
64;128;256;1;4;128;18446744073709551615
8;16;8;4;1;2;1859634363
16;64;16;2;32;4;1950719340
8;4;4;8;4;4;663959401
1;256;8;1;4;8;1738531181
64;32;256;4;16;64;18446744073709551615
4;8;8;2;4;1;1999407625
16;4;16;2;4;8;2094479981
16;1;16;2;1;2;419375597
16;64;16;2;32;2;1725901791
16;16;16;2;1;16;2210684952
64;1;256;32;1;8;475360849
16;16;8;2;8;2;2056216521
16;16;16;16;1;2;283584421
64;4;256;16;4;16;18446744073709551615
64;16;8;64;1;8;18446744073709551615
4;16;16;2;1;2;1601349975
16;8;32;2;1;1;560378594
256;8;256;4;8;32;18446744073709551615
32;64;1;32;1;1;275079543
8;8;64;2;2;64;2130505384
64;16;256;8;2;64;18446744073709551615
16;16;4;1;1;2;558678844
256;4;4;64;4;2;18446744073709551615
16;4;16;2;4;16;2130606475
1;32;128;1;32;8;1095937924
16;8;16;4;1;2;313447386
128;16;256;4;4;16;371393293
128;8;256;8;4;64;18446744073709551615
16;16;16;2;16;2;2057625917
256;16;16;64;8;2;18446744073709551615
16;16;16;2;1;8;2061145534
1;1;4;1;1;1;14935890458
4;8;1;4;2;1;1945597378
8;32;8;8;8;2;289934924
16;1;32;2;1;16;1407602125
32;16;16;1;1;4;2617538349
16;16;16;16;1;2;284637379
16;16;16;1;1;4;436550846
16;16;16;1;2;2;302065543
256;16;64;16;2;32;18446744073709551615
128;32;256;4;32;64;18446744073709551615
16;16;2;16;1;2;351930429
128;4;256;32;4;8;18446744073709551615
256;32;256;64;16;128;18446744073709551615
128;16;64;1;4;16;2704138666
128;8;256;16;8;16;18446744073709551615
1;32;16;1;32;2;1887460036
16;1;16;8;1;2;429076048
16;16;16;2;1;8;2030571742
128;64;256;2;16;128;18446744073709551615
16;8;32;2;2;2;297301093
256;32;8;1;4;1;1187916375
4;32;32;2;4;16;2207325585
128;1;16;16;1;1;1624510849
128;256;1;1;4;1;1604777977
16;16;16;4;4;2;370442210
16;16;16;2;1;2;283773386
16;16;16;2;2;4;1702750842
32;16;16;1;16;2;2745656104
16;32;16;4;32;4;18446744073709551615
1;16;16;1;1;2;1521782336
4;4;8;1;4;1;1482075440
128;16;16;2;1;2;676438625
1;256;1;1;8;1;1540903301
128;256;256;64;1;16;18446744073709551615
16;16;16;16;1;4;283717546
16;16;16;4;1;2;303552341
16;16;16;2;8;2;1841677604
32;16;16;2;1;2;277434584
16;32;16;2;32;4;2288763369
8;64;16;4;32;1;927658557
1;16;64;1;16;4;1229063381
1;1;32;1;1;4;3607097075
1;1;1;1;1;1;60529247438
1;1;256;1;1;16;2578499002
2;16;16;1;1;2;917105072
16;16;32;8;1;2;285152542
128;16;16;64;1;2;347742512
1;16;16;1;1;2;1488322229
16;4;16;2;4;2;1048307084
16;4;8;16;2;8;380133006
1;1;256;1;1;4;2554902949
64;64;256;32;1;1;296623084
256;8;1;64;1;1;357319667
16;16;16;2;16;4;2117263542
16;16;16;2;2;2;288689260
16;32;32;2;32;4;1400247858
16;32;16;2;32;16;18446744073709551615
64;16;16;64;1;2;375233125
2;4;1;1;1;1;7515531750
32;256;4;8;2;1;287144837
8;4;4;8;4;1;702680563
1;256;1;1;64;1;1538353516
16;32;16;16;32;2;18446744073709551615
8;16;16;8;1;2;318283375
16;32;32;2;32;2;794774434
16;8;16;4;2;2;340347625
16;32;1;1;32;1;2594534841
4;16;64;1;1;2;485555010
256;8;8;64;4;1;378003001
8;64;1;2;1;1;516939392
8;8;64;2;2;1;284508546
128;32;128;2;32;8;18446744073709551615
16;16;16;16;2;2;288754548
8;16;16;4;2;4;1319821042
16;16;16;4;1;4;338254426
16;16;8;2;1;4;265199716
16;16;16;2;1;1;569903005
1;1;4;1;1;1;14935490250
4;4;1;4;2;1;3808126133
64;1;256;1;1;1;1188885231
8;1;32;4;1;4;1619961309
16;16;32;2;16;2;1301404937
64;16;4;64;1;2;327937507
32;8;16;2;2;4;2041287713
16;16;32;2;1;2;290383511
128;16;16;16;1;1;352570465
16;16;16;8;1;8;359011336
1;4;4;1;2;2;3933699044
128;256;64;64;1;1;331146593
256;32;1;1;32;1;4069647536
4;32;8;2;4;1;2309617949
8;16;16;4;1;1;286300803
16;4;16;2;2;1;326788592
32;16;8;2;1;2;278073549
16;16;8;2;1;2;264215128
64;16;16;16;1;2;469694852
128;256;1;1;4;1;1876060661
1;4;8;1;4;1;3466552208
256;16;16;2;1;2;429080924
8;16;16;4;16;2;1295471637
16;16;16;4;1;2;283265217
16;4;16;2;4;1;375531546
128;256;2;16;8;2;448549224
128;256;1;64;16;1;18446744073709551615
256;16;2;16;4;2;498068834
1;64;1;1;4;1;3087111188
16;64;16;16;32;2;18446744073709551615
16;16;16;2;8;1;756994358
16;16;16;4;1;1;289502633
8;16;16;4;2;2;695870598
256;16;8;64;1;2;398756302
16;1;32;2;1;2;353945176
1;1;1;1;1;1;60498236395
1;1;256;1;1;16;2567633685
128;4;1;16;2;1;336852305
32;1;256;2;1;4;933707636
16;8;16;2;2;4;1209794710
32;8;16;1;2;4;2372618792
16;16;1;2;1;1;572966584
16;16;4;2;1;2;320399469
32;64;256;32;2;1;280564291
128;8;1;64;2;1;347410885
256;4;1;1;1;1;1649093937
32;256;4;1;256;1;3154123696
32;16;8;1;1;2;730289924
4;16;16;1;1;2;534120972
16;16;256;2;1;2;273453756
8;4;4;8;4;2;667213013
1;256;1;1;8;1;1550467894
256;1;8;64;1;1;336486387
8;64;1;2;4;1;1899159504
16;4;16;16;4;2;338697803
64;16;32;64;1;2;346559758
128;16;1;64;1;1;342935596
16;256;4;2;32;4;2016341582
8;8;64;2;2;16;1713099571
1;1;128;1;1;1;2159115958
1;2;4;1;1;1;7424338893
4;16;1;4;2;1;2258339500
16;16;32;2;16;1;903016858
16;32;16;2;2;2;286168631
8;32;8;8;32;2;18446744073709551615
1;1;32;1;1;16;3567600327
8;4;4;4;2;2;701762020
256;256;1;64;16;1;18446744073709551615
16;16;16;1;2;1;569969959
16;32;8;2;32;2;2475333769
32;32;8;2;4;1;1962867885
16;32;1;16;4;1;305666217
64;16;1;16;1;1;399405974
1;2;1;1;1;1;29952767583
16;16;16;1;8;4;2734294853
16;8;16;2;1;2;317929588
1;8;16;1;2;2;1853726654
16;16;256;2;1;4;270629125
16;128;16;2;32;1;692907943
4;4;1;2;4;1;3808799584
128;16;32;2;1;2;379903298
128;256;1;128;128;1;18446744073709551615
1;64;1;1;4;1;3137504156
16;32;32;2;1;2;271923584
64;16;16;64;1;8;18446744073709551615
16;16;16;2;16;4;2155649823
16;16;32;2;1;2;276845794
256;16;1;128;4;1;18446744073709551615
1;128;1;1;2;1;1602382024
1;1;1;1;1;1;60529934916
1;64;64;1;1;16;2307993663
16;16;8;1;1;2;559425584
16;16;16;2;2;8;2417087389
2;1;2;1;1;2;15015809916
32;1;256;2;1;1;558263727
32;32;256;1;2;1;604475851
128;8;1;1;2;1;784655252
16;32;16;1;32;1;2511686730
16;16;16;2;2;1;293400051
16;16;16;2;2;4;1549798306
16;128;16;8;32;2;18446744073709551615
16;128;16;4;32;2;353916791
32;8;16;1;1;2;704321758
16;16;16;1;8;2;2404522184
16;16;16;2;8;4;2203043559
16;16;16;1;1;1;1233106770
16;4;1;16;4;1;1052676642
1;256;4;1;2;1;1267072528
8;32;4;4;4;4;2718544333
1;256;1;1;1;1;1120156387
8;16;16;4;1;4;1131224209
16;16;128;2;1;1;569203711
256;1;8;64;1;1;337227888
32;64;1;32;4;1;275001840
8;256;16;2;1;1;514399977
32;32;128;8;32;8;18446744073709551615
1;1;4;1;1;1;14934467750
4;8;1;4;2;1;1945633766
8;32;16;8;8;1;280885209
16;1;32;2;1;16;1279511543
16;16;16;2;4;4;1504954603
8;4;64;4;2;2;329318553
128;16;4;64;16;1;18446744073709551615
256;8;8;1;4;4;3090855837
8;1;1;1;1;1;7855230952
64;16;1;8;1;1;397391210
1;256;1;1;4;1;1518397896
8;16;16;1;1;2;501350478
128;16;32;64;1;1;394680546
16;64;16;1;32;2;2402195141
16;16;16;4;1;4;361920216
4;4;8;2;2;1;1549005636
128;16;1;2;1;1;794425480
128;256;1;16;8;1;437719133
256;64;2;32;4;1;385342135
256;16;1;64;16;1;18446744073709551615
8;32;4;4;32;2;2739631219
16;16;32;2;1;8;1736940583
256;64;1;1;2;1;710677482
1;1;1;1;1;1;60529036730
1;64;1;1;1;1;4026817498
1;4;1;1;4;1;15249276490
16;16;32;1;1;8;3162226835
32;1;256;1;1;1;1324619842
32;64;2;32;2;1;280378380
128;8;1;64;8;1;18446744073709551615
256;4;1;1;2;1;778418264
32;256;4;8;4;1;410739802
8;4;4;8;2;4;643223015
1;256;1;1;1;1;1121630165
256;1;1;64;1;1;344929090
32;256;16;1;32;2;1638667140
16;2;16;2;2;2;370193966
16;16;16;2;1;2;291036217
1;16;16;1;1;1;1188497886
32;128;128;32;1;2;272928709
8;8;64;1;2;1;497757896
1;32;128;1;1;8;1491751459
1;1;8;1;1;1;7512411063
16;16;16;2;4;2;1093030081
16;2;16;2;2;16;2252365468
8;16;32;4;1;2;836274507
4;8;1;4;1;1;1945470535
8;32;16;8;8;8;18446744073709551615
32;1;1;1;1;1;4847525535
8;4;64;4;2;2;345779879
16;16;16;16;1;2;287999795
64;16;16;64;4;2;18446744073709551615
8;16;16;4;1;8;2466577264
16;16;16;1;1;8;3628833563
16;16;8;16;1;2;307615718
16;16;8;2;1;1;573314315
128;256;64;64;32;4;18446744073709551615
256;1;8;16;1;1;334198335
128;32;1;16;4;1;568412176
1;16;1;1;1;1;4246235531
1;1;1;1;1;1;60530396564
16;16;32;2;1;4;498262128
16;16;16;2;16;1;1732034181
4;16;16;1;16;1;2148857918
8;4;16;4;4;2;965908079
256;16;16;64;1;2;390851515
16;256;16;2;32;2;582244460
32;16;1;1;1;1;1468611882
4;2;1;1;1;1;7495303541
128;16;32;1;1;2;727864398
128;256;1;2;8;1;1678119583
256;64;4;32;1;2;377276720
32;16;16;32;1;1;300166263
256;16;256;32;4;1;327200298
256;1;1;32;1;1;346880927
16;1;16;8;1;2;422768265
32;16;16;16;4;2;464218555
16;2;16;2;2;8;1525083643
4;16;16;1;16;2;2379954677
1;1;2;1;1;2;29964830706
1;64;64;1;1;1;1010701038
32;4;1;16;2;1;767581223
32;8;8;2;1;2;335986549
8;32;16;4;32;2;1928561515
32;64;2;8;1;1;280316420
1;8;1;1;2;1;7563244797
32;4;1;8;2;1;764443549
128;256;4;128;8;1;18446744073709551615
16;16;4;2;1;2;307490090
16;16;32;2;4;2;1133668331
16;16;16;16;1;8;312981047
8;2;1;8;2;1;3855041387
1;256;1;1;4;1;1520378630
256;1;8;1;1;1;1264918798
1;4;128;1;4;2;1440395657
16;1;128;2;1;2;296615877
16;64;16;4;32;2;375439209
16;8;64;1;2;1;564909260
2;8;64;2;8;1;1238720956
1;32;1;1;32;1;3248048000
1;1;16;1;1;2;4581979518
4;8;1;4;1;1;1945614257
16;16;16;2;8;4;2025208830
16;16;256;2;2;2;276793917
32;32;64;1;32;2;1824379085
32;32;16;1;32;2;2588632201
64;16;16;64;2;2;352867716
16;1;1;2;1;1;4026656252
16;16;4;2;1;1;572690143
16;16;16;2;4;1;297634593
64;16;16;64;1;2;361881139
32;64;16;2;4;1;868636129
32;1;1;1;1;1;4848819221
8;4;64;4;2;8;1210032302
128;256;64;8;1;1;330703592
64;32;16;64;32;2;18446744073709551615
32;16;32;1;1;2;659152845
8;8;16;4;2;4;332635127
32;16;4;1;1;2;724333688
16;4;16;4;4;2;424503293
16;4;16;2;4;8;2155515208
256;128;8;16;4;4;384636375
1;32;64;1;4;16;1655067151
128;16;1;32;16;1;18446744073709551615
1;32;1;1;4;1;3360533591
16;8;8;2;2;2;326329876
16;16;16;2;2;4;1506699814
4;1;8;4;1;1;1957829462
128;4;32;2;4;16;2305622625
256;256;16;16;8;4;18446744073709551615
256;64;4;32;2;2;363676636
16;16;8;2;16;2;2379357198
4;8;16;2;4;2;1855190547
16;8;32;2;1;2;302076844
16;16;4;2;16;2;2429813137
256;16;256;32;4;64;18446744073709551615
64;1;1;64;1;1;1403176849
1;1;1;1;1;1;60529158981
1;64;64;1;1;1;1006244914
16;16;64;2;8;2;699764813
16;32;16;2;1;2;280696715
8;32;16;4;32;8;18446744073709551615
32;16;16;1;2;4;2451776204
1;4;1;1;2;1;15265677678
32;8;8;2;2;2;402679750
1;64;2;1;1;1;2153072600
1;16;16;1;1;2;1533076220
128;8;1;64;1;1;347647887
8;16;16;4;16;1;1645009255
16;4;1;16;1;1;1052438446
32;64;4;8;2;1;284994718
256;4;4;8;2;1;412660005
64;256;1;32;1;1;429697505
16;16;8;1;16;2;3021853503
4;8;16;1;2;2;1961325007
16;16;1;2;1;1;572193131
256;1;1;64;1;1;344179715
32;128;128;1;128;2;1452277283
1;8;64;1;2;1;893711810
1;1;128;1;1;8;2013157168
64;16;32;64;1;1;354598588
16;16;16;4;8;2;395287087
16;64;16;2;1;2;280290844
4;1;1;2;1;1;15208662208
4;8;1;4;2;1;1945491683
8;256;16;8;1;1;265568793
32;1;1;4;1;1;2033516617
32;8;16;1;2;2;1173489802
32;16;16;1;4;1;1904813149
32;64;8;2;32;1;2457123863
16;16;32;2;4;2;947947945
16;16;1;2;16;1;875465557
8;32;64;4;8;1;302425260
8;256;32;8;1;8;256800250
8;1;8;1;1;1;3806348458
128;32;1;16;4;1;1239511093
32;16;1;16;8;1;488180459
1;128;1;1;4;1;1759008852
4;16;32;1;4;4;1935443672
128;8;32;2;2;2;367263170
128;256;1;1;8;1;2432366162
256;1;4;4;1;2;346957597
1;16;1;1;4;1;4214509253
256;8;1;32;2;1;402734761
16;1;1;1;1;1;4019463168
1;64;64;1;1;1;1008588664
1;4;1;1;2;1;15263317011
32;1;1;2;1;1;2033772290
32;64;2;2;4;2;2000293208
128;1;1;64;1;1;677602590
64;4;1;64;1;1;537570338
32;1;4;8;1;1;1870805119
256;4;4;8;2;1;401592218
32;256;1;32;1;1;359189130
256;1;8;64;1;2;329887721
32;32;128;32;8;2;18446744073709551615
8;2;64;2;2;1;724641168
1;32;1;1;32;1;3332899847
1;4;16;1;2;8;3248655531
4;32;1;1;4;1;1541878199
8;256;4;8;1;4;338833006
32;256;1;1;2;1;660618235
8;32;2;1;8;2;2715615804
8;256;128;8;2;2;252591336
256;2;1;16;1;1;340707384
16;32;1;16;4;1;288450835
64;4;1;8;4;1;456997799
1;1;4;1;1;1;14938338794
4;128;32;1;4;4;1247343125
128;8;8;2;2;1;339889458
32;256;1;16;8;1;491622677
1;1;4;1;1;2;14933530041
256;4;256;64;4;1;315392090
2;1;1;2;1;1;30530604147
1;64;1;1;4;1;3100493617
1;64;256;1;2;1;630904843
64;4;1;16;2;1;511694344
32;8;128;2;1;2;276664877
32;64;2;4;32;1;2478436893
64;128;1;1;16;1;3313889013
16;2;1;4;1;1;2011715962
32;64;4;2;2;1;286166250
256;4;4;8;4;2;341537293
32;256;1;16;1;1;345569549
256;1;1;1;1;1;1234030340
32;1;128;32;1;2;485741891
256;8;64;1;2;1;693392190
1;32;128;1;32;8;1086546385
1;1;1;1;1;1;60528761147
4;8;1;1;8;1;1945546551
128;256;16;2;1;2;335981469
16;1;1;2;1;1;4025904000
8;32;1;4;8;1;1434311006
8;256;1;8;2;1;304168000
256;1;8;16;1;1;332045293
16;2;1;1;1;1;4377145870
64;1;8;8;1;4;526655550
256;1;1;2;1;1;671749000
32;1;32;8;1;4;615371728
128;8;8;2;1;1;798482466
128;256;1;16;2;1;435146340
256;1;4;128;1;2;320054923
1;256;256;1;4;1;718019504
256;1;1;2;1;1;673098652
1;1;1;1;1;1;60528950897
1;64;256;1;32;64;18446744073709551615
128;4;1;64;1;1;443754509
32;8;1;2;1;1;587097765
32;64;2;1;1;1;1417921969
128;16;1;64;1;1;342835506
1;4;1;1;1;1;15262607334
1;64;1;1;2;1;3283695660
64;4;4;8;4;1;496143893
1;256;1;1;1;1;1103073375
256;1;8;4;1;2;330198131
32;128;128;32;2;1;282196341
8;8;1;2;8;1;1007138292
256;32;128;32;32;8;18446744073709551615
1;1;256;1;1;4;2552507727
4;32;1;1;1;1;1953898965
8;256;16;1;1;1;1037522729
1;1;8;1;1;1;7398426408
8;128;1;4;8;1;1543832625
32;256;128;2;2;2;273957835
256;1;8;16;1;8;2449393783
8;128;1;1;1;1;1014214208
64;1;1;8;1;1;1431814150
1;1;4;1;1;1;14932330459
32;256;32;8;256;8;18446744073709551615
64;8;8;2;2;1;416732722
16;256;8;16;2;1;281104925
256;1;4;4;1;2;345327839
256;4;256;64;2;1;342717219
256;1;1;1;1;1;1234881994
1;1;1;1;1;1;60529307958
1;1;256;1;1;1;1144101809
128;1;1;16;1;1;678774216
32;256;128;8;1;2;273722584
32;64;2;8;1;2;286329470
8;1;1;4;1;1;7849022833
64;1;1;2;1;1;2264525750
32;64;1;8;2;1;275022591
256;4;2;8;4;2;391593720
256;128;1;32;128;1;18446744073709551615
256;8;8;8;2;4;1146690495
32;128;128;2;1;2;271973420
128;8;4;32;2;1;339385591
1;32;128;1;32;1;1081515705
1;1;8;1;1;2;7508675562
4;32;1;1;2;1;990123003
8;1;16;8;1;1;1297419091
32;1;128;8;1;16;780287222
8;4;64;8;1;1;302460425
8;256;128;2;2;64;376783843
256;1;8;16;1;4;2571237553
16;2;128;1;2;1;522334045
64;8;1;8;2;1;535866763
4;1;1;4;1;1;15235694926
128;1;32;2;1;4;1654725600
128;64;8;2;4;4;2220867454
16;256;1;16;2;1;291065086
256;1;4;128;1;1;330606918
256;4;256;64;4;2;18446744073709551615
256;1;256;32;1;4;319180921
1;1;1;1;1;1;60529589938
1;64;256;1;16;1;920677460
128;1;1;16;1;1;678455844
32;256;128;8;2;1;284060543
32;64;64;8;1;1;283138293
128;32;1;64;32;1;18446744073709551615
64;4;1;64;1;1;383799217
32;64;1;8;4;1;467393334
256;4;4;64;4;2;18446744073709551615
1;256;1;1;1;1;1129217419
256;1;8;8;1;2;334340472
32;4;128;8;1;2;292947543
1;8;64;1;4;1;1398156441
1;32;1;1;4;1;3311610818
1;1;16;1;1;1;4524670103
4;32;16;1;2;8;2520529187
1;256;16;1;1;1;1056646993
2;1;1;1;1;1;30557690208
128;4;64;64;1;1;399566183
1;256;128;1;2;2;712607102
256;1;8;16;1;1;335663218
16;2;1;4;1;1;2011683331
64;2;1;8;1;1;955903259
1;1;1;1;1;1;60529015647
32;64;32;8;1;4;420000335
128;1;1;2;1;1;1307040885
16;256;8;16;8;1;281156175
256;1;1;128;1;1;342431090
1;4;16;1;4;16;3207229358
256;1;64;32;1;4;511261960
256;1;1;1;1;1;1234984779
256;16;256;128;8;1;18446744073709551615
128;128;8;16;128;8;18446744073709551615
32;8;16;8;1;16;2007506292
32;1;2;8;1;1;3307621952
128;16;128;64;2;1;349348510
64;4;1;64;1;1;553639851
32;1;1;8;1;1;2034262788
256;4;4;8;1;2;393399295
1;256;16;1;1;1;1058449071
256;1;8;256;1;2;18446744073709551615
16;16;1;1;8;1;571761214
16;4;1;1;1;1;4817289068
8;2;1;1;1;1;3856851846
16;1;1;1;1;1;4019390707
16;2;256;1;1;1;1113604050
16;8;256;1;1;1;1210272246
4;2;1;1;1;1;7495708562
32;128;128;32;2;16;18446744073709551615
8;8;1;2;2;1;1007582795
1;32;128;1;32;2;1079197873
16;1;16;2;1;1;512665588
8;2;1;2;1;1;3857154090
16;2;64;1;2;1;519698229
16;4;1;1;4;1;1050812260
16;2;1;1;2;1;2010499418
16;2;1;1;1;1;4377861937
16;8;1;1;1;1;2434992886
16;2;1;2;1;1;2010991706
4;32;1;1;2;1;1059341145
8;256;1;8;2;1;302662757
1;1;1;1;1;1;60529456189
16;2;1;2;2;1;2010886250
16;8;1;1;4;1;531551934
32;2;1;1;1;1;5576305346
16;2;1;1;2;1;2010663879
16;2;1;1;1;1;4375373568
16;2;1;1;2;1;2010624250
16;2;256;1;1;2;518027683
8;2;1;1;1;1;3856905352
16;1;1;1;1;1;4016542792
16;2;1;1;2;1;2010666043
16;2;1;2;1;1;2012235958
8;2;1;1;2;1;3856138172
32;2;1;2;1;1;2188494841
16;2;256;1;1;4;445313718
8;2;1;1;1;1;3857488595
8;4;1;1;4;1;1972020875
16;2;256;2;2;2;310880133
16;8;1;1;8;1;766603419
8;1;1;2;1;1;7851369814
16;4;1;1;4;1;1050860599
32;2;256;1;1;2;646375172
32;2;1;1;1;1;5577312827
16;4;1;1;1;1;4821086887
16;4;256;1;4;2;1375956130
16;1;1;1;1;1;4018782001
8;2;1;1;2;1;3856200273
16;1;1;1;1;1;4016639542
16;4;1;2;4;1;1050379006
16;8;1;1;4;1;531621505
16;4;128;1;2;2;302285471
8;1;256;1;1;2;577940841
8;2;1;4;1;1;3854826417
16;1;1;2;1;1;4023593131
16;2;256;1;2;4;1556241033
32;2;1;1;2;1;2471947728
32;2;256;1;2;8;1512976711
16;2;1;4;1;1;2011096126
16;8;1;1;1;1;2434730853
16;2;1;2;2;1;2011366083
16;1;256;1;1;2;511808388
16;4;256;2;4;4;651215132
16;1;256;1;1;1;1052647037
32;16;1;1;8;1;2187062891
16;2;1;1;1;1;4377170584
32;1;256;1;1;2;671085419
16;2;1;1;1;1;4378559333
16;4;1;2;1;1;2227659144
16;2;128;1;1;2;515840724
16;2;128;1;1;1;1114307694
4;4;1;2;4;1;3808837541
4;2;1;1;2;1;7498979708
4;2;1;2;2;1;7496518374
8;2;1;2;2;1;3855536316
32;1;1;1;1;1;4848558786
16;2;1;4;2;1;2009103371
8;2;128;1;1;2;531244086
16;2;1;4;1;1;2011493583
4;2;1;1;1;1;7496094375
16;2;256;2;1;2;277413010
4;2;1;2;1;1;7498748833
2;2;1;1;2;1;15028638501
8;2;256;1;1;2;509035585
16;4;1;1;4;1;1404117411
4;2;1;1;1;1;7495405542
8;2;1;1;1;1;3856920446
32;2;1;2;2;1;1037328687
128;2;256;1;1;2;636874268
16;2;1;1;2;1;2010466667
16;1;1;1;1;1;4017849876
32;2;1;1;2;1;2472066723
16;4;1;1;2;1;2226785227
32;1;128;2;1;1;559587472
8;2;1;1;2;1;3856082916
16;1;128;1;1;2;512499796
16;4;128;1;4;2;1411354091
16;1;256;4;1;2;301854885
8;1;1;2;1;1;7851852952
32;8;1;1;1;1;1638998637
16;4;1;1;4;1;1050723000
8;2;1;2;1;1;3856969453
16;8;1;2;1;1;1125966308
64;2;1;2;2;1;945065676
16;32;1;1;4;1;323056219
64;2;1;1;1;1;2544962027
128;16;1;1;8;1;1344573449
8;1;256;1;1;8;1888724019
16;2;1;4;1;1;2011416126
16;8;128;1;1;2;543633812
16;2;4;1;2;2;677495313
2;2;16;1;1;2;2031095003
16;2;1;1;1;1;4375266485
16;2;2;1;1;2;2077558119
16;64;1;1;2;1;563261351
16;2;1;1;1;1;4378719109
16;2;4;1;2;2;806075688
1;2;1;1;1;1;29954662457
16;2;1;1;2;1;2010457794
16;256;1;1;256;1;3256540302
16;4;1;1;4;1;1050509913
128;2;1;32;1;1;394151298
16;2;1;1;2;1;2010562211
16;16;1;1;8;1;523607724
