e982069b18164141f3deaac9d52d2af87e7ae5f9caffc2328ec54bea9a979c37.cl -> 749982563 (128;2;1;1;749982563)
2fe7cbc7ed1267d25b27684664ced1ead6ace53d6c6bbc91a978527e485af8d5.cl -> 416997837 (256;256;1;1;416997837)
79b14c22de1569c01a90c4d8b409003e4e7bdfed5dcf9e793eb43814c865539d.cl -> 188073084 (4;64;16;1;2;16;188073084)
e62e3ad914fcccc9759eb1f7e32aa2b540b509300e2a0ada6e3172b15370ecc3.cl -> 164824416 (8;128;256;2;2;4;164824416)
