GLOBAL_SIZE_0;GLOBAL_SIZE_1;LOCAL_SIZE_0;LOCAL_SIZE_1;TILE_0;TILE_1;cost
256;256;128;1;1;4;480206518
1;1;1;1;2048;1;48370355111
128;8;128;2;8192;8192;1710525926
256;32;16;4;8;4096;67734519
8;16;2;1;128;1024;550161778
32;1024;8;4;32;1024;43565037
32;128;8;4;4;64;41671852
16;64;1;16;1;1024;47778518
2;128;2;4;4;64;148173778
32;128;16;4;4;64;89026963
32;4;8;4;4;64;691849482
32;128;8;4;4;64;41666074
2;2048;1;8;1024;8192;8781464593
32;32;4;2;2048;256;90539704
256;16;4;1;2048;16;629150814
1;4096;1;1;4;512;2009423556
4;1;1;1;512;512;7600867111
2;4096;1;128;1;2048;48727408
1;512;1;16;4096;4;404931407
2048;16;1;1;512;1024;703094074
32;128;8;1;4;64;98124592
32;128;1;1;4;16;219936444
32;128;8;1;4;64;96230815
32;128;4;64;1;64;63073482
1;1;1;1;32;64;30617297333
512;32;256;1;512;8;302662963
64;1;4;1;2;32;1093877629
1;4096;1;32;4096;2048;368777037
32;128;8;4;8192;64;83306518
32;128;8;2;4;1;125526222
2;128;2;1;4;64;164869926
32;128;8;4;1024;64;20839408
32;128;8;4;1024;64;20838519
32;128;8;2;1024;4;46981334
32;64;8;4;1024;16;34659259
32;1;8;1;1024;64;1104645482
32;128;8;4;1024;64;20838667
32;128;8;4;8;64;20842963
32;1024;4;4;1024;64;25769926
32;128;8;4;2048;64;20881333
2;128;2;4;1024;64;151270222
32;128;8;8;1024;64;23445629
32;128;8;4;512;64;20838667
32;128;8;4;256;64;20839408
1;1;1;1;1024;2048;30934160741
4;8;1;2;1;8;1236912741
32;128;4;2;1024;64;42840889
32;128;8;8;1024;64;23294815
32;128;1;4;1024;64;238765778
32;128;8;4;1024;128;20841037
32;128;32;4;1024;64;28058075
32;128;8;2;1024;64;29885778
32;128;4;4;1024;64;26007704
32;512;8;4;1024;64;21171111
64;1024;16;8;1;64;59880593
2;8;1;8;8;2;18446744073709551615
2;1024;1;256;8;1024;24771852
128;4096;2;4;4096;1;374997334
512;1;1;1;1;1;172900148
32;128;8;4;1024;8192;665627852
32;128;8;4;1;64;78446667
64;8192;4;4;1024;64;25770814
8192;4;64;1;1;1;209643852
4;128;1;4;1024;2;18446744073709551615
32;32;8;2;1024;64;48940148
32;64;8;4;1024;1;158103704
128;8192;16;4;4096;4;60100000
4;64;2;4;2;512;148346963
4;32;1;4;8;256;298542519
8;4;2;2;16;64;1159695111
512;32;16;4;8;8;46116148
32;16;8;1;1024;64;84512741
256;128;2;4;1024;64;82904889
1;1;1;1;256;1;35826240889
32;128;4;4;1024;16;27803407
32;64;8;4;2048;64;31905334
8;512;4;8;8;128;18331259
256;4;1;2;1024;64;1308291260
1024;128;1;4;1024;64;190088741
32;128;8;2;1024;128;28320741
1;1;1;1;4096;64;30705555259
8192;128;1;64;8192;1;18446744073709551615
4096;8192;16;4;128;256;37418667
2;2048;2;4;16;1;156198963
16;32;1;4;4;16;84439704
8;512;2;8;1;128;30102963
8;1;4;1;8;128;4351318074
4;512;4;8;8;128;29990667
32;8192;32;1;1;16;149299408
8;512;4;4;2;128;51754518
8;2048;4;8;8;128;18324741
8;256;2;8;8;128;25358519
8;8192;8;16;8;128;17306815
8;2048;4;8;8;512;44312296
32;1024;2;8;8;128;21342667
8;8192;8;16;8;32;17569630
8;1;8;1;8;128;4485156148
16;8192;8;16;8;128;17887407
8;8192;8;16;8;64;17194074
8;8192;2;16;8;256;14794074
8;4096;8;16;64;128;17310222
16;8192;8;8;8;64;17802815
8;1;2;1;8;256;4392513185
32;8192;32;1;8;256;200736148
8;8192;2;8;8;256;990443233
16;4096;2;16;32;256;13369630
8;4096;4;16;32;256;15827852
16;4096;1;16;32;512;16577778
32;4096;1;4;32;256;59872296
64;4096;64;4;32;64;129057037
16;8192;2;16;32;512;14656297
16;1;4;1;64;256;440728345
16;1;2;1;32;256;2202286815
32;4096;1;16;32;256;17059704
512;2048;64;1;32;512;347985481
16;2048;2;32;32;256;8782519
16;4096;2;16;64;256;12492445
16;4096;2;16;16;256;13412148
32;2048;1;32;64;256;11797481
16;4096;2;32;32;256;8793185
64;2048;64;4;32;128;134215111
16;2048;1;128;32;256;10601778
8;2048;4;32;32;256;14769185
16;2048;1;32;32;256;11926815
128;2048;64;4;32;256;138534666
16;512;2;16;32;128;13348889
16;2048;2;64;32;256;9778370
16;2048;2;32;32;1024;17263852
32;2048;1;32;64;128;16110519
64;1024;16;4;4;16;116256741
16;512;2;128;32;256;8872000
16;2048;2;32;128;64;9276888
4;2048;1;32;32;256;14464000
4;256;1;1;512;256;376095556
16;1024;2;32;32;128;8818371
16;1024;1;64;32;512;8909926
8;4096;8;32;32;256;17174963
16;256;4;2;64;64;42808297
16;2048;2;32;256;256;8751556
16;2048;1;32;256;256;11174074
16;512;4;32;4096;256;29483259
16;512;2;32;256;512;9423407
16;2048;2;16;256;128;12453926
64;2048;32;2;256;1024;69784741
16;2048;1;64;256;256;10020889
16;2048;2;64;256;512;10467851
16;2048;2;32;256;128;9089037
1;1;1;1;4096;1;48368826222
16;2048;4;32;128;256;14708593
16;1024;4;16;256;512;15624593
128;2048;4;2;4;8;187583704
16;8192;4;32;256;256;15310519
16;2048;2;32;2048;256;18541926
16;2048;2;64;256;256;9726667
16;512;4;64;32;128;14661778
64;128;8;32;8;32;17193630
16;128;16;2;8;64;74523704
16;128;4;32;128;128;32073185
16;2048;2;32;16;128;9146666
64;2048;64;4;512;128;64640149
4;8192;1;32;256;256;14969778
16;2048;2;64;256;128;9793038
64;2048;64;4;64;256;48623556
16;2048;1;16;256;512;16750814
16;2048;2;16;256;256;13424889
16;2048;2;32;256;1024;17207852
8;2048;4;32;128;256;14754074
16;2048;2;64;128;256;9482370
16;2048;2;32;256;512;9232445
32;512;8;32;8;64;17223111
64;4096;2;64;4;16;133778815
32;2048;32;2;256;256;34974222
32;2048;1;32;256;256;11846074
16;1024;2;8;32;256;21728000
32;4096;1;32;2048;256;60853185
8;2048;4;32;256;1024;30535851
32;2048;2;32;256;256;9259852
4;2048;1;32;256;256;14782963
8;2048;4;32;256;256;14749481
32;4096;1;32;256;256;12188296
16;512;4;32;256;128;14748593
32;2048;1;32;128;256;11953037
16;2048;2;32;8192;256;69065778
2;2048;2;32;256;256;25945630
16;2048;4;32;256;256;15320889
16;2048;2;32;512;256;9500593
16;512;1;32;256;256;10481926
8;512;4;16;512;256;22378667
4;1024;1;32;256;128;12535852
32;2048;1;32;512;256;16078518
8;8;1;8;256;1024;673708593
8;2048;4;32;8192;128;30609333
64;1024;64;4;256;256;48133630
16;2048;8;32;256;512;17182666
64;2048;4;64;8;32;50521186
4;2048;4;32;64;2048;169088148
16;2048;2;16;64;64;12574519
128;1024;2;8;64;64;43476741
16;256;2;32;256;256;17350667
8;4096;4;32;128;1024;30647704
64;512;4;16;32;64;15635259
16;4096;8;32;512;256;17198963
16;2048;2;32;128;256;9475852
16;512;4;32;256;256;14750074
8;32;4;8;64;256;176732148
16;512;1;8;256;256;31353185
16;512;2;8;256;256;21867556
64;1024;4;64;16;64;15456889
16;2048;8;16;8192;256;34637482
128;8192;4;32;1;16;372866815
4096;2;64;1;1;1;344484741
8;256;8;2;512;8192;3676833630
1;1024;1;128;256;16;387413630
16;2048;2;32;1024;256;8771556
16;2048;8;32;256;256;17199556
32;256;4;32;64;128;15195555
16;2048;4;64;256;256;14692000
8;2048;4;32;256;128;14700444
32;2048;2;32;1024;256;17308444
512;512;4;4;64;16;156383407
16;1024;8;32;256;256;17196592
16;8192;2;16;256;8192;6298422519
16;2048;2;2;64;1;422069778
16;512;4;16;16;128;14732297
16;2048;2;32;128;512;9246963
16;512;2;128;256;256;9577333
16;4096;2;32;256;256;9455704
512;32;1;8;8192;4096;16316516889
4096;2048;2;4;2;512;49750371
32;4096;16;4;8;64;48118667
512;1024;8;2;1;2048;124570074
32;512;1;32;64;64;13673926
16;1;1;1;256;1024;2884470963
128;2048;64;1;256;512;49339555
16;1;2;1;256;256;2203700741
16;2048;2;1;256;256;138725630
16;1024;2;1;256;256;140564296
16;4096;2;32;1;256;9760000
32;512;1;32;256;64;20303408
8;4096;2;32;1024;256;9310666
16;2048;1;32;256;128;11601926
8;8192;1;32;512;256;10569629
16;2048;2;128;512;256;9009334
4;8192;1;32;256;2048;96192000
2;1;1;1;8192;1024;31611693482
16;1024;2;32;256;256;8764000
8;4096;1;128;256;512;9290074
16;2048;2;8;256;256;21738074
16;2048;4;32;256;2048;30643703
8;16;1;1;128;1024;734068740
32;1024;8;4;32;32;21795259
64;128;16;4;2;16;190236444
16;1;16;1;1;1024;31368085629
2;1;1;1;1024;2048;15605851704
16;8192;1;16;128;32;17564889
64;2048;32;2;256;256;28268149
16;2048;2;32;128;16;20472741
1;1024;1;8;1024;512;317561925
32;1024;32;2;256;256;35052296
8;4096;2;32;256;256;9417333
16;128;2;32;256;256;26213777
16;2048;2;32;1024;512;9242074
32;1024;4;64;32;128;14702222
16;2048;2;32;512;64;9217778
16;8192;4;32;128;256;15301333
4;1;1;1;64;128;7639007408
1;1;1;1;512;2;27848730518
2;2;1;1;1;64;7993300296
1;512;1;128;128;4;3052958371
32;512;4;32;64;128;14723555
16;2048;4;32;64;256;14713185
16;2048;2;64;256;64;9420000
16;4096;1;128;1024;128;8303704
16;2048;8;32;8192;256;34382963
16;2048;4;32;256;256;14708741
16;1;1;1;1;128;2463829481
4;4096;2;128;1024;128;8683111
16;4096;2;128;1024;128;9301777
16;8192;1;128;1024;128;8152148
4;1;1;1;512;128;7652129334
32;8192;1;128;512;128;9872296
16;2048;1;128;2048;128;16914074
16;1024;1;1;2048;128;369915704
32;1024;4;64;128;128;14995259
16;8192;1;128;1;128;11423852
16;8192;1;128;8192;2048;169757630
16;8192;2;1;1024;128;146019111
16;4096;1;128;512;256;10396296
16;8192;1;64;512;128;10087556
32;2048;1;64;256;128;12668741
16;2048;2;128;128;128;9177778
32;2048;2;128;128;128;12753482
32;2048;2;64;256;128;14060148
32;4096;1;128;1024;128;9304740
16;1;1;1;1024;128;4539634222
4;1;1;1;256;128;7654203704
16;8192;1;128;512;128;9774963
16;1;1;1;1024;256;4323476000
64;8192;1;64;2048;128;15577778
32;2048;2;128;256;128;13946370
16;8192;2;128;2048;512;17374815
16;8192;1;128;1024;256;9501333
4;8192;1;128;1024;128;6297777
4;1;1;1;256;128;7654950222
4;8192;1;128;1024;256;7825037
4;1;1;1;1024;128;7653949630
4;4096;1;128;256;128;4160445
4;2048;1;128;2048;128;7598370
4;8192;1;128;256;128;6246074
4;8192;1;64;512;64;6386815
4;2048;1;128;256;128;7257926
16;8192;1;128;256;128;9886371
4;4096;1;256;256;128;8524740
4;1024;1;128;256;128;12710963
4;4096;1;64;256;128;6757333
4;4096;1;256;512;128;8587111
8;8192;1;128;256;128;7014963
4;4096;1;128;64;512;10871852
64;4096;1;128;1024;128;8806814
2;4096;1;32;64;128;12970666
4;4096;2;1;256;128;162555852
1;4096;1;128;256;128;13053481
4;4096;1;128;32;128;4265777
4;8192;2;128;512;128;8637482
8;8192;1;128;128;128;7045926
8;4096;1;256;256;512;9211852
4;8192;1;256;256;64;30528741
2;4096;1;256;256;128;13549185
4;2048;1;128;128;128;7259407
4;4096;1;128;512;128;4163852
4;4096;1;1;256;64;173466815
4;4096;2;128;256;128;8673186
2;4096;1;128;256;512;12913925
4;4096;1;128;256;64;8928889
4;4096;1;128;64;128;4193333
2;2048;2;2;256;128;153710074
64;4096;1;128;256;128;15197481
2;4096;1;128;128;128;7040444
4;4096;2;64;256;128;8711407
2;4096;1;128;64;128;7032000
8;4096;1;128;64;32;29953481
2;4096;1;128;1024;128;7169926
4;4096;1;128;256;256;7766519
4;1;1;1;4096;32;15845992444
1;4096;1;128;256;256;14123407
2;4096;1;256;128;128;13367852
2;2048;1;256;256;128;25206667
4;4096;1;64;256;16;21418963
4;4096;1;128;256;512;9946371
1;1;1;1;512;128;30719984889
2;4096;1;128;256;128;7084741
4;2048;4;64;256;128;14652889
4;4096;2;128;256;32;35254666
16;4096;1;128;256;128;904912677
4;4096;1;128;256;32;20641926
4;4096;1;128;128;128;4159852
4;512;2;128;256;128;34503408
4;4096;2;128;256;512;8760593
4;4096;4;1;256;128;153667260
4;8192;1;128;128;512;10377778
4;4096;2;128;64;128;8712148
4;4096;1;128;32;32;16915852
1;4096;1;32;128;128;24756889
8;4096;2;128;128;128;8796593
1;2048;1;128;64;128;25296445
4;4096;1;128;128;2048;26314074
1;2048;1;64;64;128;26304741
4;8192;1;128;128;128;6244445
4;4096;1;256;128;128;8477778
8;4096;1;128;128;128;6728741
1;4096;1;256;128;128;25493185
4;8192;2;128;128;128;8640889
2;4096;1;128;512;256;7364149
1;4096;1;128;16;512;26400889
4;2048;1;128;128;16;58662074
4;4096;1;64;128;512;13894963
4;1024;1;128;1024;128;12703704
4;8192;1;64;128;128;6539111
1;4096;1;128;128;128;13101778
2;512;1;128;128;256;53403407
2;1;1;1;64;128;15277868741
16;4096;1;128;16;128;10718666
16;4096;1;128;64;128;10535111
4;2048;1;256;32;128;13555111
8;4096;1;64;128;128;9247704
2048;16;1;1;512;256;353629334
1;1;1;1;32;1;35699729037
512;1;256;1;1;8;16327499259
64;2;4;2;2;2048;583927408
4;4096;1;128;128;256;7999704
4;4096;1;1;128;512;668391852
4;4096;1;256;128;256;4072297
4;2048;1;128;128;64;14591852
16;4096;1;256;128;256;9498222
4;1024;1;256;128;256;12734667
4;4096;1;1;128;256;346487852
4;4096;2;1;128;256;296200445
4;4096;2;128;32;256;8709778
4;4096;1;256;512;256;4105334
2;4096;1;256;64;256;6701630
4;2048;1;256;128;256;6680296
4;4096;4;1;128;1024;1090465778
4;4096;1;256;128;1024;8458222
4;1;1;1;128;1024;7740770667
4;4096;4;2;128;256;141728148
4;4096;4;2;128;1024;565060148
4;4096;1;256;64;1024;8299259
4;4096;1;256;32;256;4180148
4;4096;1;256;64;256;4123407
32;4096;1;256;128;256;16683259
4;8192;2;1;128;256;295527408
4;4096;1;1;256;512;655458815
1;4096;1;256;128;256;12884741
4;4096;1;64;128;256;8653926
4;4096;1;256;512;1;1070264000
4;4096;1;128;4;16;41419556
4;4096;2;1;128;256;295785630
4;8192;1;256;16;256;6143852
4;4096;1;128;128;512;10714074
1;4096;1;256;64;256;12905333
4;4096;1;1;512;256;382196445
4;4096;1;128;512;512;9749037
4;4096;1;256;128;64;18472741
2;4096;1;256;512;256;6722074
4;4096;1;128;128;32;18820593
4;4096;1;256;64;32;33573629
16;1;1;1;128;256;2105502370
4;1;1;1;128;256;7635718371
4;512;1;256;128;256;24865037
1;4096;1;256;128;512;13771556
1;4096;1;256;128;256;12937482
1;1;1;1;1;2048;31288896741
64;1024;16;8;1;1024;157894371
2;2048;1;128;8;2;18446744073709551615
2;1024;1;8;8;16;30472148
128;64;2;4;512;1;353736000
128;8192;16;4;4096;1;318629037
4;128;2;1;2;512;576089777
8192;32;1;4;8;256;74801630
2;4096;1;256;128;256;6708296
4;1;1;1;128;256;7635410519
4;8192;1;256;128;1024;8438370
8;4096;1;128;128;256;9917037
8;8192;1;1;128;256;234217333
4;8192;1;256;64;256;6058963
4;4096;1;256;128;512;6762371
16;4096;1;256;512;256;9278963
8;1;1;1;128;256;4315821333
4;4096;1;1;32;256;370092741
4;4096;1;256;128;32;36016592
1;4096;1;256;32;128;25743111
4;1024;4;2;128;128;85063259
4;4;1;1;16;1;2376083407
4;128;1;64;8192;1;24711048741
4096;1;16;1;128;256;63897778
1;2048;1;4;16;1;224173630
4096;1;1;1;1;1;187768889
128;256;1;2;512;8192;15486165481
1;1;1;1;256;16;31496189926
512;8192;1;2;8192;4096;60926602963
4;8192;1;256;128;256;5948889
4;4096;4;2;128;1;197507408
4;4096;1;32;128;256;14587852
4;4096;4;2;128;256;141688000
4096;2048;2;16;2;512;31783852
32;4096;32;8;8;16;141029334
8192;1024;1;2;1;2048;122340445
8;16;2;1;64;1024;553514963
4;4096;2;1;8;256;292813630
4;4096;2;8;128;256;46214370
4;32;1;4;128;256;299345333
4;4096;2;128;512;256;8685630
4;4096;2;1;16;256;293482815
4;4;1;4;128;256;2379076444
2048;4096;1;256;128;256;35278370
4;4096;1;256;2;256;5255111
4;4096;1;256;4096;256;7790815
64;1;4;1;32;16;555850370
32;8;8;4;4;64;349350074
16;64;1;32;1;1024;46002518
16;1;16;1;8;512;4945107556
4;4096;1;256;128;4096;25996296
4096;4096;1;1;128;256;217479408
128;4096;1;256;128;256;30612296
2;4096;1;128;1;2048;47768000
1;512;1;16;4096;4;404220149
2048;16;1;16;512;256;187961186
8;1;1;1;32;8;5215734074
4;2;2;1;128;256;4346526963
4096;4096;1;1;128;256;218545630
4096;4096;1;16;128;256;23186666
4;4096;1;128;128;1024;13827259
4;1;1;1;128;256;7633232889
1;4096;1;128;256;512;26262370
512;32;256;1;512;4096;459358667
256;2;1;2;2;256;127425037
256;4096;128;2;4096;2048;226337926
64;4096;16;16;1;64;59784888
4;4096;2;128;128;256;8689186
8;4096;1;256;128;256;6318519
4;4096;1;32;128;256;15000593
4;4096;1;256;128;8;144326074
4;32;2;4;128;256;298157333
1;1024;1;64;64;512;49877778
4;4096;1;256;256;256;4083556
2;8;1;8;1;16;2868937778
2;32;1;4;2;128;587557334
128;64;2;2;512;1;264651111
128;4;16;2;4096;128;385310962
4;4096;1;256;32;128;8446222
4;4096;1;1;128;2;18446744073709551615
4;512;2;4;2;512;148340000
8192;32;64;4;8;256;1535529185
32;4;32;2;16;64;1110641333
32;128;1;2;8192;1;9389106075
4;8192;1;256;256;256;5953778
4;4096;1;1;64;256;378926519
4;16;1;8;128;256;658381630
64;4096;1;256;128;256;32524889
4;4096;1;256;1;256;5394222
4;1;1;1;512;256;7630326222
2;4096;1;1;128;256;533081334
8;8192;1;128;128;256;10372593
2;2048;2;128;8;1;2194640000
4096;1;1;1;1;1;185909481
8;256;8;2;256;1;58518963
4;4096;1;128;128;64;8668444
2;2048;1;128;128;2048;48449186
4;8192;1;256;128;8192;350819556
4;4096;1;4;128;4;73794370
4;4096;2;1;32;256;293614370
2;4096;2;1;8;256;553433333
1;1024;1;128;128;16;387387407
512;1;1;1;8192;4096;86529046814
4096;32;2;32;1;512;10792741
8192;8192;16;2;8;1;4418623703
4;4096;1;256;2;64;22629481
4;64;1;2;128;256;176506074
4;4096;1;256;128;2;18446744073709551615
8;4096;1;256;256;256;6362963
8;4096;1;128;128;1024;11546222
4;8192;1;256;1024;256;5946518
8192;1;256;1;1;128;1128194371
32;16;32;1;128;4096;800183556
128;1024;2;4;1;32;133260000
4096;128;1;4;4;64;171948444
4;2048;1;64;128;256;8377630
4;4096;1;256;128;1;1025810370
4;4096;1;256;1;1024;6674963
1024;4;32;1;4096;8192;2128980444
1024;1;32;1;8;512;201834222
2;2;1;2;1;1;15157037926
1;512;1;1;1;4;274051556
4;1;1;1;128;256;7633709333
4;4096;1;256;128;2048;14240296
2;4096;2;1;128;256;545881482
2048;16;1;1;512;1;389933185
256;1;128;1;8192;8;1267674519
512;32;256;1;512;1;185345185
4;4096;1;256;2048;256;4156296
4;4096;2;2;128;256;151488444
1;4096;1;256;1024;256;13253037
4096;2;1;2;2;256;118005630
256;4096;64;4;4096;2048;154483259
4;4096;2;1;128;256;295942963
64;64;16;16;16;64;44497334
2;8;1;8;1;4096;2542197926
2;1024;1;1;1;64;242271259
128;256;2;1;512;128;146304889
128;1;16;1;4096;8;1323318222
4;512;2;2;2048;512;284462074
8192;32;1;8;8;256;46149778
32;4;32;2;16;128;1119868889
4;4096;1;64;8192;256;25057629
4;8;1;1;128;256;1030512148
4;4096;1;256;8192;256;15719704
4;4096;1;128;1;16;73917926
1;4096;1;256;128;256;12891852
4;4096;1;128;128;256;7726074
4096;4096;1;256;128;16;165174223
4;4096;2;1;128;128;174264741
4;4096;1;8;128;256;49680889
4;4096;1;2;1;256;167729630
32;128;4;4;1;8;67270223
8;8192;1;128;128;256;10357482
2;8192;2;4;32;1;154368889
2048;1;64;1;64;1;83864148
8;8;8;2;256;1;1296168889
1;1024;1;128;128;8192;401585037
1;512;1;1;8192;2048;7582647259
4;32;1;32;1;1024;377334815
4;8;1;1;512;256;1038152888
4;4096;1;1;128;256;340150666
4;4096;1;64;128;256;8387852
4;4096;1;4;4;512;161573629
512;4096;1;256;128;256;33795112
32;4096;16;4;8;512;67806518
8192;1024;1;2;2048;1;605250963
128;16;32;1;128;8192;545328148
32;1024;16;16;64;32;24786519
4;4096;1;256;128;256;4074963
1;128;1;4;4;64;298801037
16;64;1;32;1;1;1188212148
256;1;2;1;8;1024;165611851
4;4096;1;256;4;256;4408741
4;4096;1;64;128;256;8284445
2;4096;2;128;1;1;1613522519
1;512;1;1;1;4;290286371
512;4096;1;256;512;256;8368296
16;4096;2;4;16;256;36270814
2048;64;1;4;32;256;75067111
1;4096;1;256;128;4;799082519
256;1;128;1;64;8;1119114815
512;32;256;1;512;128;154799111
8;16;2;8;2;256;327640592
256;128;64;4;4096;2048;155940889
4;4096;1;4;128;2048;586856593
4;4096;1;16;128;256;27261926
8192;4096;1;256;128;256;33585186
4;32;1;32;128;256;388055703
64;64;8;16;16;64;23661185
1;8;1;8;1;4096;5292152889
2;1024;1;8;128;1024;315087259
16;256;2;1;512;1;205842370
4;256;1;256;128;256;50597481
4;64;1;32;128;256;194092593
4;4096;1;256;16;256;4255556
4;8192;1;128;128;256;7811259
16;2048;1;256;128;256;7897186
4;2048;1;256;256;256;6773037
1;8192;1;8;4096;4096;2535249630
4;512;2;4;2;1;144615851
16;1;16;1;1;256;32715973037
32;1;32;1;16;64;3201123704
4;4096;1;64;128;256;8354074
4;4096;1;256;128;256;4079704
4;8192;1;256;512;128;11959852
32;1;4;1;512;8;1189560148
4;8192;1;128;128;256;7810666
16;8192;1;1;32;1;18446744073709551615
256;1;64;1;8;1;2722986518
4;4096;1;256;128;256;4080593
2048;4096;1;1;128;256;202880445
1;256;1;2;256;1;507074074
4;4096;2;1;1;256;542455852
256;8192;1;256;128;256;22660000
1;4096;1;256;256;256;12887852
1;4096;1;4;128;256;295533185
1;1024;1;128;4096;16;411482815
1;512;1;1;1;2048;7588233185
4096;32;64;4;1;512;236179852
32;2048;4;1;8;64;75790963
4;1;1;1;128;256;7636295259
4;4096;1;256;8;256;4304889
4;1024;1;2;1;2048;1127535111
32;1024;32;1;1;8192;197921810518
32;1024;2;4;32;64;37383259
64;16;4;4;4;64;49623111
4;128;1;1;128;256;374325778
4;4096;4;8;8192;256;44906075
16;64;1;32;4;512;47543852
1;1;1;1;8;1;36904303851
2;2048;1;128;1;2048;48767555
1;512;1;1;1;1;275311112
64;64;1;2;128;256;120483704
4;4096;2;1;2048;256;295330074
4;4096;1;4;128;256;94238518
2048;64;32;2;32;256;98985333
256;1;4;1;64;128;149813630
512;128;256;1;64;128;611832740
4096;32;1;8;1;256;34464741
