epoch;GLOBAL_SIZE_0;GLOBAL_SIZE_1;GLOBAL_SIZE_2;LOCAL_SIZE_0;LOCAL_SIZE_1;LOCAL_SIZE_2;cost
1505193496;16;512;4;1;128;1;635417333
1505193501;2;1;8;2;1;2;4760731260
1505193501;512;8;128;4;2;64;18446744073709551615
1505193502;256;4;1;128;1;1;125747704
1505193502;256;4;1;128;1;1;125748740
1505193503;256;2;1;128;1;1;252478222
1505193503;256;4;512;128;1;2;29135111
1505193504;512;4;1;128;1;1;67700889
1505193504;256;4;8;128;1;2;22428148
1505193504;4;4;512;2;1;2;171756444
1505193505;256;4;512;128;1;32;18446744073709551615
1505193505;256;1;512;128;1;2;28726815
1505193506;64;4;8;2;1;4;197184593
1505193506;256;4;4;128;2;2;18446744073709551615
1505193507;256;4;4;1;2;2;365484445
1505193507;256;4;8;128;1;1;33067704
1505193507;256;4;32;128;1;2;29811852
1505193508;256;4;8;1;1;2;511168297
1505193513;1;2;8;1;1;2;4814619407
1505193514;256;32;8;128;1;2;30634518
1505193514;32;4;8;2;1;1;334576297
1505193515;256;4;8;8;1;2;65539704
1505193515;256;4;8;16;1;4;22152593
1505193516;256;4;8;8;1;4;55030518
1505193516;256;4;64;16;1;64;18446744073709551615
1505193516;256;32;8;16;1;4;36561630
1505193517;256;4;8;16;2;4;26067260
1505193517;512;1;512;8;1;4;43290074
1505193518;4;32;4;1;8;1;218650667
1505193518;512;32;128;32;1;16;18446744073709551615
1505193518;128;4;8;32;1;8;44232889
1505193519;256;4;8;16;1;1;51167111
1505193519;16;4;8;16;1;4;197252889
1505193520;16;4;8;16;4;4;225332296
1505193521;32;4;2;2;1;1;433709481
1505193521;256;4;16;16;1;2;37379408
1505193521;256;4;16;16;4;1;28190518
1505193522;512;8;8;16;4;2;29895852
1505193522;512;16;4;16;1;1;52725185
1505193522;16;256;16;16;256;2;18446744073709551615
1505193523;1;8;128;1;1;32;194003408
1505193523;1;8;128;1;8;2;110744741
1505193524;2;256;256;2;8;32;18446744073709551615
1505193524;256;8;8;32;4;4;18446744073709551615
1505193526;8;4;512;1;1;64;1006157185
1505193526;512;4;8;16;1;4;30481481
1505193527;256;4;8;16;1;4;23651852
1505193527;256;4;8;256;1;4;18446744073709551615
1505193527;256;256;8;16;64;4;18446744073709551615
1505193533;1;4;4;1;1;1;4768440889
1505193533;512;4;8;64;2;4;18446744073709551615
1505193533;256;8;8;16;4;8;18446744073709551615
1505193534;64;4;8;16;1;4;54434222
1505193534;32;8;64;16;4;32;18446744073709551615
1505193534;512;64;512;32;4;16;18446744073709551615
1505193535;32;4;8;16;2;8;111005185
1505193535;256;256;8;16;8;4;18446744073709551615
1505193536;4;4;8;2;1;4;639440889
1505193536;256;2;8;16;1;4;37232148
1505193537;256;4;8;16;4;4;22614815
1505193537;4;512;8;1;2;4;210134667
1505193538;256;4;1;32;1;1;115094963
1505193538;256;128;64;4;32;64;18446744073709551615
1505193539;64;2;32;2;2;2;155484445
1505193616;1;1;1;1;1;1;76256198222
1505193616;256;4;8;16;1;8;26357185
1505193617;256;4;4;16;1;1;40977482
1505193617;8;4;8;4;2;4;345443111
1505193618;1;4;512;1;1;64;591262815
1505193619;256;4;256;16;4;64;18446744073709551615
1505193622;32;1;1;2;1;1;3063116000
1505193622;256;4;8;32;1;4;21005037
1505193623;256;4;8;16;2;4;21742963
1505193623;256;1;8;16;1;8;69750667
1505193623;256;4;8;32;1;2;24644741
1505193624;128;4;4;32;1;1;58099259
1505193624;512;32;32;32;1;1;35996148
1505193625;128;8;8;32;2;4;23113926
1505193625;128;4;8;32;4;8;18446744073709551615
1505193625;256;4;2;32;1;2;59572000
1505193626;256;8;8;32;2;4;20143259
1505193626;512;8;8;32;8;4;18446744073709551615
1505193626;256;8;8;32;2;1;21123260
1505193627;256;8;8;16;2;4;28646666
1505193627;256;8;8;64;2;2;28086518
1505193628;256;8;16;32;2;2;31695555
1505193628;256;8;8;32;2;2;22436148
1505193628;128;8;8;32;4;4;18446744073709551615
1505193629;512;8;8;16;2;4;28013481
1505193629;256;4;8;32;2;4;22984889
1505193629;256;8;2;32;2;1;36540148
1505193630;256;8;8;64;2;4;18446744073709551615
1505193630;128;8;4;32;2;1;32162815
1505193630;256;8;8;256;2;8;18446744073709551615
1505193631;256;2;8;32;1;4;35027259
1505193631;256;4;8;32;4;4;18446744073709551615
1505193632;16;16;8;1;1;4;339617482
1505193632;256;16;8;32;1;4;28365333
1505193633;256;8;16;64;2;2;30641186
1505193633;256;8;8;64;4;4;18446744073709551615
1505193633;256;8;1;32;2;1;58734963
1505193634;256;16;16;64;1;1;37199407
1505193634;256;8;8;8;2;4;42447259
1505193634;256;4;8;32;4;1;23356740
1505193635;256;8;4;64;2;1;24965333
1505193635;256;8;8;16;1;4;31907704
1505193636;512;8;8;32;2;4;24844593
1505193637;32;1;4;4;1;1;769577334
1505193637;16;4;512;2;4;32;209123704
1505193638;128;256;16;4;256;2;18446744073709551615
1505193638;32;2;4;4;1;4;407830222
1505193639;256;8;64;32;2;64;18446744073709551615
1505193639;256;8;8;32;1;4;24630223
1505193650;1;1;8;1;1;4;9805304593
1505193650;1;64;64;1;32;32;18446744073709551615
1505193650;256;8;64;16;2;2;31152741
1505193651;256;8;8;32;1;8;23552000
1505193652;8;2;16;4;2;1;340255555
1505193652;256;8;8;128;2;4;18446744073709551615
1505193653;512;4;16;1;2;8;532757333
1505193653;32;16;256;32;1;32;18446744073709551615
1505193654;4;2;32;1;1;4;360449037
1505193654;32;32;512;2;32;32;18446744073709551615
1505193655;64;1;8;32;1;4;236349037
1505193655;256;2;8;2;1;4;179178963
1505193656;256;1;8;64;1;4;80616296
1505193656;32;4;8;8;1;2;120201630
1505193657;256;8;32;32;2;4;25834370
1505193657;256;32;2;16;32;1;18446744073709551615
1505193657;512;4;64;32;2;8;18446744073709551615
1505193658;256;8;8;32;1;4;24422963
1505193658;128;16;4;32;1;1;31868297
1505193659;8;16;8;1;8;1;143284592
1505193697;2;1;1;1;1;1;37899818370
1505193698;16;4;16;8;2;2;102397629
1505193698;1;512;64;1;8;1;309717778
1505193699;32;8;8;32;2;4;75996149
1505193699;256;8;64;8;2;64;18446744073709551615
1505193699;256;8;256;32;2;64;18446744073709551615
1505193700;512;16;16;32;8;1;27103407
1505193700;256;4;16;8;4;2;41511852
1505193701;128;8;8;64;2;4;18446744073709551615
1505193701;256;8;4;32;2;1;23281333
1505193701;1;64;16;1;8;1;172847259
1505193702;1;16;16;1;4;8;470973481
1505193703;64;4;16;4;1;4;102342074
1505193703;8;8;4;2;2;2;358508889
1505193704;1;1;256;1;1;8;320798963
1505193705;256;8;1;32;4;1;68230815
1505193705;256;8;8;32;8;4;18446744073709551615
1505193705;256;8;8;32;1;2;24426518
1505193706;16;16;8;4;2;4;72196148
1505193706;256;8;32;32;2;1;25911407
1505193708;256;8;256;1;2;128;1632248444
1505193709;8;8;8;4;2;4;178577186
1505193709;256;4;64;64;1;32;18446744073709551615
1505193709;256;8;8;128;2;2;18446744073709551615
1505193710;256;4;8;32;4;2;19142667
1505193710;256;4;16;32;4;1;24318222
1505193710;256;2;8;32;2;2;33192296
1505193711;256;16;8;32;1;2;28473778
1505193711;256;4;8;8;4;2;23258815
1505193712;128;4;8;32;4;2;32003407
1505193712;256;4;8;64;4;2;18446744073709551615
1505193712;256;4;32;32;2;32;18446744073709551615
1505193713;128;4;4;32;4;4;18446744073709551615
1505193713;128;4;8;16;4;1;34045185
1505193713;256;4;4;64;4;4;18446744073709551615
1505193714;256;4;8;32;2;2;36689482
1505193714;512;1;8;32;1;2;38189037
1505193714;128;4;8;64;4;2;18446744073709551615
1505193715;256;4;4;32;1;2;35165333
1505193715;256;4;8;32;1;2;24461333
1505193716;128;4;8;32;1;2;33325185
1505193716;256;4;4;32;4;4;18446744073709551615
1505193716;256;4;8;32;4;8;18446744073709551615
1505193717;256;4;4;32;1;4;34856593
1505193717;256;4;1;32;4;1;126706963
1505193718;64;4;8;32;1;2;52411408
1505193718;4;8;64;4;4;32;18446744073709551615
1505193718;64;4;16;16;1;1;39590074
1505193729;1;1;8;1;1;2;9722072889
1505193729;16;512;64;16;32;2;18446744073709551615
1505193730;256;4;64;16;2;4;31446222
1505193730;256;4;2;32;4;2;64993481
1505193731;512;4;8;32;4;2;22290963
1505193731;256;64;1;32;32;1;18446744073709551615
1505193731;128;4;8;8;4;4;37007111
1505193732;256;4;32;32;4;32;18446744073709551615
1505193732;256;4;32;32;4;1;26258222
1505193732;256;8;8;32;2;8;18446744073709551615
1505193733;128;4;8;32;2;2;33096149
1505193733;512;16;16;64;1;2;34302666
1505193734;256;4;8;16;4;2;19878222
1505193736;1;4;8;1;4;2;2527811852
1505193737;512;8;4;32;4;4;18446744073709551615
1505193737;256;4;8;16;1;2;31829333
1505193738;512;4;16;32;4;1;25862815
1505193738;256;1;8;128;1;2;60502074
1505193738;256;2;8;16;2;1;41691407
1505193739;64;4;8;32;4;2;61055408
1505193739;128;4;16;32;4;4;18446744073709551615
1505193739;256;8;8;16;2;2;27136296
1505193740;256;8;8;32;1;8;23412148
1505193740;128;4;4;16;2;4;67732444
1505193741;256;4;8;32;4;1;23470371
1505193741;256;4;4;128;4;2;18446744073709551615
1505193741;256;4;8;64;1;4;22444297
1505193743;1;4;128;1;2;64;978635852
1505193743;64;1;8;4;1;8;233751112
1505193744;1;4;512;1;2;256;18446744073709551615
1505193744;256;16;8;256;2;4;18446744073709551615
1505193744;64;4;32;16;2;1;31074222
1505193745;256;4;8;32;4;8;18446744073709551615
1505193748;1;4;8;1;4;4;2771641037
1505193749;1;1;512;1;1;64;632004000
1505193749;256;4;64;32;2;32;18446744073709551615
1505193750;256;512;8;32;4;2;23480741
1505193750;256;4;8;1;2;4;326265037
1505193751;64;8;16;8;2;2;47256148
1505193751;512;1;128;64;1;64;18446744073709551615
1505193752;4;128;16;1;2;16;463754963
1505193752;128;8;32;64;1;1;31604445
1505193753;512;8;16;4;2;2;90189926
1505193753;32;4;16;16;4;1;53206074
1505193753;256;2;8;32;2;2;35230222
1505193754;256;4;16;16;2;1;36159555
1505193754;256;1;8;64;1;2;66694667
1505193755;256;4;8;128;4;2;18446744073709551615
1505193755;16;4;8;1;4;2;252794074
1505193756;128;8;32;16;2;1;35389185
1505193756;128;8;8;32;2;2;26458371
1505193756;256;1;8;32;1;2;60829777
1505193757;128;4;512;4;1;16;139948000
1505193759;2;32;1;2;2;1;1206012889
1505193760;1;16;16;1;8;8;981383555
1505193761;1;128;8;1;2;2;179651111
1505193761;128;4;16;32;4;4;18446744073709551615
1505193762;64;4;4;32;4;4;18446744073709551615
1505193762;256;8;8;32;4;2;22231111
1505193762;256;8;32;32;1;1;36362963
1505193763;512;8;32;32;2;2;27034815
1505193763;256;16;32;32;16;1;18446744073709551615
1505193763;256;8;16;32;8;1;25991851
1505193764;256;4;64;32;4;32;18446744073709551615
1505193764;256;32;1;32;32;1;18446744073709551615
1505193765;1;8;128;1;2;2;184665630
1505193765;2;256;1;2;8;1;180767407
1505193766;4;512;8;1;2;2;194093778
1505193785;1;4;1;1;1;1;19118408740
1505193786;512;2;8;32;2;2;18471111
1505193786;256;4;4;16;4;4;42820297
1505193786;512;2;8;32;1;2;18492889
1505193787;512;1;8;32;1;8;35591703
1505193793;1;2;8;1;2;2;4953635555
1505193793;512;2;8;32;2;1;17777333
1505193793;512;1;8;32;1;8;35112741
1505193794;256;2;8;32;2;1;35066963
1505193794;512;4;8;32;4;1;23007259
1505193794;128;2;8;32;2;1;53155555
1505193800;1;2;8;1;2;2;4889320000
1505193800;512;1;4;8;1;2;68441926
1505193800;512;1;8;64;1;1;36679111
1505193805;1;2;16;1;2;16;4074980148
1505193805;512;8;32;32;2;16;18446744073709551615
1505193810;1;2;8;1;2;1;4826295407
1505193811;512;2;32;32;2;4;19417185
1505193811;512;2;16;64;2;16;18446744073709551615
1505193811;256;2;8;16;1;1;37169037
1505193812;512;2;8;32;2;4;17885481
1505193812;512;2;4;32;1;2;37008148
1505193813;512;4;64;64;4;16;18446744073709551615
1505193813;512;2;8;64;2;1;19369037
1505193813;512;2;8;16;2;1;18551259
1505193814;512;16;8;32;2;1;26943259
1505193814;512;8;8;32;2;1;25070667
1505193814;512;2;8;16;1;1;39847704
1505193815;512;2;8;32;2;1;17533630
1505193815;512;2;8;32;2;8;18446744073709551615
1505193816;512;2;8;8;2;1;47228000
1505193816;512;2;4;32;2;1;35990074
1505193816;256;2;4;32;1;2;61533333
1505193817;512;2;8;32;1;1;18911704
1505193827;1;2;4;1;2;2;9843737778
1505193830;1;4;8;1;2;8;2766911556
1505193831;256;2;8;32;2;1;33721926
1505193835;1;2;16;1;2;16;4061720445
1505193836;512;8;8;32;8;1;25639852
1505193845;1;1;8;1;1;1;9523352148
1505193846;512;2;8;16;2;1;18640593
1505193846;512;1;4;32;1;2;63652444
1505193851;1;2;8;1;2;1;4825866519
1505193852;256;2;8;32;2;8;18446744073709551615
1505193852;512;2;8;64;2;1;18630222
1505193853;512;2;4;64;1;2;36590370
1505193854;1;8;8;1;4;1;1228130814
1505193854;512;2;8;32;1;2;17908296
1505193855;512;2;1;32;2;1;126080889
1505193855;512;2;8;32;2;1;17637333
1505193856;512;2;8;32;2;8;18446744073709551615
1505193856;512;4;8;32;1;1;34813926
1505193856;128;8;8;32;2;1;23245778
1505193857;512;2;4;32;2;2;35120445
1505193857;512;1;8;32;1;1;33533037
1505193858;512;2;16;64;1;16;18446744073709551615
1505193863;1;2;8;1;1;1;4779773926
1505193867;1;4;16;1;4;16;3982680296
1505193868;512;2;8;32;2;2;18477037
1505193868;512;2;8;32;2;4;18081926
1505193869;512;1;8;32;1;1;33710074
1505193869;512;2;4;32;2;2;36894074
1505193869;512;2;16;32;2;16;18446744073709551615
1505193870;512;2;4;32;1;2;36498815
1505193870;512;2;2;128;2;1;66908889
1505193870;512;2;8;32;1;8;18129185
1505193871;512;2;8;32;1;8;18194667
1505193871;512;4;8;32;2;1;16619408
1505193872;512;2;16;64;2;16;18446744073709551615
1505193872;512;4;32;64;2;16;18446744073709551615
1505193872;512;8;32;16;8;16;18446744073709551615
1505193875;1;4;8;1;1;1;2381462519
1505193875;256;8;8;64;2;8;18446744073709551615
1505193876;512;4;4;32;2;2;23229630
1505193876;512;4;4;32;2;1;17696593
1505193876;512;4;8;32;2;8;18446744073709551615
1505193877;512;4;8;16;2;1;34251259
1505193877;512;4;2;64;4;2;18446744073709551615
1505193878;512;1;8;32;1;1;33700148
1505193880;1;4;8;1;2;1;2404469482
1505193881;512;4;8;32;4;2;21128444
1505193881;512;4;8;32;4;1;23085037
1505193884;1;4;8;1;2;2;2437291408
1505193884;256;4;16;32;2;16;18446744073709551615
1505193885;512;4;4;8;4;2;23544445
1505193885;512;16;8;32;16;1;18446744073709551615
1505193885;512;4;8;128;4;1;18446744073709551615
1505193886;512;4;8;64;2;1;28233334
1505193886;512;8;8;32;8;4;18446744073709551615
1505193886;512;4;2;32;1;1;33693926
1505193889;1;4;16;1;2;16;2020029481
1505193890;256;4;32;32;4;16;18446744073709551615
1505193890;512;8;1;32;8;1;35508148
1505193890;512;8;8;64;8;1;18446744073709551615
1505193891;512;4;16;32;2;16;18446744073709551615
1505193891;512;16;8;32;4;1;26526519
1505193894;1;4;8;1;2;1;2405158667
1505193894;512;4;8;16;2;2;25639555
1505193896;1;8;8;1;8;1;1258032445
1505193896;512;2;32;32;2;16;18446744073709551615
1505193896;512;2;8;32;2;4;17941333
1505193902;1;4;4;1;1;2;4818901926
1505193902;512;4;8;16;1;1;51956149
1505193902;256;4;8;128;1;8;18446744073709551615
1505193903;128;4;4;32;2;1;53194963
1505193903;256;4;8;32;2;2;26672741
1505193904;512;4;8;16;1;1;52021629
1505193904;256;4;8;32;2;1;23804593
1505193904;512;4;16;32;4;8;18446744073709551615
1505193905;512;4;16;32;1;8;26517926
1505193905;512;4;8;128;2;1;26249334
1505193905;512;4;8;32;2;4;17968593
1505193906;512;4;8;32;4;8;18446744073709551615
1505193906;128;4;8;32;2;1;33388148
1505193907;512;4;16;32;4;1;26424444
1505193907;512;4;8;64;2;2;27870222
1505193907;256;1;8;32;1;1;65487408
1505193908;256;4;8;64;2;1;25876296
1505193908;512;4;8;64;2;8;18446744073709551615
1505193908;512;2;16;32;1;16;18446744073709551615
1505193909;128;4;8;16;2;1;41338518
1505193909;512;4;32;32;2;4;25058963
1505193909;512;16;16;32;4;16;18446744073709551615
1505193910;256;4;8;16;2;1;28521038
1505193910;512;4;8;64;4;1;28676741
1505193912;1;8;32;1;8;16;1689290815
1505193913;128;4;8;32;1;1;32014222
1505193913;512;4;8;32;2;2;22147704
1505193924;1;4;2;1;2;2;9843840889
1505193930;1;2;8;1;2;8;5576367703
1505193931;1;4;32;1;2;16;1020304741
1505193936;1;2;8;1;2;1;4839353926
1505193936;256;4;8;32;1;1;22757037
1505193937;256;4;8;128;2;1;21495408
1505193937;128;8;8;32;8;1;19339259
1505193938;512;4;4;128;2;2;18446744073709551615
1505193938;512;4;128;16;1;16;36890074
1505193938;256;8;16;32;4;2;25136148
1505193939;256;8;1;128;1;1;64038074
1505193942;1;4;8;1;2;1;2424071407
1505193942;512;1;8;32;1;2;38587407
1505193942;256;2;32;32;2;1;22989630
1505193943;1;128;64;1;4;2;165670963
1505193943;64;2;512;4;2;16;113007111
1505193944;32;32;4;1;2;1;426248444
1505193945;512;1;4;32;1;2;63725481
1505193945;64;4;8;32;2;1;52452000
1505193945;512;4;32;32;2;16;18446744073709551615
1505193946;256;1;32;32;1;1;20773037
1505193948;1;4;8;1;2;1;2424129629
1505193949;512;4;8;32;4;4;18446744073709551615
1505193954;1;4;4;1;2;2;4913718074
1505193955;512;2;8;32;1;2;18012889
1505193955;128;1;4;32;1;2;217808297
1505193956;512;4;4;16;2;2;21620889
1505193966;1;2;4;1;1;2;9666947111
1505193966;512;4;8;16;4;2;23560444
1505193966;512;2;16;32;2;2;16368593
1505193967;1;8;16;1;1;4;621472444
1505193968;512;2;16;32;1;2;16010518
1505193968;512;2;64;16;2;64;18446744073709551615
1505193969;512;4;32;32;2;1;24721482
1505193969;256;16;16;32;16;2;18446744073709551615
1505193969;512;2;16;16;1;1;39425333
1505193970;512;2;16;32;1;4;17737185
1505193971;1;2;32;1;1;1;1270821926
1505193972;512;2;16;32;2;2;16114222
1505193972;512;2;8;32;1;8;18519556
1505193975;1;2;16;1;1;2;2410741926
1505193975;512;4;16;32;4;4;18446744073709551615
1505193975;256;2;32;16;1;1;45420296
1505193976;512;2;16;16;1;2;29767112
1505193976;512;2;16;32;1;1;27325334
1505193979;1;2;16;1;1;2;2434629481
1505193979;256;2;16;32;2;2;22034667
1505193980;128;2;32;32;1;16;18446744073709551615
1505193980;512;2;32;32;2;1;21182075
1505193981;512;2;4;32;2;4;34703111
1505193981;512;2;16;128;2;2;18446744073709551615
1505193987;1;1;16;1;1;4;4907785185
1505193987;512;2;16;8;1;2;53297630
1505193987;512;1;16;32;1;4;18659407
1505193988;128;2;16;32;2;1;31648889
1505193988;512;4;16;64;4;2;18446744073709551615
1505193988;128;2;16;32;1;2;33404297
1505193989;256;1;16;32;1;2;36031852
1505193989;512;4;8;32;4;4;18446744073709551615
1505193990;512;1;16;32;1;2;18271259
1505193990;512;2;32;8;1;1;71798667
1505193990;512;2;8;32;1;4;19661334
1505193991;512;4;16;32;4;2;24703852
1505193991;256;2;16;32;1;2;25673185
1505193991;256;2;16;64;2;2;32774666
1505193992;512;4;16;32;4;16;18446744073709551615
1505193992;512;2;16;64;1;4;16660592
1505193993;512;2;4;32;1;1;32756148
1505193993;512;16;16;32;8;2;18446744073709551615
1505193993;512;256;16;32;1;2;27053778
1505193994;256;2;16;32;1;2;25770963
1505193996;1;2;16;1;1;1;2390194222
1505193997;64;32;2;1;8;2;304138370
1505193998;512;2;32;32;1;1;28281481
1505193998;512;2;64;32;1;64;18446744073709551615
1505193998;256;2;32;32;1;1;34405481
1505193999;256;2;32;64;1;1;29018371
1505194003;1;2;32;1;2;32;4085099407
1505194003;512;4;512;32;1;8;25604593
1505194006;1;2;16;1;1;2;2435650667
1505194007;512;4;16;1;1;8;565131704
1505194012;4;2;2;1;1;1;4846813333
1505194013;512;8;64;32;8;32;18446744073709551615
1505194013;256;1;16;32;1;4;33785630
1505194013;512;2;16;64;1;2;23122518
1505194014;512;2;16;32;2;4;10293926
1505194014;128;2;16;32;2;4;41761630
1505194015;512;1;16;32;1;4;18764593
1505194015;256;2;64;16;1;1;46955704
1505194015;512;2;16;16;2;4;19556444
1505194016;512;4;16;32;2;4;24516740
1505194016;256;1;32;32;1;2;26298815
1505194016;256;2;8;32;2;8;18446744073709551615
1505194017;512;8;16;32;8;4;18446744073709551615
1505194018;512;1;64;32;1;1;36071112
1505194018;512;2;16;32;2;2;16682074
1505194018;512;2;2;32;2;2;69662815
1505194019;512;2;16;32;2;8;18446744073709551615
1505194019;512;2;32;32;2;2;21302815
1505194019;128;2;32;32;1;8;23188148
1505194020;512;2;8;32;2;8;18446744073709551615
1505194021;8;2;16;2;2;4;381743111
1505194021;512;2;64;32;1;1;29997482
1505194021;512;2;1;128;1;1;136085037
1505194022;512;2;256;32;2;128;18446744073709551615
1505194022;256;4;32;32;2;1;25326815
1505194023;256;4;32;32;4;1;26436000
1505194023;512;4;32;32;1;2;26322222
1505194023;512;4;32;32;4;1;26152296
1505194024;32;32;512;2;32;16;18446744073709551615
1505194024;8;16;8;4;8;1;104445481
1505194063;2;1;1;1;1;1;38074708593
1505194064;1;512;64;1;1;8;342586222
1505194064;512;64;16;32;1;4;36539556
1505194064;512;2;1;32;2;1;126236444
1505194065;512;1;2;32;1;2;126235407
1505194065;32;2;16;32;2;4;148970667
1505194066;512;1;16;32;1;4;18752297
1505194066;512;2;64;32;2;1;22625333
1505194067;512;2;8;32;1;8;18209185
1505194067;512;64;8;32;1;8;39569481
1505194067;512;2;64;32;1;32;18446744073709551615
1505194068;1;2;64;1;1;1;745788296
1505194069;128;2;16;32;1;4;31549630
1505194071;1;4;16;1;2;8;1380532296
1505194071;64;16;8;32;4;1;25519408
1505194073;64;1;1;4;1;1;1653371407
1505194074;8;8;4;2;1;2;393285185
1505194077;1;2;16;1;2;4;2533752296
1505194078;512;2;16;1;2;16;1311328740
1505194079;32;2;16;32;2;4;111424445
1505194079;128;8;16;32;4;4;18446744073709551615
1505194079;64;2;16;64;2;4;18446744073709551615
1505194080;512;2;32;32;2;1;21164741
1505194080;512;2;32;32;1;2;22021629
1505194081;1;8;64;1;1;32;339938222
1505194091;1;1;8;1;1;2;9695698074
1505194091;512;2;64;32;2;64;18446744073709551615
1505194092;256;2;16;32;2;4;22009629
1505194092;512;2;8;32;2;8;18446744073709551615
1505194094;512;512;4;1;128;2;1140327556
1505194094;512;128;16;32;128;4;18446744073709551615
1505194095;512;2;16;32;2;4;10108741
1505194095;16;2;16;1;2;4;297646519
1505194096;512;64;16;32;1;4;36500889
1505194096;512;2;32;32;2;4;19665482
1505194097;16;2;16;1;2;4;226369778
1505194097;512;2;128;32;2;4;21718518
1505194097;4;32;16;4;2;4;49727260
1505194098;512;256;16;32;128;1;18446744073709551615
1505194098;128;2;16;32;2;4;41718518
1505194098;64;2;16;32;1;4;60580592
1505194099;512;2;2;32;2;1;62558963
1505194099;512;2;2;128;2;1;67889037
1505194100;512;2;16;2;2;4;147196000
1505194100;512;2;16;32;2;8;18446744073709551615
1505194100;512;2;128;8;2;4;39776148
1505194101;64;2;16;32;2;4;77228296
1505194104;1;2;16;1;2;4;2533742074
1505194104;512;128;16;32;128;4;18446744073709551615
1505194104;512;2;16;256;2;4;18446744073709551615
1505194105;512;2;16;32;2;1;15362074
1505194106;4;2;16;2;2;2;643761778
1505194107;4;2;16;4;2;4;643647408
1505194107;32;2;16;32;2;16;18446744073709551615
1505194108;512;2;16;32;1;4;18421037
1505194108;512;32;16;32;2;4;25115556
1505194109;8;2;16;2;1;4;355157777
1505194109;512;2;16;32;1;4;18679852
1505194109;512;8;16;32;8;1;26327704
1505194110;512;2;512;32;2;4;19461630
1505194110;512;2;16;64;2;4;18446744073709551615
1505194110;512;2;16;32;1;4;17939259
1505194112;2;2;16;2;2;4;1325090518
1505194112;512;256;16;32;32;4;18446744073709551615
1505194113;512;2;16;1;2;4;345594075
1505194114;256;2;16;32;2;4;21620740
1505194116;1;2;16;1;2;4;2535093778
1505194117;512;2;16;32;2;1;15480889
1505194117;512;2;64;4;2;4;68101926
1505194118;512;2;64;32;2;2;22796889
1505194118;512;4;16;32;2;4;24479555
1505194118;512;256;2;32;128;1;18446744073709551615
1505194119;2;32;16;2;1;4;147481333
1505194119;512;2;16;32;2;2;16326815
1505194120;512;2;4;128;2;4;18446744073709551615
1505194120;512;2;16;32;2;4;10022963
1505194120;512;2;64;32;2;4;20752741
1505194121;512;128;1;32;2;1;26549629
1505194121;512;2;128;64;2;4;18446744073709551615
1505194121;512;2;8;32;2;4;18230222
1505194122;32;2;32;32;2;2;77994074
1505194122;512;2;16;64;2;4;18446744073709551615
1505194122;512;2;16;8;2;4;33482222
1505194123;512;2;16;32;2;8;18446744073709551615
1505194123;32;2;16;32;2;4;109754223
1505194124;512;8;16;32;2;4;25512592
1505194125;512;4;16;128;1;1;31727112
1505194125;512;2;2;256;1;1;62934963
1505194127;2;2;16;2;2;4;1325210370
1505194127;64;2;16;32;2;4;79905630
1505194127;512;2;16;32;2;1;15133630
1505194128;512;1;16;32;1;4;18755260
1505194128;512;2;2;32;2;1;62727556
1505194129;512;2;16;32;2;4;10525333
1505194129;512;2;32;32;1;4;23509037
1505194129;512;2;16;2;2;4;148078815
1505194130;512;2;64;32;2;4;20809630
1505194130;512;2;16;32;2;2;16153778
1505194131;512;2;32;1;2;4;286988148
1505194131;512;2;16;32;2;4;10274519
1505194132;512;2;16;256;2;4;18446744073709551615
1505194132;512;2;16;32;2;4;10429926
1505194135;1;2;16;1;2;4;2530403851
1505194135;512;256;16;32;1;4;32509778
1505194138;1;2;16;1;1;2;2418014963
1505194138;64;2;256;32;2;4;25790223
1505194139;512;1;32;32;1;2;14938963
1505194139;512;2;16;128;2;4;18446744073709551615
1505194139;512;32;16;32;8;4;18446744073709551615
1505194140;512;4;16;32;1;4;27289333
1505194140;512;2;16;32;2;8;18446744073709551615
1505194141;512;2;16;4;1;4;94772593
1505194141;512;2;1;32;1;1;126089481
1505194144;1;2;16;1;2;4;2528085630
1505194144;512;2;16;32;2;16;18446744073709551615
1505194145;64;512;16;32;1;4;28978814
1505194145;512;2;16;8;2;8;36546222
1505194145;512;16;16;32;16;4;18446744073709551615
1505194146;512;2;16;4;2;2;72922371
1505194146;512;2;16;4;2;4;68365037
1505194150;1;2;16;1;2;16;4063303111
1505194151;512;2;16;32;2;1;13964000
1505194151;1;256;16;1;1;4;204892148
1505194152;512;2;32;256;2;4;18446744073709551615
1505194152;128;2;16;32;2;4;41796889
1505194153;64;2;8;32;2;4;112137926
1505194153;16;512;64;16;4;2;31413630
1505194154;64;1;8;32;1;8;240345037
1505194154;1;4;512;1;2;256;18446744073709551615
1505194154;512;16;32;256;2;4;18446744073709551615
1505194155;128;2;16;32;2;2;32626667
1505194156;512;2;256;32;2;4;21140000
1505194157;4;2;16;4;2;2;631135407
1505194157;512;2;1;256;2;1;18446744073709551615
1505194159;1;2;128;1;2;64;1844433185
1505194159;512;8;16;32;2;4;25442963
1505194162;1;2;16;1;2;4;2534092593
1505194163;4;2;16;4;2;4;643697777
1505194164;4;128;16;1;2;2;197498667
1505194165;1;8;32;1;8;1;317727852
1505194165;512;8;4;256;2;2;18446744073709551615
1505194167;2;32;1;2;2;1;1205296740
1505194167;512;2;16;32;1;1;27443259
1505194167;512;2;16;4;2;2;72288296
1505194171;16;2;1;1;2;1;3096871112
1505194171;4;16;16;4;8;16;18446744073709551615
1505194172;32;128;8;4;2;2;92650371
1505194172;1;8;128;1;8;16;477874371
1505194173;1;256;1;1;1;1;606387259
1505194174;8;2;16;2;2;4;382957629
1505194175;512;2;128;32;2;8;18446744073709551615
1505194175;512;1;1;32;1;1;252118963
1505194176;16;2;16;1;2;4;226355704
1505194176;512;2;32;32;2;4;19506222
1505194177;32;512;8;1;2;2;350948593
1505194177;256;4;1;64;1;1;115830814
1505194178;512;128;8;16;4;2;31636000
1505194178;64;2;64;1;1;16;452813037
1505194179;128;2;4;32;2;4;119233481
1505194179;128;64;16;32;4;4;18446744073709551615
1505194180;512;2;512;32;2;4;19929333
1505194180;512;16;16;32;4;4;18446744073709551615
1505194183;1;2;16;1;2;4;2537552593
1505194186;1;2;16;1;2;4;2518490370
1505194187;512;4;32;32;1;4;27358223
1505194187;512;2;128;8;2;4;40813333
1505194188;512;2;16;2;2;8;185102667
1505194188;32;16;4;1;4;1;336135111
1505194189;512;4;512;32;1;128;18446744073709551615
1505194191;1;2;16;1;1;2;2411129482
1505194192;16;4;16;1;2;8;142750223
1505194192;512;1;16;8;1;4;35482815
1505194193;512;1;16;16;1;4;19878963
1505194193;512;1;4;32;1;4;73524741
1505194193;512;2;16;32;2;16;18446744073709551615
1505194194;512;4;16;32;4;2;24489037
1505194195;1;4;16;1;1;4;1223815555
1505194197;1;4;16;1;1;4;1227481186
1505194197;256;2;8;32;2;8;18446744073709551615
1505194198;512;1;16;64;1;4;17724000
1505194198;4;2;64;4;2;4;163571408
1505194201;1;1;32;1;1;4;2466268445
1505194201;32;32;64;1;32;32;18446744073709551615
1505194202;8;16;4;4;8;1;176925037
1505194207;2;1;8;1;1;1;4712133185
1505194207;512;4;16;32;1;4;27224297
1505194208;512;4;32;64;1;4;33568297
1505194208;512;2;1;32;2;1;126228741
1505194209;512;1;16;32;1;4;18618963
1505194209;512;2;1;32;1;1;125521334
1505194212;1;2;16;1;2;4;2534966074
1505194215;1;2;16;1;2;8;2767313037
1505194215;512;2;16;128;2;2;18446744073709551615
1505194216;512;4;4;16;1;2;31096889
1505194217;1;512;64;1;8;4;582561630
1505194228;8;1;1;2;1;1;10806621333
1505194229;64;512;16;4;8;16;18446744073709551615
1505194229;8;2;128;8;2;128;18446744073709551615
1505194230;128;2;16;2;2;4;145347555
1505194230;512;2;16;2;2;1;166455704
1505194231;256;2;8;32;2;4;42183259
1505194231;512;4;16;32;1;2;26569778
1505194234;1;2;16;1;1;8;2540924592
1505194234;512;2;8;128;2;4;18446744073709551615
1505194235;512;2;16;32;1;4;18052740
1505194235;64;128;16;32;2;4;26687259
1505194236;1;8;64;1;1;1;613509037
1505194246;1;1;8;1;1;2;9718415407
1505194246;16;512;1;16;4;1;27233926
1505194247;64;1;64;4;1;8;69707407
1505194249;2;2;16;2;2;4;1318576444
1505194259;1;2;4;1;2;4;10134526371
1505194260;512;1;16;32;1;4;18614222
1505194260;512;2;16;32;1;8;15806075
1505194261;32;2;4;32;2;4;428692148
1505194261;1;4;512;1;1;16;328747111
1505194262;256;16;8;32;4;4;18446744073709551615
1505194263;512;8;16;1;2;2;492269185
1505194263;1;512;128;1;16;1;422981926
1505194264;256;2;32;32;2;4;17891407
1505194264;512;2;16;16;2;4;20292296
1505194265;128;2;16;32;1;4;31973481
1505194265;512;2;16;1;2;4;326979704
1505194266;512;2;16;32;2;1;15896296
1505194266;128;2;64;32;2;4;21012296
1505194266;512;8;16;8;1;2;68554370
1505194267;8;32;1;2;2;1;387174814
1505194269;1;16;4;1;8;1;1256850074
1505194270;32;128;16;1;1;1;759709630
1505194276;2;2;4;2;2;4;5263894667
1505194276;512;2;16;1;2;4;338402963
1505194287;1;8;1;1;8;1;10121766519
1505194326;2;1;1;2;1;1;37937062963
1505194327;32;512;4;1;2;1;467085926
1505194328;1;32;2;1;8;2;1370231259
1505194329;512;2;16;256;2;2;18446744073709551615
1505194329;512;128;8;1;4;2;378088889
1505194330;64;2;512;2;2;256;18446744073709551615
1505194330;32;16;4;1;4;4;190157629
1505194331;512;4;1;256;1;1;62791260
1505194331;512;16;16;32;8;4;18446744073709551615
1505194331;512;4;16;32;1;8;26580148
1505194332;8;2;32;2;2;4;193212148
1505194334;1;4;16;1;4;1;1232304889
1505194335;1;4;16;1;2;8;1379426963
1505194336;4;64;1;1;2;1;365894963
1505194337;32;32;1;2;16;1;139314222
1505194337;512;2;256;8;1;4;48746074
1505194337;512;16;16;32;2;4;25617333
1505194338;512;16;16;32;2;4;25569037
1505194338;512;2;16;1;2;1;324706815
1505194339;512;2;4;32;2;4;34111259
1505194342;2;16;1;1;8;1;2497103259
1505194344;2;2;8;1;2;1;2376610519
1505194345;1;512;64;1;2;1;340151407
1505194346;1;16;32;1;2;2;189465037
1505194346;512;2;16;1;2;4;340402370
1505194347;16;2;16;16;2;4;224255555
1505194349;1;8;8;1;2;2;1221591703
1505194349;1;8;64;1;1;4;192525185
1505194350;32;1;8;1;1;2;399427259
1505194355;1;1;16;1;1;4;4900406074
1505194355;512;2;8;32;1;4;19759704
1505194356;512;2;16;2;2;4;148157333
1505194357;512;1;8;32;1;4;37003704
1505194358;512;8;16;1;2;4;434638371
1505194358;512;512;16;32;1;4;27624741
1505194358;64;2;16;8;2;4;59061482
1505194359;512;8;1;256;2;1;18446744073709551615
1505194360;16;16;1;16;8;1;450221482
1505194360;64;1;64;4;1;2;122428889
1505194361;8;4;512;4;1;16;123922963
1505194361;256;4;1;64;2;1;125799852
1505194363;512;2;16;1;2;16;1316285778
1505194363;4;128;16;1;16;2;423895259
1505194364;128;8;4;64;2;1;30980592
1505194364;512;64;8;8;2;4;64501926
1505194365;16;32;1;16;16;1;216080889
1505194366;1;16;16;1;4;8;474597482
1505194366;32;32;8;8;16;2;38250667
1505194369;1;8;4;1;8;2;2765960741
1505194370;128;256;32;128;8;32;18446744073709551615
1505194370;4;64;1;1;2;1;365521333
1505194371;256;4;1;1;1;1;727622519
1505194372;512;1;64;32;1;4;22077778
1505194372;512;1;16;32;1;8;18213334
1505194372;512;4;16;32;2;8;18446744073709551615
1505194373;128;2;8;32;1;4;65337482
1505194373;512;2;32;32;2;16;18446744073709551615
1505194374;512;1;32;32;1;4;14979407
1505194374;128;2;16;64;1;2;31141333
1505194374;512;8;16;64;2;4;18446744073709551615
1505194376;1;2;32;1;2;4;1262560741
1505194376;256;4;16;64;1;4;28508296
1505194377;1;2;64;1;2;4;632300741
1505194380;1;2;16;1;1;4;2468491555
1505194381;4;128;8;2;4;8;68533630
1505194381;64;2;64;4;2;16;71940889
1505194382;32;1;4;1;1;4;801974962
1505194383;512;4;1;1;1;1;852196889
1505194384;1;4;512;1;4;1;196654814
1505194384;16;4;16;1;1;8;192063852
1505194385;4;8;32;1;1;4;180937334
1505194389;1;32;1;1;16;1;2952597037
1505194389;256;2;4;32;2;2;66818074
1505194390;512;2;32;32;2;1;22077482
1505194390;8;16;8;2;8;1;102123408
1505194391;2;32;8;1;8;1;210880297
1505194391;64;512;64;2;8;1;169280297
1505194396;1;1;16;1;1;2;4866407259
1505194402;1;1;16;1;1;4;4935193925
1505194402;4;16;32;4;4;2;49030518
1505194403;64;4;16;1;1;4;352176889
1505194404;8;8;4;2;1;2;391418667
1505194404;1;8;64;1;1;8;182976889
1505194404;512;2;32;32;2;2;22005334
1505194410;1;2;8;1;2;8;5576358666
1505194411;512;2;16;64;2;8;18446744073709551615
1505194411;32;1;32;1;1;32;325120444
1505194412;16;512;128;16;32;1;18446744073709551615
1505194412;64;128;64;4;1;8;125754667
1505194418;4;4;1;1;1;1;4910539555
1505194418;512;2;64;32;2;2;22765333
1505194418;512;2;16;32;1;2;15787111
1505194419;256;2;1;64;1;1;231702518
1505194420;1;128;256;1;2;2;200728000
1505194430;1;4;2;1;1;1;9536261037
1505194430;512;64;1;16;2;1;42715407
1505194431;128;4;16;32;1;16;18446744073709551615
1505194431;256;2;16;16;2;8;23599704
1505194431;256;2;64;32;1;8;25758518
1505194432;128;2;16;32;1;4;31419555
1505194432;64;32;32;4;16;1;114664000
1505194433;1;16;16;1;4;8;473757185
1505194433;32;32;4;4;8;4;33590815
1505194434;1;8;256;1;8;2;234208000
1505194434;128;1;8;32;1;4;121085185
1505194438;2;1;32;2;1;32;2650757481
1505194440;4;1;8;1;1;2;2477364593
1505194441;256;4;1;1;1;1;726036148
1505194442;512;128;8;4;4;1;120228148
1505194442;512;2;16;64;2;2;11657333
1505194443;512;2;16;16;2;2;18940889
1505194443;512;4;4;64;1;4;17380148
1505194444;64;2;1;4;2;1;831114667
1505194465;1;1;4;1;1;4;19734996741
1505194465;512;4;512;32;1;8;25527852
1505194466;1;4;512;1;2;1;343575408
1505194466;512;8;16;32;2;8;18446744073709551615
1505194467;16;4;16;1;1;8;162281037
1505194467;1;8;32;1;8;1;316206667
1505194468;32;32;1;1;16;1;164010666
1505194468;128;16;8;2;1;1;310836296
1505194469;512;1;16;32;1;2;18744148
1505194474;1;2;8;1;2;4;5029093481
1505194475;4;16;8;1;8;4;249078370
1505194475;64;512;64;2;16;1;188364000
1505194477;4;16;1;4;4;1;1266944296
1505194477;64;4;256;4;4;128;18446744073709551615
1505194478;256;8;8;32;2;8;18446744073709551615
1505194481;8;1;4;2;1;2;2681241630
1505194481;16;8;64;4;1;8;100370519
1505194482;32;8;32;1;2;32;451544741
1505194482;16;512;1;16;64;1;18446744073709551615
1505194483;512;2;16;16;2;8;18572592
1505194484;1;1;64;1;1;8;1269888889
1505194485;8;1;512;4;1;16;62275555
1505194486;256;1;1;64;1;1;461154963
1505194486;1;32;16;1;2;2;187043408
1505194486;512;4;16;32;4;4;18446744073709551615
1505194487;512;2;4;8;2;4;38768741
1505194487;512;2;16;16;2;16;18446744073709551615
1505194488;512;2;128;8;1;4;49671704
1505194488;512;2;512;32;2;1;22616592
1505194488;512;2;1;32;2;1;126190815
1505194489;16;512;16;1;1;8;384389185
1505194490;8;2;8;2;2;4;745143555
1505194491;512;256;8;32;1;4;31700148
1505194491;512;128;16;32;2;4;24410074
1505194492;128;8;1;1;2;1;470573185
1505194492;32;64;16;16;16;1;30940000
1505194493;64;32;32;4;16;1;113886667
1505194499;1;1;16;1;1;8;5071114223
1505194499;32;8;32;2;2;4;139420000
1505194500;512;2;16;2;2;2;133955259
1505194500;512;128;16;32;2;4;24752741
1505194501;1;32;4;1;8;1;631959852
1505194502;1;8;128;1;8;1;166021185
1505194541;2;1;1;2;1;1;38195601334
1505194541;4;512;8;1;2;2;195273926
1505194542;512;32;512;32;8;4;18446744073709551615
1505194544;1;2;16;1;2;2;2470421333
1505194545;512;2;16;32;1;1;28283407
1505194545;256;4;64;32;1;8;27590815
1505194546;512;128;1;16;4;1;30655556
1505194546;64;2;4;1;2;2;235633778
1505194547;32;16;4;1;16;4;284078222
1505194547;512;1;16;32;1;4;18651555
1505194548;512;2;128;32;2;128;18446744073709551615
1505194548;512;16;256;32;16;4;18446744073709551615
1505194548;512;128;16;32;2;8;18446744073709551615
1505194549;512;4;512;32;1;2;26007259
1505194549;1;4;512;1;4;1;198896000
1505194550;64;4;128;1;2;8;316314370
1505194550;4;8;32;2;1;4;162468149
1505194552;32;2;1;32;2;1;1658873186
1505194553;64;2;16;32;2;2;61188592
1505194554;8;2;16;4;2;4;354494963
1505194554;512;8;16;32;4;4;18446744073709551615
1505194554;32;32;1;8;16;1;128372888
1505194555;512;2;16;64;2;8;18446744073709551615
1505194555;512;4;16;64;1;4;33212000
1505194556;64;16;8;4;2;8;73418963
1505194556;4;32;8;1;8;1;128211555
1505194557;64;1;64;2;1;1;297867555
1505194558;4;1;32;4;1;2;628566222
1505194558;512;1;32;32;1;4;15682963
1505194558;512;32;16;256;8;4;18446744073709551615
1505194559;512;2;16;32;1;2;15432740
1505194559;512;4;8;32;1;4;22722074
1505194559;128;2;16;32;2;16;18446744073709551615
1505194560;512;2;4;16;2;4;37359259
1505194560;512;2;4;64;2;4;18446744073709551615
1505194561;1;256;4;1;1;4;199613778
1505194561;64;32;16;4;1;2;121852592
1505194562;512;8;4;64;8;4;18446744073709551615
1505194562;16;8;4;4;1;4;199167704
1505194563;32;1;32;1;1;32;325495259
1505194563;512;128;16;128;2;4;18446744073709551615
1505194564;512;2;8;64;2;4;18446744073709551615
1505194564;256;128;1;16;4;1;32968741
1505194565;64;1;16;4;1;2;109373778
1505194566;8;1;16;2;1;16;1000501926
1505194567;32;4;1;1;2;1;810692889
1505194567;512;4;8;64;1;4;25543556
1505194568;512;1;512;32;1;4;24152000
1505194568;512;64;16;32;4;4;18446744073709551615
1505194568;512;2;16;32;2;16;18446744073709551615
1505194569;512;512;16;32;64;4;18446744073709551615
1505194572;1;2;16;1;2;2;2469516592
1505194573;128;8;1;64;1;1;110495555
1505194573;1;128;512;1;32;32;18446744073709551615
1505194574;2;32;16;2;16;1;106832741
1505194574;16;2;64;1;2;4;267756444
1505194575;512;2;16;32;2;4;10357778
1505194576;2;2;16;1;2;4;1250265037
1505194576;512;2;1;256;2;1;18446744073709551615
1505194577;512;2;1;32;2;1;126105926
1505194577;512;32;16;32;8;4;18446744073709551615
1505194578;512;2;16;2;1;8;215088445
1505194579;512;16;16;2;16;4;407845482
1505194579;32;2;128;32;2;4;20780741
1505194579;512;2;8;32;2;1;18024148
1505194580;512;2;16;64;2;8;18446744073709551615
1505194580;512;2;1;32;2;1;126223556
1505194581;512;32;32;32;8;4;18446744073709551615
1505194581;512;2;256;1;2;4;228092000
1505194582;32;2;128;8;2;4;37693777
1505194582;512;2;512;32;2;256;18446744073709551615
1505194582;512;2;4;128;2;4;18446744073709551615
1505194583;8;1;16;2;1;4;707237926
1505194584;512;64;16;32;64;4;18446744073709551615
1505194584;512;2;128;32;2;4;22109185
1505194584;512;2;512;16;2;128;18446744073709551615
1505194585;512;2;128;32;1;4;26246519
1505194585;512;2;16;64;1;4;16005334
1505194586;512;2;256;1;2;4;226817037
1505194586;512;2;16;2;2;4;149182519
1505194588;512;8;64;1;2;64;1852935259
1505194589;2;256;16;2;1;4;116923556
1505194590;512;1;16;1;1;8;556319111
1505194590;512;2;1;32;2;1;126078222
1505194591;512;32;16;32;32;4;18446744073709551615
1505194591;512;1;512;8;1;4;43158074
1505194591;512;2;16;32;1;4;17887111
1505194592;512;128;2;32;128;1;18446744073709551615
1505194592;512;2;16;1;2;4;331342963
1505194593;512;32;16;32;8;2;18446744073709551615
1505194593;512;2;512;32;2;4;19633185
1505194594;512;2;16;8;2;16;41324000
1505194594;512;2;16;64;1;4;15584593
1505194594;512;256;256;32;1;4;10631259
1505194595;512;2;16;32;2;1;21049334
1505194595;256;1;16;32;1;8;56303111
1505194596;512;2;16;32;2;16;18446744073709551615
1505194596;64;2;16;32;1;1;60142518
1505194596;512;16;16;16;16;4;18446744073709551615
1505194597;16;8;16;1;2;4;263392593
1505194597;512;2;16;4;1;8;101185926
1505194598;32;2;16;4;2;4;108477333
1505194598;512;2;16;64;2;2;11233926
1505194599;128;4;16;32;1;4;27300000
1505194599;16;32;16;1;8;4;348121777
1505194600;512;2;16;4;2;4;68502815
1505194600;512;2;1;32;2;1;126158666
1505194601;512;32;16;32;8;8;18446744073709551615
1505194601;8;2;16;2;2;1;396437630
1505194605;1;2;16;1;2;4;2534013333
1505194605;128;32;16;16;1;8;37071408
1505194606;32;2;4;4;2;4;421522815
1505194625;1;4;1;1;2;1;19209544889
1505194627;2;32;1;2;8;1;1329882074
1505194627;512;2;32;32;1;16;18446744073709551615
1505194628;512;4;16;32;2;4;24412593
1505194629;256;2;8;1;2;2;306491852
1505194629;256;4;1;32;1;1;114788741
1505194630;512;1;1;1;1;1;597457037
1505194631;4;2;64;1;2;16;288697333
1505194631;32;16;4;8;4;2;55928444
1505194631;4;4;512;4;1;8;61448741
1505194632;1;4;512;1;4;1;197950370
1505194634;16;4;1;8;2;1;1578519851
1505194634;4;8;256;2;1;4;117342815
1505194635;32;32;64;8;2;1;62340000
1505194636;64;16;8;4;2;1;122306518
1505194636;4;32;8;2;1;8;100052888
1505194637;256;2;16;32;1;4;23531112
1505194637;512;2;16;8;1;2;53878963
1505194638;256;2;16;32;2;2;17367703
1505194638;256;512;64;8;8;1;48875704
1505194639;4;1;32;4;1;2;622297037
1505194639;8;4;16;4;1;4;173235407
1505194642;1;8;4;1;2;2;2440589777
1505194643;128;8;16;4;1;8;116391556
1505194644;32;1;32;1;1;2;433374963
1505194646;16;4;1;16;4;1;1597313185
1505194646;512;1;32;32;1;2;15066074
1505194646;256;4;32;32;1;1;35216000
1505194647;256;1;16;32;1;4;34138667
1505194647;512;2;32;32;1;4;23402518
1505194647;512;4;16;8;1;8;61843852
1505194649;1;2;32;1;2;4;1266820889
1505194650;16;1;64;16;1;4;99845185
1505194655;2;1;8;1;1;1;4737112297
1505194655;256;4;1;64;1;1;115210815
1505194656;1;1;512;1;1;2;338862666
1505194656;512;1;64;16;1;4;27104148
1505194657;128;8;64;128;2;1;29344000
1505194657;32;64;256;8;16;256;18446744073709551615
1505194658;256;32;16;1;16;1;394240741
1505194658;1;32;16;1;1;8;183073037
1505194659;512;2;8;256;2;4;18446744073709551615
1505194659;512;1;16;128;1;4;18446744073709551615
1505194659;32;32;4;16;8;4;18446744073709551615
1505194660;1;8;128;1;8;8;317268593
1505194661;1;256;1;1;16;1;371466074
1505194662;512;512;8;1;1;1;553942963
1505194665;1;2;16;1;2;8;2772563555
1505194665;512;2;8;32;1;2;18914963
1505194666;256;4;64;32;1;8;27697778
1505194666;512;128;1;16;4;1;30618074
1505194667;64;64;64;4;4;1;99059260
1505194667;128;16;4;2;4;2;156044444
1505194668;512;4;1;32;1;1;69714963
1505194668;8;4;32;8;4;1;88919260
1505194670;16;4;1;8;2;1;1581068593
1505194671;4;16;256;1;16;4;780809481
1505194672;512;2;16;16;1;16;27214666
1505194672;32;1;64;8;1;1;75415111
1505194673;64;1;64;4;1;8;70744000
1505194673;2;32;8;2;2;4;168036297
1505194674;4;512;64;1;8;1;261515555
1505194677;1;2;16;1;1;4;2454336148
1505194677;512;4;4;32;1;4;23962518
1505194678;4;16;32;1;1;2;343762074
1505194678;64;4;16;64;1;4;39349926
1505194680;8;1;8;2;1;8;1559777629
1505194680;16;64;64;4;1;4;99337778
1505194681;256;2;16;32;2;8;18446744073709551615
1505194681;256;2;16;64;2;2;21673629
1505194682;32;1;32;1;1;2;439975704
1505194682;16;512;4;2;4;2;152854667
1505194683;1;1;256;1;1;8;321277629
1505194683;8;32;512;4;16;16;18446744073709551615
1505194684;256;16;1;64;8;1;18446744073709551615
