GLOBAL_SIZE_0;GLOBAL_SIZE_1;GLOBAL_SIZE_2;LOCAL_SIZE_0;LOCAL_SIZE_1;LOCAL_SIZE_2;cost
16;512;4;1;128;1;635417333
2;1;8;2;1;2;4760731260
512;8;128;4;2;64;18446744073709551615
256;4;1;128;1;1;125747704
256;4;1;128;1;1;125748740
256;2;1;128;1;1;252478222
256;4;512;128;1;2;29135111
512;4;1;128;1;1;67700889
256;4;8;128;1;2;22428148
4;4;512;2;1;2;171756444
256;4;512;128;1;32;18446744073709551615
256;1;512;128;1;2;28726815
64;4;8;2;1;4;197184593
256;4;4;128;2;2;18446744073709551615
256;4;4;1;2;2;365484445
256;4;8;128;1;1;33067704
256;4;32;128;1;2;29811852
256;4;8;1;1;2;511168297
1;2;8;1;1;2;4814619407
256;32;8;128;1;2;30634518
32;4;8;2;1;1;334576297
256;4;8;8;1;2;65539704
256;4;8;16;1;4;22152593
256;4;8;8;1;4;55030518
256;4;64;16;1;64;18446744073709551615
256;32;8;16;1;4;36561630
256;4;8;16;2;4;26067260
512;1;512;8;1;4;43290074
4;32;4;1;8;1;218650667
512;32;128;32;1;16;18446744073709551615
128;4;8;32;1;8;44232889
256;4;8;16;1;1;51167111
16;4;8;16;1;4;197252889
16;4;8;16;4;4;225332296
32;4;2;2;1;1;433709481
256;4;16;16;1;2;37379408
256;4;16;16;4;1;28190518
512;8;8;16;4;2;29895852
512;16;4;16;1;1;52725185
16;256;16;16;256;2;18446744073709551615
1;8;128;1;1;32;194003408
1;8;128;1;8;2;110744741
2;256;256;2;8;32;18446744073709551615
256;8;8;32;4;4;18446744073709551615
8;4;512;1;1;64;1006157185
512;4;8;16;1;4;30481481
256;4;8;16;1;4;23651852
256;4;8;256;1;4;18446744073709551615
256;256;8;16;64;4;18446744073709551615
1;4;4;1;1;1;4768440889
512;4;8;64;2;4;18446744073709551615
256;8;8;16;4;8;18446744073709551615
64;4;8;16;1;4;54434222
32;8;64;16;4;32;18446744073709551615
512;64;512;32;4;16;18446744073709551615
32;4;8;16;2;8;111005185
256;256;8;16;8;4;18446744073709551615
4;4;8;2;1;4;639440889
256;2;8;16;1;4;37232148
256;4;8;16;4;4;22614815
4;512;8;1;2;4;210134667
256;4;1;32;1;1;115094963
256;128;64;4;32;64;18446744073709551615
64;2;32;2;2;2;155484445
1;1;1;1;1;1;76256198222
256;4;8;16;1;8;26357185
256;4;4;16;1;1;40977482
8;4;8;4;2;4;345443111
1;4;512;1;1;64;591262815
256;4;256;16;4;64;18446744073709551615
32;1;1;2;1;1;3063116000
256;4;8;32;1;4;21005037
256;4;8;16;2;4;21742963
256;1;8;16;1;8;69750667
256;4;8;32;1;2;24644741
128;4;4;32;1;1;58099259
512;32;32;32;1;1;35996148
128;8;8;32;2;4;23113926
128;4;8;32;4;8;18446744073709551615
256;4;2;32;1;2;59572000
256;8;8;32;2;4;20143259
512;8;8;32;8;4;18446744073709551615
256;8;8;32;2;1;21123260
256;8;8;16;2;4;28646666
256;8;8;64;2;2;28086518
256;8;16;32;2;2;31695555
256;8;8;32;2;2;22436148
128;8;8;32;4;4;18446744073709551615
512;8;8;16;2;4;28013481
256;4;8;32;2;4;22984889
256;8;2;32;2;1;36540148
256;8;8;64;2;4;18446744073709551615
128;8;4;32;2;1;32162815
256;8;8;256;2;8;18446744073709551615
256;2;8;32;1;4;35027259
256;4;8;32;4;4;18446744073709551615
16;16;8;1;1;4;339617482
256;16;8;32;1;4;28365333
256;8;16;64;2;2;30641186
256;8;8;64;4;4;18446744073709551615
256;8;1;32;2;1;58734963
256;16;16;64;1;1;37199407
256;8;8;8;2;4;42447259
256;4;8;32;4;1;23356740
256;8;4;64;2;1;24965333
256;8;8;16;1;4;31907704
512;8;8;32;2;4;24844593
32;1;4;4;1;1;769577334
16;4;512;2;4;32;209123704
128;256;16;4;256;2;18446744073709551615
32;2;4;4;1;4;407830222
256;8;64;32;2;64;18446744073709551615
256;8;8;32;1;4;24630223
1;1;8;1;1;4;9805304593
1;64;64;1;32;32;18446744073709551615
256;8;64;16;2;2;31152741
256;8;8;32;1;8;23552000
8;2;16;4;2;1;340255555
256;8;8;128;2;4;18446744073709551615
512;4;16;1;2;8;532757333
32;16;256;32;1;32;18446744073709551615
4;2;32;1;1;4;360449037
32;32;512;2;32;32;18446744073709551615
64;1;8;32;1;4;236349037
256;2;8;2;1;4;179178963
256;1;8;64;1;4;80616296
32;4;8;8;1;2;120201630
256;8;32;32;2;4;25834370
256;32;2;16;32;1;18446744073709551615
512;4;64;32;2;8;18446744073709551615
256;8;8;32;1;4;24422963
128;16;4;32;1;1;31868297
8;16;8;1;8;1;143284592
2;1;1;1;1;1;37899818370
16;4;16;8;2;2;102397629
1;512;64;1;8;1;309717778
32;8;8;32;2;4;75996149
256;8;64;8;2;64;18446744073709551615
256;8;256;32;2;64;18446744073709551615
512;16;16;32;8;1;27103407
256;4;16;8;4;2;41511852
128;8;8;64;2;4;18446744073709551615
256;8;4;32;2;1;23281333
1;64;16;1;8;1;172847259
1;16;16;1;4;8;470973481
64;4;16;4;1;4;102342074
8;8;4;2;2;2;358508889
1;1;256;1;1;8;320798963
256;8;1;32;4;1;68230815
256;8;8;32;8;4;18446744073709551615
256;8;8;32;1;2;24426518
16;16;8;4;2;4;72196148
256;8;32;32;2;1;25911407
256;8;256;1;2;128;1632248444
8;8;8;4;2;4;178577186
256;4;64;64;1;32;18446744073709551615
256;8;8;128;2;2;18446744073709551615
256;4;8;32;4;2;19142667
256;4;16;32;4;1;24318222
256;2;8;32;2;2;33192296
256;16;8;32;1;2;28473778
256;4;8;8;4;2;23258815
128;4;8;32;4;2;32003407
256;4;8;64;4;2;18446744073709551615
256;4;32;32;2;32;18446744073709551615
128;4;4;32;4;4;18446744073709551615
128;4;8;16;4;1;34045185
256;4;4;64;4;4;18446744073709551615
256;4;8;32;2;2;36689482
512;1;8;32;1;2;38189037
128;4;8;64;4;2;18446744073709551615
256;4;4;32;1;2;35165333
256;4;8;32;1;2;24461333
128;4;8;32;1;2;33325185
256;4;4;32;4;4;18446744073709551615
256;4;8;32;4;8;18446744073709551615
256;4;4;32;1;4;34856593
256;4;1;32;4;1;126706963
64;4;8;32;1;2;52411408
4;8;64;4;4;32;18446744073709551615
64;4;16;16;1;1;39590074
1;1;8;1;1;2;9722072889
16;512;64;16;32;2;18446744073709551615
256;4;64;16;2;4;31446222
256;4;2;32;4;2;64993481
512;4;8;32;4;2;22290963
256;64;1;32;32;1;18446744073709551615
128;4;8;8;4;4;37007111
256;4;32;32;4;32;18446744073709551615
256;4;32;32;4;1;26258222
256;8;8;32;2;8;18446744073709551615
128;4;8;32;2;2;33096149
512;16;16;64;1;2;34302666
256;4;8;16;4;2;19878222
1;4;8;1;4;2;2527811852
512;8;4;32;4;4;18446744073709551615
256;4;8;16;1;2;31829333
512;4;16;32;4;1;25862815
256;1;8;128;1;2;60502074
256;2;8;16;2;1;41691407
64;4;8;32;4;2;61055408
128;4;16;32;4;4;18446744073709551615
256;8;8;16;2;2;27136296
256;8;8;32;1;8;23412148
128;4;4;16;2;4;67732444
256;4;8;32;4;1;23470371
256;4;4;128;4;2;18446744073709551615
256;4;8;64;1;4;22444297
1;4;128;1;2;64;978635852
64;1;8;4;1;8;233751112
1;4;512;1;2;256;18446744073709551615
256;16;8;256;2;4;18446744073709551615
64;4;32;16;2;1;31074222
256;4;8;32;4;8;18446744073709551615
1;4;8;1;4;4;2771641037
1;1;512;1;1;64;632004000
256;4;64;32;2;32;18446744073709551615
256;512;8;32;4;2;23480741
256;4;8;1;2;4;326265037
64;8;16;8;2;2;47256148
512;1;128;64;1;64;18446744073709551615
4;128;16;1;2;16;463754963
128;8;32;64;1;1;31604445
512;8;16;4;2;2;90189926
32;4;16;16;4;1;53206074
256;2;8;32;2;2;35230222
256;4;16;16;2;1;36159555
256;1;8;64;1;2;66694667
256;4;8;128;4;2;18446744073709551615
16;4;8;1;4;2;252794074
128;8;32;16;2;1;35389185
128;8;8;32;2;2;26458371
256;1;8;32;1;2;60829777
128;4;512;4;1;16;139948000
2;32;1;2;2;1;1206012889
1;16;16;1;8;8;981383555
1;128;8;1;2;2;179651111
128;4;16;32;4;4;18446744073709551615
64;4;4;32;4;4;18446744073709551615
256;8;8;32;4;2;22231111
256;8;32;32;1;1;36362963
512;8;32;32;2;2;27034815
256;16;32;32;16;1;18446744073709551615
256;8;16;32;8;1;25991851
256;4;64;32;4;32;18446744073709551615
256;32;1;32;32;1;18446744073709551615
1;8;128;1;2;2;184665630
2;256;1;2;8;1;180767407
4;512;8;1;2;2;194093778
1;4;1;1;1;1;19118408740
512;2;8;32;2;2;18471111
256;4;4;16;4;4;42820297
512;2;8;32;1;2;18492889
512;1;8;32;1;8;35591703
1;2;8;1;2;2;4953635555
512;2;8;32;2;1;17777333
512;1;8;32;1;8;35112741
256;2;8;32;2;1;35066963
512;4;8;32;4;1;23007259
128;2;8;32;2;1;53155555
1;2;8;1;2;2;4889320000
512;1;4;8;1;2;68441926
512;1;8;64;1;1;36679111
1;2;16;1;2;16;4074980148
512;8;32;32;2;16;18446744073709551615
1;2;8;1;2;1;4826295407
512;2;32;32;2;4;19417185
512;2;16;64;2;16;18446744073709551615
256;2;8;16;1;1;37169037
512;2;8;32;2;4;17885481
512;2;4;32;1;2;37008148
512;4;64;64;4;16;18446744073709551615
512;2;8;64;2;1;19369037
512;2;8;16;2;1;18551259
512;16;8;32;2;1;26943259
512;8;8;32;2;1;25070667
512;2;8;16;1;1;39847704
512;2;8;32;2;1;17533630
512;2;8;32;2;8;18446744073709551615
512;2;8;8;2;1;47228000
512;2;4;32;2;1;35990074
256;2;4;32;1;2;61533333
512;2;8;32;1;1;18911704
1;2;4;1;2;2;9843737778
1;4;8;1;2;8;2766911556
256;2;8;32;2;1;33721926
1;2;16;1;2;16;4061720445
512;8;8;32;8;1;25639852
1;1;8;1;1;1;9523352148
512;2;8;16;2;1;18640593
512;1;4;32;1;2;63652444
1;2;8;1;2;1;4825866519
256;2;8;32;2;8;18446744073709551615
512;2;8;64;2;1;18630222
512;2;4;64;1;2;36590370
1;8;8;1;4;1;1228130814
512;2;8;32;1;2;17908296
512;2;1;32;2;1;126080889
512;2;8;32;2;1;17637333
512;2;8;32;2;8;18446744073709551615
512;4;8;32;1;1;34813926
128;8;8;32;2;1;23245778
512;2;4;32;2;2;35120445
512;1;8;32;1;1;33533037
512;2;16;64;1;16;18446744073709551615
1;2;8;1;1;1;4779773926
1;4;16;1;4;16;3982680296
512;2;8;32;2;2;18477037
512;2;8;32;2;4;18081926
512;1;8;32;1;1;33710074
512;2;4;32;2;2;36894074
512;2;16;32;2;16;18446744073709551615
512;2;4;32;1;2;36498815
512;2;2;128;2;1;66908889
512;2;8;32;1;8;18129185
512;2;8;32;1;8;18194667
512;4;8;32;2;1;16619408
512;2;16;64;2;16;18446744073709551615
512;4;32;64;2;16;18446744073709551615
512;8;32;16;8;16;18446744073709551615
1;4;8;1;1;1;2381462519
256;8;8;64;2;8;18446744073709551615
512;4;4;32;2;2;23229630
512;4;4;32;2;1;17696593
512;4;8;32;2;8;18446744073709551615
512;4;8;16;2;1;34251259
512;4;2;64;4;2;18446744073709551615
512;1;8;32;1;1;33700148
1;4;8;1;2;1;2404469482
512;4;8;32;4;2;21128444
512;4;8;32;4;1;23085037
1;4;8;1;2;2;2437291408
256;4;16;32;2;16;18446744073709551615
512;4;4;8;4;2;23544445
512;16;8;32;16;1;18446744073709551615
512;4;8;128;4;1;18446744073709551615
512;4;8;64;2;1;28233334
512;8;8;32;8;4;18446744073709551615
512;4;2;32;1;1;33693926
1;4;16;1;2;16;2020029481
256;4;32;32;4;16;18446744073709551615
512;8;1;32;8;1;35508148
512;8;8;64;8;1;18446744073709551615
512;4;16;32;2;16;18446744073709551615
512;16;8;32;4;1;26526519
1;4;8;1;2;1;2405158667
512;4;8;16;2;2;25639555
1;8;8;1;8;1;1258032445
512;2;32;32;2;16;18446744073709551615
512;2;8;32;2;4;17941333
1;4;4;1;1;2;4818901926
512;4;8;16;1;1;51956149
256;4;8;128;1;8;18446744073709551615
128;4;4;32;2;1;53194963
256;4;8;32;2;2;26672741
512;4;8;16;1;1;52021629
256;4;8;32;2;1;23804593
512;4;16;32;4;8;18446744073709551615
512;4;16;32;1;8;26517926
512;4;8;128;2;1;26249334
512;4;8;32;2;4;17968593
512;4;8;32;4;8;18446744073709551615
128;4;8;32;2;1;33388148
512;4;16;32;4;1;26424444
512;4;8;64;2;2;27870222
256;1;8;32;1;1;65487408
256;4;8;64;2;1;25876296
512;4;8;64;2;8;18446744073709551615
512;2;16;32;1;16;18446744073709551615
128;4;8;16;2;1;41338518
512;4;32;32;2;4;25058963
512;16;16;32;4;16;18446744073709551615
256;4;8;16;2;1;28521038
512;4;8;64;4;1;28676741
1;8;32;1;8;16;1689290815
128;4;8;32;1;1;32014222
512;4;8;32;2;2;22147704
1;4;2;1;2;2;9843840889
1;2;8;1;2;8;5576367703
1;4;32;1;2;16;1020304741
1;2;8;1;2;1;4839353926
256;4;8;32;1;1;22757037
256;4;8;128;2;1;21495408
128;8;8;32;8;1;19339259
512;4;4;128;2;2;18446744073709551615
512;4;128;16;1;16;36890074
256;8;16;32;4;2;25136148
256;8;1;128;1;1;64038074
1;4;8;1;2;1;2424071407
512;1;8;32;1;2;38587407
256;2;32;32;2;1;22989630
1;128;64;1;4;2;165670963
64;2;512;4;2;16;113007111
32;32;4;1;2;1;426248444
512;1;4;32;1;2;63725481
64;4;8;32;2;1;52452000
512;4;32;32;2;16;18446744073709551615
256;1;32;32;1;1;20773037
1;4;8;1;2;1;2424129629
512;4;8;32;4;4;18446744073709551615
1;4;4;1;2;2;4913718074
512;2;8;32;1;2;18012889
128;1;4;32;1;2;217808297
512;4;4;16;2;2;21620889
1;2;4;1;1;2;9666947111
512;4;8;16;4;2;23560444
512;2;16;32;2;2;16368593
1;8;16;1;1;4;621472444
512;2;16;32;1;2;16010518
512;2;64;16;2;64;18446744073709551615
512;4;32;32;2;1;24721482
256;16;16;32;16;2;18446744073709551615
512;2;16;16;1;1;39425333
512;2;16;32;1;4;17737185
1;2;32;1;1;1;1270821926
512;2;16;32;2;2;16114222
512;2;8;32;1;8;18519556
1;2;16;1;1;2;2410741926
512;4;16;32;4;4;18446744073709551615
256;2;32;16;1;1;45420296
512;2;16;16;1;2;29767112
512;2;16;32;1;1;27325334
1;2;16;1;1;2;2434629481
256;2;16;32;2;2;22034667
128;2;32;32;1;16;18446744073709551615
512;2;32;32;2;1;21182075
512;2;4;32;2;4;34703111
512;2;16;128;2;2;18446744073709551615
1;1;16;1;1;4;4907785185
512;2;16;8;1;2;53297630
512;1;16;32;1;4;18659407
128;2;16;32;2;1;31648889
512;4;16;64;4;2;18446744073709551615
128;2;16;32;1;2;33404297
256;1;16;32;1;2;36031852
512;4;8;32;4;4;18446744073709551615
512;1;16;32;1;2;18271259
512;2;32;8;1;1;71798667
512;2;8;32;1;4;19661334
512;4;16;32;4;2;24703852
256;2;16;32;1;2;25673185
256;2;16;64;2;2;32774666
512;4;16;32;4;16;18446744073709551615
512;2;16;64;1;4;16660592
512;2;4;32;1;1;32756148
512;16;16;32;8;2;18446744073709551615
512;256;16;32;1;2;27053778
256;2;16;32;1;2;25770963
1;2;16;1;1;1;2390194222
64;32;2;1;8;2;304138370
512;2;32;32;1;1;28281481
512;2;64;32;1;64;18446744073709551615
256;2;32;32;1;1;34405481
256;2;32;64;1;1;29018371
1;2;32;1;2;32;4085099407
512;4;512;32;1;8;25604593
1;2;16;1;1;2;2435650667
512;4;16;1;1;8;565131704
4;2;2;1;1;1;4846813333
512;8;64;32;8;32;18446744073709551615
256;1;16;32;1;4;33785630
512;2;16;64;1;2;23122518
512;2;16;32;2;4;10293926
128;2;16;32;2;4;41761630
512;1;16;32;1;4;18764593
256;2;64;16;1;1;46955704
512;2;16;16;2;4;19556444
512;4;16;32;2;4;24516740
256;1;32;32;1;2;26298815
256;2;8;32;2;8;18446744073709551615
512;8;16;32;8;4;18446744073709551615
512;1;64;32;1;1;36071112
512;2;16;32;2;2;16682074
512;2;2;32;2;2;69662815
512;2;16;32;2;8;18446744073709551615
512;2;32;32;2;2;21302815
128;2;32;32;1;8;23188148
512;2;8;32;2;8;18446744073709551615
8;2;16;2;2;4;381743111
512;2;64;32;1;1;29997482
512;2;1;128;1;1;136085037
512;2;256;32;2;128;18446744073709551615
256;4;32;32;2;1;25326815
256;4;32;32;4;1;26436000
512;4;32;32;1;2;26322222
512;4;32;32;4;1;26152296
32;32;512;2;32;16;18446744073709551615
8;16;8;4;8;1;104445481
2;1;1;1;1;1;38074708593
1;512;64;1;1;8;342586222
512;64;16;32;1;4;36539556
512;2;1;32;2;1;126236444
512;1;2;32;1;2;126235407
32;2;16;32;2;4;148970667
512;1;16;32;1;4;18752297
512;2;64;32;2;1;22625333
512;2;8;32;1;8;18209185
512;64;8;32;1;8;39569481
512;2;64;32;1;32;18446744073709551615
1;2;64;1;1;1;745788296
128;2;16;32;1;4;31549630
1;4;16;1;2;8;1380532296
64;16;8;32;4;1;25519408
64;1;1;4;1;1;1653371407
8;8;4;2;1;2;393285185
1;2;16;1;2;4;2533752296
512;2;16;1;2;16;1311328740
32;2;16;32;2;4;111424445
128;8;16;32;4;4;18446744073709551615
64;2;16;64;2;4;18446744073709551615
512;2;32;32;2;1;21164741
512;2;32;32;1;2;22021629
1;8;64;1;1;32;339938222
1;1;8;1;1;2;9695698074
512;2;64;32;2;64;18446744073709551615
256;2;16;32;2;4;22009629
512;2;8;32;2;8;18446744073709551615
512;512;4;1;128;2;1140327556
512;128;16;32;128;4;18446744073709551615
512;2;16;32;2;4;10108741
16;2;16;1;2;4;297646519
512;64;16;32;1;4;36500889
512;2;32;32;2;4;19665482
16;2;16;1;2;4;226369778
512;2;128;32;2;4;21718518
4;32;16;4;2;4;49727260
512;256;16;32;128;1;18446744073709551615
128;2;16;32;2;4;41718518
64;2;16;32;1;4;60580592
512;2;2;32;2;1;62558963
512;2;2;128;2;1;67889037
512;2;16;2;2;4;147196000
512;2;16;32;2;8;18446744073709551615
512;2;128;8;2;4;39776148
64;2;16;32;2;4;77228296
1;2;16;1;2;4;2533742074
512;128;16;32;128;4;18446744073709551615
512;2;16;256;2;4;18446744073709551615
512;2;16;32;2;1;15362074
4;2;16;2;2;2;643761778
4;2;16;4;2;4;643647408
32;2;16;32;2;16;18446744073709551615
512;2;16;32;1;4;18421037
512;32;16;32;2;4;25115556
8;2;16;2;1;4;355157777
512;2;16;32;1;4;18679852
512;8;16;32;8;1;26327704
512;2;512;32;2;4;19461630
512;2;16;64;2;4;18446744073709551615
512;2;16;32;1;4;17939259
2;2;16;2;2;4;1325090518
512;256;16;32;32;4;18446744073709551615
512;2;16;1;2;4;345594075
256;2;16;32;2;4;21620740
1;2;16;1;2;4;2535093778
512;2;16;32;2;1;15480889
512;2;64;4;2;4;68101926
512;2;64;32;2;2;22796889
512;4;16;32;2;4;24479555
512;256;2;32;128;1;18446744073709551615
2;32;16;2;1;4;147481333
512;2;16;32;2;2;16326815
512;2;4;128;2;4;18446744073709551615
512;2;16;32;2;4;10022963
512;2;64;32;2;4;20752741
512;128;1;32;2;1;26549629
512;2;128;64;2;4;18446744073709551615
512;2;8;32;2;4;18230222
32;2;32;32;2;2;77994074
512;2;16;64;2;4;18446744073709551615
512;2;16;8;2;4;33482222
512;2;16;32;2;8;18446744073709551615
32;2;16;32;2;4;109754223
512;8;16;32;2;4;25512592
512;4;16;128;1;1;31727112
512;2;2;256;1;1;62934963
2;2;16;2;2;4;1325210370
64;2;16;32;2;4;79905630
512;2;16;32;2;1;15133630
512;1;16;32;1;4;18755260
512;2;2;32;2;1;62727556
512;2;16;32;2;4;10525333
512;2;32;32;1;4;23509037
512;2;16;2;2;4;148078815
512;2;64;32;2;4;20809630
512;2;16;32;2;2;16153778
512;2;32;1;2;4;286988148
512;2;16;32;2;4;10274519
512;2;16;256;2;4;18446744073709551615
512;2;16;32;2;4;10429926
1;2;16;1;2;4;2530403851
512;256;16;32;1;4;32509778
1;2;16;1;1;2;2418014963
64;2;256;32;2;4;25790223
512;1;32;32;1;2;14938963
512;2;16;128;2;4;18446744073709551615
512;32;16;32;8;4;18446744073709551615
512;4;16;32;1;4;27289333
512;2;16;32;2;8;18446744073709551615
512;2;16;4;1;4;94772593
512;2;1;32;1;1;126089481
1;2;16;1;2;4;2528085630
512;2;16;32;2;16;18446744073709551615
64;512;16;32;1;4;28978814
512;2;16;8;2;8;36546222
512;16;16;32;16;4;18446744073709551615
512;2;16;4;2;2;72922371
512;2;16;4;2;4;68365037
1;2;16;1;2;16;4063303111
512;2;16;32;2;1;13964000
1;256;16;1;1;4;204892148
512;2;32;256;2;4;18446744073709551615
128;2;16;32;2;4;41796889
64;2;8;32;2;4;112137926
16;512;64;16;4;2;31413630
64;1;8;32;1;8;240345037
1;4;512;1;2;256;18446744073709551615
512;16;32;256;2;4;18446744073709551615
128;2;16;32;2;2;32626667
512;2;256;32;2;4;21140000
4;2;16;4;2;2;631135407
512;2;1;256;2;1;18446744073709551615
1;2;128;1;2;64;1844433185
512;8;16;32;2;4;25442963
1;2;16;1;2;4;2534092593
4;2;16;4;2;4;643697777
4;128;16;1;2;2;197498667
1;8;32;1;8;1;317727852
512;8;4;256;2;2;18446744073709551615
2;32;1;2;2;1;1205296740
512;2;16;32;1;1;27443259
512;2;16;4;2;2;72288296
16;2;1;1;2;1;3096871112
4;16;16;4;8;16;18446744073709551615
32;128;8;4;2;2;92650371
1;8;128;1;8;16;477874371
1;256;1;1;1;1;606387259
8;2;16;2;2;4;382957629
512;2;128;32;2;8;18446744073709551615
512;1;1;32;1;1;252118963
16;2;16;1;2;4;226355704
512;2;32;32;2;4;19506222
32;512;8;1;2;2;350948593
256;4;1;64;1;1;115830814
512;128;8;16;4;2;31636000
64;2;64;1;1;16;452813037
128;2;4;32;2;4;119233481
128;64;16;32;4;4;18446744073709551615
512;2;512;32;2;4;19929333
512;16;16;32;4;4;18446744073709551615
1;2;16;1;2;4;2537552593
1;2;16;1;2;4;2518490370
512;4;32;32;1;4;27358223
512;2;128;8;2;4;40813333
512;2;16;2;2;8;185102667
32;16;4;1;4;1;336135111
512;4;512;32;1;128;18446744073709551615
1;2;16;1;1;2;2411129482
16;4;16;1;2;8;142750223
512;1;16;8;1;4;35482815
512;1;16;16;1;4;19878963
512;1;4;32;1;4;73524741
512;2;16;32;2;16;18446744073709551615
512;4;16;32;4;2;24489037
1;4;16;1;1;4;1223815555
1;4;16;1;1;4;1227481186
256;2;8;32;2;8;18446744073709551615
512;1;16;64;1;4;17724000
4;2;64;4;2;4;163571408
1;1;32;1;1;4;2466268445
32;32;64;1;32;32;18446744073709551615
8;16;4;4;8;1;176925037
2;1;8;1;1;1;4712133185
512;4;16;32;1;4;27224297
512;4;32;64;1;4;33568297
512;2;1;32;2;1;126228741
512;1;16;32;1;4;18618963
512;2;1;32;1;1;125521334
1;2;16;1;2;4;2534966074
1;2;16;1;2;8;2767313037
512;2;16;128;2;2;18446744073709551615
512;4;4;16;1;2;31096889
1;512;64;1;8;4;582561630
8;1;1;2;1;1;10806621333
64;512;16;4;8;16;18446744073709551615
8;2;128;8;2;128;18446744073709551615
128;2;16;2;2;4;145347555
512;2;16;2;2;1;166455704
256;2;8;32;2;4;42183259
512;4;16;32;1;2;26569778
1;2;16;1;1;8;2540924592
512;2;8;128;2;4;18446744073709551615
512;2;16;32;1;4;18052740
64;128;16;32;2;4;26687259
1;8;64;1;1;1;613509037
1;1;8;1;1;2;9718415407
16;512;1;16;4;1;27233926
64;1;64;4;1;8;69707407
2;2;16;2;2;4;1318576444
1;2;4;1;2;4;10134526371
512;1;16;32;1;4;18614222
512;2;16;32;1;8;15806075
32;2;4;32;2;4;428692148
1;4;512;1;1;16;328747111
256;16;8;32;4;4;18446744073709551615
512;8;16;1;2;2;492269185
1;512;128;1;16;1;422981926
256;2;32;32;2;4;17891407
512;2;16;16;2;4;20292296
128;2;16;32;1;4;31973481
512;2;16;1;2;4;326979704
512;2;16;32;2;1;15896296
128;2;64;32;2;4;21012296
512;8;16;8;1;2;68554370
8;32;1;2;2;1;387174814
1;16;4;1;8;1;1256850074
32;128;16;1;1;1;759709630
2;2;4;2;2;4;5263894667
512;2;16;1;2;4;338402963
1;8;1;1;8;1;10121766519
2;1;1;2;1;1;37937062963
32;512;4;1;2;1;467085926
1;32;2;1;8;2;1370231259
512;2;16;256;2;2;18446744073709551615
512;128;8;1;4;2;378088889
64;2;512;2;2;256;18446744073709551615
32;16;4;1;4;4;190157629
512;4;1;256;1;1;62791260
512;16;16;32;8;4;18446744073709551615
512;4;16;32;1;8;26580148
8;2;32;2;2;4;193212148
1;4;16;1;4;1;1232304889
1;4;16;1;2;8;1379426963
4;64;1;1;2;1;365894963
32;32;1;2;16;1;139314222
512;2;256;8;1;4;48746074
512;16;16;32;2;4;25617333
512;16;16;32;2;4;25569037
512;2;16;1;2;1;324706815
512;2;4;32;2;4;34111259
2;16;1;1;8;1;2497103259
2;2;8;1;2;1;2376610519
1;512;64;1;2;1;340151407
1;16;32;1;2;2;189465037
512;2;16;1;2;4;340402370
16;2;16;16;2;4;224255555
1;8;8;1;2;2;1221591703
1;8;64;1;1;4;192525185
32;1;8;1;1;2;399427259
1;1;16;1;1;4;4900406074
512;2;8;32;1;4;19759704
512;2;16;2;2;4;148157333
512;1;8;32;1;4;37003704
512;8;16;1;2;4;434638371
512;512;16;32;1;4;27624741
64;2;16;8;2;4;59061482
512;8;1;256;2;1;18446744073709551615
16;16;1;16;8;1;450221482
64;1;64;4;1;2;122428889
8;4;512;4;1;16;123922963
256;4;1;64;2;1;125799852
512;2;16;1;2;16;1316285778
4;128;16;1;16;2;423895259
128;8;4;64;2;1;30980592
512;64;8;8;2;4;64501926
16;32;1;16;16;1;216080889
1;16;16;1;4;8;474597482
32;32;8;8;16;2;38250667
1;8;4;1;8;2;2765960741
128;256;32;128;8;32;18446744073709551615
4;64;1;1;2;1;365521333
256;4;1;1;1;1;727622519
512;1;64;32;1;4;22077778
512;1;16;32;1;8;18213334
512;4;16;32;2;8;18446744073709551615
128;2;8;32;1;4;65337482
512;2;32;32;2;16;18446744073709551615
512;1;32;32;1;4;14979407
128;2;16;64;1;2;31141333
512;8;16;64;2;4;18446744073709551615
1;2;32;1;2;4;1262560741
256;4;16;64;1;4;28508296
1;2;64;1;2;4;632300741
1;2;16;1;1;4;2468491555
4;128;8;2;4;8;68533630
64;2;64;4;2;16;71940889
32;1;4;1;1;4;801974962
512;4;1;1;1;1;852196889
1;4;512;1;4;1;196654814
16;4;16;1;1;8;192063852
4;8;32;1;1;4;180937334
1;32;1;1;16;1;2952597037
256;2;4;32;2;2;66818074
512;2;32;32;2;1;22077482
8;16;8;2;8;1;102123408
2;32;8;1;8;1;210880297
64;512;64;2;8;1;169280297
1;1;16;1;1;2;4866407259
1;1;16;1;1;4;4935193925
4;16;32;4;4;2;49030518
64;4;16;1;1;4;352176889
8;8;4;2;1;2;391418667
1;8;64;1;1;8;182976889
512;2;32;32;2;2;22005334
1;2;8;1;2;8;5576358666
512;2;16;64;2;8;18446744073709551615
32;1;32;1;1;32;325120444
16;512;128;16;32;1;18446744073709551615
64;128;64;4;1;8;125754667
4;4;1;1;1;1;4910539555
512;2;64;32;2;2;22765333
512;2;16;32;1;2;15787111
256;2;1;64;1;1;231702518
1;128;256;1;2;2;200728000
1;4;2;1;1;1;9536261037
512;64;1;16;2;1;42715407
128;4;16;32;1;16;18446744073709551615
256;2;16;16;2;8;23599704
256;2;64;32;1;8;25758518
128;2;16;32;1;4;31419555
64;32;32;4;16;1;114664000
1;16;16;1;4;8;473757185
32;32;4;4;8;4;33590815
1;8;256;1;8;2;234208000
128;1;8;32;1;4;121085185
2;1;32;2;1;32;2650757481
4;1;8;1;1;2;2477364593
256;4;1;1;1;1;726036148
512;128;8;4;4;1;120228148
512;2;16;64;2;2;11657333
512;2;16;16;2;2;18940889
512;4;4;64;1;4;17380148
64;2;1;4;2;1;831114667
1;1;4;1;1;4;19734996741
512;4;512;32;1;8;25527852
1;4;512;1;2;1;343575408
512;8;16;32;2;8;18446744073709551615
16;4;16;1;1;8;162281037
1;8;32;1;8;1;316206667
32;32;1;1;16;1;164010666
128;16;8;2;1;1;310836296
512;1;16;32;1;2;18744148
1;2;8;1;2;4;5029093481
4;16;8;1;8;4;249078370
64;512;64;2;16;1;188364000
4;16;1;4;4;1;1266944296
64;4;256;4;4;128;18446744073709551615
256;8;8;32;2;8;18446744073709551615
8;1;4;2;1;2;2681241630
16;8;64;4;1;8;100370519
32;8;32;1;2;32;451544741
16;512;1;16;64;1;18446744073709551615
512;2;16;16;2;8;18572592
1;1;64;1;1;8;1269888889
8;1;512;4;1;16;62275555
256;1;1;64;1;1;461154963
1;32;16;1;2;2;187043408
512;4;16;32;4;4;18446744073709551615
512;2;4;8;2;4;38768741
512;2;16;16;2;16;18446744073709551615
512;2;128;8;1;4;49671704
512;2;512;32;2;1;22616592
512;2;1;32;2;1;126190815
16;512;16;1;1;8;384389185
8;2;8;2;2;4;745143555
512;256;8;32;1;4;31700148
512;128;16;32;2;4;24410074
128;8;1;1;2;1;470573185
32;64;16;16;16;1;30940000
64;32;32;4;16;1;113886667
1;1;16;1;1;8;5071114223
32;8;32;2;2;4;139420000
512;2;16;2;2;2;133955259
512;128;16;32;2;4;24752741
1;32;4;1;8;1;631959852
1;8;128;1;8;1;166021185
2;1;1;2;1;1;38195601334
4;512;8;1;2;2;195273926
512;32;512;32;8;4;18446744073709551615
1;2;16;1;2;2;2470421333
512;2;16;32;1;1;28283407
256;4;64;32;1;8;27590815
512;128;1;16;4;1;30655556
64;2;4;1;2;2;235633778
32;16;4;1;16;4;284078222
512;1;16;32;1;4;18651555
512;2;128;32;2;128;18446744073709551615
512;16;256;32;16;4;18446744073709551615
512;128;16;32;2;8;18446744073709551615
512;4;512;32;1;2;26007259
1;4;512;1;4;1;198896000
64;4;128;1;2;8;316314370
4;8;32;2;1;4;162468149
32;2;1;32;2;1;1658873186
64;2;16;32;2;2;61188592
8;2;16;4;2;4;354494963
512;8;16;32;4;4;18446744073709551615
32;32;1;8;16;1;128372888
512;2;16;64;2;8;18446744073709551615
512;4;16;64;1;4;33212000
64;16;8;4;2;8;73418963
4;32;8;1;8;1;128211555
64;1;64;2;1;1;297867555
4;1;32;4;1;2;628566222
512;1;32;32;1;4;15682963
512;32;16;256;8;4;18446744073709551615
512;2;16;32;1;2;15432740
512;4;8;32;1;4;22722074
128;2;16;32;2;16;18446744073709551615
512;2;4;16;2;4;37359259
512;2;4;64;2;4;18446744073709551615
1;256;4;1;1;4;199613778
64;32;16;4;1;2;121852592
512;8;4;64;8;4;18446744073709551615
16;8;4;4;1;4;199167704
32;1;32;1;1;32;325495259
512;128;16;128;2;4;18446744073709551615
512;2;8;64;2;4;18446744073709551615
256;128;1;16;4;1;32968741
64;1;16;4;1;2;109373778
8;1;16;2;1;16;1000501926
32;4;1;1;2;1;810692889
512;4;8;64;1;4;25543556
512;1;512;32;1;4;24152000
512;64;16;32;4;4;18446744073709551615
512;2;16;32;2;16;18446744073709551615
512;512;16;32;64;4;18446744073709551615
1;2;16;1;2;2;2469516592
128;8;1;64;1;1;110495555
1;128;512;1;32;32;18446744073709551615
2;32;16;2;16;1;106832741
16;2;64;1;2;4;267756444
512;2;16;32;2;4;10357778
2;2;16;1;2;4;1250265037
512;2;1;256;2;1;18446744073709551615
512;2;1;32;2;1;126105926
512;32;16;32;8;4;18446744073709551615
512;2;16;2;1;8;215088445
512;16;16;2;16;4;407845482
32;2;128;32;2;4;20780741
512;2;8;32;2;1;18024148
512;2;16;64;2;8;18446744073709551615
512;2;1;32;2;1;126223556
512;32;32;32;8;4;18446744073709551615
512;2;256;1;2;4;228092000
32;2;128;8;2;4;37693777
512;2;512;32;2;256;18446744073709551615
512;2;4;128;2;4;18446744073709551615
8;1;16;2;1;4;707237926
512;64;16;32;64;4;18446744073709551615
512;2;128;32;2;4;22109185
512;2;512;16;2;128;18446744073709551615
512;2;128;32;1;4;26246519
512;2;16;64;1;4;16005334
512;2;256;1;2;4;226817037
512;2;16;2;2;4;149182519
512;8;64;1;2;64;1852935259
2;256;16;2;1;4;116923556
512;1;16;1;1;8;556319111
512;2;1;32;2;1;126078222
512;32;16;32;32;4;18446744073709551615
512;1;512;8;1;4;43158074
512;2;16;32;1;4;17887111
512;128;2;32;128;1;18446744073709551615
512;2;16;1;2;4;331342963
512;32;16;32;8;2;18446744073709551615
512;2;512;32;2;4;19633185
512;2;16;8;2;16;41324000
512;2;16;64;1;4;15584593
512;256;256;32;1;4;10631259
512;2;16;32;2;1;21049334
256;1;16;32;1;8;56303111
512;2;16;32;2;16;18446744073709551615
64;2;16;32;1;1;60142518
512;16;16;16;16;4;18446744073709551615
16;8;16;1;2;4;263392593
512;2;16;4;1;8;101185926
32;2;16;4;2;4;108477333
512;2;16;64;2;2;11233926
128;4;16;32;1;4;27300000
16;32;16;1;8;4;348121777
512;2;16;4;2;4;68502815
512;2;1;32;2;1;126158666
512;32;16;32;8;8;18446744073709551615
8;2;16;2;2;1;396437630
1;2;16;1;2;4;2534013333
128;32;16;16;1;8;37071408
32;2;4;4;2;4;421522815
1;4;1;1;2;1;19209544889
2;32;1;2;8;1;1329882074
512;2;32;32;1;16;18446744073709551615
512;4;16;32;2;4;24412593
256;2;8;1;2;2;306491852
256;4;1;32;1;1;114788741
512;1;1;1;1;1;597457037
4;2;64;1;2;16;288697333
32;16;4;8;4;2;55928444
4;4;512;4;1;8;61448741
1;4;512;1;4;1;197950370
16;4;1;8;2;1;1578519851
4;8;256;2;1;4;117342815
32;32;64;8;2;1;62340000
64;16;8;4;2;1;122306518
4;32;8;2;1;8;100052888
256;2;16;32;1;4;23531112
512;2;16;8;1;2;53878963
256;2;16;32;2;2;17367703
256;512;64;8;8;1;48875704
4;1;32;4;1;2;622297037
8;4;16;4;1;4;173235407
1;8;4;1;2;2;2440589777
128;8;16;4;1;8;116391556
32;1;32;1;1;2;433374963
16;4;1;16;4;1;1597313185
512;1;32;32;1;2;15066074
256;4;32;32;1;1;35216000
256;1;16;32;1;4;34138667
512;2;32;32;1;4;23402518
512;4;16;8;1;8;61843852
1;2;32;1;2;4;1266820889
16;1;64;16;1;4;99845185
2;1;8;1;1;1;4737112297
256;4;1;64;1;1;115210815
1;1;512;1;1;2;338862666
512;1;64;16;1;4;27104148
128;8;64;128;2;1;29344000
32;64;256;8;16;256;18446744073709551615
256;32;16;1;16;1;394240741
1;32;16;1;1;8;183073037
512;2;8;256;2;4;18446744073709551615
512;1;16;128;1;4;18446744073709551615
32;32;4;16;8;4;18446744073709551615
1;8;128;1;8;8;317268593
1;256;1;1;16;1;371466074
512;512;8;1;1;1;553942963
1;2;16;1;2;8;2772563555
512;2;8;32;1;2;18914963
256;4;64;32;1;8;27697778
512;128;1;16;4;1;30618074
64;64;64;4;4;1;99059260
128;16;4;2;4;2;156044444
512;4;1;32;1;1;69714963
8;4;32;8;4;1;88919260
16;4;1;8;2;1;1581068593
4;16;256;1;16;4;780809481
512;2;16;16;1;16;27214666
32;1;64;8;1;1;75415111
64;1;64;4;1;8;70744000
2;32;8;2;2;4;168036297
4;512;64;1;8;1;261515555
1;2;16;1;1;4;2454336148
512;4;4;32;1;4;23962518
4;16;32;1;1;2;343762074
64;4;16;64;1;4;39349926
8;1;8;2;1;8;1559777629
16;64;64;4;1;4;99337778
256;2;16;32;2;8;18446744073709551615
256;2;16;64;2;2;21673629
32;1;32;1;1;2;439975704
16;512;4;2;4;2;152854667
1;1;256;1;1;8;321277629
8;32;512;4;16;16;18446744073709551615
256;16;1;64;8;1;18446744073709551615
